%!PS-Adobe-3.0 EPSF-3.0
%%DocumentNeededResources: font Helvetica
%%+ font Helvetica-Bold
%%+ font Helvetica-Oblique
%%+ font Helvetica-BoldOblique
%%+ font Symbol
%%Title: R Graphics Output
%%Creator: R Software
%%Pages: (atend)
%%BoundingBox: 0 0 658 449
%%EndComments
%%BeginProlog
/bp  { gs sRGB gs } def
% begin .ps.prolog
/gs  { gsave } bind def
/gr  { grestore } bind def
/ep  { showpage gr gr } bind def
/m   { moveto } bind def
/l  { rlineto } bind def
/np  { newpath } bind def
/cp  { closepath } bind def
/f   { fill } bind def
/o   { stroke } bind def
/c   { newpath 0 360 arc } bind def
/r   { 4 2 roll moveto 1 copy 3 -1 roll exch 0 exch rlineto 0 rlineto -1 mul 0 exch rlineto closepath } bind def
/p1  { stroke } bind def
/p2  { gsave bg fill grestore newpath } bind def
/p3  { gsave bg fill grestore stroke } bind def
/p6  { gsave bg eofill grestore newpath } bind def
/p7  { gsave bg eofill grestore stroke } bind def
/t   { 5 -2 roll moveto gsave rotate
       1 index stringwidth pop
       mul neg 0 rmoveto show grestore } bind def
/ta  { 4 -2 roll moveto gsave rotate show } bind def
/tb  { 2 -1 roll 0 rmoveto show } bind def
/cl  { grestore gsave newpath 3 index 3 index moveto 1 index
       4 -1 roll lineto  exch 1 index lineto lineto
       closepath clip newpath } bind def
/rgb { setrgbcolor } bind def
/s   { scalefont setfont } bind def
% end   .ps.prolog
/sRGB { [ /CIEBasedABC
          << /DecodeLMN
               [ { dup 0.03928 le
                        {12.92321 div}
                        {0.055 add 1.055 div 2.4 exp }
                     ifelse
                 } bind dup dup
               ]
             /MatrixLMN [0.412457 0.212673 0.019334
                         0.357576 0.715152 0.119192
                         0.180437 0.072175 0.950301]
             /WhitePoint [0.9505 1.0 1.0890]
           >>
         ] setcolorspace } bind def
/srgb { setcolor } bind def
%%IncludeResource: font Helvetica
/Helvetica findfont
dup length dict begin
  {1 index /FID ne {def} {pop pop} ifelse} forall
  /Encoding ISOLatin1Encoding def
  currentdict
  end
/Font1 exch definefont pop
%%IncludeResource: font Helvetica-Bold
/Helvetica-Bold findfont
dup length dict begin
  {1 index /FID ne {def} {pop pop} ifelse} forall
  /Encoding ISOLatin1Encoding def
  currentdict
  end
/Font2 exch definefont pop
%%IncludeResource: font Helvetica-Oblique
/Helvetica-Oblique findfont
dup length dict begin
  {1 index /FID ne {def} {pop pop} ifelse} forall
  /Encoding ISOLatin1Encoding def
  currentdict
  end
/Font3 exch definefont pop
%%IncludeResource: font Helvetica-BoldOblique
/Helvetica-BoldOblique findfont
dup length dict begin
  {1 index /FID ne {def} {pop pop} ifelse} forall
  /Encoding ISOLatin1Encoding def
  currentdict
  end
/Font4 exch definefont pop
%%IncludeResource: font Symbol
/Symbol findfont
dup length dict begin
  {1 index /FID ne {def} {pop pop} ifelse} forall
  currentdict
  end
/Font5 exch definefont pop
%%EndProlog
%%Page: 1 1
bp
0.00 0.00 657.75 449.25 cl
0.00 0.00 285.98 449.25 cl
/bg { 1 1 1 srgb } def
1 1 1 srgb
1.06 setlinewidth
[] 0 setdash
1 setlinecap
1 setlinejoin
10.00 setmiterlimit
-0.00 0.00 285.98 449.25 r p3
0.00 0.00 657.75 449.25 cl
0.00 0.00 657.75 449.25 cl
0.00 0.00 657.75 449.25 cl
48.80 42.08 266.78 410.40 cl
/bg { 0.8980 0.8980 0.8980 srgb } def
48.80 42.08 217.98 368.32 r p2
0.9490 0.9490 0.9490 srgb
0.53 setlinewidth
[] 0 setdash
0 setlinecap
1 setlinejoin
10.00 setmiterlimit
np
48.80 44.35 m
217.98 0 l
o
np
48.80 115.59 m
217.98 0 l
o
np
48.80 186.83 m
217.98 0 l
o
np
48.80 258.07 m
217.98 0 l
o
np
48.80 329.31 m
217.98 0 l
o
np
48.80 400.55 m
217.98 0 l
o
1 1 1 srgb
1.06 setlinewidth
[] 0 setdash
np
48.80 79.97 m
217.98 0 l
o
np
48.80 151.21 m
217.98 0 l
o
np
48.80 222.45 m
217.98 0 l
o
np
48.80 293.69 m
217.98 0 l
o
np
48.80 364.93 m
217.98 0 l
o
np
73.95 42.08 m
0 368.32 l
o
np
115.87 42.08 m
0 368.32 l
o
np
157.79 42.08 m
0 368.32 l
o
np
199.71 42.08 m
0 368.32 l
o
np
241.63 42.08 m
0 368.32 l
o
/bg { 0 0 0 srgb } def
62.16 314.66 2.13 c p2
62.16 304.61 2.13 c p2
62.16 308.20 2.13 c p2
0.9725 0.4627 0.4275 srgb
np
62.16 369.24 m
0 18.67 l
o
np
62.16 347.52 m
0 -32.14 l
o
/bg { 1 1 1 srgb } def
1 setlinecap
np
 58.23 369.24 m
0 -21.72 l
7.86 0 l
0 21.72 l
-7.86 0 l
cp p3
2.13 setlinewidth
[] 0 setdash
0 setlinecap
np
58.23 363.49 m
7.86 0 l
o
/bg { 0 0 0 srgb } def
70.02 298.86 2.13 c p2
0.4863 0.6824 0 srgb
1.06 setlinewidth
[] 0 setdash
np
70.02 368.70 m
0 24.96 l
o
np
70.02 344.64 m
0 -32.85 l
o
/bg { 1 1 1 srgb } def
1 setlinecap
np
 66.09 368.70 m
0 -24.06 l
7.86 0 l
0 24.06 l
-7.86 0 l
cp p3
2.13 setlinewidth
[] 0 setdash
0 setlinecap
np
66.09 357.39 m
7.86 0 l
o
0 0.7490 0.7686 srgb
1.06 setlinewidth
[] 0 setdash
np
77.88 370.68 m
0 22.26 l
o
np
77.88 346.08 m
0 -25.67 l
o
1 setlinecap
np
 73.95 370.68 m
0 -24.60 l
7.86 0 l
0 24.60 l
-7.86 0 l
cp p3
2.13 setlinewidth
[] 0 setdash
0 setlinecap
np
73.95 360.26 m
7.86 0 l
o
/bg { 0 0 0 srgb } def
85.74 298.14 2.13 c p2
0.7804 0.4863 1 srgb
1.06 setlinewidth
[] 0 setdash
np
85.74 371.57 m
0 16.34 l
o
np
85.74 344.82 m
0 -38.78 l
o
/bg { 1 1 1 srgb } def
1 setlinecap
np
 81.81 371.57 m
0 -26.75 l
7.86 0 l
0 26.75 l
-7.86 0 l
cp p3
2.13 setlinewidth
[] 0 setdash
0 setlinecap
np
81.81 359.54 m
7.86 0 l
o
/bg { 0 0 0 srgb } def
104.08 235.81 2.13 c p2
104.08 238.78 2.13 c p2
0.9725 0.4627 0.4275 srgb
1.06 setlinewidth
[] 0 setdash
np
104.08 338.59 m
0 42.67 l
o
np
104.08 300.18 m
0 -40.62 l
o
/bg { 1 1 1 srgb } def
1 setlinecap
np
 100.15 338.59 m
0 -38.41 l
7.86 0 l
0 38.41 l
-7.86 0 l
cp p3
2.13 setlinewidth
[] 0 setdash
0 setlinecap
np
100.15 323.00 m
7.86 0 l
o
0.4863 0.6824 0 srgb
1.06 setlinewidth
[] 0 setdash
np
111.94 349.53 m
0 35.44 l
o
np
111.94 309.27 m
0 -45.26 l
o
1 setlinecap
np
 108.01 349.53 m
0 -40.26 l
7.86 0 l
0 40.26 l
-7.86 0 l
cp p3
2.13 setlinewidth
[] 0 setdash
0 setlinecap
np
108.01 325.23 m
7.86 0 l
o
/bg { 0 0 0 srgb } def
119.80 238.78 2.13 c p2
0 0.7490 0.7686 srgb
1.06 setlinewidth
[] 0 setdash
np
119.80 345.08 m
0 30.98 l
o
np
119.80 303.89 m
0 -53.24 l
o
/bg { 1 1 1 srgb } def
1 setlinecap
np
 115.87 345.08 m
0 -41.19 l
7.86 0 l
0 41.19 l
-7.86 0 l
cp p3
2.13 setlinewidth
[] 0 setdash
0 setlinecap
np
115.87 326.34 m
7.86 0 l
o
/bg { 0 0 0 srgb } def
127.66 240.26 2.13 c p2
127.66 232.84 2.13 c p2
127.66 244.71 2.13 c p2
0.7804 0.4863 1 srgb
1.06 setlinewidth
[] 0 setdash
np
127.66 350.09 m
0 34.13 l
o
np
127.66 308.53 m
0 -57.88 l
o
/bg { 1 1 1 srgb } def
1 setlinecap
np
 123.73 350.09 m
0 -41.56 l
7.86 0 l
0 41.56 l
-7.86 0 l
cp p3
2.13 setlinewidth
[] 0 setdash
0 setlinecap
np
123.73 327.08 m
7.86 0 l
o
0.9725 0.4627 0.4275 srgb
1.06 setlinewidth
[] 0 setdash
np
146.00 276.08 m
0 71.36 l
o
np
146.00 225.59 m
0 -70.56 l
o
1 setlinecap
np
 142.07 276.08 m
0 -50.49 l
7.86 0 l
0 50.49 l
-7.86 0 l
cp p3
2.13 setlinewidth
[] 0 setdash
0 setlinecap
np
142.07 251.63 m
7.86 0 l
o
0.4863 0.6824 0 srgb
1.06 setlinewidth
[] 0 setdash
np
153.86 273.70 m
0 57.84 l
o
np
153.86 219.23 m
0 -49.89 l
o
1 setlinecap
np
 149.93 273.70 m
0 -54.47 l
7.86 0 l
0 54.47 l
-7.86 0 l
cp p3
2.13 setlinewidth
[] 0 setdash
0 setlinecap
np
149.93 246.46 m
7.86 0 l
o
0 0.7490 0.7686 srgb
1.06 setlinewidth
[] 0 setdash
np
161.72 253.02 m
0 53.07 l
o
np
161.72 206.51 m
0 -65.79 l
o
1 setlinecap
np
 157.79 253.02 m
0 -46.51 l
7.86 0 l
0 46.51 l
-7.86 0 l
cp p3
2.13 setlinewidth
[] 0 setdash
0 setlinecap
np
157.79 229.37 m
7.86 0 l
o
/bg { 0 0 0 srgb } def
169.58 344.26 2.13 c p2
169.58 339.49 2.13 c p2
0.7804 0.4863 1 srgb
1.06 setlinewidth
[] 0 setdash
np
169.58 264.75 m
0 60.43 l
o
np
169.58 215.46 m
0 -67.59 l
o
/bg { 1 1 1 srgb } def
1 setlinecap
np
 165.65 264.75 m
0 -49.29 l
7.86 0 l
0 49.29 l
-7.86 0 l
cp p3
2.13 setlinewidth
[] 0 setdash
0 setlinecap
np
165.65 234.93 m
7.86 0 l
o
0.9725 0.4627 0.4275 srgb
1.06 setlinewidth
[] 0 setdash
np
187.92 197.50 m
0 69.11 l
o
np
187.92 141.61 m
0 -74.44 l
o
1 setlinecap
np
 183.99 197.50 m
0 -55.89 l
7.86 0 l
0 55.89 l
-7.86 0 l
cp p3
2.13 setlinewidth
[] 0 setdash
0 setlinecap
np
183.99 172.92 m
7.86 0 l
o
/bg { 0 0 0 srgb } def
195.78 101.49 2.13 c p2
195.78 81.09 2.13 c p2
195.78 279.59 2.13 c p2
0.4863 0.6824 0 srgb
1.06 setlinewidth
[] 0 setdash
np
195.78 206.31 m
0 53.80 l
o
np
195.78 166.19 m
0 -49.85 l
o
/bg { 1 1 1 srgb } def
1 setlinecap
np
 191.85 206.31 m
0 -40.12 l
7.86 0 l
0 40.12 l
-7.86 0 l
cp p3
2.13 setlinewidth
[] 0 setdash
0 setlinecap
np
191.85 188.22 m
7.86 0 l
o
/bg { 0 0 0 srgb } def
203.64 276.81 2.13 c p2
0 0.7490 0.7686 srgb
1.06 setlinewidth
[] 0 setdash
np
203.64 186.83 m
0 68.64 l
o
np
203.64 138.37 m
0 -72.13 l
o
/bg { 1 1 1 srgb } def
1 setlinecap
np
 199.71 186.83 m
0 -48.46 l
7.86 0 l
0 48.46 l
-7.86 0 l
cp p3
2.13 setlinewidth
[] 0 setdash
0 setlinecap
np
199.71 159.93 m
7.86 0 l
o
0.7804 0.4863 1 srgb
1.06 setlinewidth
[] 0 setdash
np
211.50 238.08 m
0 100.88 l
o
np
211.50 165.03 m
0 -67.25 l
o
1 setlinecap
np
 207.57 238.08 m
0 -73.05 l
7.86 0 l
0 73.05 l
-7.86 0 l
cp p3
2.13 setlinewidth
[] 0 setdash
0 setlinecap
np
207.57 204.92 m
7.86 0 l
o
0.9725 0.4627 0.4275 srgb
1.06 setlinewidth
[] 0 setdash
np
229.84 154.83 m
0 58.44 l
o
np
229.84 110.31 m
0 -48.70 l
o
1 setlinecap
np
 225.91 154.83 m
0 -44.52 l
7.86 0 l
0 44.52 l
-7.86 0 l
cp p3
2.13 setlinewidth
[] 0 setdash
0 setlinecap
np
225.91 133.96 m
7.86 0 l
o
0.4863 0.6824 0 srgb
1.06 setlinewidth
[] 0 setdash
np
237.70 185.79 m
0 59.48 l
o
np
237.70 144.39 m
0 -52.17 l
o
1 setlinecap
np
 233.77 185.79 m
0 -41.40 l
7.86 0 l
0 41.40 l
-7.86 0 l
cp p3
2.13 setlinewidth
[] 0 setdash
0 setlinecap
np
233.77 162.48 m
7.86 0 l
o
0 0.7490 0.7686 srgb
1.06 setlinewidth
[] 0 setdash
np
245.56 157.96 m
0 70.61 l
o
np
245.56 107.18 m
0 -48.36 l
o
1 setlinecap
np
 241.63 157.96 m
0 -50.78 l
7.86 0 l
0 50.78 l
-7.86 0 l
cp p3
2.13 setlinewidth
[] 0 setdash
0 setlinecap
np
241.63 125.61 m
7.86 0 l
o
0.7804 0.4863 1 srgb
1.06 setlinewidth
[] 0 setdash
np
253.42 233.79 m
0 115.84 l
o
np
253.42 146.48 m
0 -57.05 l
o
1 setlinecap
np
 249.49 233.79 m
0 -87.31 l
7.86 0 l
0 87.31 l
-7.86 0 l
cp p3
2.13 setlinewidth
[] 0 setdash
0 setlinecap
np
249.49 207.70 m
7.86 0 l
o
0.00 0.00 657.75 449.25 cl
0.00 0.00 657.75 449.25 cl
0.00 0.00 657.75 449.25 cl
/Font1 findfont 10 s
0.4980 0.4980 0.4980 srgb
41.72 76.38 (0.1) 1 0 t
41.72 147.62 (0.2) 1 0 t
41.72 218.86 (0.3) 1 0 t
41.72 290.10 (0.4) 1 0 t
41.72 361.34 (0.5) 1 0 t
0.00 0.00 657.75 449.25 cl
0.00 0.00 657.75 449.25 cl
0.4980 0.4980 0.4980 srgb
1.06 setlinewidth
[] 0 setdash
0 setlinecap
1 setlinejoin
10.00 setmiterlimit
np
44.55 79.97 m
4.25 0 l
o
np
44.55 151.21 m
4.25 0 l
o
np
44.55 222.45 m
4.25 0 l
o
np
44.55 293.69 m
4.25 0 l
o
np
44.55 364.93 m
4.25 0 l
o
0.00 0.00 657.75 449.25 cl
0.00 0.00 657.75 449.25 cl
0.00 0.00 657.75 449.25 cl
0.00 0.00 657.75 449.25 cl
0.00 0.00 657.75 449.25 cl
0.00 0.00 657.75 449.25 cl
0.4980 0.4980 0.4980 srgb
1.06 setlinewidth
[] 0 setdash
0 setlinecap
1 setlinejoin
10.00 setmiterlimit
np
73.95 37.83 m
0 4.25 l
o
np
115.87 37.83 m
0 4.25 l
o
np
157.79 37.83 m
0 4.25 l
o
np
199.71 37.83 m
0 4.25 l
o
np
241.63 37.83 m
0 4.25 l
o
0.00 0.00 657.75 449.25 cl
0.00 0.00 657.75 449.25 cl
/Font1 findfont 10 s
0.4980 0.4980 0.4980 srgb
73.95 27.82 (8) .5 0 t
115.87 27.82 (16) .5 0 t
157.79 27.82 (32) .5 0 t
199.71 27.82 (64) .5 0 t
241.63 27.82 (128) .5 0 t
0.00 0.00 657.75 449.25 cl
0.00 0.00 657.75 449.25 cl
0.00 0.00 657.75 449.25 cl
0.00 0.00 657.75 449.25 cl
0.00 0.00 657.75 449.25 cl
/Font1 findfont 12 s
0 0 0 srgb
157.79 14.40 (Ne) .5 0 t
0.00 0.00 657.75 449.25 cl
0.00 0.00 657.75 449.25 cl
/Font1 findfont 12 s
0 0 0 srgb
23.02 226.24 (error) .5 90 t
0.00 0.00 657.75 449.25 cl
0.00 0.00 657.75 449.25 cl
/Font1 findfont 14 s
0 0 0 srgb
95.94 415.20 (Gener) 0 ta
-0.140 (alisation error) tb gr
0.00 0.00 657.75 449.25 cl
0.00 0.00 657.75 449.25 cl
0.00 0.00 657.75 449.25 cl
285.98 0.00 571.96 449.25 cl
/bg { 1 1 1 srgb } def
1 1 1 srgb
1.06 setlinewidth
[] 0 setdash
1 setlinecap
1 setlinejoin
10.00 setmiterlimit
285.98 0.00 285.98 449.25 r p3
0.00 0.00 657.75 449.25 cl
0.00 0.00 657.75 449.25 cl
0.00 0.00 657.75 449.25 cl
326.16 42.08 552.76 410.40 cl
/bg { 0.8980 0.8980 0.8980 srgb } def
326.16 42.08 226.59 368.32 r p2
0.9490 0.9490 0.9490 srgb
0.53 setlinewidth
[] 0 setdash
0 setlinecap
1 setlinejoin
10.00 setmiterlimit
np
326.16 112.40 m
226.60 0 l
o
np
326.16 219.54 m
226.60 0 l
o
np
326.16 326.69 m
226.60 0 l
o
1 1 1 srgb
1.06 setlinewidth
[] 0 setdash
np
326.16 58.82 m
226.60 0 l
o
np
326.16 165.97 m
226.60 0 l
o
np
326.16 273.12 m
226.60 0 l
o
np
326.16 380.26 m
226.60 0 l
o
np
352.31 42.08 m
0 368.32 l
o
np
395.89 42.08 m
0 368.32 l
o
np
439.46 42.08 m
0 368.32 l
o
np
483.04 42.08 m
0 368.32 l
o
np
526.61 42.08 m
0 368.32 l
o
/bg { 0 0 0 srgb } def
340.05 159.27 2.13 c p2
0.9725 0.4627 0.4275 srgb
np
340.05 92.31 m
0 50.22 l
o
np
340.05 58.82 m
0 0 l
o
/bg { 1 1 1 srgb } def
1 setlinecap
np
 335.97 92.31 m
0 -33.49 l
8.17 0 l
0 33.49 l
-8.17 0 l
cp p3
2.13 setlinewidth
[] 0 setdash
0 setlinecap
np
335.97 58.82 m
8.17 0 l
o
/bg { 0 0 0 srgb } def
348.22 125.79 2.13 c p2
348.22 125.79 2.13 c p2
348.22 142.53 2.13 c p2
348.22 142.53 2.13 c p2
348.22 109.05 2.13 c p2
348.22 142.53 2.13 c p2
348.22 159.27 2.13 c p2
348.22 125.79 2.13 c p2
348.22 159.27 2.13 c p2
348.22 109.05 2.13 c p2
348.22 109.05 2.13 c p2
348.22 192.76 2.13 c p2
348.22 142.53 2.13 c p2
348.22 125.79 2.13 c p2
348.22 142.53 2.13 c p2
0.4863 0.6824 0 srgb
1.06 setlinewidth
[] 0 setdash
np
348.22 75.57 m
0 16.74 l
o
np
348.22 58.82 m
0 0 l
o
/bg { 1 1 1 srgb } def
1 setlinecap
np
 344.14 75.57 m
0 -16.75 l
8.17 0 l
0 16.75 l
-8.17 0 l
cp p3
2.13 setlinewidth
[] 0 setdash
0 setlinecap
np
344.14 58.82 m
8.17 0 l
o
/bg { 0 0 0 srgb } def
356.40 192.76 2.13 c p2
356.40 192.76 2.13 c p2
356.40 192.76 2.13 c p2
356.40 242.98 2.13 c p2
356.40 192.76 2.13 c p2
356.40 242.98 2.13 c p2
0 0.7490 0.7686 srgb
1.06 setlinewidth
[] 0 setdash
np
356.40 109.05 m
0 66.97 l
o
np
356.40 58.82 m
0 0 l
o
/bg { 1 1 1 srgb } def
1 setlinecap
np
 352.31 109.05 m
0 -50.23 l
8.17 0 l
0 50.23 l
-8.17 0 l
cp p3
2.13 setlinewidth
[] 0 setdash
0 setlinecap
np
352.31 58.82 m
8.17 0 l
o
/bg { 0 0 0 srgb } def
364.57 326.69 2.13 c p2
364.57 326.69 2.13 c p2
364.57 326.69 2.13 c p2
364.57 326.69 2.13 c p2
364.57 326.69 2.13 c p2
364.57 393.66 2.13 c p2
0.7804 0.4863 1 srgb
1.06 setlinewidth
[] 0 setdash
np
364.57 163.46 m
0 146.49 l
o
np
364.57 58.82 m
0 0 l
o
/bg { 1 1 1 srgb } def
1 setlinecap
np
 360.48 163.46 m
0 -104.64 l
8.17 0 l
0 104.64 l
-8.17 0 l
cp p3
2.13 setlinewidth
[] 0 setdash
0 setlinecap
np
360.48 58.82 m
8.17 0 l
o
/bg { 0 0 0 srgb } def
383.63 142.53 2.13 c p2
383.63 142.53 2.13 c p2
383.63 142.53 2.13 c p2
0.9725 0.4627 0.4275 srgb
1.06 setlinewidth
[] 0 setdash
np
383.63 86.03 m
0 39.76 l
o
np
383.63 58.82 m
0 0 l
o
/bg { 1 1 1 srgb } def
1 setlinecap
np
 379.54 86.03 m
0 -27.21 l
8.18 0 l
0 27.21 l
-8.18 0 l
cp p3
2.13 setlinewidth
[] 0 setdash
0 setlinecap
np
379.54 58.82 m
8.18 0 l
o
/bg { 0 0 0 srgb } def
391.80 150.90 2.13 c p2
391.80 150.90 2.13 c p2
391.80 167.64 2.13 c p2
0.4863 0.6824 0 srgb
1.06 setlinewidth
[] 0 setdash
np
391.80 92.31 m
0 41.85 l
o
np
391.80 58.82 m
0 0 l
o
/bg { 1 1 1 srgb } def
1 setlinecap
np
 387.72 92.31 m
0 -33.49 l
8.17 0 l
0 33.49 l
-8.17 0 l
cp p3
2.13 setlinewidth
[] 0 setdash
0 setlinecap
np
387.72 67.20 m
8.17 0 l
o
/bg { 0 0 0 srgb } def
399.97 150.90 2.13 c p2
399.97 167.64 2.13 c p2
399.97 184.39 2.13 c p2
399.97 242.98 2.13 c p2
399.97 184.39 2.13 c p2
399.97 150.90 2.13 c p2
399.97 167.64 2.13 c p2
399.97 167.64 2.13 c p2
399.97 176.02 2.13 c p2
399.97 159.27 2.13 c p2
399.97 150.90 2.13 c p2
0 0.7490 0.7686 srgb
1.06 setlinewidth
[] 0 setdash
np
399.97 92.31 m
0 50.22 l
o
np
399.97 58.82 m
0 0 l
o
/bg { 1 1 1 srgb } def
1 setlinecap
np
 395.89 92.31 m
0 -33.49 l
8.17 0 l
0 33.49 l
-8.17 0 l
cp p3
2.13 setlinewidth
[] 0 setdash
0 setlinecap
np
395.89 67.20 m
8.17 0 l
o
/bg { 0 0 0 srgb } def
408.14 293.21 2.13 c p2
408.14 360.17 2.13 c p2
408.14 326.69 2.13 c p2
408.14 318.32 2.13 c p2
408.14 293.21 2.13 c p2
408.14 318.32 2.13 c p2
408.14 284.84 2.13 c p2
0.7804 0.4863 1 srgb
1.06 setlinewidth
[] 0 setdash
np
408.14 146.72 m
0 129.74 l
o
np
408.14 58.82 m
0 0 l
o
/bg { 1 1 1 srgb } def
1 setlinecap
np
 404.06 146.72 m
0 -87.90 l
8.17 0 l
0 87.90 l
-8.17 0 l
cp p3
2.13 setlinewidth
[] 0 setdash
0 setlinecap
np
404.06 58.82 m
8.17 0 l
o
/bg { 0 0 0 srgb } def
427.21 155.09 2.13 c p2
427.21 163.46 2.13 c p2
427.21 176.02 2.13 c p2
427.21 167.64 2.13 c p2
0.9725 0.4627 0.4275 srgb
1.06 setlinewidth
[] 0 setdash
np
427.21 109.05 m
0 41.85 l
o
np
427.21 79.75 m
0 -16.74 l
o
/bg { 1 1 1 srgb } def
1 setlinecap
np
 423.12 109.05 m
0 -29.30 l
8.17 0 l
0 29.30 l
-8.17 0 l
cp p3
2.13 setlinewidth
[] 0 setdash
0 setlinecap
np
423.12 96.49 m
8.17 0 l
o
/bg { 0 0 0 srgb } def
435.38 167.64 2.13 c p2
435.38 180.20 2.13 c p2
435.38 201.13 2.13 c p2
0.4863 0.6824 0 srgb
1.06 setlinewidth
[] 0 setdash
np
435.38 122.65 m
0 32.44 l
o
np
435.38 96.49 m
0 -25.11 l
o
/bg { 1 1 1 srgb } def
1 setlinecap
np
 431.29 122.65 m
0 -26.16 l
8.17 0 l
0 26.16 l
-8.17 0 l
cp p3
2.13 setlinewidth
[] 0 setdash
0 setlinecap
np
431.29 109.05 m
8.17 0 l
o
/bg { 0 0 0 srgb } def
443.55 163.46 2.13 c p2
443.55 167.64 2.13 c p2
443.55 163.46 2.13 c p2
0 0.7490 0.7686 srgb
1.06 setlinewidth
[] 0 setdash
np
443.55 110.10 m
0 49.17 l
o
np
443.55 75.57 m
0 -16.75 l
o
/bg { 1 1 1 srgb } def
1 setlinecap
np
 439.46 110.10 m
0 -34.53 l
8.17 0 l
0 34.53 l
-8.17 0 l
cp p3
2.13 setlinewidth
[] 0 setdash
0 setlinecap
np
439.46 88.12 m
8.17 0 l
o
/bg { 0 0 0 srgb } def
451.72 309.95 2.13 c p2
451.72 318.32 2.13 c p2
0.7804 0.4863 1 srgb
1.06 setlinewidth
[] 0 setdash
np
451.72 188.57 m
0 87.89 l
o
np
451.72 120.56 m
0 -61.74 l
o
/bg { 1 1 1 srgb } def
1 setlinecap
np
 447.63 188.57 m
0 -68.01 l
8.17 0 l
0 68.01 l
-8.17 0 l
cp p3
2.13 setlinewidth
[] 0 setdash
0 setlinecap
np
447.63 144.62 m
8.17 0 l
o
/bg { 0 0 0 srgb } def
470.78 167.64 2.13 c p2
0.9725 0.4627 0.4275 srgb
1.06 setlinewidth
[] 0 setdash
np
470.78 125.79 m
0 27.21 l
o
np
470.78 98.59 m
0 -16.75 l
o
/bg { 1 1 1 srgb } def
1 setlinecap
np
 466.70 125.79 m
0 -27.20 l
8.17 0 l
0 27.20 l
-8.17 0 l
cp p3
2.13 setlinewidth
[] 0 setdash
0 setlinecap
np
466.70 112.19 m
8.17 0 l
o
/bg { 0 0 0 srgb } def
478.95 194.85 2.13 c p2
0.4863 0.6824 0 srgb
1.06 setlinewidth
[] 0 setdash
np
478.95 149.33 m
0 37.15 l
o
np
478.95 121.61 m
0 -25.12 l
o
/bg { 1 1 1 srgb } def
1 setlinecap
np
 474.87 149.33 m
0 -27.72 l
8.17 0 l
0 27.72 l
-8.17 0 l
cp p3
2.13 setlinewidth
[] 0 setdash
0 setlinecap
np
474.87 129.98 m
8.17 0 l
o
/bg { 0 0 0 srgb } def
487.12 190.66 2.13 c p2
0 0.7490 0.7686 srgb
1.06 setlinewidth
[] 0 setdash
np
487.12 136.25 m
0 50.23 l
o
np
487.12 102.77 m
0 -29.30 l
o
/bg { 1 1 1 srgb } def
1 setlinecap
np
 483.04 136.25 m
0 -33.48 l
8.17 0 l
0 33.48 l
-8.17 0 l
cp p3
2.13 setlinewidth
[] 0 setdash
0 setlinecap
np
483.04 119.51 m
8.17 0 l
o
0.7804 0.4863 1 srgb
1.06 setlinewidth
[] 0 setdash
np
495.29 220.49 m
0 87.37 l
o
np
495.29 146.72 m
0 -41.86 l
o
1 setlinecap
np
 491.21 220.49 m
0 -73.77 l
8.17 0 l
0 73.77 l
-8.17 0 l
cp p3
2.13 setlinewidth
[] 0 setdash
0 setlinecap
np
491.21 191.71 m
8.17 0 l
o
/bg { 0 0 0 srgb } def
514.36 181.25 2.13 c p2
0.9725 0.4627 0.4275 srgb
1.06 setlinewidth
[] 0 setdash
np
514.36 137.56 m
0 27.99 l
o
np
514.36 111.66 m
0 -32.96 l
o
/bg { 1 1 1 srgb } def
1 setlinecap
np
 510.27 137.56 m
0 -25.90 l
8.17 0 l
0 25.90 l
-8.17 0 l
cp p3
2.13 setlinewidth
[] 0 setdash
0 setlinecap
np
510.27 122.65 m
8.17 0 l
o
/bg { 0 0 0 srgb } def
522.53 210.54 2.13 c p2
0.4863 0.6824 0 srgb
1.06 setlinewidth
[] 0 setdash
np
522.53 162.67 m
0 35.32 l
o
np
522.53 136.25 m
0 -35.57 l
o
/bg { 1 1 1 srgb } def
1 setlinecap
np
 518.44 162.67 m
0 -26.42 l
8.17 0 l
0 26.42 l
-8.17 0 l
cp p3
2.13 setlinewidth
[] 0 setdash
0 setlinecap
np
518.44 149.33 m
8.17 0 l
o
/bg { 0 0 0 srgb } def
530.70 203.22 2.13 c p2
0 0.7490 0.7686 srgb
1.06 setlinewidth
[] 0 setdash
np
530.70 146.98 m
0 42.64 l
o
np
530.70 114.28 m
0 -28.25 l
o
/bg { 1 1 1 srgb } def
1 setlinecap
np
 526.61 146.98 m
0 -32.70 l
8.17 0 l
0 32.70 l
-8.17 0 l
cp p3
2.13 setlinewidth
[] 0 setdash
0 setlinecap
np
526.61 129.45 m
8.17 0 l
o
0.7804 0.4863 1 srgb
1.06 setlinewidth
[] 0 setdash
np
538.87 225.46 m
0 83.44 l
o
np
538.87 154.83 m
0 -55.20 l
o
1 setlinecap
np
 534.78 225.46 m
0 -70.63 l
8.17 0 l
0 70.63 l
-8.17 0 l
cp p3
2.13 setlinewidth
[] 0 setdash
0 setlinecap
np
534.78 201.65 m
8.17 0 l
o
0.00 0.00 657.75 449.25 cl
0.00 0.00 657.75 449.25 cl
0.00 0.00 657.75 449.25 cl
/Font1 findfont 10 s
0.4980 0.4980 0.4980 srgb
319.08 55.23 (0.0) 1 0 t
319.08 162.38 (0.2) 1 0 t
319.08 269.53 (0.4) 1 0 t
319.08 376.67 (0.6) 1 0 t
0.00 0.00 657.75 449.25 cl
0.00 0.00 657.75 449.25 cl
0.4980 0.4980 0.4980 srgb
1.06 setlinewidth
[] 0 setdash
0 setlinecap
1 setlinejoin
10.00 setmiterlimit
np
321.91 58.82 m
4.25 0 l
o
np
321.91 165.97 m
4.25 0 l
o
np
321.91 273.12 m
4.25 0 l
o
np
321.91 380.26 m
4.25 0 l
o
0.00 0.00 657.75 449.25 cl
0.00 0.00 657.75 449.25 cl
0.00 0.00 657.75 449.25 cl
0.00 0.00 657.75 449.25 cl
0.00 0.00 657.75 449.25 cl
0.00 0.00 657.75 449.25 cl
0.4980 0.4980 0.4980 srgb
1.06 setlinewidth
[] 0 setdash
0 setlinecap
1 setlinejoin
10.00 setmiterlimit
np
352.31 37.83 m
0 4.25 l
o
np
395.89 37.83 m
0 4.25 l
o
np
439.46 37.83 m
0 4.25 l
o
np
483.04 37.83 m
0 4.25 l
o
np
526.61 37.83 m
0 4.25 l
o
0.00 0.00 657.75 449.25 cl
0.00 0.00 657.75 449.25 cl
/Font1 findfont 10 s
0.4980 0.4980 0.4980 srgb
352.31 27.82 (8) .5 0 t
395.89 27.82 (16) .5 0 t
439.46 27.82 (32) .5 0 t
483.04 27.82 (64) .5 0 t
526.61 27.82 (128) .5 0 t
0.00 0.00 657.75 449.25 cl
0.00 0.00 657.75 449.25 cl
0.00 0.00 657.75 449.25 cl
0.00 0.00 657.75 449.25 cl
0.00 0.00 657.75 449.25 cl
/Font1 findfont 12 s
0 0 0 srgb
439.46 14.40 (Ne) .5 0 t
0.00 0.00 657.75 449.25 cl
0.00 0.00 657.75 449.25 cl
0.00 0.00 657.75 449.25 cl
0.00 0.00 657.75 449.25 cl
/Font1 findfont 14 s
0 0 0 srgb
397.45 415.20 (T) 0 ta
-1.680 (r) tb
-0.140 (aining error) tb gr
0.00 0.00 657.75 449.25 cl
0.00 0.00 657.75 449.25 cl
0.00 0.00 657.75 449.25 cl
0.00 0.00 657.75 449.25 cl
0.00 0.00 657.75 449.25 cl
0.00 0.00 657.75 449.25 cl
/bg { 1 1 1 srgb } def
571.60 167.91 86.50 113.42 r p2
0.00 0.00 657.75 449.25 cl
0.00 0.00 657.75 449.25 cl
/Font2 findfont 10 s
0 0 0 srgb
575.85 269.99 (optimiser_metric) 0 0 t
0.00 0.00 657.75 449.25 cl
0.00 0.00 657.75 449.25 cl
/bg { 0.9490 0.9490 0.9490 srgb } def
1 1 1 srgb
1.06 setlinewidth
[] 0 setdash
1 setlinecap
1 setlinejoin
10.00 setmiterlimit
575.85 241.28 23.04 23.04 r p3
0.00 0.00 657.75 449.25 cl
0.00 0.00 657.75 449.25 cl
0.9725 0.4627 0.4275 srgb
1.06 setlinewidth
[] 0 setdash
1 setlinecap
1 setlinejoin
10.00 setmiterlimit
np
587.37 243.59 m
0 3.45 l
o
np
587.37 258.56 m
0 3.46 l
o
/bg { 1 1 1 srgb } def
578.73 247.04 17.28 11.52 r p3
np
578.73 252.80 m
17.28 0 l
o
0.00 0.00 657.75 449.25 cl
0.00 0.00 657.75 449.25 cl
/bg { 0.9490 0.9490 0.9490 srgb } def
1 1 1 srgb
1.06 setlinewidth
[] 0 setdash
1 setlinecap
1 setlinejoin
10.00 setmiterlimit
575.85 218.24 23.04 23.04 r p3
0.00 0.00 657.75 449.25 cl
0.00 0.00 657.75 449.25 cl
0.4863 0.6824 0 srgb
1.06 setlinewidth
[] 0 setdash
1 setlinecap
1 setlinejoin
10.00 setmiterlimit
np
587.37 220.55 m
0 3.45 l
o
np
587.37 235.52 m
0 3.46 l
o
/bg { 1 1 1 srgb } def
578.73 224.00 17.28 11.52 r p3
np
578.73 229.76 m
17.28 0 l
o
0.00 0.00 657.75 449.25 cl
0.00 0.00 657.75 449.25 cl
/bg { 0.9490 0.9490 0.9490 srgb } def
1 1 1 srgb
1.06 setlinewidth
[] 0 setdash
1 setlinecap
1 setlinejoin
10.00 setmiterlimit
575.85 195.20 23.04 23.04 r p3
0.00 0.00 657.75 449.25 cl
0.00 0.00 657.75 449.25 cl
0 0.7490 0.7686 srgb
1.06 setlinewidth
[] 0 setdash
1 setlinecap
1 setlinejoin
10.00 setmiterlimit
np
587.37 197.51 m
0 3.45 l
o
np
587.37 212.48 m
0 3.46 l
o
/bg { 1 1 1 srgb } def
578.73 200.96 17.28 11.52 r p3
np
578.73 206.72 m
17.28 0 l
o
0.00 0.00 657.75 449.25 cl
0.00 0.00 657.75 449.25 cl
/bg { 0.9490 0.9490 0.9490 srgb } def
1 1 1 srgb
1.06 setlinewidth
[] 0 setdash
1 setlinecap
1 setlinejoin
10.00 setmiterlimit
575.85 172.16 23.04 23.04 r p3
0.00 0.00 657.75 449.25 cl
0.00 0.00 657.75 449.25 cl
0.7804 0.4863 1 srgb
1.06 setlinewidth
[] 0 setdash
1 setlinecap
1 setlinejoin
10.00 setmiterlimit
np
587.37 174.47 m
0 3.45 l
o
np
587.37 189.44 m
0 3.46 l
o
/bg { 1 1 1 srgb } def
578.73 177.92 17.28 11.52 r p3
np
578.73 183.68 m
17.28 0 l
o
0.00 0.00 657.75 449.25 cl
0.00 0.00 657.75 449.25 cl
/Font1 findfont 10 s
0 0 0 srgb
601.77 249.21 (e1) 0 0 t
0.00 0.00 657.75 449.25 cl
0.00 0.00 657.75 449.25 cl
/Font1 findfont 10 s
0 0 0 srgb
601.77 226.17 (e2_lsb) 0 0 t
0.00 0.00 657.75 449.25 cl
0.00 0.00 657.75 449.25 cl
/Font1 findfont 10 s
0 0 0 srgb
601.77 203.13 (e3_lsb) 0 0 t
0.00 0.00 657.75 449.25 cl
0.00 0.00 657.75 449.25 cl
/Font1 findfont 10 s
0 0 0 srgb
601.77 180.09 (e6_lsb) 0 0 t
0.00 0.00 657.75 449.25 cl
0.00 0.00 657.75 449.25 cl
0.00 0.00 657.75 449.25 cl
0.00 0.00 657.75 449.25 cl
0.00 0.00 657.75 449.25 cl
0.00 0.00 657.75 449.25 cl
0.00 0.00 657.75 449.25 cl
ep
%%Trailer
%%Pages: 1
%%EOF
