%!PS-Adobe-3.0 EPSF-3.0
%%DocumentNeededResources: font Helvetica
%%+ font Helvetica-Bold
%%+ font Helvetica-Oblique
%%+ font Helvetica-BoldOblique
%%+ font Symbol
%%Title: R Graphics Output
%%Creator: R Software
%%Pages: (atend)
%%BoundingBox: 0 0 658 449
%%EndComments
%%BeginProlog
/bp  { gs sRGB gs } def
% begin .ps.prolog
/gs  { gsave } bind def
/gr  { grestore } bind def
/ep  { showpage gr gr } bind def
/m   { moveto } bind def
/l  { rlineto } bind def
/np  { newpath } bind def
/cp  { closepath } bind def
/f   { fill } bind def
/o   { stroke } bind def
/c   { newpath 0 360 arc } bind def
/r   { 4 2 roll moveto 1 copy 3 -1 roll exch 0 exch rlineto 0 rlineto -1 mul 0 exch rlineto closepath } bind def
/p1  { stroke } bind def
/p2  { gsave bg fill grestore newpath } bind def
/p3  { gsave bg fill grestore stroke } bind def
/p6  { gsave bg eofill grestore newpath } bind def
/p7  { gsave bg eofill grestore stroke } bind def
/t   { 5 -2 roll moveto gsave rotate
       1 index stringwidth pop
       mul neg 0 rmoveto show grestore } bind def
/ta  { 4 -2 roll moveto gsave rotate show } bind def
/tb  { 2 -1 roll 0 rmoveto show } bind def
/cl  { grestore gsave newpath 3 index 3 index moveto 1 index
       4 -1 roll lineto  exch 1 index lineto lineto
       closepath clip newpath } bind def
/rgb { setrgbcolor } bind def
/s   { scalefont setfont } bind def
% end   .ps.prolog
/sRGB { [ /CIEBasedABC
          << /DecodeLMN
               [ { dup 0.03928 le
                        {12.92321 div}
                        {0.055 add 1.055 div 2.4 exp }
                     ifelse
                 } bind dup dup
               ]
             /MatrixLMN [0.412457 0.212673 0.019334
                         0.357576 0.715152 0.119192
                         0.180437 0.072175 0.950301]
             /WhitePoint [0.9505 1.0 1.0890]
           >>
         ] setcolorspace } bind def
/srgb { setcolor } bind def
%%IncludeResource: font Helvetica
/Helvetica findfont
dup length dict begin
  {1 index /FID ne {def} {pop pop} ifelse} forall
  /Encoding ISOLatin1Encoding def
  currentdict
  end
/Font1 exch definefont pop
%%IncludeResource: font Helvetica-Bold
/Helvetica-Bold findfont
dup length dict begin
  {1 index /FID ne {def} {pop pop} ifelse} forall
  /Encoding ISOLatin1Encoding def
  currentdict
  end
/Font2 exch definefont pop
%%IncludeResource: font Helvetica-Oblique
/Helvetica-Oblique findfont
dup length dict begin
  {1 index /FID ne {def} {pop pop} ifelse} forall
  /Encoding ISOLatin1Encoding def
  currentdict
  end
/Font3 exch definefont pop
%%IncludeResource: font Helvetica-BoldOblique
/Helvetica-BoldOblique findfont
dup length dict begin
  {1 index /FID ne {def} {pop pop} ifelse} forall
  /Encoding ISOLatin1Encoding def
  currentdict
  end
/Font4 exch definefont pop
%%IncludeResource: font Symbol
/Symbol findfont
dup length dict begin
  {1 index /FID ne {def} {pop pop} ifelse} forall
  currentdict
  end
/Font5 exch definefont pop
%%EndProlog
%%Page: 1 1
bp
0.00 0.00 657.75 449.25 cl
0.00 224.62 328.88 449.25 cl
/bg { 1 1 1 srgb } def
1 1 1 srgb
1.06 setlinewidth
[] 0 setdash
1 setlinecap
1 setlinejoin
10.00 setmiterlimit
0.00 224.62 328.88 224.62 r p3
0.00 0.00 657.75 449.25 cl
0.00 0.00 657.75 449.25 cl
0.00 0.00 657.75 449.25 cl
48.80 266.71 309.68 410.40 cl
/bg { 0.8980 0.8980 0.8980 srgb } def
48.80 266.71 260.87 143.69 r p2
0.9490 0.9490 0.9490 srgb
0.53 setlinewidth
[] 0 setdash
0 setlinecap
1 setlinejoin
10.00 setmiterlimit
np
48.80 303.36 m
260.88 0 l
o
np
48.80 344.00 m
260.88 0 l
o
np
48.80 384.64 m
260.88 0 l
o
1 1 1 srgb
1.06 setlinewidth
[] 0 setdash
np
48.80 283.04 m
260.88 0 l
o
np
48.80 323.68 m
260.88 0 l
o
np
48.80 364.32 m
260.88 0 l
o
np
48.80 404.95 m
260.88 0 l
o
np
97.72 266.71 m
0 143.69 l
o
np
179.24 266.71 m
0 143.69 l
o
np
260.76 266.71 m
0 143.69 l
o
/bg { 0 0 0 srgb } def
97.72 397.06 2.13 c p2
97.72 397.97 2.13 c p2
0.9725 0.4627 0.4275 srgb
np
97.72 347.74 m
0 35.72 l
o
np
97.72 315.42 m
0 -23.13 l
o
/bg { 1 1 1 srgb } def
1 setlinecap
np
 67.15 347.74 m
0 -12.70 l
15.28 -5.11 l
-15.28 -5.10 l
0 -9.41 l
61.14 0 l
0 9.41 l
-15.29 5.10 l
15.29 5.11 l
0 12.70 l
-61.14 0 l
cp p3
2.13 setlinewidth
[] 0 setdash
0 setlinecap
np
82.43 329.93 m
30.57 0 l
o
/bg { 0 0 0 srgb } def
179.24 403.87 2.13 c p2
0 0.7294 0.2196 srgb
1.06 setlinewidth
[] 0 setdash
np
179.24 344.11 m
0 27.10 l
o
np
179.24 314.29 m
0 -30.17 l
o
/bg { 1 1 1 srgb } def
1 setlinecap
np
 148.67 344.11 m
0 -8.78 l
15.28 -4.71 l
-15.28 -4.72 l
0 -11.61 l
61.14 0 l
0 11.61 l
-15.29 4.72 l
15.29 4.71 l
0 8.78 l
-61.14 0 l
cp p3
2.13 setlinewidth
[] 0 setdash
0 setlinecap
np
163.95 330.62 m
30.57 0 l
o
/bg { 0 0 0 srgb } def
260.76 275.05 2.13 c p2
260.76 273.24 2.13 c p2
0.3804 0.6118 1 srgb
1.06 setlinewidth
[] 0 setdash
np
260.76 351.37 m
0 27.55 l
o
np
260.76 326.19 m
0 -31.18 l
o
/bg { 1 1 1 srgb } def
1 setlinecap
np
 230.19 351.37 m
0 -11.11 l
15.29 -3.98 l
-15.29 -3.97 l
0 -6.12 l
61.14 0 l
0 6.12 l
-15.28 3.97 l
15.28 3.98 l
0 11.11 l
-61.14 0 l
cp p3
2.13 setlinewidth
[] 0 setdash
0 setlinecap
np
245.48 336.28 m
30.57 0 l
o
0.00 0.00 657.75 449.25 cl
0.00 0.00 657.75 449.25 cl
0.00 0.00 657.75 449.25 cl
/Font1 findfont 10 s
0.4980 0.4980 0.4980 srgb
41.72 279.45 (0.1) 1 0 t
41.72 320.09 (0.2) 1 0 t
41.72 360.73 (0.3) 1 0 t
41.72 401.36 (0.4) 1 0 t
0.00 0.00 657.75 449.25 cl
0.00 0.00 657.75 449.25 cl
0.4980 0.4980 0.4980 srgb
1.06 setlinewidth
[] 0 setdash
0 setlinecap
1 setlinejoin
10.00 setmiterlimit
np
44.55 283.04 m
4.25 0 l
o
np
44.55 323.68 m
4.25 0 l
o
np
44.55 364.32 m
4.25 0 l
o
np
44.55 404.95 m
4.25 0 l
o
0.00 0.00 657.75 449.25 cl
0.00 0.00 657.75 449.25 cl
0.00 0.00 657.75 449.25 cl
0.00 0.00 657.75 449.25 cl
0.00 0.00 657.75 449.25 cl
0.00 0.00 657.75 449.25 cl
0.4980 0.4980 0.4980 srgb
1.06 setlinewidth
[] 0 setdash
0 setlinecap
1 setlinejoin
10.00 setmiterlimit
np
97.72 262.46 m
0 4.25 l
o
np
179.24 262.46 m
0 4.25 l
o
np
260.76 262.46 m
0 4.25 l
o
0.00 0.00 657.75 449.25 cl
0.00 0.00 657.75 449.25 cl
/Font1 findfont 10 s
0.4980 0.4980 0.4980 srgb
97.72 252.44 (LAHC) .5 0 t
179.24 252.44 (SA) .5 0 t
260.76 252.44 (HC) .5 0 t
0.00 0.00 657.75 449.25 cl
0.00 0.00 657.75 449.25 cl
0.00 0.00 657.75 449.25 cl
0.00 0.00 657.75 449.25 cl
0.00 0.00 657.75 449.25 cl
/Font1 findfont 12 s
0 0 0 srgb
179.24 239.02 (optimiser) .5 0 t
0.00 0.00 657.75 449.25 cl
0.00 0.00 657.75 449.25 cl
/Font1 findfont 12 s
0 0 0 srgb
23.02 338.55 (error) .5 90 t
0.00 0.00 657.75 449.25 cl
0.00 0.00 657.75 449.25 cl
/Font1 findfont 14 s
0 0 0 srgb
117.39 415.20 (Gener) 0 ta
-0.140 (alisation error) tb gr
0.00 0.00 657.75 449.25 cl
0.00 0.00 657.75 449.25 cl
0.00 0.00 657.75 449.25 cl
328.88 224.62 657.75 449.25 cl
/bg { 1 1 1 srgb } def
1 1 1 srgb
1.06 setlinewidth
[] 0 setdash
1 setlinecap
1 setlinejoin
10.00 setmiterlimit
328.88 224.62 328.88 224.62 r p3
0.00 0.00 657.75 449.25 cl
0.00 0.00 657.75 449.25 cl
0.00 0.00 657.75 449.25 cl
374.62 266.71 638.55 410.40 cl
/bg { 0.8980 0.8980 0.8980 srgb } def
374.62 266.71 263.93 143.69 r p2
0.9490 0.9490 0.9490 srgb
0.53 setlinewidth
[] 0 setdash
0 setlinecap
1 setlinejoin
10.00 setmiterlimit
np
374.62 296.46 m
263.93 0 l
o
np
374.62 342.91 m
263.93 0 l
o
np
374.62 389.35 m
263.93 0 l
o
1 1 1 srgb
1.06 setlinewidth
[] 0 setdash
np
374.62 273.24 m
263.93 0 l
o
np
374.62 319.68 m
263.93 0 l
o
np
374.62 366.13 m
263.93 0 l
o
np
424.11 266.71 m
0 143.69 l
o
np
506.59 266.71 m
0 143.69 l
o
np
589.06 266.71 m
0 143.69 l
o
/bg { 0 0 0 srgb } def
424.11 280.50 2.13 c p2
424.11 403.87 2.13 c p2
0.9725 0.4627 0.4275 srgb
np
424.11 273.24 m
0 0 l
o
np
424.11 273.24 m
0 0 l
o
/bg { 1 1 1 srgb } def
1 setlinecap
np
 393.18 273.24 m
0 0 l
61.86 0 l
0 0 l
-61.86 0 l
cp p3
2.13 setlinewidth
[] 0 setdash
0 setlinecap
np
393.18 273.24 m
61.86 0 l
o
/bg { 0 0 0 srgb } def
506.59 280.50 2.13 c p2
506.59 280.50 2.13 c p2
506.59 280.50 2.13 c p2
506.59 280.50 2.13 c p2
506.59 280.50 2.13 c p2
506.59 280.50 2.13 c p2
506.59 280.50 2.13 c p2
0 0.7294 0.2196 srgb
1.06 setlinewidth
[] 0 setdash
np
506.59 273.24 m
0 0 l
o
np
506.59 273.24 m
0 0 l
o
/bg { 1 1 1 srgb } def
1 setlinecap
np
 475.66 273.24 m
0 0 l
61.86 0 l
0 0 l
-61.86 0 l
cp p3
2.13 setlinewidth
[] 0 setdash
0 setlinecap
np
475.66 273.24 m
61.86 0 l
o
0.3804 0.6118 1 srgb
1.06 setlinewidth
[] 0 setdash
np
589.06 273.24 m
0 0 l
o
np
589.06 273.24 m
0 0 l
o
1 setlinecap
np
 558.13 273.24 m
0 0 l
61.86 0 l
0 0 l
-61.86 0 l
cp p3
2.13 setlinewidth
[] 0 setdash
0 setlinecap
np
558.13 273.24 m
61.86 0 l
o
0.00 0.00 657.75 449.25 cl
0.00 0.00 657.75 449.25 cl
0.00 0.00 657.75 449.25 cl
/Font1 findfont 10 s
0.4980 0.4980 0.4980 srgb
367.54 269.65 (0.00) 1 0 t
367.54 316.09 (0.05) 1 0 t
367.54 362.54 (0.10) 1 0 t
0.00 0.00 657.75 449.25 cl
0.00 0.00 657.75 449.25 cl
0.4980 0.4980 0.4980 srgb
1.06 setlinewidth
[] 0 setdash
0 setlinecap
1 setlinejoin
10.00 setmiterlimit
np
370.37 273.24 m
4.25 0 l
o
np
370.37 319.68 m
4.25 0 l
o
np
370.37 366.13 m
4.25 0 l
o
0.00 0.00 657.75 449.25 cl
0.00 0.00 657.75 449.25 cl
0.00 0.00 657.75 449.25 cl
0.00 0.00 657.75 449.25 cl
0.00 0.00 657.75 449.25 cl
0.00 0.00 657.75 449.25 cl
0.4980 0.4980 0.4980 srgb
1.06 setlinewidth
[] 0 setdash
0 setlinecap
1 setlinejoin
10.00 setmiterlimit
np
424.11 262.46 m
0 4.25 l
o
np
506.59 262.46 m
0 4.25 l
o
np
589.06 262.46 m
0 4.25 l
o
0.00 0.00 657.75 449.25 cl
0.00 0.00 657.75 449.25 cl
/Font1 findfont 10 s
0.4980 0.4980 0.4980 srgb
424.11 252.44 (LAHC) .5 0 t
506.59 252.44 (SA) .5 0 t
589.06 252.44 (HC) .5 0 t
0.00 0.00 657.75 449.25 cl
0.00 0.00 657.75 449.25 cl
0.00 0.00 657.75 449.25 cl
0.00 0.00 657.75 449.25 cl
0.00 0.00 657.75 449.25 cl
/Font1 findfont 12 s
0 0 0 srgb
506.59 239.02 (optimiser) .5 0 t
0.00 0.00 657.75 449.25 cl
0.00 0.00 657.75 449.25 cl
0.00 0.00 657.75 449.25 cl
0.00 0.00 657.75 449.25 cl
/Font1 findfont 14 s
0 0 0 srgb
464.58 415.20 (T) 0 ta
-1.680 (r) tb
-0.140 (aining error) tb gr
0.00 0.00 657.75 449.25 cl
0.00 0.00 657.75 449.25 cl
0.00 0.00 657.75 449.25 cl
0.00 0.00 328.88 224.62 cl
/bg { 1 1 1 srgb } def
1 1 1 srgb
1.06 setlinewidth
[] 0 setdash
1 setlinecap
1 setlinejoin
10.00 setmiterlimit
0.00 0.00 328.88 224.62 r p3
0.00 0.00 657.75 449.25 cl
0.00 0.00 657.75 449.25 cl
0.00 0.00 657.75 449.25 cl
62.98 42.08 309.68 185.77 cl
/bg { 0.8980 0.8980 0.8980 srgb } def
62.98 42.08 246.69 143.69 r p2
0.9490 0.9490 0.9490 srgb
0.53 setlinewidth
[] 0 setdash
0 setlinecap
1 setlinejoin
10.00 setmiterlimit
np
62.98 62.84 m
246.70 0 l
o
np
62.98 96.09 m
246.70 0 l
o
np
62.98 129.35 m
246.70 0 l
o
np
62.98 162.61 m
246.70 0 l
o
1 1 1 srgb
1.06 setlinewidth
[] 0 setdash
np
62.98 46.21 m
246.70 0 l
o
np
62.98 79.46 m
246.70 0 l
o
np
62.98 112.72 m
246.70 0 l
o
np
62.98 145.98 m
246.70 0 l
o
np
62.98 179.24 m
246.70 0 l
o
np
109.24 42.08 m
0 143.69 l
o
np
186.33 42.08 m
0 143.69 l
o
np
263.42 42.08 m
0 143.69 l
o
/bg { 0 0 0 srgb } def
109.24 128.78 2.13 c p2
109.24 137.51 2.13 c p2
109.24 117.97 2.13 c p2
109.24 121.73 2.13 c p2
109.24 179.24 2.13 c p2
109.24 139.76 2.13 c p2
109.24 179.24 2.13 c p2
109.24 123.88 2.13 c p2
109.24 170.56 2.13 c p2
109.24 112.13 2.13 c p2
0.9725 0.4627 0.4275 srgb
np
109.24 78.75 m
0 24.39 l
o
np
109.24 58.32 m
0 -8.26 l
o
/bg { 1 1 1 srgb } def
1 setlinecap
np
 80.33 78.75 m
0 -10.01 l
14.45 -3.23 l
-14.45 -3.23 l
0 -3.96 l
57.82 0 l
0 3.96 l
-14.46 3.23 l
14.46 3.23 l
0 10.01 l
-57.82 0 l
cp p3
2.13 setlinewidth
[] 0 setdash
0 setlinecap
np
94.78 65.51 m
28.91 0 l
o
0 0.7294 0.2196 srgb
1.06 setlinewidth
[] 0 setdash
np
186.33 144.00 m
0 35.24 l
o
np
186.33 110.67 m
0 -37.73 l
o
1 setlinecap
np
 157.42 144.00 m
0 -14.88 l
14.45 -5.27 l
-14.45 -5.26 l
0 -7.92 l
57.82 0 l
0 7.92 l
-14.46 5.26 l
14.46 5.27 l
0 14.88 l
-57.82 0 l
cp p3
2.13 setlinewidth
[] 0 setdash
0 setlinecap
np
171.87 123.85 m
28.91 0 l
o
/bg { 0 0 0 srgb } def
263.42 91.72 2.13 c p2
263.42 103.56 2.13 c p2
263.42 144.33 2.13 c p2
263.42 122.83 2.13 c p2
263.42 105.22 2.13 c p2
263.42 101.33 2.13 c p2
263.42 94.27 2.13 c p2
263.42 121.98 2.13 c p2
263.42 107.49 2.13 c p2
0.3804 0.6118 1 srgb
1.06 setlinewidth
[] 0 setdash
np
263.42 70.32 m
0 19.16 l
o
np
263.42 56.37 m
0 -7.76 l
o
/bg { 1 1 1 srgb } def
1 setlinecap
np
 234.51 70.32 m
0 -6.40 l
14.46 -2.21 l
-14.46 -2.20 l
0 -3.14 l
57.82 0 l
0 3.14 l
-14.46 2.20 l
14.46 2.21 l
0 6.40 l
-57.82 0 l
cp p3
2.13 setlinewidth
[] 0 setdash
0 setlinecap
np
248.97 61.71 m
28.90 0 l
o
0.00 0.00 657.75 449.25 cl
0.00 0.00 657.75 449.25 cl
0.00 0.00 657.75 449.25 cl
/Font1 findfont 10 s
0.4980 0.4980 0.4980 srgb
55.90 42.62 (0e+00) 1 0 t
55.90 75.87 (1e+06) 1 0 t
55.90 109.13 (2e+06) 1 0 t
55.90 142.39 (3e+06) 1 0 t
55.90 175.65 (4e+06) 1 0 t
0.00 0.00 657.75 449.25 cl
0.00 0.00 657.75 449.25 cl
0.4980 0.4980 0.4980 srgb
1.06 setlinewidth
[] 0 setdash
0 setlinecap
1 setlinejoin
10.00 setmiterlimit
np
58.73 46.21 m
4.25 0 l
o
np
58.73 79.46 m
4.25 0 l
o
np
58.73 112.72 m
4.25 0 l
o
np
58.73 145.98 m
4.25 0 l
o
np
58.73 179.24 m
4.25 0 l
o
0.00 0.00 657.75 449.25 cl
0.00 0.00 657.75 449.25 cl
0.00 0.00 657.75 449.25 cl
0.00 0.00 657.75 449.25 cl
0.00 0.00 657.75 449.25 cl
0.00 0.00 657.75 449.25 cl
0.4980 0.4980 0.4980 srgb
1.06 setlinewidth
[] 0 setdash
0 setlinecap
1 setlinejoin
10.00 setmiterlimit
np
109.24 37.83 m
0 4.25 l
o
np
186.33 37.83 m
0 4.25 l
o
np
263.42 37.83 m
0 4.25 l
o
0.00 0.00 657.75 449.25 cl
0.00 0.00 657.75 449.25 cl
/Font1 findfont 10 s
0.4980 0.4980 0.4980 srgb
109.24 27.82 (LAHC) .5 0 t
186.33 27.82 (SA) .5 0 t
263.42 27.82 (HC) .5 0 t
0.00 0.00 657.75 449.25 cl
0.00 0.00 657.75 449.25 cl
0.00 0.00 657.75 449.25 cl
0.00 0.00 657.75 449.25 cl
0.00 0.00 657.75 449.25 cl
/Font1 findfont 12 s
0 0 0 srgb
186.33 14.40 (optimiser) .5 0 t
0.00 0.00 657.75 449.25 cl
0.00 0.00 657.75 449.25 cl
/Font1 findfont 12 s
0 0 0 srgb
23.02 113.93 (steps) .5 90 t
0.00 0.00 657.75 449.25 cl
0.00 0.00 657.75 449.25 cl
/Font1 findfont 14 s
0 0 0 srgb
152.09 190.57 (T) 0 ta
-1.680 (otal steps) tb gr
0.00 0.00 657.75 449.25 cl
0.00 0.00 657.75 449.25 cl
0.00 0.00 657.75 449.25 cl
0.00 0.00 657.75 449.25 cl
0.00 0.00 657.75 449.25 cl
0.00 0.00 657.75 449.25 cl
/bg { 1 1 1 srgb } def
463.60 67.12 59.42 90.38 r p2
0.00 0.00 657.75 449.25 cl
0.00 0.00 657.75 449.25 cl
/Font2 findfont 10 s
0 0 0 srgb
467.85 146.16 (Optimiser) 0 0 t
0.00 0.00 657.75 449.25 cl
0.00 0.00 657.75 449.25 cl
/bg { 0.9490 0.9490 0.9490 srgb } def
1 1 1 srgb
1.06 setlinewidth
[] 0 setdash
1 setlinecap
1 setlinejoin
10.00 setmiterlimit
467.85 117.45 23.04 23.04 r p3
0.00 0.00 657.75 449.25 cl
0.00 0.00 657.75 449.25 cl
0.9725 0.4627 0.4275 srgb
1.06 setlinewidth
[] 0 setdash
1 setlinecap
1 setlinejoin
10.00 setmiterlimit
np
479.37 119.76 m
0 3.45 l
o
np
479.37 134.73 m
0 3.46 l
o
/bg { 1 1 1 srgb } def
470.73 123.21 17.28 11.52 r p3
np
470.73 128.97 m
17.28 0 l
o
0.00 0.00 657.75 449.25 cl
0.00 0.00 657.75 449.25 cl
/bg { 0.9490 0.9490 0.9490 srgb } def
1 1 1 srgb
1.06 setlinewidth
[] 0 setdash
1 setlinecap
1 setlinejoin
10.00 setmiterlimit
467.85 94.41 23.04 23.04 r p3
0.00 0.00 657.75 449.25 cl
0.00 0.00 657.75 449.25 cl
0 0.7294 0.2196 srgb
1.06 setlinewidth
[] 0 setdash
1 setlinecap
1 setlinejoin
10.00 setmiterlimit
np
479.37 96.72 m
0 3.45 l
o
np
479.37 111.69 m
0 3.46 l
o
/bg { 1 1 1 srgb } def
470.73 100.17 17.28 11.52 r p3
np
470.73 105.93 m
17.28 0 l
o
0.00 0.00 657.75 449.25 cl
0.00 0.00 657.75 449.25 cl
/bg { 0.9490 0.9490 0.9490 srgb } def
1 1 1 srgb
1.06 setlinewidth
[] 0 setdash
1 setlinecap
1 setlinejoin
10.00 setmiterlimit
467.85 71.37 23.04 23.04 r p3
0.00 0.00 657.75 449.25 cl
0.00 0.00 657.75 449.25 cl
0.3804 0.6118 1 srgb
1.06 setlinewidth
[] 0 setdash
1 setlinecap
1 setlinejoin
10.00 setmiterlimit
np
479.37 73.68 m
0 3.45 l
o
np
479.37 88.65 m
0 3.46 l
o
/bg { 1 1 1 srgb } def
470.73 77.13 17.28 11.52 r p3
np
470.73 82.89 m
17.28 0 l
o
0.00 0.00 657.75 449.25 cl
0.00 0.00 657.75 449.25 cl
/Font1 findfont 10 s
0 0 0 srgb
493.77 125.38 (LAHC) 0 0 t
0.00 0.00 657.75 449.25 cl
0.00 0.00 657.75 449.25 cl
/Font1 findfont 10 s
0 0 0 srgb
493.77 102.34 (SA) 0 0 t
0.00 0.00 657.75 449.25 cl
0.00 0.00 657.75 449.25 cl
/Font1 findfont 10 s
0 0 0 srgb
493.77 79.30 (HC) 0 0 t
0.00 0.00 657.75 449.25 cl
0.00 0.00 657.75 449.25 cl
0.00 0.00 657.75 449.25 cl
0.00 0.00 657.75 449.25 cl
0.00 0.00 657.75 449.25 cl
0.00 0.00 657.75 449.25 cl
0.00 0.00 657.75 449.25 cl
ep
%%Trailer
%%Pages: 1
%%EOF
