%!PS-Adobe-3.0 EPSF-3.0
%%DocumentNeededResources: font Helvetica
%%+ font Helvetica-Bold
%%+ font Helvetica-Oblique
%%+ font Helvetica-BoldOblique
%%+ font Symbol
%%Title: R Graphics Output
%%Creator: R Software
%%Pages: (atend)
%%BoundingBox: 0 0 658 449
%%EndComments
%%BeginProlog
/bp  { gs sRGB gs } def
% begin .ps.prolog
/gs  { gsave } bind def
/gr  { grestore } bind def
/ep  { showpage gr gr } bind def
/m   { moveto } bind def
/l  { rlineto } bind def
/np  { newpath } bind def
/cp  { closepath } bind def
/f   { fill } bind def
/o   { stroke } bind def
/c   { newpath 0 360 arc } bind def
/r   { 4 2 roll moveto 1 copy 3 -1 roll exch 0 exch rlineto 0 rlineto -1 mul 0 exch rlineto closepath } bind def
/p1  { stroke } bind def
/p2  { gsave bg fill grestore newpath } bind def
/p3  { gsave bg fill grestore stroke } bind def
/p6  { gsave bg eofill grestore newpath } bind def
/p7  { gsave bg eofill grestore stroke } bind def
/t   { 5 -2 roll moveto gsave rotate
       1 index stringwidth pop
       mul neg 0 rmoveto show grestore } bind def
/ta  { 4 -2 roll moveto gsave rotate show } bind def
/tb  { 2 -1 roll 0 rmoveto show } bind def
/cl  { grestore gsave newpath 3 index 3 index moveto 1 index
       4 -1 roll lineto  exch 1 index lineto lineto
       closepath clip newpath } bind def
/rgb { setrgbcolor } bind def
/s   { scalefont setfont } bind def
% end   .ps.prolog
/sRGB { [ /CIEBasedABC
          << /DecodeLMN
               [ { dup 0.03928 le
                        {12.92321 div}
                        {0.055 add 1.055 div 2.4 exp }
                     ifelse
                 } bind dup dup
               ]
             /MatrixLMN [0.412457 0.212673 0.019334
                         0.357576 0.715152 0.119192
                         0.180437 0.072175 0.950301]
             /WhitePoint [0.9505 1.0 1.0890]
           >>
         ] setcolorspace } bind def
/srgb { setcolor } bind def
%%IncludeResource: font Helvetica
/Helvetica findfont
dup length dict begin
  {1 index /FID ne {def} {pop pop} ifelse} forall
  /Encoding ISOLatin1Encoding def
  currentdict
  end
/Font1 exch definefont pop
%%IncludeResource: font Helvetica-Bold
/Helvetica-Bold findfont
dup length dict begin
  {1 index /FID ne {def} {pop pop} ifelse} forall
  /Encoding ISOLatin1Encoding def
  currentdict
  end
/Font2 exch definefont pop
%%IncludeResource: font Helvetica-Oblique
/Helvetica-Oblique findfont
dup length dict begin
  {1 index /FID ne {def} {pop pop} ifelse} forall
  /Encoding ISOLatin1Encoding def
  currentdict
  end
/Font3 exch definefont pop
%%IncludeResource: font Helvetica-BoldOblique
/Helvetica-BoldOblique findfont
dup length dict begin
  {1 index /FID ne {def} {pop pop} ifelse} forall
  /Encoding ISOLatin1Encoding def
  currentdict
  end
/Font4 exch definefont pop
%%IncludeResource: font Symbol
/Symbol findfont
dup length dict begin
  {1 index /FID ne {def} {pop pop} ifelse} forall
  currentdict
  end
/Font5 exch definefont pop
%%EndProlog
%%Page: 1 1
bp
0.00 0.00 657.75 449.25 cl
0.00 195.33 571.96 449.25 cl
/bg { 1 1 1 srgb } def
1 1 1 srgb
1.06 setlinewidth
[] 0 setdash
1 setlinecap
1 setlinejoin
10.00 setmiterlimit
0.00 195.33 571.96 253.92 r p3
0.00 0.00 657.75 449.25 cl
0.00 0.00 657.75 449.25 cl
0.00 0.00 657.75 449.25 cl
48.80 237.41 404.46 410.40 cl
/bg { 0.8980 0.8980 0.8980 srgb } def
48.80 237.41 355.66 172.99 r p2
0.9490 0.9490 0.9490 srgb
0.53 setlinewidth
[] 0 setdash
0 setlinecap
1 setlinejoin
10.00 setmiterlimit
np
48.80 271.76 m
355.66 0 l
o
np
48.80 324.73 m
355.66 0 l
o
np
48.80 377.70 m
355.66 0 l
o
1 1 1 srgb
1.06 setlinewidth
[] 0 setdash
np
48.80 245.27 m
355.66 0 l
o
np
48.80 298.24 m
355.66 0 l
o
np
48.80 351.22 m
355.66 0 l
o
np
48.80 404.19 m
355.66 0 l
o
np
99.61 237.41 m
0 172.99 l
o
np
184.29 237.41 m
0 172.99 l
o
np
268.97 237.41 m
0 172.99 l
o
np
353.65 237.41 m
0 172.99 l
o
/bg { 0 0 0 srgb } def
70.50 264.19 2.13 c p2
70.50 283.11 2.13 c p2
70.50 264.19 2.13 c p2
70.50 292.57 2.13 c p2
70.50 264.19 2.13 c p2
70.50 264.19 2.13 c p2
70.50 264.19 2.13 c p2
70.50 283.11 2.13 c p2
70.50 283.11 2.13 c p2
70.50 264.19 2.13 c p2
70.50 250.00 2.13 c p2
0.9725 0.4627 0.4275 srgb
np
70.50 245.27 m
0 0 l
o
np
70.50 245.27 m
0 0 l
o
/bg { 1 1 1 srgb } def
1 setlinecap
np
 67.86 245.27 m
0 0 l
5.29 0 l
0 0 l
-5.29 0 l
cp p3
2.13 setlinewidth
[] 0 setdash
0 setlinecap
np
67.86 245.27 m
5.29 0 l
o
/bg { 0 0 0 srgb } def
75.79 276.01 2.13 c p2
75.79 264.19 2.13 c p2
75.79 264.19 2.13 c p2
75.79 254.73 2.13 c p2
75.79 264.19 2.13 c p2
75.79 264.19 2.13 c p2
75.79 292.57 2.13 c p2
0.8706 0.5490 0 srgb
1.06 setlinewidth
[] 0 setdash
np
75.79 245.27 m
0 0 l
o
np
75.79 245.27 m
0 0 l
o
/bg { 1 1 1 srgb } def
1 setlinecap
np
 73.15 245.27 m
0 0 l
5.29 0 l
0 0 l
-5.29 0 l
cp p3
2.13 setlinewidth
[] 0 setdash
0 setlinecap
np
73.15 245.27 m
5.29 0 l
o
/bg { 0 0 0 srgb } def
81.09 277.20 2.13 c p2
81.09 264.19 2.13 c p2
81.09 264.19 2.13 c p2
81.09 254.73 2.13 c p2
81.09 264.19 2.13 c p2
81.09 264.19 2.13 c p2
81.09 264.19 2.13 c p2
81.09 264.19 2.13 c p2
0.7176 0.6235 0 srgb
1.06 setlinewidth
[] 0 setdash
np
81.09 245.27 m
0 0 l
o
np
81.09 245.27 m
0 0 l
o
/bg { 1 1 1 srgb } def
1 setlinecap
np
 78.44 245.27 m
0 0 l
5.29 0 l
0 0 l
-5.29 0 l
cp p3
2.13 setlinewidth
[] 0 setdash
0 setlinecap
np
78.44 245.27 m
5.29 0 l
o
/bg { 0 0 0 srgb } def
86.38 283.11 2.13 c p2
86.38 264.19 2.13 c p2
86.38 257.10 2.13 c p2
86.38 292.57 2.13 c p2
86.38 283.11 2.13 c p2
86.38 268.92 2.13 c p2
86.38 254.73 2.13 c p2
86.38 264.19 2.13 c p2
86.38 264.19 2.13 c p2
86.38 264.19 2.13 c p2
86.38 283.11 2.13 c p2
86.38 264.19 2.13 c p2
86.38 264.19 2.13 c p2
0.4863 0.6824 0 srgb
1.06 setlinewidth
[] 0 setdash
np
86.38 245.27 m
0 0 l
o
np
86.38 245.27 m
0 0 l
o
/bg { 1 1 1 srgb } def
1 setlinecap
np
 83.73 245.27 m
0 0 l
5.30 0 l
0 0 l
-5.30 0 l
cp p3
2.13 setlinewidth
[] 0 setdash
0 setlinecap
np
83.73 245.27 m
5.30 0 l
o
/bg { 0 0 0 srgb } def
91.67 283.11 2.13 c p2
91.67 287.84 2.13 c p2
91.67 326.86 2.13 c p2
91.67 254.73 2.13 c p2
91.67 338.68 2.13 c p2
91.67 264.19 2.13 c p2
91.67 332.77 2.13 c p2
91.67 264.19 2.13 c p2
91.67 273.65 2.13 c p2
91.67 264.19 2.13 c p2
91.67 281.93 2.13 c p2
91.67 264.19 2.13 c p2
91.67 341.05 2.13 c p2
91.67 302.03 2.13 c p2
91.67 339.87 2.13 c p2
91.67 264.19 2.13 c p2
91.67 313.85 2.13 c p2
91.67 264.19 2.13 c p2
91.67 315.03 2.13 c p2
91.67 385.98 2.13 c p2
91.67 264.19 2.13 c p2
91.67 264.19 2.13 c p2
91.67 297.30 2.13 c p2
91.67 317.40 2.13 c p2
0 0.7294 0.2196 srgb
1.06 setlinewidth
[] 0 setdash
np
91.67 245.27 m
0 0 l
o
np
91.67 245.27 m
0 0 l
o
/bg { 1 1 1 srgb } def
1 setlinecap
np
 89.03 245.27 m
0 0 l
5.29 0 l
0 0 l
-5.29 0 l
cp p3
2.13 setlinewidth
[] 0 setdash
0 setlinecap
np
89.03 245.27 m
5.29 0 l
o
/bg { 0 0 0 srgb } def
96.97 264.19 2.13 c p2
96.97 283.11 2.13 c p2
96.97 312.67 2.13 c p2
96.97 264.19 2.13 c p2
96.97 320.95 2.13 c p2
96.97 313.85 2.13 c p2
96.97 283.11 2.13 c p2
96.97 312.67 2.13 c p2
96.97 312.67 2.13 c p2
96.97 264.19 2.13 c p2
96.97 264.19 2.13 c p2
96.97 315.03 2.13 c p2
96.97 283.11 2.13 c p2
96.97 310.31 2.13 c p2
96.97 313.85 2.13 c p2
96.97 292.57 2.13 c p2
96.97 317.40 2.13 c p2
96.97 319.76 2.13 c p2
96.97 278.38 2.13 c p2
96.97 264.19 2.13 c p2
96.97 316.22 2.13 c p2
96.97 264.19 2.13 c p2
96.97 264.19 2.13 c p2
96.97 316.22 2.13 c p2
96.97 313.85 2.13 c p2
0 0.7529 0.5451 srgb
1.06 setlinewidth
[] 0 setdash
np
96.97 250.00 m
0 0 l
o
np
96.97 245.27 m
0 0 l
o
/bg { 1 1 1 srgb } def
1 setlinecap
np
 94.32 250.00 m
0 -4.73 l
5.29 0 l
0 4.73 l
-5.29 0 l
cp p3
2.13 setlinewidth
[] 0 setdash
0 setlinecap
np
94.32 245.27 m
5.29 0 l
o
/bg { 0 0 0 srgb } def
102.26 264.19 2.13 c p2
102.26 391.89 2.13 c p2
102.26 264.19 2.13 c p2
102.26 264.19 2.13 c p2
102.26 264.19 2.13 c p2
102.26 312.67 2.13 c p2
102.26 307.94 2.13 c p2
102.26 312.67 2.13 c p2
102.26 312.67 2.13 c p2
102.26 315.03 2.13 c p2
102.26 264.19 2.13 c p2
102.26 283.11 2.13 c p2
102.26 312.67 2.13 c p2
102.26 307.94 2.13 c p2
102.26 264.19 2.13 c p2
102.26 338.68 2.13 c p2
102.26 313.85 2.13 c p2
102.26 315.03 2.13 c p2
102.26 264.19 2.13 c p2
102.26 362.33 2.13 c p2
102.26 311.49 2.13 c p2
102.26 312.67 2.13 c p2
102.26 283.11 2.13 c p2
0 0.7490 0.7686 srgb
1.06 setlinewidth
[] 0 setdash
np
102.26 245.27 m
0 0 l
o
np
102.26 245.27 m
0 0 l
o
/bg { 1 1 1 srgb } def
1 setlinecap
np
 99.61 245.27 m
0 0 l
5.29 0 l
0 0 l
-5.29 0 l
cp p3
2.13 setlinewidth
[] 0 setdash
0 setlinecap
np
99.61 245.27 m
5.29 0 l
o
/bg { 0 0 0 srgb } def
107.55 264.19 2.13 c p2
107.55 273.65 2.13 c p2
107.55 264.19 2.13 c p2
107.55 283.11 2.13 c p2
107.55 283.11 2.13 c p2
107.55 264.19 2.13 c p2
107.55 283.11 2.13 c p2
107.55 273.65 2.13 c p2
107.55 264.19 2.13 c p2
107.55 264.19 2.13 c p2
107.55 264.19 2.13 c p2
107.55 264.19 2.13 c p2
107.55 264.19 2.13 c p2
107.55 264.19 2.13 c p2
107.55 283.11 2.13 c p2
107.55 283.11 2.13 c p2
107.55 264.19 2.13 c p2
107.55 292.57 2.13 c p2
107.55 283.11 2.13 c p2
107.55 264.19 2.13 c p2
107.55 254.73 2.13 c p2
107.55 264.19 2.13 c p2
107.55 264.19 2.13 c p2
0 0.7059 0.9412 srgb
1.06 setlinewidth
[] 0 setdash
np
107.55 245.27 m
0 0 l
o
np
107.55 245.27 m
0 0 l
o
/bg { 1 1 1 srgb } def
1 setlinecap
np
 104.90 245.27 m
0 0 l
5.30 0 l
0 0 l
-5.30 0 l
cp p3
2.13 setlinewidth
[] 0 setdash
0 setlinecap
np
104.90 245.27 m
5.30 0 l
o
0.3804 0.6118 1 srgb
1.06 setlinewidth
[] 0 setdash
np
112.84 245.27 m
0 0 l
o
np
112.84 245.27 m
0 0 l
o
1 setlinecap
np
 110.20 245.27 m
0 0 l
5.29 0 l
0 0 l
-5.29 0 l
cp p3
2.13 setlinewidth
[] 0 setdash
0 setlinecap
np
110.20 245.27 m
5.29 0 l
o
0.7804 0.4863 1 srgb
1.06 setlinewidth
[] 0 setdash
np
118.14 245.27 m
0 0 l
o
np
118.14 245.27 m
0 0 l
o
1 setlinecap
np
 115.49 245.27 m
0 0 l
5.29 0 l
0 0 l
-5.29 0 l
cp p3
2.13 setlinewidth
[] 0 setdash
0 setlinecap
np
115.49 245.27 m
5.29 0 l
o
0.9608 0.3922 0.8902 srgb
1.06 setlinewidth
[] 0 setdash
np
123.43 245.27 m
0 0 l
o
np
123.43 245.27 m
0 0 l
o
1 setlinecap
np
 120.78 245.27 m
0 0 l
5.29 0 l
0 0 l
-5.29 0 l
cp p3
2.13 setlinewidth
[] 0 setdash
0 setlinecap
np
120.78 245.27 m
5.29 0 l
o
1 0.3922 0.6902 srgb
1.06 setlinewidth
[] 0 setdash
np
128.72 245.27 m
0 0 l
o
np
128.72 245.27 m
0 0 l
o
1 setlinecap
np
 126.07 245.27 m
0 0 l
5.30 0 l
0 0 l
-5.30 0 l
cp p3
2.13 setlinewidth
[] 0 setdash
0 setlinecap
np
126.07 245.27 m
5.30 0 l
o
/bg { 0 0 0 srgb } def
155.18 375.34 2.13 c p2
155.18 381.25 2.13 c p2
155.18 377.70 2.13 c p2
155.18 393.08 2.13 c p2
155.18 375.34 2.13 c p2
0.9725 0.4627 0.4275 srgb
1.06 setlinewidth
[] 0 setdash
np
155.18 316.81 m
0 57.35 l
o
np
155.18 277.79 m
0 -32.52 l
o
/bg { 1 1 1 srgb } def
1 setlinecap
np
 152.54 316.81 m
0 -39.02 l
5.29 0 l
0 39.02 l
-5.29 0 l
cp p3
2.13 setlinewidth
[] 0 setdash
0 setlinecap
np
152.54 293.75 m
5.29 0 l
o
0.8706 0.5490 0 srgb
1.06 setlinewidth
[] 0 setdash
np
160.48 319.17 m
0 72.72 l
o
np
160.48 264.19 m
0 -18.92 l
o
1 setlinecap
np
 157.83 319.17 m
0 -54.98 l
5.29 0 l
0 54.98 l
-5.29 0 l
cp p3
2.13 setlinewidth
[] 0 setdash
0 setlinecap
np
157.83 292.57 m
5.29 0 l
o
/bg { 0 0 0 srgb } def
165.77 385.98 2.13 c p2
165.77 385.98 2.13 c p2
165.77 387.16 2.13 c p2
165.77 394.26 2.13 c p2
0.7176 0.6235 0 srgb
1.06 setlinewidth
[] 0 setdash
np
165.77 312.08 m
0 60.89 l
o
np
165.77 264.19 m
0 -18.92 l
o
/bg { 1 1 1 srgb } def
1 setlinecap
np
 163.12 312.08 m
0 -47.89 l
5.29 0 l
0 47.89 l
-5.29 0 l
cp p3
2.13 setlinewidth
[] 0 setdash
0 setlinecap
np
163.12 291.39 m
5.29 0 l
o
0.4863 0.6824 0 srgb
1.06 setlinewidth
[] 0 setdash
np
171.06 302.03 m
0 66.21 l
o
np
171.06 254.73 m
0 -9.46 l
o
1 setlinecap
np
 168.41 302.03 m
0 -47.30 l
5.30 0 l
0 47.30 l
-5.30 0 l
cp p3
2.13 setlinewidth
[] 0 setdash
0 setlinecap
np
168.41 283.11 m
5.30 0 l
o
0 0.7294 0.2196 srgb
1.06 setlinewidth
[] 0 setdash
np
176.35 349.33 m
0 46.11 l
o
np
176.35 283.11 m
0 -37.84 l
o
1 setlinecap
np
 173.71 349.33 m
0 -66.22 l
5.29 0 l
0 66.22 l
-5.29 0 l
cp p3
2.13 setlinewidth
[] 0 setdash
0 setlinecap
np
173.71 319.76 m
5.29 0 l
o
0 0.7529 0.5451 srgb
1.06 setlinewidth
[] 0 setdash
np
181.65 342.23 m
0 53.21 l
o
np
181.65 283.11 m
0 -37.84 l
o
1 setlinecap
np
 179.00 342.23 m
0 -59.12 l
5.29 0 l
0 59.12 l
-5.29 0 l
cp p3
2.13 setlinewidth
[] 0 setdash
0 setlinecap
np
179.00 302.03 m
5.29 0 l
o
0 0.7490 0.7686 srgb
1.06 setlinewidth
[] 0 setdash
np
186.94 344.60 m
0 49.66 l
o
np
186.94 283.11 m
0 -37.84 l
o
1 setlinecap
np
 184.29 344.60 m
0 -61.49 l
5.30 0 l
0 61.49 l
-5.30 0 l
cp p3
2.13 setlinewidth
[] 0 setdash
0 setlinecap
np
184.29 302.03 m
5.30 0 l
o
/bg { 0 0 0 srgb } def
192.23 395.44 2.13 c p2
192.23 385.98 2.13 c p2
0 0.7059 0.9412 srgb
1.06 setlinewidth
[] 0 setdash
np
192.23 317.40 m
0 52.03 l
o
np
192.23 280.15 m
0 -34.88 l
o
/bg { 1 1 1 srgb } def
1 setlinecap
np
 189.59 317.40 m
0 -37.25 l
5.29 0 l
0 37.25 l
-5.29 0 l
cp p3
2.13 setlinewidth
[] 0 setdash
0 setlinecap
np
189.59 297.30 m
5.29 0 l
o
/bg { 0 0 0 srgb } def
197.52 319.76 2.13 c p2
197.52 317.40 2.13 c p2
0.3804 0.6118 1 srgb
1.06 setlinewidth
[] 0 setdash
np
197.52 264.19 m
0 18.92 l
o
np
197.52 245.27 m
0 0 l
o
/bg { 1 1 1 srgb } def
1 setlinecap
np
 194.88 264.19 m
0 -18.92 l
5.29 0 l
0 18.92 l
-5.29 0 l
cp p3
2.13 setlinewidth
[] 0 setdash
0 setlinecap
np
194.88 245.27 m
5.29 0 l
o
/bg { 0 0 0 srgb } def
202.82 312.67 2.13 c p2
0.7804 0.4863 1 srgb
1.06 setlinewidth
[] 0 setdash
np
202.82 264.19 m
0 18.92 l
o
np
202.82 245.27 m
0 0 l
o
/bg { 1 1 1 srgb } def
1 setlinecap
np
 200.17 264.19 m
0 -18.92 l
5.29 0 l
0 18.92 l
-5.29 0 l
cp p3
2.13 setlinewidth
[] 0 setdash
0 setlinecap
np
200.17 245.27 m
5.29 0 l
o
/bg { 0 0 0 srgb } def
208.11 356.42 2.13 c p2
208.11 298.48 2.13 c p2
0.9608 0.3922 0.8902 srgb
1.06 setlinewidth
[] 0 setdash
np
208.11 264.19 m
0 18.92 l
o
np
208.11 245.27 m
0 0 l
o
/bg { 1 1 1 srgb } def
1 setlinecap
np
 205.46 264.19 m
0 -18.92 l
5.30 0 l
0 18.92 l
-5.30 0 l
cp p3
2.13 setlinewidth
[] 0 setdash
0 setlinecap
np
205.46 245.27 m
5.30 0 l
o
/bg { 0 0 0 srgb } def
213.40 320.95 2.13 c p2
1 0.3922 0.6902 srgb
1.06 setlinewidth
[] 0 setdash
np
213.40 264.19 m
0 18.92 l
o
np
213.40 245.27 m
0 0 l
o
/bg { 1 1 1 srgb } def
1 setlinecap
np
 210.76 264.19 m
0 -18.92 l
5.29 0 l
0 18.92 l
-5.29 0 l
cp p3
2.13 setlinewidth
[] 0 setdash
0 setlinecap
np
210.76 245.27 m
5.29 0 l
o
0.9725 0.4627 0.4275 srgb
1.06 setlinewidth
[] 0 setdash
np
239.86 374.45 m
0 22.17 l
o
np
239.86 313.85 m
0 -68.58 l
o
1 setlinecap
np
 237.22 374.45 m
0 -60.60 l
5.29 0 l
0 60.60 l
-5.29 0 l
cp p3
2.13 setlinewidth
[] 0 setdash
0 setlinecap
np
237.22 341.64 m
5.29 0 l
o
0.8706 0.5490 0 srgb
1.06 setlinewidth
[] 0 setdash
np
245.16 368.84 m
0 31.33 l
o
np
245.16 311.49 m
0 -47.30 l
o
1 setlinecap
np
 242.51 368.84 m
0 -57.35 l
5.29 0 l
0 57.35 l
-5.29 0 l
cp p3
2.13 setlinewidth
[] 0 setdash
0 setlinecap
np
242.51 344.60 m
5.29 0 l
o
0.7176 0.6235 0 srgb
1.06 setlinewidth
[] 0 setdash
np
250.45 367.36 m
0 31.63 l
o
np
250.45 301.73 m
0 -42.27 l
o
1 setlinecap
np
 247.80 367.36 m
0 -65.63 l
5.30 0 l
0 65.63 l
-5.30 0 l
cp p3
2.13 setlinewidth
[] 0 setdash
0 setlinecap
np
247.80 342.23 m
5.30 0 l
o
0.4863 0.6824 0 srgb
1.06 setlinewidth
[] 0 setdash
np
255.74 363.51 m
0 33.11 l
o
np
255.74 304.39 m
0 -49.66 l
o
1 setlinecap
np
 253.10 363.51 m
0 -59.12 l
5.29 0 l
0 59.12 l
-5.29 0 l
cp p3
2.13 setlinewidth
[] 0 setdash
0 setlinecap
np
253.10 341.64 m
5.29 0 l
o
/bg { 0 0 0 srgb } def
261.03 278.38 2.13 c p2
261.03 254.73 2.13 c p2
0 0.7294 0.2196 srgb
1.06 setlinewidth
[] 0 setdash
np
261.03 382.43 m
0 17.74 l
o
np
261.03 344.60 m
0 -52.03 l
o
/bg { 1 1 1 srgb } def
1 setlinecap
np
 258.39 382.43 m
0 -37.83 l
5.29 0 l
0 37.83 l
-5.29 0 l
cp p3
2.13 setlinewidth
[] 0 setdash
0 setlinecap
np
258.39 365.88 m
5.29 0 l
o
0 0.7529 0.5451 srgb
1.06 setlinewidth
[] 0 setdash
np
266.33 380.36 m
0 16.26 l
o
np
266.33 344.30 m
0 -51.73 l
o
1 setlinecap
np
 263.68 380.36 m
0 -36.06 l
5.29 0 l
0 36.06 l
-5.29 0 l
cp p3
2.13 setlinewidth
[] 0 setdash
0 setlinecap
np
263.68 368.24 m
5.29 0 l
o
/bg { 0 0 0 srgb } def
271.62 245.27 2.13 c p2
0 0.7490 0.7686 srgb
1.06 setlinewidth
[] 0 setdash
np
271.62 385.98 m
0 10.64 l
o
np
271.62 339.87 m
0 -63.86 l
o
/bg { 1 1 1 srgb } def
1 setlinecap
np
 268.97 385.98 m
0 -46.11 l
5.30 0 l
0 46.11 l
-5.30 0 l
cp p3
2.13 setlinewidth
[] 0 setdash
0 setlinecap
np
268.97 370.02 m
5.30 0 l
o
/bg { 0 0 0 srgb } def
276.91 287.84 2.13 c p2
0 0.7059 0.9412 srgb
1.06 setlinewidth
[] 0 setdash
np
276.91 378.00 m
0 17.44 l
o
np
276.91 344.30 m
0 -48.18 l
o
/bg { 1 1 1 srgb } def
1 setlinecap
np
 274.27 378.00 m
0 -33.70 l
5.29 0 l
0 33.70 l
-5.29 0 l
cp p3
2.13 setlinewidth
[] 0 setdash
0 setlinecap
np
274.27 362.33 m
5.29 0 l
o
/bg { 0 0 0 srgb } def
282.21 372.97 2.13 c p2
0.3804 0.6118 1 srgb
1.06 setlinewidth
[] 0 setdash
np
282.21 292.57 m
0 65.03 l
o
np
282.21 248.82 m
0 -3.55 l
o
/bg { 1 1 1 srgb } def
1 setlinecap
np
 279.56 292.57 m
0 -43.75 l
5.29 0 l
0 43.75 l
-5.29 0 l
cp p3
2.13 setlinewidth
[] 0 setdash
0 setlinecap
np
279.56 273.65 m
5.29 0 l
o
0.7804 0.4863 1 srgb
1.06 setlinewidth
[] 0 setdash
np
287.50 287.84 m
0 60.30 l
o
np
287.50 245.27 m
0 0 l
o
1 setlinecap
np
 284.85 287.84 m
0 -42.57 l
5.29 0 l
0 42.57 l
-5.29 0 l
cp p3
2.13 setlinewidth
[] 0 setdash
0 setlinecap
np
284.85 264.19 m
5.29 0 l
o
/bg { 0 0 0 srgb } def
292.79 370.61 2.13 c p2
292.79 365.88 2.13 c p2
292.79 361.15 2.13 c p2
292.79 352.87 2.13 c p2
292.79 354.06 2.13 c p2
0.9608 0.3922 0.8902 srgb
1.06 setlinewidth
[] 0 setdash
np
292.79 298.19 m
0 41.68 l
o
np
292.79 263.01 m
0 -17.74 l
o
/bg { 1 1 1 srgb } def
1 setlinecap
np
 290.14 298.19 m
0 -35.18 l
5.30 0 l
0 35.18 l
-5.30 0 l
cp p3
2.13 setlinewidth
[] 0 setdash
0 setlinecap
np
290.14 273.65 m
5.30 0 l
o
/bg { 0 0 0 srgb } def
298.08 357.60 2.13 c p2
298.08 357.60 2.13 c p2
1 0.3922 0.6902 srgb
1.06 setlinewidth
[] 0 setdash
np
298.08 283.11 m
0 52.03 l
o
np
298.08 245.27 m
0 0 l
o
/bg { 1 1 1 srgb } def
1 setlinecap
np
 295.44 283.11 m
0 -37.84 l
5.29 0 l
0 37.84 l
-5.29 0 l
cp p3
2.13 setlinewidth
[] 0 setdash
0 setlinecap
np
295.44 264.19 m
5.29 0 l
o
/bg { 0 0 0 srgb } def
324.55 287.84 2.13 c p2
324.55 292.57 2.13 c p2
324.55 283.11 2.13 c p2
0.9725 0.4627 0.4275 srgb
1.06 setlinewidth
[] 0 setdash
np
324.55 377.70 m
0 18.92 l
o
np
324.55 344.30 m
0 -48.18 l
o
/bg { 1 1 1 srgb } def
1 setlinecap
np
 321.90 377.70 m
0 -33.40 l
5.29 0 l
0 33.40 l
-5.29 0 l
cp p3
2.13 setlinewidth
[] 0 setdash
0 setlinecap
np
321.90 361.15 m
5.29 0 l
o
/bg { 0 0 0 srgb } def
329.84 285.47 2.13 c p2
0.8706 0.5490 0 srgb
1.06 setlinewidth
[] 0 setdash
np
329.84 381.55 m
0 20.98 l
o
np
329.84 349.33 m
0 -36.66 l
o
/bg { 1 1 1 srgb } def
1 setlinecap
np
 327.19 381.55 m
0 -32.22 l
5.29 0 l
0 32.22 l
-5.29 0 l
cp p3
2.13 setlinewidth
[] 0 setdash
0 setlinecap
np
327.19 368.84 m
5.29 0 l
o
/bg { 0 0 0 srgb } def
335.13 264.19 2.13 c p2
335.13 281.93 2.13 c p2
335.13 273.65 2.13 c p2
0.7176 0.6235 0 srgb
1.06 setlinewidth
[] 0 setdash
np
335.13 377.70 m
0 21.29 l
o
np
335.13 341.64 m
0 -34.88 l
o
/bg { 1 1 1 srgb } def
1 setlinecap
np
 332.48 377.70 m
0 -36.06 l
5.30 0 l
0 36.06 l
-5.30 0 l
cp p3
2.13 setlinewidth
[] 0 setdash
0 setlinecap
np
332.48 361.15 m
5.30 0 l
o
0.4863 0.6824 0 srgb
1.06 setlinewidth
[] 0 setdash
np
340.42 380.07 m
0 17.73 l
o
np
340.42 346.96 m
0 -47.30 l
o
1 setlinecap
np
 337.78 380.07 m
0 -33.11 l
5.29 0 l
0 33.11 l
-5.29 0 l
cp p3
2.13 setlinewidth
[] 0 setdash
0 setlinecap
np
337.78 368.24 m
5.29 0 l
o
/bg { 0 0 0 srgb } def
345.72 332.77 2.13 c p2
345.72 330.41 2.13 c p2
345.72 333.95 2.13 c p2
345.72 333.95 2.13 c p2
0 0.7294 0.2196 srgb
1.06 setlinewidth
[] 0 setdash
np
345.72 387.16 m
0 11.83 l
o
np
345.72 369.43 m
0 -24.83 l
o
/bg { 1 1 1 srgb } def
1 setlinecap
np
 343.07 387.16 m
0 -17.73 l
5.29 0 l
0 17.73 l
-5.29 0 l
cp p3
2.13 setlinewidth
[] 0 setdash
0 setlinecap
np
343.07 377.70 m
5.29 0 l
o
/bg { 0 0 0 srgb } def
351.01 318.58 2.13 c p2
0 0.7529 0.5451 srgb
1.06 setlinewidth
[] 0 setdash
np
351.01 389.53 m
0 10.64 l
o
np
351.01 368.24 m
0 -22.46 l
o
/bg { 1 1 1 srgb } def
1 setlinecap
np
 348.36 389.53 m
0 -21.29 l
5.29 0 l
0 21.29 l
-5.29 0 l
cp p3
2.13 setlinewidth
[] 0 setdash
0 setlinecap
np
348.36 378.89 m
5.29 0 l
o
/bg { 0 0 0 srgb } def
356.30 335.14 2.13 c p2
356.30 344.60 2.13 c p2
0 0.7490 0.7686 srgb
1.06 setlinewidth
[] 0 setdash
np
356.30 385.09 m
0 11.53 l
o
np
356.30 369.43 m
0 -22.47 l
o
/bg { 1 1 1 srgb } def
1 setlinecap
np
 353.65 385.09 m
0 -15.66 l
5.30 0 l
0 15.66 l
-5.30 0 l
cp p3
2.13 setlinewidth
[] 0 setdash
0 setlinecap
np
353.65 379.48 m
5.30 0 l
o
/bg { 0 0 0 srgb } def
361.59 344.60 2.13 c p2
361.59 393.08 2.13 c p2
361.59 395.44 2.13 c p2
361.59 320.95 2.13 c p2
361.59 391.89 2.13 c p2
361.59 354.06 2.13 c p2
361.59 328.04 2.13 c p2
361.59 394.26 2.13 c p2
361.59 336.32 2.13 c p2
361.59 335.14 2.13 c p2
361.59 345.78 2.13 c p2
361.59 391.89 2.13 c p2
361.59 394.26 2.13 c p2
361.59 393.08 2.13 c p2
0 0.7059 0.9412 srgb
1.06 setlinewidth
[] 0 setdash
np
361.59 381.25 m
0 9.46 l
o
np
361.59 374.16 m
0 -9.46 l
o
/bg { 1 1 1 srgb } def
1 setlinecap
np
 358.95 381.25 m
0 -7.09 l
5.29 0 l
0 7.09 l
-5.29 0 l
cp p3
2.13 setlinewidth
[] 0 setdash
0 setlinecap
np
358.95 377.70 m
5.29 0 l
o
0.3804 0.6118 1 srgb
1.06 setlinewidth
[] 0 setdash
np
366.89 330.41 m
0 49.66 l
o
np
366.89 278.38 m
0 -33.11 l
o
1 setlinecap
np
 364.24 330.41 m
0 -52.03 l
5.29 0 l
0 52.03 l
-5.29 0 l
cp p3
2.13 setlinewidth
[] 0 setdash
0 setlinecap
np
364.24 310.31 m
5.29 0 l
o
0.7804 0.4863 1 srgb
1.06 setlinewidth
[] 0 setdash
np
372.18 321.83 m
0 74.79 l
o
np
372.18 268.92 m
0 -23.65 l
o
1 setlinecap
np
 369.53 321.83 m
0 -52.91 l
5.30 0 l
0 52.91 l
-5.30 0 l
cp p3
2.13 setlinewidth
[] 0 setdash
0 setlinecap
np
369.53 297.30 m
5.30 0 l
o
0.9608 0.3922 0.8902 srgb
1.06 setlinewidth
[] 0 setdash
np
377.47 329.52 m
0 67.10 l
o
np
377.47 278.38 m
0 -33.11 l
o
1 setlinecap
np
 374.83 329.52 m
0 -51.14 l
5.29 0 l
0 51.14 l
-5.29 0 l
cp p3
2.13 setlinewidth
[] 0 setdash
0 setlinecap
np
374.83 309.71 m
5.29 0 l
o
1 0.3922 0.6902 srgb
1.06 setlinewidth
[] 0 setdash
np
382.76 330.70 m
0 55.28 l
o
np
382.76 271.29 m
0 -26.02 l
o
1 setlinecap
np
 380.12 330.70 m
0 -59.41 l
5.29 0 l
0 59.41 l
-5.29 0 l
cp p3
2.13 setlinewidth
[] 0 setdash
0 setlinecap
np
380.12 292.57 m
5.29 0 l
o
0.00 0.00 657.75 449.25 cl
0.00 0.00 657.75 449.25 cl
0.00 0.00 657.75 449.25 cl
/Font1 findfont 10 s
0.4980 0.4980 0.4980 srgb
41.72 241.68 (0.0) 1 0 t
41.72 294.65 (0.2) 1 0 t
41.72 347.63 (0.4) 1 0 t
41.72 400.60 (0.6) 1 0 t
0.00 0.00 657.75 449.25 cl
0.00 0.00 657.75 449.25 cl
0.4980 0.4980 0.4980 srgb
1.06 setlinewidth
[] 0 setdash
0 setlinecap
1 setlinejoin
10.00 setmiterlimit
np
44.55 245.27 m
4.25 0 l
o
np
44.55 298.24 m
4.25 0 l
o
np
44.55 351.22 m
4.25 0 l
o
np
44.55 404.19 m
4.25 0 l
o
0.00 0.00 657.75 449.25 cl
0.00 0.00 657.75 449.25 cl
0.00 0.00 657.75 449.25 cl
0.00 0.00 657.75 449.25 cl
0.00 0.00 657.75 449.25 cl
0.00 0.00 657.75 449.25 cl
0.4980 0.4980 0.4980 srgb
1.06 setlinewidth
[] 0 setdash
0 setlinecap
1 setlinejoin
10.00 setmiterlimit
np
99.61 233.16 m
0 4.25 l
o
np
184.29 233.16 m
0 4.25 l
o
np
268.97 233.16 m
0 4.25 l
o
np
353.65 233.16 m
0 4.25 l
o
0.00 0.00 657.75 449.25 cl
0.00 0.00 657.75 449.25 cl
/Font1 findfont 10 s
0.4980 0.4980 0.4980 srgb
99.61 223.14 (1) .5 0 t
184.29 223.14 (2) .5 0 t
268.97 223.14 (3) .5 0 t
353.65 223.14 (4) .5 0 t
0.00 0.00 657.75 449.25 cl
0.00 0.00 657.75 449.25 cl
0.00 0.00 657.75 449.25 cl
0.00 0.00 657.75 449.25 cl
0.00 0.00 657.75 449.25 cl
/Font1 findfont 12 s
0 0 0 srgb
226.63 209.73 (target) .5 0 t
0.00 0.00 657.75 449.25 cl
0.00 0.00 657.75 449.25 cl
/Font1 findfont 12 s
0 0 0 srgb
23.02 323.90 (error) .5 90 t
0.00 0.00 657.75 449.25 cl
0.00 0.00 657.75 449.25 cl
0.00 0.00 657.75 449.25 cl
0.00 0.00 657.75 449.25 cl
0.00 0.00 657.75 449.25 cl
0.00 0.00 657.75 449.25 cl
/bg { 1 1 1 srgb } def
416.90 175.03 123.42 297.74 r p2
0.00 0.00 657.75 449.25 cl
0.00 0.00 657.75 449.25 cl
0.00 0.00 657.75 449.25 cl
0.00 0.00 657.75 449.25 cl
/bg { 0.9490 0.9490 0.9490 srgb } def
1 1 1 srgb
1.06 setlinewidth
[] 0 setdash
1 setlinecap
1 setlinejoin
10.00 setmiterlimit
421.15 432.72 23.04 23.04 r p3
0.00 0.00 657.75 449.25 cl
0.00 0.00 657.75 449.25 cl
0.9725 0.4627 0.4275 srgb
1.06 setlinewidth
[] 0 setdash
1 setlinecap
1 setlinejoin
10.00 setmiterlimit
np
432.67 435.03 m
0 3.45 l
o
/bg { 1 1 1 srgb } def
424.03 438.48 17.28 11.52 r p3
np
424.03 444.24 m
17.28 0 l
o
0.00 0.00 657.75 449.25 cl
0.00 0.00 657.75 449.25 cl
/bg { 0.9490 0.9490 0.9490 srgb } def
1 1 1 srgb
1.06 setlinewidth
[] 0 setdash
1 setlinecap
1 setlinejoin
10.00 setmiterlimit
421.15 409.68 23.04 23.04 r p3
0.00 0.00 657.75 449.25 cl
0.00 0.00 657.75 449.25 cl
0.8706 0.5490 0 srgb
1.06 setlinewidth
[] 0 setdash
1 setlinecap
1 setlinejoin
10.00 setmiterlimit
np
432.67 411.99 m
0 3.45 l
o
np
432.67 426.96 m
0 3.46 l
o
/bg { 1 1 1 srgb } def
424.03 415.44 17.28 11.52 r p3
np
424.03 421.20 m
17.28 0 l
o
0.00 0.00 657.75 449.25 cl
0.00 0.00 657.75 449.25 cl
/bg { 0.9490 0.9490 0.9490 srgb } def
1 1 1 srgb
1.06 setlinewidth
[] 0 setdash
1 setlinecap
1 setlinejoin
10.00 setmiterlimit
421.15 386.64 23.04 23.04 r p3
0.00 0.00 657.75 449.25 cl
0.00 0.00 657.75 449.25 cl
0.7176 0.6235 0 srgb
1.06 setlinewidth
[] 0 setdash
1 setlinecap
1 setlinejoin
10.00 setmiterlimit
np
432.67 388.95 m
0 3.45 l
o
np
432.67 403.92 m
0 3.46 l
o
/bg { 1 1 1 srgb } def
424.03 392.40 17.28 11.52 r p3
np
424.03 398.16 m
17.28 0 l
o
0.00 0.00 657.75 449.25 cl
0.00 0.00 657.75 449.25 cl
/bg { 0.9490 0.9490 0.9490 srgb } def
1 1 1 srgb
1.06 setlinewidth
[] 0 setdash
1 setlinecap
1 setlinejoin
10.00 setmiterlimit
421.15 363.60 23.04 23.04 r p3
0.00 0.00 657.75 449.25 cl
0.00 0.00 657.75 449.25 cl
0.4863 0.6824 0 srgb
1.06 setlinewidth
[] 0 setdash
1 setlinecap
1 setlinejoin
10.00 setmiterlimit
np
432.67 365.91 m
0 3.45 l
o
np
432.67 380.88 m
0 3.46 l
o
/bg { 1 1 1 srgb } def
424.03 369.36 17.28 11.52 r p3
np
424.03 375.12 m
17.28 0 l
o
0.00 0.00 657.75 449.25 cl
0.00 0.00 657.75 449.25 cl
/bg { 0.9490 0.9490 0.9490 srgb } def
1 1 1 srgb
1.06 setlinewidth
[] 0 setdash
1 setlinecap
1 setlinejoin
10.00 setmiterlimit
421.15 340.56 23.04 23.04 r p3
0.00 0.00 657.75 449.25 cl
0.00 0.00 657.75 449.25 cl
0 0.7294 0.2196 srgb
1.06 setlinewidth
[] 0 setdash
1 setlinecap
1 setlinejoin
10.00 setmiterlimit
np
432.67 342.87 m
0 3.45 l
o
np
432.67 357.84 m
0 3.46 l
o
/bg { 1 1 1 srgb } def
424.03 346.32 17.28 11.52 r p3
np
424.03 352.08 m
17.28 0 l
o
0.00 0.00 657.75 449.25 cl
0.00 0.00 657.75 449.25 cl
/bg { 0.9490 0.9490 0.9490 srgb } def
1 1 1 srgb
1.06 setlinewidth
[] 0 setdash
1 setlinecap
1 setlinejoin
10.00 setmiterlimit
421.15 317.52 23.04 23.04 r p3
0.00 0.00 657.75 449.25 cl
0.00 0.00 657.75 449.25 cl
0 0.7529 0.5451 srgb
1.06 setlinewidth
[] 0 setdash
1 setlinecap
1 setlinejoin
10.00 setmiterlimit
np
432.67 319.83 m
0 3.45 l
o
np
432.67 334.80 m
0 3.46 l
o
/bg { 1 1 1 srgb } def
424.03 323.28 17.28 11.52 r p3
np
424.03 329.04 m
17.28 0 l
o
0.00 0.00 657.75 449.25 cl
0.00 0.00 657.75 449.25 cl
/bg { 0.9490 0.9490 0.9490 srgb } def
1 1 1 srgb
1.06 setlinewidth
[] 0 setdash
1 setlinecap
1 setlinejoin
10.00 setmiterlimit
421.15 294.48 23.04 23.04 r p3
0.00 0.00 657.75 449.25 cl
0.00 0.00 657.75 449.25 cl
0 0.7490 0.7686 srgb
1.06 setlinewidth
[] 0 setdash
1 setlinecap
1 setlinejoin
10.00 setmiterlimit
np
432.67 296.79 m
0 3.45 l
o
np
432.67 311.76 m
0 3.46 l
o
/bg { 1 1 1 srgb } def
424.03 300.24 17.28 11.52 r p3
np
424.03 306.00 m
17.28 0 l
o
0.00 0.00 657.75 449.25 cl
0.00 0.00 657.75 449.25 cl
/bg { 0.9490 0.9490 0.9490 srgb } def
1 1 1 srgb
1.06 setlinewidth
[] 0 setdash
1 setlinecap
1 setlinejoin
10.00 setmiterlimit
421.15 271.44 23.04 23.04 r p3
0.00 0.00 657.75 449.25 cl
0.00 0.00 657.75 449.25 cl
0 0.7059 0.9412 srgb
1.06 setlinewidth
[] 0 setdash
1 setlinecap
1 setlinejoin
10.00 setmiterlimit
np
432.67 273.75 m
0 3.45 l
o
np
432.67 288.72 m
0 3.46 l
o
/bg { 1 1 1 srgb } def
424.03 277.20 17.28 11.52 r p3
np
424.03 282.96 m
17.28 0 l
o
0.00 0.00 657.75 449.25 cl
0.00 0.00 657.75 449.25 cl
/bg { 0.9490 0.9490 0.9490 srgb } def
1 1 1 srgb
1.06 setlinewidth
[] 0 setdash
1 setlinecap
1 setlinejoin
10.00 setmiterlimit
421.15 248.40 23.04 23.04 r p3
0.00 0.00 657.75 449.25 cl
0.00 0.00 657.75 449.25 cl
0.3804 0.6118 1 srgb
1.06 setlinewidth
[] 0 setdash
1 setlinecap
1 setlinejoin
10.00 setmiterlimit
np
432.67 250.71 m
0 3.45 l
o
np
432.67 265.68 m
0 3.46 l
o
/bg { 1 1 1 srgb } def
424.03 254.16 17.28 11.52 r p3
np
424.03 259.92 m
17.28 0 l
o
0.00 0.00 657.75 449.25 cl
0.00 0.00 657.75 449.25 cl
/bg { 0.9490 0.9490 0.9490 srgb } def
1 1 1 srgb
1.06 setlinewidth
[] 0 setdash
1 setlinecap
1 setlinejoin
10.00 setmiterlimit
421.15 225.36 23.04 23.04 r p3
0.00 0.00 657.75 449.25 cl
0.00 0.00 657.75 449.25 cl
0.7804 0.4863 1 srgb
1.06 setlinewidth
[] 0 setdash
1 setlinecap
1 setlinejoin
10.00 setmiterlimit
np
432.67 227.67 m
0 3.45 l
o
np
432.67 242.64 m
0 3.46 l
o
/bg { 1 1 1 srgb } def
424.03 231.12 17.28 11.52 r p3
np
424.03 236.88 m
17.28 0 l
o
0.00 0.00 657.75 449.25 cl
0.00 0.00 657.75 449.25 cl
/bg { 0.9490 0.9490 0.9490 srgb } def
1 1 1 srgb
1.06 setlinewidth
[] 0 setdash
1 setlinecap
1 setlinejoin
10.00 setmiterlimit
421.15 202.32 23.04 23.04 r p3
0.00 0.00 657.75 449.25 cl
0.00 0.00 657.75 449.25 cl
0.9608 0.3922 0.8902 srgb
1.06 setlinewidth
[] 0 setdash
1 setlinecap
1 setlinejoin
10.00 setmiterlimit
np
432.67 204.63 m
0 3.45 l
o
np
432.67 219.60 m
0 3.46 l
o
/bg { 1 1 1 srgb } def
424.03 208.08 17.28 11.52 r p3
np
424.03 213.84 m
17.28 0 l
o
0.00 0.00 657.75 449.25 cl
0.00 0.00 657.75 449.25 cl
/bg { 0.9490 0.9490 0.9490 srgb } def
1 1 1 srgb
1.06 setlinewidth
[] 0 setdash
1 setlinecap
1 setlinejoin
10.00 setmiterlimit
421.15 179.28 23.04 23.04 r p3
0.00 0.00 657.75 449.25 cl
0.00 0.00 657.75 449.25 cl
1 0.3922 0.6902 srgb
1.06 setlinewidth
[] 0 setdash
1 setlinecap
1 setlinejoin
10.00 setmiterlimit
np
432.67 181.59 m
0 3.45 l
o
np
432.67 196.56 m
0 3.46 l
o
/bg { 1 1 1 srgb } def
424.03 185.04 17.28 11.52 r p3
np
424.03 190.80 m
17.28 0 l
o
0.00 0.00 657.75 449.25 cl
0.00 0.00 657.75 449.25 cl
/Font1 findfont 10 s
0 0 0 srgb
447.07 440.65 (basic + e1) 0 0 t
0.00 0.00 657.75 449.25 cl
0.00 0.00 657.75 449.25 cl
/Font1 findfont 10 s
0 0 0 srgb
447.07 417.61 (basic + e2 lsb) 0 0 t
0.00 0.00 657.75 449.25 cl
0.00 0.00 657.75 449.25 cl
/Font1 findfont 10 s
0 0 0 srgb
447.07 394.57 (basic + e3 lsb) 0 0 t
0.00 0.00 657.75 449.25 cl
0.00 0.00 657.75 449.25 cl
/Font1 findfont 10 s
0 0 0 srgb
447.07 371.53 (basic + e6 lsb) 0 0 t
0.00 0.00 657.75 449.25 cl
0.00 0.00 657.75 449.25 cl
/Font1 findfont 10 s
0 0 0 srgb
447.07 348.49 (str) 0 ta
-0.100 (atified + e1) tb gr
0.00 0.00 657.75 449.25 cl
0.00 0.00 657.75 449.25 cl
/Font1 findfont 10 s
0 0 0 srgb
447.07 325.45 (str) 0 ta
-0.100 (atified + e2 lsb) tb gr
0.00 0.00 657.75 449.25 cl
0.00 0.00 657.75 449.25 cl
/Font1 findfont 10 s
0 0 0 srgb
447.07 302.41 (str) 0 ta
-0.100 (atified + e3 lsb) tb gr
0.00 0.00 657.75 449.25 cl
0.00 0.00 657.75 449.25 cl
/Font1 findfont 10 s
0 0 0 srgb
447.07 279.37 (str) 0 ta
-0.100 (atified + e6 lsb) tb gr
0.00 0.00 657.75 449.25 cl
0.00 0.00 657.75 449.25 cl
/Font1 findfont 10 s
0 0 0 srgb
447.07 256.33 (str) 0 ta
-0.100 (atified kfs + e1) tb gr
0.00 0.00 657.75 449.25 cl
0.00 0.00 657.75 449.25 cl
/Font1 findfont 10 s
0 0 0 srgb
447.07 233.29 (str) 0 ta
-0.100 (atified kfs + e2 lsb) tb gr
0.00 0.00 657.75 449.25 cl
0.00 0.00 657.75 449.25 cl
/Font1 findfont 10 s
0 0 0 srgb
447.07 210.25 (str) 0 ta
-0.100 (atified kfs + e3 lsb) tb gr
0.00 0.00 657.75 449.25 cl
0.00 0.00 657.75 449.25 cl
/Font1 findfont 10 s
0 0 0 srgb
447.07 187.21 (str) 0 ta
-0.100 (atified kfs + e6 lsb) tb gr
0.00 0.00 657.75 449.25 cl
0.00 0.00 657.75 449.25 cl
0.00 0.00 657.75 449.25 cl
0.00 0.00 657.75 449.25 cl
0.00 0.00 657.75 449.25 cl
0.00 0.00 657.75 449.25 cl
0.00 0.00 657.75 449.25 cl
0.00 0.00 657.75 449.25 cl
0.00 0.00 657.75 449.25 cl
0.00 0.00 657.75 449.25 cl
/Font1 findfont 14 s
0 0 0 srgb
132.88 415.20 (Gener) 0 ta
-0.140 (alisation error per target) tb gr
0.00 0.00 657.75 449.25 cl
0.00 0.00 657.75 449.25 cl
0.00 0.00 657.75 449.25 cl
0.00 0.00 285.98 195.33 cl
/bg { 1 1 1 srgb } def
1 1 1 srgb
1.06 setlinewidth
[] 0 setdash
1 setlinecap
1 setlinejoin
10.00 setmiterlimit
-0.00 0.00 285.98 195.33 r p3
0.00 0.00 657.75 449.25 cl
0.00 0.00 657.75 449.25 cl
0.00 0.00 657.75 449.25 cl
48.80 58.96 266.78 156.47 cl
/bg { 0.8980 0.8980 0.8980 srgb } def
48.80 58.96 217.98 97.52 r p2
0.9490 0.9490 0.9490 srgb
0.53 setlinewidth
[] 0 setdash
0 setlinecap
1 setlinejoin
10.00 setmiterlimit
np
48.80 72.48 m
217.98 0 l
o
np
48.80 90.65 m
217.98 0 l
o
np
48.80 108.83 m
217.98 0 l
o
np
48.80 127.01 m
217.98 0 l
o
np
48.80 145.18 m
217.98 0 l
o
1 1 1 srgb
1.06 setlinewidth
[] 0 setdash
np
48.80 63.39 m
217.98 0 l
o
np
48.80 81.56 m
217.98 0 l
o
np
48.80 99.74 m
217.98 0 l
o
np
48.80 117.92 m
217.98 0 l
o
np
48.80 136.10 m
217.98 0 l
o
np
48.80 154.27 m
217.98 0 l
o
np
79.94 58.96 m
0 97.51 l
o
np
131.84 58.96 m
0 97.51 l
o
np
183.74 58.96 m
0 97.51 l
o
np
235.64 58.96 m
0 97.51 l
o
/bg { 0 0 0 srgb } def
66.97 138.04 2.13 c p2
66.97 82.86 2.13 c p2
0.9725 0.4627 0.4275 srgb
np
66.97 114.46 m
0 16.89 l
o
np
66.97 102.29 m
0 -15.57 l
o
/bg { 1 1 1 srgb } def
1 setlinecap
np
 60.48 114.46 m
0 -12.17 l
12.97 0 l
0 12.17 l
-12.97 0 l
cp p3
2.13 setlinewidth
[] 0 setdash
0 setlinecap
np
60.48 109.64 m
12.97 0 l
o
/bg { 0 0 0 srgb } def
79.94 91.18 2.13 c p2
79.94 150.82 2.13 c p2
0 0.7294 0.2196 srgb
1.06 setlinewidth
[] 0 setdash
np
79.94 127.14 m
0 19.63 l
o
np
79.94 113.45 m
0 -12.13 l
o
/bg { 1 1 1 srgb } def
1 setlinecap
np
 73.45 127.14 m
0 -13.69 l
12.98 0 l
0 13.69 l
-12.98 0 l
cp p3
2.13 setlinewidth
[] 0 setdash
0 setlinecap
np
73.45 118.97 m
12.98 0 l
o
/bg { 0 0 0 srgb } def
92.92 114.51 2.13 c p2
0.3804 0.6118 1 srgb
1.06 setlinewidth
[] 0 setdash
np
92.92 86.72 m
0 18.86 l
o
np
92.92 71.50 m
0 -8.11 l
o
/bg { 1 1 1 srgb } def
1 setlinecap
np
 86.43 86.72 m
0 -15.22 l
12.97 0 l
0 15.22 l
-12.97 0 l
cp p3
2.13 setlinewidth
[] 0 setdash
0 setlinecap
np
86.43 80.23 m
12.97 0 l
o
0.9725 0.4627 0.4275 srgb
1.06 setlinewidth
[] 0 setdash
np
118.87 115.32 m
0 19.27 l
o
np
118.87 102.44 m
0 -15.93 l
o
1 setlinecap
np
 112.38 115.32 m
0 -12.88 l
12.97 0 l
0 12.88 l
-12.97 0 l
cp p3
2.13 setlinewidth
[] 0 setdash
0 setlinecap
np
112.38 109.03 m
12.97 0 l
o
/bg { 0 0 0 srgb } def
131.84 145.75 2.13 c p2
131.84 91.18 2.13 c p2
0 0.7294 0.2196 srgb
1.06 setlinewidth
[] 0 setdash
np
131.84 126.12 m
0 14.97 l
o
np
131.84 113.24 m
0 -15.36 l
o
/bg { 1 1 1 srgb } def
1 setlinecap
np
 125.35 126.12 m
0 -12.88 l
12.98 0 l
0 12.88 l
-12.98 0 l
cp p3
2.13 setlinewidth
[] 0 setdash
0 setlinecap
np
125.35 119.18 m
12.98 0 l
o
0.3804 0.6118 1 srgb
1.06 setlinewidth
[] 0 setdash
np
144.82 85.55 m
0 15.98 l
o
np
144.82 70.69 m
0 -7.30 l
o
1 setlinecap
np
 138.33 85.55 m
0 -14.86 l
12.97 0 l
0 14.86 l
-12.97 0 l
cp p3
2.13 setlinewidth
[] 0 setdash
0 setlinecap
np
138.33 79.62 m
12.97 0 l
o
/bg { 0 0 0 srgb } def
170.77 130.13 2.13 c p2
0.9725 0.4627 0.4275 srgb
1.06 setlinewidth
[] 0 setdash
np
170.77 111.37 m
0 14.70 l
o
np
170.77 99.80 m
0 -14.50 l
o
/bg { 1 1 1 srgb } def
1 setlinecap
np
 164.28 111.37 m
0 -11.57 l
12.97 0 l
0 11.57 l
-12.97 0 l
cp p3
2.13 setlinewidth
[] 0 setdash
0 setlinecap
np
164.28 105.99 m
12.97 0 l
o
/bg { 0 0 0 srgb } def
183.74 133.17 2.13 c p2
183.74 97.47 2.13 c p2
183.74 134.80 2.13 c p2
183.74 93.82 2.13 c p2
0 0.7294 0.2196 srgb
1.06 setlinewidth
[] 0 setdash
np
183.74 119.79 m
0 12.78 l
o
np
183.74 111.01 m
0 -12.93 l
o
/bg { 1 1 1 srgb } def
1 setlinecap
np
 177.25 119.79 m
0 -8.78 l
12.98 0 l
0 8.78 l
-12.98 0 l
cp p3
2.13 setlinewidth
[] 0 setdash
0 setlinecap
np
177.25 115.53 m
12.98 0 l
o
/bg { 0 0 0 srgb } def
196.71 116.95 2.13 c p2
196.71 108.22 2.13 c p2
0.3804 0.6118 1 srgb
1.06 setlinewidth
[] 0 setdash
np
196.71 85.60 m
0 13.49 l
o
np
196.71 71.50 m
0 -8.11 l
o
/bg { 1 1 1 srgb } def
1 setlinecap
np
 190.23 85.60 m
0 -14.10 l
12.97 0 l
0 14.10 l
-12.97 0 l
cp p3
2.13 setlinewidth
[] 0 setdash
0 setlinecap
np
190.23 77.18 m
12.97 0 l
o
/bg { 0 0 0 srgb } def
222.66 73.13 2.13 c p2
222.66 76.17 2.13 c p2
222.66 132.36 2.13 c p2
0.9725 0.4627 0.4275 srgb
1.06 setlinewidth
[] 0 setdash
np
222.66 112.94 m
0 17.39 l
o
np
222.66 101.02 m
0 -17.75 l
o
/bg { 1 1 1 srgb } def
1 setlinecap
np
 216.18 112.94 m
0 -11.92 l
12.97 0 l
0 11.92 l
-12.97 0 l
cp p3
2.13 setlinewidth
[] 0 setdash
0 setlinecap
np
216.18 107.71 m
12.97 0 l
o
/bg { 0 0 0 srgb } def
235.64 90.78 2.13 c p2
235.64 152.04 2.13 c p2
0 0.7294 0.2196 srgb
1.06 setlinewidth
[] 0 setdash
np
235.64 126.07 m
0 18.47 l
o
np
235.64 112.08 m
0 -19.88 l
o
/bg { 1 1 1 srgb } def
1 setlinecap
np
 229.15 126.07 m
0 -13.99 l
12.98 0 l
0 13.99 l
-12.98 0 l
cp p3
2.13 setlinewidth
[] 0 setdash
0 setlinecap
np
229.15 117.86 m
12.98 0 l
o
/bg { 0 0 0 srgb } def
248.61 113.29 2.13 c p2
248.61 113.90 2.13 c p2
0.3804 0.6118 1 srgb
1.06 setlinewidth
[] 0 setdash
np
248.61 88.04 m
0 18.96 l
o
np
248.61 73.94 m
0 -10.55 l
o
/bg { 1 1 1 srgb } def
1 setlinecap
np
 242.13 88.04 m
0 -14.10 l
12.97 0 l
0 14.10 l
-12.97 0 l
cp p3
2.13 setlinewidth
[] 0 setdash
0 setlinecap
np
242.13 80.73 m
12.97 0 l
o
0.00 0.00 657.75 449.25 cl
0.00 0.00 657.75 449.25 cl
0.00 0.00 657.75 449.25 cl
/Font1 findfont 10 s
0.4980 0.4980 0.4980 srgb
41.72 59.80 (0.0) 1 0 t
41.72 77.97 (0.1) 1 0 t
41.72 96.15 (0.2) 1 0 t
41.72 114.33 (0.3) 1 0 t
41.72 132.51 (0.4) 1 0 t
41.72 150.68 (0.5) 1 0 t
0.00 0.00 657.75 449.25 cl
0.00 0.00 657.75 449.25 cl
0.4980 0.4980 0.4980 srgb
1.06 setlinewidth
[] 0 setdash
0 setlinecap
1 setlinejoin
10.00 setmiterlimit
np
44.55 63.39 m
4.25 0 l
o
np
44.55 81.56 m
4.25 0 l
o
np
44.55 99.74 m
4.25 0 l
o
np
44.55 117.92 m
4.25 0 l
o
np
44.55 136.10 m
4.25 0 l
o
np
44.55 154.27 m
4.25 0 l
o
0.00 0.00 657.75 449.25 cl
0.00 0.00 657.75 449.25 cl
0.00 0.00 657.75 449.25 cl
0.00 0.00 657.75 449.25 cl
0.00 0.00 657.75 449.25 cl
0.00 0.00 657.75 449.25 cl
0.4980 0.4980 0.4980 srgb
1.06 setlinewidth
[] 0 setdash
0 setlinecap
1 setlinejoin
10.00 setmiterlimit
np
79.94 54.70 m
0 4.26 l
o
np
131.84 54.70 m
0 4.26 l
o
np
183.74 54.70 m
0 4.26 l
o
np
235.64 54.70 m
0 4.26 l
o
0.00 0.00 657.75 449.25 cl
0.00 0.00 657.75 449.25 cl
/Font1 findfont 10 s
0.4980 0.4980 0.4980 srgb
85.53 48.69 (e1) 1.01 45.00 t
137.43 48.69 (e2 lsb) 1.01 45.00 t
189.32 48.69 (e6 lsb) 1.01 45.00 t
241.22 48.69 (e3 lsb) 1.01 45.00 t
0.00 0.00 657.75 449.25 cl
0.00 0.00 657.75 449.25 cl
0.00 0.00 657.75 449.25 cl
0.00 0.00 657.75 449.25 cl
0.00 0.00 657.75 449.25 cl
/Font1 findfont 12 s
0 0 0 srgb
141.46 14.40 (metr) 0 ta
0.180 (ic) tb gr
0.00 0.00 657.75 449.25 cl
0.00 0.00 657.75 449.25 cl
/Font1 findfont 12 s
0 0 0 srgb
23.02 107.71 (error) .5 90 t
0.00 0.00 657.75 449.25 cl
0.00 0.00 657.75 449.25 cl
/Font1 findfont 14 s
0 0 0 srgb
95.94 161.27 (Gener) 0 ta
-0.140 (alisation error) tb gr
0.00 0.00 657.75 449.25 cl
0.00 0.00 657.75 449.25 cl
0.00 0.00 657.75 449.25 cl
285.98 0.00 571.96 195.33 cl
/bg { 1 1 1 srgb } def
1 1 1 srgb
1.06 setlinewidth
[] 0 setdash
1 setlinecap
1 setlinejoin
10.00 setmiterlimit
285.98 0.00 285.98 195.33 r p3
0.00 0.00 657.75 449.25 cl
0.00 0.00 657.75 449.25 cl
0.00 0.00 657.75 449.25 cl
334.78 58.96 552.76 156.47 cl
/bg { 0.8980 0.8980 0.8980 srgb } def
334.78 58.96 217.98 97.52 r p2
0.9490 0.9490 0.9490 srgb
0.53 setlinewidth
[] 0 setdash
0 setlinecap
1 setlinejoin
10.00 setmiterlimit
np
334.78 77.57 m
217.98 0 l
o
np
334.78 105.94 m
217.98 0 l
o
np
334.78 134.31 m
217.98 0 l
o
1 1 1 srgb
1.06 setlinewidth
[] 0 setdash
np
334.78 63.39 m
217.98 0 l
o
np
334.78 91.76 m
217.98 0 l
o
np
334.78 120.13 m
217.98 0 l
o
np
334.78 148.50 m
217.98 0 l
o
np
365.92 58.96 m
0 97.51 l
o
np
417.82 58.96 m
0 97.51 l
o
np
469.72 58.96 m
0 97.51 l
o
np
521.62 58.96 m
0 97.51 l
o
/bg { 0 0 0 srgb } def
352.95 65.60 2.13 c p2
352.95 65.60 2.13 c p2
352.95 65.60 2.13 c p2
0.9725 0.4627 0.4275 srgb
np
352.95 63.39 m
0 0 l
o
np
352.95 63.39 m
0 0 l
o
/bg { 1 1 1 srgb } def
1 setlinecap
np
 346.46 63.39 m
0 0 l
12.97 0 l
0 0 l
-12.97 0 l
cp p3
2.13 setlinewidth
[] 0 setdash
0 setlinecap
np
346.46 63.39 m
12.97 0 l
o
/bg { 0 0 0 srgb } def
365.92 96.63 2.13 c p2
365.92 92.20 2.13 c p2
365.92 98.85 2.13 c p2
365.92 92.20 2.13 c p2
365.92 96.63 2.13 c p2
365.92 96.63 2.13 c p2
365.92 92.20 2.13 c p2
365.92 107.71 2.13 c p2
0 0.7294 0.2196 srgb
1.06 setlinewidth
[] 0 setdash
np
365.92 76.69 m
0 13.29 l
o
np
365.92 67.82 m
0 -4.43 l
o
/bg { 1 1 1 srgb } def
1 setlinecap
np
 359.43 76.69 m
0 -8.87 l
12.98 0 l
0 8.87 l
-12.98 0 l
cp p3
2.13 setlinewidth
[] 0 setdash
0 setlinecap
np
359.43 70.04 m
12.98 0 l
o
/bg { 0 0 0 srgb } def
378.90 65.60 2.13 c p2
378.90 74.47 2.13 c p2
378.90 65.60 2.13 c p2
378.90 72.25 2.13 c p2
378.90 67.82 2.13 c p2
378.90 67.82 2.13 c p2
378.90 72.25 2.13 c p2
378.90 67.82 2.13 c p2
378.90 67.82 2.13 c p2
378.90 67.82 2.13 c p2
378.90 67.82 2.13 c p2
378.90 74.47 2.13 c p2
378.90 70.04 2.13 c p2
378.90 67.82 2.13 c p2
378.90 67.82 2.13 c p2
378.90 67.82 2.13 c p2
378.90 65.60 2.13 c p2
378.90 70.04 2.13 c p2
378.90 65.60 2.13 c p2
378.90 76.69 2.13 c p2
378.90 67.82 2.13 c p2
378.90 67.82 2.13 c p2
0.3804 0.6118 1 srgb
1.06 setlinewidth
[] 0 setdash
np
378.90 63.39 m
0 0 l
o
np
378.90 63.39 m
0 0 l
o
/bg { 1 1 1 srgb } def
1 setlinecap
np
 372.41 63.39 m
0 0 l
12.97 0 l
0 0 l
-12.97 0 l
cp p3
2.13 setlinewidth
[] 0 setdash
0 setlinecap
np
372.41 63.39 m
12.97 0 l
o
/bg { 0 0 0 srgb } def
404.84 65.60 2.13 c p2
404.84 65.60 2.13 c p2
404.84 65.60 2.13 c p2
0.9725 0.4627 0.4275 srgb
1.06 setlinewidth
[] 0 setdash
np
404.84 63.39 m
0 0 l
o
np
404.84 63.39 m
0 0 l
o
/bg { 1 1 1 srgb } def
1 setlinecap
np
 398.36 63.39 m
0 0 l
12.97 0 l
0 0 l
-12.97 0 l
cp p3
2.13 setlinewidth
[] 0 setdash
0 setlinecap
np
398.36 63.39 m
12.97 0 l
o
0 0.7294 0.2196 srgb
1.06 setlinewidth
[] 0 setdash
np
417.82 76.69 m
0 13.29 l
o
np
417.82 67.82 m
0 -4.43 l
o
1 setlinecap
np
 411.33 76.69 m
0 -8.87 l
12.98 0 l
0 8.87 l
-12.98 0 l
cp p3
2.13 setlinewidth
[] 0 setdash
0 setlinecap
np
411.33 70.04 m
12.98 0 l
o
/bg { 0 0 0 srgb } def
430.79 70.04 2.13 c p2
430.79 70.04 2.13 c p2
430.79 70.04 2.13 c p2
430.79 70.04 2.13 c p2
430.79 76.69 2.13 c p2
430.79 78.90 2.13 c p2
430.79 70.04 2.13 c p2
430.79 70.04 2.13 c p2
430.79 70.04 2.13 c p2
0.3804 0.6118 1 srgb
1.06 setlinewidth
[] 0 setdash
np
430.79 65.60 m
0 2.22 l
o
np
430.79 63.39 m
0 0 l
o
/bg { 1 1 1 srgb } def
1 setlinecap
np
 424.31 65.60 m
0 -2.21 l
12.97 0 l
0 2.21 l
-12.97 0 l
cp p3
2.13 setlinewidth
[] 0 setdash
0 setlinecap
np
424.31 63.39 m
12.97 0 l
o
/bg { 0 0 0 srgb } def
456.74 65.60 2.13 c p2
0.9725 0.4627 0.4275 srgb
1.06 setlinewidth
[] 0 setdash
np
456.74 63.39 m
0 0 l
o
np
456.74 63.39 m
0 0 l
o
/bg { 1 1 1 srgb } def
1 setlinecap
np
 450.26 63.39 m
0 0 l
12.97 0 l
0 0 l
-12.97 0 l
cp p3
2.13 setlinewidth
[] 0 setdash
0 setlinecap
np
450.26 63.39 m
12.97 0 l
o
0 0.7294 0.2196 srgb
1.06 setlinewidth
[] 0 setdash
np
469.72 107.71 m
0 44.33 l
o
np
469.72 67.82 m
0 -4.43 l
o
1 setlinecap
np
 463.23 107.71 m
0 -39.89 l
12.98 0 l
0 39.89 l
-12.98 0 l
cp p3
2.13 setlinewidth
[] 0 setdash
0 setlinecap
np
463.23 98.85 m
12.98 0 l
o
/bg { 0 0 0 srgb } def
482.69 116.58 2.13 c p2
482.69 101.07 2.13 c p2
482.69 98.85 2.13 c p2
482.69 116.58 2.13 c p2
482.69 107.71 2.13 c p2
482.69 70.04 2.13 c p2
482.69 89.98 2.13 c p2
482.69 101.07 2.13 c p2
482.69 105.50 2.13 c p2
0.3804 0.6118 1 srgb
1.06 setlinewidth
[] 0 setdash
np
482.69 65.60 m
0 2.22 l
o
np
482.69 63.39 m
0 0 l
o
/bg { 1 1 1 srgb } def
1 setlinecap
np
 476.21 65.60 m
0 -2.21 l
12.97 0 l
0 2.21 l
-12.97 0 l
cp p3
2.13 setlinewidth
[] 0 setdash
0 setlinecap
np
476.21 63.39 m
12.97 0 l
o
/bg { 0 0 0 srgb } def
508.64 65.60 2.13 c p2
508.64 65.60 2.13 c p2
0.9725 0.4627 0.4275 srgb
1.06 setlinewidth
[] 0 setdash
np
508.64 63.39 m
0 0 l
o
np
508.64 63.39 m
0 0 l
o
/bg { 1 1 1 srgb } def
1 setlinecap
np
 502.16 63.39 m
0 0 l
12.97 0 l
0 0 l
-12.97 0 l
cp p3
2.13 setlinewidth
[] 0 setdash
0 setlinecap
np
502.16 63.39 m
12.97 0 l
o
/bg { 0 0 0 srgb } def
521.62 103.28 2.13 c p2
521.62 121.01 2.13 c p2
521.62 112.15 2.13 c p2
521.62 101.07 2.13 c p2
521.62 92.20 2.13 c p2
521.62 98.85 2.13 c p2
521.62 103.28 2.13 c p2
521.62 105.50 2.13 c p2
521.62 116.58 2.13 c p2
521.62 92.20 2.13 c p2
521.62 94.42 2.13 c p2
521.62 92.20 2.13 c p2
521.62 92.20 2.13 c p2
0 0.7294 0.2196 srgb
1.06 setlinewidth
[] 0 setdash
np
521.62 77.24 m
0 12.74 l
o
np
521.62 67.82 m
0 -4.43 l
o
/bg { 1 1 1 srgb } def
1 setlinecap
np
 515.13 77.24 m
0 -9.42 l
12.97 0 l
0 9.42 l
-12.97 0 l
cp p3
2.13 setlinewidth
[] 0 setdash
0 setlinecap
np
515.13 72.25 m
12.97 0 l
o
/bg { 0 0 0 srgb } def
534.59 76.69 2.13 c p2
534.59 70.04 2.13 c p2
534.59 81.12 2.13 c p2
534.59 70.04 2.13 c p2
534.59 87.77 2.13 c p2
534.59 70.04 2.13 c p2
534.59 70.04 2.13 c p2
534.59 70.04 2.13 c p2
534.59 76.69 2.13 c p2
534.59 74.47 2.13 c p2
534.59 72.25 2.13 c p2
534.59 81.12 2.13 c p2
534.59 78.90 2.13 c p2
534.59 74.47 2.13 c p2
534.59 70.04 2.13 c p2
0.3804 0.6118 1 srgb
1.06 setlinewidth
[] 0 setdash
np
534.59 65.60 m
0 2.22 l
o
np
534.59 63.39 m
0 0 l
o
/bg { 1 1 1 srgb } def
1 setlinecap
np
 528.10 65.60 m
0 -2.21 l
12.98 0 l
0 2.21 l
-12.98 0 l
cp p3
2.13 setlinewidth
[] 0 setdash
0 setlinecap
np
528.10 63.39 m
12.98 0 l
o
0.00 0.00 657.75 449.25 cl
0.00 0.00 657.75 449.25 cl
0.00 0.00 657.75 449.25 cl
/Font1 findfont 10 s
0.4980 0.4980 0.4980 srgb
327.69 59.80 (0.0) 1 0 t
327.69 88.17 (0.1) 1 0 t
327.69 116.54 (0.2) 1 0 t
327.69 144.91 (0.3) 1 0 t
0.00 0.00 657.75 449.25 cl
0.00 0.00 657.75 449.25 cl
0.4980 0.4980 0.4980 srgb
1.06 setlinewidth
[] 0 setdash
0 setlinecap
1 setlinejoin
10.00 setmiterlimit
np
330.53 63.39 m
4.25 0 l
o
np
330.53 91.76 m
4.25 0 l
o
np
330.53 120.13 m
4.25 0 l
o
np
330.53 148.50 m
4.25 0 l
o
0.00 0.00 657.75 449.25 cl
0.00 0.00 657.75 449.25 cl
0.00 0.00 657.75 449.25 cl
0.00 0.00 657.75 449.25 cl
0.00 0.00 657.75 449.25 cl
0.00 0.00 657.75 449.25 cl
0.4980 0.4980 0.4980 srgb
1.06 setlinewidth
[] 0 setdash
0 setlinecap
1 setlinejoin
10.00 setmiterlimit
np
365.92 54.70 m
0 4.26 l
o
np
417.82 54.70 m
0 4.26 l
o
np
469.72 54.70 m
0 4.26 l
o
np
521.62 54.70 m
0 4.26 l
o
0.00 0.00 657.75 449.25 cl
0.00 0.00 657.75 449.25 cl
/Font1 findfont 10 s
0.4980 0.4980 0.4980 srgb
371.51 48.69 (e1) 1.01 45.00 t
423.40 48.69 (e2 lsb) 1.01 45.00 t
475.30 48.69 (e6 lsb) 1.01 45.00 t
527.20 48.69 (e3 lsb) 1.01 45.00 t
0.00 0.00 657.75 449.25 cl
0.00 0.00 657.75 449.25 cl
0.00 0.00 657.75 449.25 cl
0.00 0.00 657.75 449.25 cl
0.00 0.00 657.75 449.25 cl
/Font1 findfont 12 s
0 0 0 srgb
427.44 14.40 (metr) 0 ta
0.180 (ic) tb gr
0.00 0.00 657.75 449.25 cl
0.00 0.00 657.75 449.25 cl
/Font1 findfont 12 s
0 0 0 srgb
308.99 107.71 (error) .5 90 t
0.00 0.00 657.75 449.25 cl
0.00 0.00 657.75 449.25 cl
/Font1 findfont 14 s
0 0 0 srgb
401.76 161.27 (T) 0 ta
-1.680 (r) tb
-0.140 (aining error) tb gr
0.00 0.00 657.75 449.25 cl
0.00 0.00 657.75 449.25 cl
0.00 0.00 657.75 449.25 cl
0.00 0.00 657.75 449.25 cl
0.00 0.00 657.75 449.25 cl
0.00 0.00 657.75 449.25 cl
/bg { 1 1 1 srgb } def
571.64 52.47 86.42 90.38 r p2
0.00 0.00 657.75 449.25 cl
0.00 0.00 657.75 449.25 cl
/Font2 findfont 10 s
0 0 0 srgb
575.89 131.51 (learner) 0 0 t
0.00 0.00 657.75 449.25 cl
0.00 0.00 657.75 449.25 cl
/bg { 0.9490 0.9490 0.9490 srgb } def
1 1 1 srgb
1.06 setlinewidth
[] 0 setdash
1 setlinecap
1 setlinejoin
10.00 setmiterlimit
575.89 102.80 23.04 23.04 r p3
0.00 0.00 657.75 449.25 cl
0.00 0.00 657.75 449.25 cl
0.9725 0.4627 0.4275 srgb
1.06 setlinewidth
[] 0 setdash
1 setlinecap
1 setlinejoin
10.00 setmiterlimit
np
587.41 105.11 m
0 3.45 l
o
np
587.41 120.08 m
0 3.46 l
o
/bg { 1 1 1 srgb } def
578.77 108.56 17.28 11.52 r p3
np
578.77 114.32 m
17.28 0 l
o
0.00 0.00 657.75 449.25 cl
0.00 0.00 657.75 449.25 cl
/bg { 0.9490 0.9490 0.9490 srgb } def
1 1 1 srgb
1.06 setlinewidth
[] 0 setdash
1 setlinecap
1 setlinejoin
10.00 setmiterlimit
575.89 79.76 23.04 23.04 r p3
0.00 0.00 657.75 449.25 cl
0.00 0.00 657.75 449.25 cl
0 0.7294 0.2196 srgb
1.06 setlinewidth
[] 0 setdash
1 setlinecap
1 setlinejoin
10.00 setmiterlimit
np
587.41 82.07 m
0 3.45 l
o
np
587.41 97.04 m
0 3.46 l
o
/bg { 1 1 1 srgb } def
578.77 85.52 17.28 11.52 r p3
np
578.77 91.28 m
17.28 0 l
o
0.00 0.00 657.75 449.25 cl
0.00 0.00 657.75 449.25 cl
/bg { 0.9490 0.9490 0.9490 srgb } def
1 1 1 srgb
1.06 setlinewidth
[] 0 setdash
1 setlinecap
1 setlinejoin
10.00 setmiterlimit
575.89 56.72 23.04 23.04 r p3
0.00 0.00 657.75 449.25 cl
0.00 0.00 657.75 449.25 cl
0.3804 0.6118 1 srgb
1.06 setlinewidth
[] 0 setdash
1 setlinecap
1 setlinejoin
10.00 setmiterlimit
np
587.41 59.03 m
0 3.45 l
o
np
587.41 74.00 m
0 3.46 l
o
/bg { 1 1 1 srgb } def
578.77 62.48 17.28 11.52 r p3
np
578.77 68.24 m
17.28 0 l
o
0.00 0.00 657.75 449.25 cl
0.00 0.00 657.75 449.25 cl
/Font1 findfont 10 s
0 0 0 srgb
601.81 110.73 (basic) 0 0 t
0.00 0.00 657.75 449.25 cl
0.00 0.00 657.75 449.25 cl
/Font1 findfont 10 s
0 0 0 srgb
601.81 87.69 (str) 0 ta
-0.100 (atified) tb gr
0.00 0.00 657.75 449.25 cl
0.00 0.00 657.75 449.25 cl
/Font1 findfont 10 s
0 0 0 srgb
601.81 64.65 (str) 0 ta
-0.100 (atified kfs) tb gr
0.00 0.00 657.75 449.25 cl
0.00 0.00 657.75 449.25 cl
0.00 0.00 657.75 449.25 cl
0.00 0.00 657.75 449.25 cl
0.00 0.00 657.75 449.25 cl
0.00 0.00 657.75 449.25 cl
0.00 0.00 657.75 449.25 cl
ep
%%Trailer
%%Pages: 1
%%EOF
