%!PS-Adobe-3.0 EPSF-3.0
%%DocumentNeededResources: font Helvetica
%%+ font Helvetica-Bold
%%+ font Helvetica-Oblique
%%+ font Helvetica-BoldOblique
%%+ font Symbol
%%Title: R Graphics Output
%%Creator: R Software
%%Pages: (atend)
%%BoundingBox: 0 0 391 302
%%EndComments
%%BeginProlog
/bp  { gs sRGB gs } def
% begin .ps.prolog
/gs  { gsave } bind def
/gr  { grestore } bind def
/ep  { showpage gr gr } bind def
/m   { moveto } bind def
/l  { rlineto } bind def
/np  { newpath } bind def
/cp  { closepath } bind def
/f   { fill } bind def
/o   { stroke } bind def
/c   { newpath 0 360 arc } bind def
/r   { 4 2 roll moveto 1 copy 3 -1 roll exch 0 exch rlineto 0 rlineto -1 mul 0 exch rlineto closepath } bind def
/p1  { stroke } bind def
/p2  { gsave bg fill grestore newpath } bind def
/p3  { gsave bg fill grestore stroke } bind def
/p6  { gsave bg eofill grestore newpath } bind def
/p7  { gsave bg eofill grestore stroke } bind def
/t   { 5 -2 roll moveto gsave rotate
       1 index stringwidth pop
       mul neg 0 rmoveto show grestore } bind def
/ta  { 4 -2 roll moveto gsave rotate show } bind def
/tb  { 2 -1 roll 0 rmoveto show } bind def
/cl  { grestore gsave newpath 3 index 3 index moveto 1 index
       4 -1 roll lineto  exch 1 index lineto lineto
       closepath clip newpath } bind def
/rgb { setrgbcolor } bind def
/s   { scalefont setfont } bind def
% end   .ps.prolog
/sRGB { [ /CIEBasedABC
          << /DecodeLMN
               [ { dup 0.03928 le
                        {12.92321 div}
                        {0.055 add 1.055 div 2.4 exp }
                     ifelse
                 } bind dup dup
               ]
             /MatrixLMN [0.412457 0.212673 0.019334
                         0.357576 0.715152 0.119192
                         0.180437 0.072175 0.950301]
             /WhitePoint [0.9505 1.0 1.0890]
           >>
         ] setcolorspace } bind def
/srgb { setcolor } bind def
%%IncludeResource: font Helvetica
/Helvetica findfont
dup length dict begin
  {1 index /FID ne {def} {pop pop} ifelse} forall
  /Encoding ISOLatin1Encoding def
  currentdict
  end
/Font1 exch definefont pop
%%IncludeResource: font Helvetica-Bold
/Helvetica-Bold findfont
dup length dict begin
  {1 index /FID ne {def} {pop pop} ifelse} forall
  /Encoding ISOLatin1Encoding def
  currentdict
  end
/Font2 exch definefont pop
%%IncludeResource: font Helvetica-Oblique
/Helvetica-Oblique findfont
dup length dict begin
  {1 index /FID ne {def} {pop pop} ifelse} forall
  /Encoding ISOLatin1Encoding def
  currentdict
  end
/Font3 exch definefont pop
%%IncludeResource: font Helvetica-BoldOblique
/Helvetica-BoldOblique findfont
dup length dict begin
  {1 index /FID ne {def} {pop pop} ifelse} forall
  /Encoding ISOLatin1Encoding def
  currentdict
  end
/Font4 exch definefont pop
%%IncludeResource: font Symbol
/Symbol findfont
dup length dict begin
  {1 index /FID ne {def} {pop pop} ifelse} forall
  currentdict
  end
/Font5 exch definefont pop
%%EndProlog
%%Page: 1 1
bp
0.00 0.00 390.75 302.25 cl
0.00 151.13 390.75 302.25 cl
/bg { 1 1 1 srgb } def
1 1 1 srgb
1.06 setlinewidth
[] 0 setdash
1 setlinecap
1 setlinejoin
10.00 setmiterlimit
0.00 151.13 390.75 151.13 r p3
0.00 0.00 390.75 302.25 cl
0.00 0.00 390.75 302.25 cl
0.00 0.00 390.75 302.25 cl
48.80 193.21 290.26 283.05 cl
/bg { 0.8980 0.8980 0.8980 srgb } def
48.80 193.21 241.45 89.84 r p2
0.9490 0.9490 0.9490 srgb
0.53 setlinewidth
[] 0 setdash
0 setlinecap
1 setlinejoin
10.00 setmiterlimit
np
48.80 205.46 m
241.46 0 l
o
np
48.80 221.79 m
241.46 0 l
o
np
48.80 238.13 m
241.46 0 l
o
np
48.80 254.46 m
241.46 0 l
o
np
48.80 270.80 m
241.46 0 l
o
1 1 1 srgb
1.06 setlinewidth
[] 0 setdash
np
48.80 197.29 m
241.46 0 l
o
np
48.80 213.63 m
241.46 0 l
o
np
48.80 229.96 m
241.46 0 l
o
np
48.80 246.30 m
241.46 0 l
o
np
48.80 262.63 m
241.46 0 l
o
np
48.80 278.97 m
241.46 0 l
o
np
83.30 193.21 m
0 89.84 l
o
np
140.79 193.21 m
0 89.84 l
o
np
198.27 193.21 m
0 89.84 l
o
np
255.76 193.21 m
0 89.84 l
o
/bg { 0 0 0 srgb } def
72.52 202.40 2.13 c p2
0.9725 0.4627 0.4275 srgb
np
72.52 197.29 m
0 0 l
o
np
72.52 197.29 m
0 0 l
o
/bg { 1 1 1 srgb } def
1 setlinecap
np
 61.74 197.29 m
0 0 l
21.56 0 l
0 0 l
-21.56 0 l
cp p3
2.13 setlinewidth
[] 0 setdash
0 setlinecap
np
61.74 197.29 m
21.56 0 l
o
/bg { 0 0 0 srgb } def
94.08 217.71 2.13 c p2
94.08 217.71 2.13 c p2
94.08 238.13 2.13 c p2
94.08 238.13 2.13 c p2
94.08 217.71 2.13 c p2
94.08 238.13 2.13 c p2
94.08 238.13 2.13 c p2
94.08 238.13 2.13 c p2
94.08 238.13 2.13 c p2
94.08 238.13 2.13 c p2
0 0.7490 0.7686 srgb
1.06 setlinewidth
[] 0 setdash
np
94.08 197.29 m
0 0 l
o
np
94.08 197.29 m
0 0 l
o
/bg { 1 1 1 srgb } def
1 setlinecap
np
 83.30 197.29 m
0 0 l
21.55 0 l
0 0 l
-21.55 0 l
cp p3
2.13 setlinewidth
[] 0 setdash
0 setlinecap
np
83.30 197.29 m
21.55 0 l
o
0.9725 0.4627 0.4275 srgb
1.06 setlinewidth
[] 0 setdash
np
130.01 207.50 m
0 14.04 l
o
np
130.01 197.29 m
0 0 l
o
1 setlinecap
np
 119.23 207.50 m
0 -10.21 l
21.56 0 l
0 10.21 l
-21.56 0 l
cp p3
2.13 setlinewidth
[] 0 setdash
0 setlinecap
np
119.23 197.29 m
21.56 0 l
o
/bg { 0 0 0 srgb } def
151.56 238.13 2.13 c p2
0 0.7490 0.7686 srgb
1.06 setlinewidth
[] 0 setdash
np
151.56 207.50 m
0 10.21 l
o
np
151.56 197.29 m
0 0 l
o
/bg { 1 1 1 srgb } def
1 setlinecap
np
 140.79 207.50 m
0 -10.21 l
21.55 0 l
0 10.21 l
-21.55 0 l
cp p3
2.13 setlinewidth
[] 0 setdash
0 setlinecap
np
140.79 207.50 m
21.55 0 l
o
/bg { 0 0 0 srgb } def
187.49 240.68 2.13 c p2
187.49 236.85 2.13 c p2
187.49 237.49 2.13 c p2
0.9725 0.4627 0.4275 srgb
1.06 setlinewidth
[] 0 setdash
np
187.49 214.20 m
0 18.82 l
o
np
187.49 199.84 m
0 -2.55 l
o
/bg { 1 1 1 srgb } def
1 setlinecap
np
 176.72 214.20 m
0 -14.36 l
21.55 0 l
0 14.36 l
-21.55 0 l
cp p3
2.13 setlinewidth
[] 0 setdash
0 setlinecap
np
176.72 207.50 m
21.55 0 l
o
/bg { 0 0 0 srgb } def
209.05 227.92 2.13 c p2
209.05 238.13 2.13 c p2
209.05 278.97 2.13 c p2
0 0.7490 0.7686 srgb
1.06 setlinewidth
[] 0 setdash
np
209.05 207.50 m
0 15.31 l
o
np
209.05 197.29 m
0 0 l
o
/bg { 1 1 1 srgb } def
1 setlinecap
np
 198.27 207.50 m
0 -10.21 l
21.56 0 l
0 10.21 l
-21.56 0 l
cp p3
2.13 setlinewidth
[] 0 setdash
0 setlinecap
np
198.27 197.29 m
21.56 0 l
o
0.9725 0.4627 0.4275 srgb
1.06 setlinewidth
[] 0 setdash
np
244.98 229.36 m
0 33.02 l
o
np
244.98 207.34 m
0 -10.05 l
o
1 setlinecap
np
 234.20 229.36 m
0 -22.02 l
21.56 0 l
0 22.02 l
-21.56 0 l
cp p3
2.13 setlinewidth
[] 0 setdash
0 setlinecap
np
234.20 217.39 m
21.56 0 l
o
/bg { 0 0 0 srgb } def
266.54 278.97 2.13 c p2
266.54 254.08 2.13 c p2
266.54 245.79 2.13 c p2
266.54 257.27 2.13 c p2
266.54 251.53 2.13 c p2
266.54 236.85 2.13 c p2
266.54 243.87 2.13 c p2
0 0.7490 0.7686 srgb
1.06 setlinewidth
[] 0 setdash
np
266.54 212.61 m
0 22.33 l
o
np
266.54 197.29 m
0 0 l
o
/bg { 1 1 1 srgb } def
1 setlinecap
np
 255.76 212.61 m
0 -15.32 l
21.56 0 l
0 15.32 l
-21.56 0 l
cp p3
2.13 setlinewidth
[] 0 setdash
0 setlinecap
np
255.76 202.40 m
21.56 0 l
o
0.00 0.00 390.75 302.25 cl
0.00 0.00 390.75 302.25 cl
0.00 0.00 390.75 302.25 cl
/Font1 findfont 10 s
0.4980 0.4980 0.4980 srgb
41.72 193.70 (0.0) 1 0 t
41.72 210.04 (0.1) 1 0 t
41.72 226.37 (0.2) 1 0 t
41.72 242.71 (0.3) 1 0 t
41.72 259.04 (0.4) 1 0 t
41.72 275.38 (0.5) 1 0 t
0.00 0.00 390.75 302.25 cl
0.00 0.00 390.75 302.25 cl
0.4980 0.4980 0.4980 srgb
1.06 setlinewidth
[] 0 setdash
0 setlinecap
1 setlinejoin
10.00 setmiterlimit
np
44.55 197.29 m
4.25 0 l
o
np
44.55 213.63 m
4.25 0 l
o
np
44.55 229.96 m
4.25 0 l
o
np
44.55 246.30 m
4.25 0 l
o
np
44.55 262.63 m
4.25 0 l
o
np
44.55 278.97 m
4.25 0 l
o
0.00 0.00 390.75 302.25 cl
0.00 0.00 390.75 302.25 cl
0.00 0.00 390.75 302.25 cl
0.00 0.00 390.75 302.25 cl
0.00 0.00 390.75 302.25 cl
0.00 0.00 390.75 302.25 cl
0.4980 0.4980 0.4980 srgb
1.06 setlinewidth
[] 0 setdash
0 setlinecap
1 setlinejoin
10.00 setmiterlimit
np
83.30 188.96 m
0 4.25 l
o
np
140.79 188.96 m
0 4.25 l
o
np
198.27 188.96 m
0 4.25 l
o
np
255.76 188.96 m
0 4.25 l
o
0.00 0.00 390.75 302.25 cl
0.00 0.00 390.75 302.25 cl
/Font1 findfont 10 s
0.4980 0.4980 0.4980 srgb
44.68 178.94 (Full.Error) 0 ta
-0.500 (.per) tb
-0.500 (.bit1) tb gr
102.17 178.94 (Full.Error) 0 ta
-0.500 (.per) tb
-0.500 (.bit2) tb gr
159.65 178.94 (Full.Error) 0 ta
-0.500 (.per) tb
-0.500 (.bit3) tb gr
217.14 178.94 (Full.Error) 0 ta
-0.500 (.per) tb
-0.500 (.bit4) tb gr
0.00 0.00 390.75 302.25 cl
0.00 0.00 390.75 302.25 cl
0.00 0.00 390.75 302.25 cl
0.00 0.00 390.75 302.25 cl
0.00 0.00 390.75 302.25 cl
/Font1 findfont 12 s
0 0 0 srgb
148.52 165.53 (v) 0 ta
-0.300 (ar) tb
0.180 (iab) tb
-0.240 (le) tb gr
0.00 0.00 390.75 302.25 cl
0.00 0.00 390.75 302.25 cl
/Font1 findfont 12 s
0 0 0 srgb
23.02 223.79 (v) 90 ta
-0.300 (alue) tb gr
0.00 0.00 390.75 302.25 cl
0.00 0.00 390.75 302.25 cl
0.00 0.00 390.75 302.25 cl
0.00 0.00 390.75 302.25 cl
0.00 0.00 390.75 302.25 cl
0.00 0.00 390.75 302.25 cl
/bg { 1 1 1 srgb } def
302.69 204.46 56.42 67.34 r p2
0.00 0.00 390.75 302.25 cl
0.00 0.00 390.75 302.25 cl
/Font2 findfont 10 s
0 0 0 srgb
306.94 260.46 (learner) 0 0 t
0.00 0.00 390.75 302.25 cl
0.00 0.00 390.75 302.25 cl
/bg { 0.9490 0.9490 0.9490 srgb } def
1 1 1 srgb
1.06 setlinewidth
[] 0 setdash
1 setlinecap
1 setlinejoin
10.00 setmiterlimit
306.94 231.75 23.04 23.04 r p3
0.00 0.00 390.75 302.25 cl
0.00 0.00 390.75 302.25 cl
0.9725 0.4627 0.4275 srgb
1.06 setlinewidth
[] 0 setdash
1 setlinecap
1 setlinejoin
10.00 setmiterlimit
np
318.46 234.05 m
0 3.46 l
o
np
318.46 249.03 m
0 3.45 l
o
/bg { 1 1 1 srgb } def
309.82 237.51 17.28 11.52 r p3
np
309.82 243.27 m
17.28 0 l
o
0.00 0.00 390.75 302.25 cl
0.00 0.00 390.75 302.25 cl
/bg { 0.9490 0.9490 0.9490 srgb } def
1 1 1 srgb
1.06 setlinewidth
[] 0 setdash
1 setlinecap
1 setlinejoin
10.00 setmiterlimit
306.94 208.71 23.04 23.04 r p3
0.00 0.00 390.75 302.25 cl
0.00 0.00 390.75 302.25 cl
0 0.7490 0.7686 srgb
1.06 setlinewidth
[] 0 setdash
1 setlinecap
1 setlinejoin
10.00 setmiterlimit
np
318.46 211.01 m
0 3.46 l
o
np
318.46 225.99 m
0 3.45 l
o
/bg { 1 1 1 srgb } def
309.82 214.47 17.28 11.52 r p3
np
309.82 220.23 m
17.28 0 l
o
0.00 0.00 390.75 302.25 cl
0.00 0.00 390.75 302.25 cl
/Font1 findfont 10 s
0 0 0 srgb
332.86 239.68 (basic) 0 0 t
0.00 0.00 390.75 302.25 cl
0.00 0.00 390.75 302.25 cl
/Font1 findfont 10 s
0 0 0 srgb
332.86 216.64 (kfs) 0 0 t
0.00 0.00 390.75 302.25 cl
0.00 0.00 390.75 302.25 cl
0.00 0.00 390.75 302.25 cl
0.00 0.00 390.75 302.25 cl
0.00 0.00 390.75 302.25 cl
0.00 0.00 390.75 302.25 cl
0.00 0.00 390.75 302.25 cl
0.00 0.00 390.75 302.25 cl
0.00 0.00 390.75 302.25 cl
0.00 0.00 390.75 302.25 cl
0.00 0.00 390.75 302.25 cl
0.00 0.00 390.75 302.25 cl
0.00 0.00 390.75 302.25 cl
0.00 0.00 195.37 151.13 cl
/bg { 1 1 1 srgb } def
1 1 1 srgb
1.06 setlinewidth
[] 0 setdash
1 setlinecap
1 setlinejoin
10.00 setmiterlimit
0.00 0.00 195.37 151.13 r p3
0.00 0.00 390.75 302.25 cl
0.00 0.00 390.75 302.25 cl
0.00 0.00 390.75 302.25 cl
48.80 42.08 94.88 131.93 cl
/bg { 0.8980 0.8980 0.8980 srgb } def
48.80 42.08 46.08 89.84 r p2
0.9490 0.9490 0.9490 srgb
0.53 setlinewidth
[] 0 setdash
0 setlinecap
1 setlinejoin
10.00 setmiterlimit
np
48.80 56.22 m
46.08 0 l
o
np
48.80 76.32 m
46.08 0 l
o
np
48.80 96.43 m
46.08 0 l
o
np
48.80 116.53 m
46.08 0 l
o
1 1 1 srgb
1.06 setlinewidth
[] 0 setdash
np
48.80 46.17 m
46.08 0 l
o
np
48.80 66.27 m
46.08 0 l
o
np
48.80 86.38 m
46.08 0 l
o
np
48.80 106.48 m
46.08 0 l
o
np
48.80 126.58 m
46.08 0 l
o
np
61.37 42.08 m
0 89.85 l
o
np
82.31 42.08 m
0 89.85 l
o
0.9725 0.4627 0.4275 srgb
np
61.37 81.11 m
0 23.17 l
o
np
61.37 58.73 m
0 -12.56 l
o
/bg { 1 1 1 srgb } def
1 setlinecap
np
 53.52 81.11 m
0 -22.38 l
15.70 0 l
0 22.38 l
-15.70 0 l
cp p3
2.13 setlinewidth
[] 0 setdash
0 setlinecap
np
53.52 68.74 m
15.70 0 l
o
/bg { 0 0 0 srgb } def
82.31 127.84 2.13 c p2
82.31 127.06 2.13 c p2
82.31 114.49 2.13 c p2
82.31 125.09 2.13 c p2
0 0.7490 0.7686 srgb
1.06 setlinewidth
[] 0 setdash
np
82.31 72.57 m
0 23.07 l
o
np
82.31 48.52 m
0 -2.35 l
o
/bg { 1 1 1 srgb } def
1 setlinecap
np
 74.46 72.57 m
0 -24.05 l
15.71 0 l
0 24.05 l
-15.71 0 l
cp p3
2.13 setlinewidth
[] 0 setdash
0 setlinecap
np
74.46 55.98 m
15.71 0 l
o
0.00 0.00 390.75 302.25 cl
0.00 0.00 390.75 302.25 cl
0.00 0.00 390.75 302.25 cl
/Font1 findfont 10 s
0.4980 0.4980 0.4980 srgb
41.72 42.58 (0.0) 1 0 t
41.72 62.68 (0.2) 1 0 t
41.72 82.79 (0.4) 1 0 t
41.72 102.89 (0.6) 1 0 t
41.72 122.99 (0.8) 1 0 t
0.00 0.00 390.75 302.25 cl
0.00 0.00 390.75 302.25 cl
0.4980 0.4980 0.4980 srgb
1.06 setlinewidth
[] 0 setdash
0 setlinecap
1 setlinejoin
10.00 setmiterlimit
np
44.55 46.17 m
4.25 0 l
o
np
44.55 66.27 m
4.25 0 l
o
np
44.55 86.38 m
4.25 0 l
o
np
44.55 106.48 m
4.25 0 l
o
np
44.55 126.58 m
4.25 0 l
o
0.00 0.00 390.75 302.25 cl
0.00 0.00 390.75 302.25 cl
0.00 0.00 390.75 302.25 cl
0.00 0.00 390.75 302.25 cl
0.00 0.00 390.75 302.25 cl
0.00 0.00 390.75 302.25 cl
0.4980 0.4980 0.4980 srgb
1.06 setlinewidth
[] 0 setdash
0 setlinecap
1 setlinejoin
10.00 setmiterlimit
np
61.37 37.83 m
0 4.25 l
o
np
82.31 37.83 m
0 4.25 l
o
0.00 0.00 390.75 302.25 cl
0.00 0.00 390.75 302.25 cl
/Font1 findfont 10 s
0.4980 0.4980 0.4980 srgb
61.37 27.82 (basic) .5 0 t
82.31 27.82 (kfs) .5 0 t
0.00 0.00 390.75 302.25 cl
0.00 0.00 390.75 302.25 cl
0.00 0.00 390.75 302.25 cl
0.00 0.00 390.75 302.25 cl
0.00 0.00 390.75 302.25 cl
/Font1 findfont 12 s
0 0 0 srgb
53.17 14.40 (lear) 0 ta
0.300 (ner) tb gr
0.00 0.00 390.75 302.25 cl
0.00 0.00 390.75 302.25 cl
/Font1 findfont 12 s
0 0 0 srgb
23.02 43.34 (Full.Error) 90 ta
-0.600 (.simple) tb gr
0.00 0.00 390.75 302.25 cl
0.00 0.00 390.75 302.25 cl
0.00 0.00 390.75 302.25 cl
0.00 0.00 390.75 302.25 cl
0.00 0.00 390.75 302.25 cl
0.00 0.00 390.75 302.25 cl
/bg { 1 1 1 srgb } def
107.32 53.33 56.42 67.34 r p2
0.00 0.00 390.75 302.25 cl
0.00 0.00 390.75 302.25 cl
/Font2 findfont 10 s
0 0 0 srgb
111.57 109.33 (learner) 0 0 t
0.00 0.00 390.75 302.25 cl
0.00 0.00 390.75 302.25 cl
/bg { 0.9490 0.9490 0.9490 srgb } def
1 1 1 srgb
1.06 setlinewidth
[] 0 setdash
1 setlinecap
1 setlinejoin
10.00 setmiterlimit
111.57 80.62 23.04 23.04 r p3
0.00 0.00 390.75 302.25 cl
0.00 0.00 390.75 302.25 cl
0.9725 0.4627 0.4275 srgb
1.06 setlinewidth
[] 0 setdash
1 setlinecap
1 setlinejoin
10.00 setmiterlimit
np
123.09 82.93 m
0 3.45 l
o
np
123.09 97.90 m
0 3.46 l
o
/bg { 1 1 1 srgb } def
114.45 86.38 17.28 11.52 r p3
np
114.45 92.14 m
17.28 0 l
o
0.00 0.00 390.75 302.25 cl
0.00 0.00 390.75 302.25 cl
/bg { 0.9490 0.9490 0.9490 srgb } def
1 1 1 srgb
1.06 setlinewidth
[] 0 setdash
1 setlinecap
1 setlinejoin
10.00 setmiterlimit
111.57 57.58 23.04 23.04 r p3
0.00 0.00 390.75 302.25 cl
0.00 0.00 390.75 302.25 cl
0 0.7490 0.7686 srgb
1.06 setlinewidth
[] 0 setdash
1 setlinecap
1 setlinejoin
10.00 setmiterlimit
np
123.09 59.89 m
0 3.45 l
o
np
123.09 74.86 m
0 3.46 l
o
/bg { 1 1 1 srgb } def
114.45 63.34 17.28 11.52 r p3
np
114.45 69.10 m
17.28 0 l
o
0.00 0.00 390.75 302.25 cl
0.00 0.00 390.75 302.25 cl
/Font1 findfont 10 s
0 0 0 srgb
137.49 88.55 (basic) 0 0 t
0.00 0.00 390.75 302.25 cl
0.00 0.00 390.75 302.25 cl
/Font1 findfont 10 s
0 0 0 srgb
137.49 65.51 (kfs) 0 0 t
0.00 0.00 390.75 302.25 cl
0.00 0.00 390.75 302.25 cl
0.00 0.00 390.75 302.25 cl
0.00 0.00 390.75 302.25 cl
0.00 0.00 390.75 302.25 cl
0.00 0.00 390.75 302.25 cl
0.00 0.00 390.75 302.25 cl
0.00 0.00 390.75 302.25 cl
0.00 0.00 390.75 302.25 cl
0.00 0.00 390.75 302.25 cl
0.00 0.00 390.75 302.25 cl
0.00 0.00 390.75 302.25 cl
0.00 0.00 390.75 302.25 cl
195.37 0.00 390.75 151.13 cl
/bg { 1 1 1 srgb } def
1 1 1 srgb
1.06 setlinewidth
[] 0 setdash
1 setlinecap
1 setlinejoin
10.00 setmiterlimit
195.37 0.00 195.37 151.13 r p3
0.00 0.00 390.75 302.25 cl
0.00 0.00 390.75 302.25 cl
0.00 0.00 390.75 302.25 cl
241.40 42.08 371.55 131.93 cl
/bg { 0.8980 0.8980 0.8980 srgb } def
241.40 42.08 130.15 89.84 r p2
0.9490 0.9490 0.9490 srgb
0.53 setlinewidth
[] 0 setdash
0 setlinecap
1 setlinejoin
10.00 setmiterlimit
np
241.40 54.77 m
130.15 0 l
o
np
241.40 79.71 m
130.15 0 l
o
np
241.40 104.65 m
130.15 0 l
o
np
241.40 129.59 m
130.15 0 l
o
1 1 1 srgb
1.06 setlinewidth
[] 0 setdash
np
241.40 42.30 m
130.15 0 l
o
np
241.40 67.24 m
130.15 0 l
o
np
241.40 92.18 m
130.15 0 l
o
np
241.40 117.12 m
130.15 0 l
o
np
276.89 42.08 m
0 89.85 l
o
np
336.05 42.08 m
0 89.85 l
o
0.2000 0.2000 0.2000 srgb
np
276.89 93.38 m
0 34.46 l
o
np
276.89 65.84 m
0 -13.56 l
o
/bg { 1 1 1 srgb } def
1 setlinecap
np
 254.71 93.38 m
0 -27.54 l
44.37 0 l
0 27.54 l
-44.37 0 l
cp p3
2.13 setlinewidth
[] 0 setdash
0 setlinecap
np
254.71 76.88 m
44.37 0 l
o
/bg { 0 0 0 srgb } def
336.05 68.29 2.13 c p2
336.05 121.74 2.13 c p2
336.05 79.81 2.13 c p2
336.05 114.37 2.13 c p2
336.05 81.74 2.13 c p2
336.05 85.03 2.13 c p2
336.05 78.95 2.13 c p2
336.05 99.31 2.13 c p2
336.05 93.63 2.13 c p2
336.05 81.20 2.13 c p2
336.05 125.77 2.13 c p2
336.05 81.11 2.13 c p2
336.05 96.16 2.13 c p2
336.05 69.88 2.13 c p2
336.05 81.84 2.13 c p2
1.06 setlinewidth
[] 0 setdash
np
336.05 56.71 m
0 9.54 l
o
np
336.05 49.60 m
0 -3.43 l
o
/bg { 1 1 1 srgb } def
1 setlinecap
np
 313.87 56.71 m
0 -7.11 l
44.37 0 l
0 7.11 l
-44.37 0 l
cp p3
2.13 setlinewidth
[] 0 setdash
0 setlinecap
np
313.87 51.19 m
44.37 0 l
o
0.00 0.00 390.75 302.25 cl
0.00 0.00 390.75 302.25 cl
0.00 0.00 390.75 302.25 cl
/Font1 findfont 10 s
0.4980 0.4980 0.4980 srgb
234.31 38.71 (0) 1 0 t
234.31 63.65 (25) 1 0 t
234.31 88.59 (50) 1 0 t
234.31 113.53 (75) 1 0 t
0.00 0.00 390.75 302.25 cl
0.00 0.00 390.75 302.25 cl
0.4980 0.4980 0.4980 srgb
1.06 setlinewidth
[] 0 setdash
0 setlinecap
1 setlinejoin
10.00 setmiterlimit
np
237.15 42.30 m
4.25 0 l
o
np
237.15 67.24 m
4.25 0 l
o
np
237.15 92.18 m
4.25 0 l
o
np
237.15 117.12 m
4.25 0 l
o
0.00 0.00 390.75 302.25 cl
0.00 0.00 390.75 302.25 cl
0.00 0.00 390.75 302.25 cl
0.00 0.00 390.75 302.25 cl
0.00 0.00 390.75 302.25 cl
0.00 0.00 390.75 302.25 cl
0.4980 0.4980 0.4980 srgb
1.06 setlinewidth
[] 0 setdash
0 setlinecap
1 setlinejoin
10.00 setmiterlimit
np
276.89 37.83 m
0 4.25 l
o
np
336.05 37.83 m
0 4.25 l
o
0.00 0.00 390.75 302.25 cl
0.00 0.00 390.75 302.25 cl
/Font1 findfont 10 s
0.4980 0.4980 0.4980 srgb
276.89 27.82 (basic) .5 0 t
336.05 27.82 (kfs) .5 0 t
0.00 0.00 390.75 302.25 cl
0.00 0.00 390.75 302.25 cl
0.00 0.00 390.75 302.25 cl
0.00 0.00 390.75 302.25 cl
0.00 0.00 390.75 302.25 cl
/Font1 findfont 12 s
0 0 0 srgb
287.80 14.40 (lear) 0 ta
0.300 (ner) tb gr
0.00 0.00 390.75 302.25 cl
0.00 0.00 390.75 302.25 cl
/Font1 findfont 12 s
0 0 0 srgb
218.39 87.00 (time) .5 90 t
0.00 0.00 390.75 302.25 cl
0.00 0.00 390.75 302.25 cl
0.00 0.00 390.75 302.25 cl
0.00 0.00 390.75 302.25 cl
0.00 0.00 390.75 302.25 cl
0.00 151.13 390.75 302.25 cl
/bg { 1 1 1 srgb } def
1 1 1 srgb
1.06 setlinewidth
[] 0 setdash
1 setlinecap
1 setlinejoin
10.00 setmiterlimit
0.00 151.13 390.75 151.13 r p3
0.00 0.00 390.75 302.25 cl
0.00 0.00 390.75 302.25 cl
0.00 0.00 390.75 302.25 cl
48.80 193.21 290.26 283.05 cl
/bg { 0.8980 0.8980 0.8980 srgb } def
48.80 193.21 241.45 89.84 r p2
0.9490 0.9490 0.9490 srgb
0.53 setlinewidth
[] 0 setdash
0 setlinecap
1 setlinejoin
10.00 setmiterlimit
np
48.80 205.46 m
241.46 0 l
o
np
48.80 221.79 m
241.46 0 l
o
np
48.80 238.13 m
241.46 0 l
o
np
48.80 254.46 m
241.46 0 l
o
np
48.80 270.80 m
241.46 0 l
o
1 1 1 srgb
1.06 setlinewidth
[] 0 setdash
np
48.80 197.29 m
241.46 0 l
o
np
48.80 213.63 m
241.46 0 l
o
np
48.80 229.96 m
241.46 0 l
o
np
48.80 246.30 m
241.46 0 l
o
np
48.80 262.63 m
241.46 0 l
o
np
48.80 278.97 m
241.46 0 l
o
np
83.30 193.21 m
0 89.84 l
o
np
140.79 193.21 m
0 89.84 l
o
np
198.27 193.21 m
0 89.84 l
o
np
255.76 193.21 m
0 89.84 l
o
/bg { 0 0 0 srgb } def
72.52 202.40 2.13 c p2
0.9725 0.4627 0.4275 srgb
np
72.52 197.29 m
0 0 l
o
np
72.52 197.29 m
0 0 l
o
/bg { 1 1 1 srgb } def
1 setlinecap
np
 61.74 197.29 m
0 0 l
21.56 0 l
0 0 l
-21.56 0 l
cp p3
2.13 setlinewidth
[] 0 setdash
0 setlinecap
np
61.74 197.29 m
21.56 0 l
o
/bg { 0 0 0 srgb } def
94.08 217.71 2.13 c p2
94.08 217.71 2.13 c p2
94.08 238.13 2.13 c p2
94.08 238.13 2.13 c p2
94.08 217.71 2.13 c p2
94.08 238.13 2.13 c p2
94.08 238.13 2.13 c p2
94.08 238.13 2.13 c p2
94.08 238.13 2.13 c p2
94.08 238.13 2.13 c p2
0 0.7490 0.7686 srgb
1.06 setlinewidth
[] 0 setdash
np
94.08 197.29 m
0 0 l
o
np
94.08 197.29 m
0 0 l
o
/bg { 1 1 1 srgb } def
1 setlinecap
np
 83.30 197.29 m
0 0 l
21.55 0 l
0 0 l
-21.55 0 l
cp p3
2.13 setlinewidth
[] 0 setdash
0 setlinecap
np
83.30 197.29 m
21.55 0 l
o
0.9725 0.4627 0.4275 srgb
1.06 setlinewidth
[] 0 setdash
np
130.01 207.50 m
0 14.04 l
o
np
130.01 197.29 m
0 0 l
o
1 setlinecap
np
 119.23 207.50 m
0 -10.21 l
21.56 0 l
0 10.21 l
-21.56 0 l
cp p3
2.13 setlinewidth
[] 0 setdash
0 setlinecap
np
119.23 197.29 m
21.56 0 l
o
/bg { 0 0 0 srgb } def
151.56 238.13 2.13 c p2
0 0.7490 0.7686 srgb
1.06 setlinewidth
[] 0 setdash
np
151.56 207.50 m
0 10.21 l
o
np
151.56 197.29 m
0 0 l
o
/bg { 1 1 1 srgb } def
1 setlinecap
np
 140.79 207.50 m
0 -10.21 l
21.55 0 l
0 10.21 l
-21.55 0 l
cp p3
2.13 setlinewidth
[] 0 setdash
0 setlinecap
np
140.79 207.50 m
21.55 0 l
o
/bg { 0 0 0 srgb } def
187.49 240.68 2.13 c p2
187.49 236.85 2.13 c p2
187.49 237.49 2.13 c p2
0.9725 0.4627 0.4275 srgb
1.06 setlinewidth
[] 0 setdash
np
187.49 214.20 m
0 18.82 l
o
np
187.49 199.84 m
0 -2.55 l
o
/bg { 1 1 1 srgb } def
1 setlinecap
np
 176.72 214.20 m
0 -14.36 l
21.55 0 l
0 14.36 l
-21.55 0 l
cp p3
2.13 setlinewidth
[] 0 setdash
0 setlinecap
np
176.72 207.50 m
21.55 0 l
o
/bg { 0 0 0 srgb } def
209.05 227.92 2.13 c p2
209.05 238.13 2.13 c p2
209.05 278.97 2.13 c p2
0 0.7490 0.7686 srgb
1.06 setlinewidth
[] 0 setdash
np
209.05 207.50 m
0 15.31 l
o
np
209.05 197.29 m
0 0 l
o
/bg { 1 1 1 srgb } def
1 setlinecap
np
 198.27 207.50 m
0 -10.21 l
21.56 0 l
0 10.21 l
-21.56 0 l
cp p3
2.13 setlinewidth
[] 0 setdash
0 setlinecap
np
198.27 197.29 m
21.56 0 l
o
0.9725 0.4627 0.4275 srgb
1.06 setlinewidth
[] 0 setdash
np
244.98 229.36 m
0 33.02 l
o
np
244.98 207.34 m
0 -10.05 l
o
1 setlinecap
np
 234.20 229.36 m
0 -22.02 l
21.56 0 l
0 22.02 l
-21.56 0 l
cp p3
2.13 setlinewidth
[] 0 setdash
0 setlinecap
np
234.20 217.39 m
21.56 0 l
o
/bg { 0 0 0 srgb } def
266.54 278.97 2.13 c p2
266.54 254.08 2.13 c p2
266.54 245.79 2.13 c p2
266.54 257.27 2.13 c p2
266.54 251.53 2.13 c p2
266.54 236.85 2.13 c p2
266.54 243.87 2.13 c p2
0 0.7490 0.7686 srgb
1.06 setlinewidth
[] 0 setdash
np
266.54 212.61 m
0 22.33 l
o
np
266.54 197.29 m
0 0 l
o
/bg { 1 1 1 srgb } def
1 setlinecap
np
 255.76 212.61 m
0 -15.32 l
21.56 0 l
0 15.32 l
-21.56 0 l
cp p3
2.13 setlinewidth
[] 0 setdash
0 setlinecap
np
255.76 202.40 m
21.56 0 l
o
0.00 0.00 390.75 302.25 cl
0.00 0.00 390.75 302.25 cl
0.00 0.00 390.75 302.25 cl
/Font1 findfont 10 s
0.4980 0.4980 0.4980 srgb
41.72 193.70 (0.0) 1 0 t
41.72 210.04 (0.1) 1 0 t
41.72 226.37 (0.2) 1 0 t
41.72 242.71 (0.3) 1 0 t
41.72 259.04 (0.4) 1 0 t
41.72 275.38 (0.5) 1 0 t
0.00 0.00 390.75 302.25 cl
0.00 0.00 390.75 302.25 cl
0.4980 0.4980 0.4980 srgb
1.06 setlinewidth
[] 0 setdash
0 setlinecap
1 setlinejoin
10.00 setmiterlimit
np
44.55 197.29 m
4.25 0 l
o
np
44.55 213.63 m
4.25 0 l
o
np
44.55 229.96 m
4.25 0 l
o
np
44.55 246.30 m
4.25 0 l
o
np
44.55 262.63 m
4.25 0 l
o
np
44.55 278.97 m
4.25 0 l
o
0.00 0.00 390.75 302.25 cl
0.00 0.00 390.75 302.25 cl
0.00 0.00 390.75 302.25 cl
0.00 0.00 390.75 302.25 cl
0.00 0.00 390.75 302.25 cl
0.00 0.00 390.75 302.25 cl
0.4980 0.4980 0.4980 srgb
1.06 setlinewidth
[] 0 setdash
0 setlinecap
1 setlinejoin
10.00 setmiterlimit
np
83.30 188.96 m
0 4.25 l
o
np
140.79 188.96 m
0 4.25 l
o
np
198.27 188.96 m
0 4.25 l
o
np
255.76 188.96 m
0 4.25 l
o
0.00 0.00 390.75 302.25 cl
0.00 0.00 390.75 302.25 cl
/Font1 findfont 10 s
0.4980 0.4980 0.4980 srgb
44.68 178.94 (Full.Error) 0 ta
-0.500 (.per) tb
-0.500 (.bit1) tb gr
102.17 178.94 (Full.Error) 0 ta
-0.500 (.per) tb
-0.500 (.bit2) tb gr
159.65 178.94 (Full.Error) 0 ta
-0.500 (.per) tb
-0.500 (.bit3) tb gr
217.14 178.94 (Full.Error) 0 ta
-0.500 (.per) tb
-0.500 (.bit4) tb gr
0.00 0.00 390.75 302.25 cl
0.00 0.00 390.75 302.25 cl
0.00 0.00 390.75 302.25 cl
0.00 0.00 390.75 302.25 cl
0.00 0.00 390.75 302.25 cl
/Font1 findfont 12 s
0 0 0 srgb
148.52 165.53 (v) 0 ta
-0.300 (ar) tb
0.180 (iab) tb
-0.240 (le) tb gr
0.00 0.00 390.75 302.25 cl
0.00 0.00 390.75 302.25 cl
/Font1 findfont 12 s
0 0 0 srgb
23.02 223.79 (v) 90 ta
-0.300 (alue) tb gr
0.00 0.00 390.75 302.25 cl
0.00 0.00 390.75 302.25 cl
0.00 0.00 390.75 302.25 cl
0.00 0.00 390.75 302.25 cl
0.00 0.00 390.75 302.25 cl
0.00 0.00 390.75 302.25 cl
/bg { 1 1 1 srgb } def
302.69 204.46 56.42 67.34 r p2
0.00 0.00 390.75 302.25 cl
0.00 0.00 390.75 302.25 cl
/Font2 findfont 10 s
0 0 0 srgb
306.94 260.46 (learner) 0 0 t
0.00 0.00 390.75 302.25 cl
0.00 0.00 390.75 302.25 cl
/bg { 0.9490 0.9490 0.9490 srgb } def
1 1 1 srgb
1.06 setlinewidth
[] 0 setdash
1 setlinecap
1 setlinejoin
10.00 setmiterlimit
306.94 231.75 23.04 23.04 r p3
0.00 0.00 390.75 302.25 cl
0.00 0.00 390.75 302.25 cl
0.9725 0.4627 0.4275 srgb
1.06 setlinewidth
[] 0 setdash
1 setlinecap
1 setlinejoin
10.00 setmiterlimit
np
318.46 234.05 m
0 3.46 l
o
np
318.46 249.03 m
0 3.45 l
o
/bg { 1 1 1 srgb } def
309.82 237.51 17.28 11.52 r p3
np
309.82 243.27 m
17.28 0 l
o
0.00 0.00 390.75 302.25 cl
0.00 0.00 390.75 302.25 cl
/bg { 0.9490 0.9490 0.9490 srgb } def
1 1 1 srgb
1.06 setlinewidth
[] 0 setdash
1 setlinecap
1 setlinejoin
10.00 setmiterlimit
306.94 208.71 23.04 23.04 r p3
0.00 0.00 390.75 302.25 cl
0.00 0.00 390.75 302.25 cl
0 0.7490 0.7686 srgb
1.06 setlinewidth
[] 0 setdash
1 setlinecap
1 setlinejoin
10.00 setmiterlimit
np
318.46 211.01 m
0 3.46 l
o
np
318.46 225.99 m
0 3.45 l
o
/bg { 1 1 1 srgb } def
309.82 214.47 17.28 11.52 r p3
np
309.82 220.23 m
17.28 0 l
o
0.00 0.00 390.75 302.25 cl
0.00 0.00 390.75 302.25 cl
/Font1 findfont 10 s
0 0 0 srgb
332.86 239.68 (basic) 0 0 t
0.00 0.00 390.75 302.25 cl
0.00 0.00 390.75 302.25 cl
/Font1 findfont 10 s
0 0 0 srgb
332.86 216.64 (kfs) 0 0 t
0.00 0.00 390.75 302.25 cl
0.00 0.00 390.75 302.25 cl
0.00 0.00 390.75 302.25 cl
0.00 0.00 390.75 302.25 cl
0.00 0.00 390.75 302.25 cl
0.00 0.00 390.75 302.25 cl
0.00 0.00 390.75 302.25 cl
0.00 0.00 390.75 302.25 cl
0.00 0.00 390.75 302.25 cl
0.00 0.00 390.75 302.25 cl
0.00 0.00 390.75 302.25 cl
0.00 0.00 390.75 302.25 cl
0.00 0.00 390.75 302.25 cl
0.00 0.00 195.37 151.13 cl
/bg { 1 1 1 srgb } def
1 1 1 srgb
1.06 setlinewidth
[] 0 setdash
1 setlinecap
1 setlinejoin
10.00 setmiterlimit
0.00 0.00 195.37 151.13 r p3
0.00 0.00 390.75 302.25 cl
0.00 0.00 390.75 302.25 cl
0.00 0.00 390.75 302.25 cl
48.80 42.08 94.88 131.93 cl
/bg { 0.8980 0.8980 0.8980 srgb } def
48.80 42.08 46.08 89.84 r p2
0.9490 0.9490 0.9490 srgb
0.53 setlinewidth
[] 0 setdash
0 setlinecap
1 setlinejoin
10.00 setmiterlimit
np
48.80 56.22 m
46.08 0 l
o
np
48.80 76.32 m
46.08 0 l
o
np
48.80 96.43 m
46.08 0 l
o
np
48.80 116.53 m
46.08 0 l
o
1 1 1 srgb
1.06 setlinewidth
[] 0 setdash
np
48.80 46.17 m
46.08 0 l
o
np
48.80 66.27 m
46.08 0 l
o
np
48.80 86.38 m
46.08 0 l
o
np
48.80 106.48 m
46.08 0 l
o
np
48.80 126.58 m
46.08 0 l
o
np
61.37 42.08 m
0 89.85 l
o
np
82.31 42.08 m
0 89.85 l
o
0.9725 0.4627 0.4275 srgb
np
61.37 81.11 m
0 23.17 l
o
np
61.37 58.73 m
0 -12.56 l
o
/bg { 1 1 1 srgb } def
1 setlinecap
np
 53.52 81.11 m
0 -22.38 l
15.70 0 l
0 22.38 l
-15.70 0 l
cp p3
2.13 setlinewidth
[] 0 setdash
0 setlinecap
np
53.52 68.74 m
15.70 0 l
o
/bg { 0 0 0 srgb } def
82.31 127.84 2.13 c p2
82.31 127.06 2.13 c p2
82.31 114.49 2.13 c p2
82.31 125.09 2.13 c p2
0 0.7490 0.7686 srgb
1.06 setlinewidth
[] 0 setdash
np
82.31 72.57 m
0 23.07 l
o
np
82.31 48.52 m
0 -2.35 l
o
/bg { 1 1 1 srgb } def
1 setlinecap
np
 74.46 72.57 m
0 -24.05 l
15.71 0 l
0 24.05 l
-15.71 0 l
cp p3
2.13 setlinewidth
[] 0 setdash
0 setlinecap
np
74.46 55.98 m
15.71 0 l
o
0.00 0.00 390.75 302.25 cl
0.00 0.00 390.75 302.25 cl
0.00 0.00 390.75 302.25 cl
/Font1 findfont 10 s
0.4980 0.4980 0.4980 srgb
41.72 42.58 (0.0) 1 0 t
41.72 62.68 (0.2) 1 0 t
41.72 82.79 (0.4) 1 0 t
41.72 102.89 (0.6) 1 0 t
41.72 122.99 (0.8) 1 0 t
0.00 0.00 390.75 302.25 cl
0.00 0.00 390.75 302.25 cl
0.4980 0.4980 0.4980 srgb
1.06 setlinewidth
[] 0 setdash
0 setlinecap
1 setlinejoin
10.00 setmiterlimit
np
44.55 46.17 m
4.25 0 l
o
np
44.55 66.27 m
4.25 0 l
o
np
44.55 86.38 m
4.25 0 l
o
np
44.55 106.48 m
4.25 0 l
o
np
44.55 126.58 m
4.25 0 l
o
0.00 0.00 390.75 302.25 cl
0.00 0.00 390.75 302.25 cl
0.00 0.00 390.75 302.25 cl
0.00 0.00 390.75 302.25 cl
0.00 0.00 390.75 302.25 cl
0.00 0.00 390.75 302.25 cl
0.4980 0.4980 0.4980 srgb
1.06 setlinewidth
[] 0 setdash
0 setlinecap
1 setlinejoin
10.00 setmiterlimit
np
61.37 37.83 m
0 4.25 l
o
np
82.31 37.83 m
0 4.25 l
o
0.00 0.00 390.75 302.25 cl
0.00 0.00 390.75 302.25 cl
/Font1 findfont 10 s
0.4980 0.4980 0.4980 srgb
61.37 27.82 (basic) .5 0 t
82.31 27.82 (kfs) .5 0 t
0.00 0.00 390.75 302.25 cl
0.00 0.00 390.75 302.25 cl
0.00 0.00 390.75 302.25 cl
0.00 0.00 390.75 302.25 cl
0.00 0.00 390.75 302.25 cl
/Font1 findfont 12 s
0 0 0 srgb
53.17 14.40 (lear) 0 ta
0.300 (ner) tb gr
0.00 0.00 390.75 302.25 cl
0.00 0.00 390.75 302.25 cl
/Font1 findfont 12 s
0 0 0 srgb
23.02 43.34 (Full.Error) 90 ta
-0.600 (.simple) tb gr
0.00 0.00 390.75 302.25 cl
0.00 0.00 390.75 302.25 cl
0.00 0.00 390.75 302.25 cl
0.00 0.00 390.75 302.25 cl
0.00 0.00 390.75 302.25 cl
0.00 0.00 390.75 302.25 cl
/bg { 1 1 1 srgb } def
107.32 53.33 56.42 67.34 r p2
0.00 0.00 390.75 302.25 cl
0.00 0.00 390.75 302.25 cl
/Font2 findfont 10 s
0 0 0 srgb
111.57 109.33 (learner) 0 0 t
0.00 0.00 390.75 302.25 cl
0.00 0.00 390.75 302.25 cl
/bg { 0.9490 0.9490 0.9490 srgb } def
1 1 1 srgb
1.06 setlinewidth
[] 0 setdash
1 setlinecap
1 setlinejoin
10.00 setmiterlimit
111.57 80.62 23.04 23.04 r p3
0.00 0.00 390.75 302.25 cl
0.00 0.00 390.75 302.25 cl
0.9725 0.4627 0.4275 srgb
1.06 setlinewidth
[] 0 setdash
1 setlinecap
1 setlinejoin
10.00 setmiterlimit
np
123.09 82.93 m
0 3.45 l
o
np
123.09 97.90 m
0 3.46 l
o
/bg { 1 1 1 srgb } def
114.45 86.38 17.28 11.52 r p3
np
114.45 92.14 m
17.28 0 l
o
0.00 0.00 390.75 302.25 cl
0.00 0.00 390.75 302.25 cl
/bg { 0.9490 0.9490 0.9490 srgb } def
1 1 1 srgb
1.06 setlinewidth
[] 0 setdash
1 setlinecap
1 setlinejoin
10.00 setmiterlimit
111.57 57.58 23.04 23.04 r p3
0.00 0.00 390.75 302.25 cl
0.00 0.00 390.75 302.25 cl
0 0.7490 0.7686 srgb
1.06 setlinewidth
[] 0 setdash
1 setlinecap
1 setlinejoin
10.00 setmiterlimit
np
123.09 59.89 m
0 3.45 l
o
np
123.09 74.86 m
0 3.46 l
o
/bg { 1 1 1 srgb } def
114.45 63.34 17.28 11.52 r p3
np
114.45 69.10 m
17.28 0 l
o
0.00 0.00 390.75 302.25 cl
0.00 0.00 390.75 302.25 cl
/Font1 findfont 10 s
0 0 0 srgb
137.49 88.55 (basic) 0 0 t
0.00 0.00 390.75 302.25 cl
0.00 0.00 390.75 302.25 cl
/Font1 findfont 10 s
0 0 0 srgb
137.49 65.51 (kfs) 0 0 t
0.00 0.00 390.75 302.25 cl
0.00 0.00 390.75 302.25 cl
0.00 0.00 390.75 302.25 cl
0.00 0.00 390.75 302.25 cl
0.00 0.00 390.75 302.25 cl
0.00 0.00 390.75 302.25 cl
0.00 0.00 390.75 302.25 cl
0.00 0.00 390.75 302.25 cl
0.00 0.00 390.75 302.25 cl
0.00 0.00 390.75 302.25 cl
0.00 0.00 390.75 302.25 cl
0.00 0.00 390.75 302.25 cl
0.00 0.00 390.75 302.25 cl
195.37 0.00 390.75 151.13 cl
/bg { 1 1 1 srgb } def
1 1 1 srgb
1.06 setlinewidth
[] 0 setdash
1 setlinecap
1 setlinejoin
10.00 setmiterlimit
195.37 0.00 195.37 151.13 r p3
0.00 0.00 390.75 302.25 cl
0.00 0.00 390.75 302.25 cl
0.00 0.00 390.75 302.25 cl
241.40 42.08 290.26 131.93 cl
/bg { 0.8980 0.8980 0.8980 srgb } def
241.40 42.08 48.86 89.84 r p2
0.9490 0.9490 0.9490 srgb
0.53 setlinewidth
[] 0 setdash
0 setlinecap
1 setlinejoin
10.00 setmiterlimit
np
241.40 54.77 m
48.86 0 l
o
np
241.40 79.71 m
48.86 0 l
o
np
241.40 104.65 m
48.86 0 l
o
np
241.40 129.59 m
48.86 0 l
o
1 1 1 srgb
1.06 setlinewidth
[] 0 setdash
np
241.40 42.30 m
48.86 0 l
o
np
241.40 67.24 m
48.86 0 l
o
np
241.40 92.18 m
48.86 0 l
o
np
241.40 117.12 m
48.86 0 l
o
np
254.72 42.08 m
0 89.85 l
o
np
276.93 42.08 m
0 89.85 l
o
0.9725 0.4627 0.4275 srgb
np
254.72 93.38 m
0 34.46 l
o
np
254.72 65.84 m
0 -13.56 l
o
/bg { 1 1 1 srgb } def
1 setlinecap
np
 246.39 93.38 m
0 -27.54 l
16.66 0 l
0 27.54 l
-16.66 0 l
cp p3
2.13 setlinewidth
[] 0 setdash
0 setlinecap
np
246.39 76.88 m
16.66 0 l
o
/bg { 0 0 0 srgb } def
276.93 68.29 2.13 c p2
276.93 121.74 2.13 c p2
276.93 79.81 2.13 c p2
276.93 114.37 2.13 c p2
276.93 81.74 2.13 c p2
276.93 85.03 2.13 c p2
276.93 78.95 2.13 c p2
276.93 99.31 2.13 c p2
276.93 93.63 2.13 c p2
276.93 81.20 2.13 c p2
276.93 125.77 2.13 c p2
276.93 81.11 2.13 c p2
276.93 96.16 2.13 c p2
276.93 69.88 2.13 c p2
276.93 81.84 2.13 c p2
0 0.7490 0.7686 srgb
1.06 setlinewidth
[] 0 setdash
np
276.93 56.71 m
0 9.54 l
o
np
276.93 49.60 m
0 -3.43 l
o
/bg { 1 1 1 srgb } def
1 setlinecap
np
 268.60 56.71 m
0 -7.11 l
16.66 0 l
0 7.11 l
-16.66 0 l
cp p3
2.13 setlinewidth
[] 0 setdash
0 setlinecap
np
268.60 51.19 m
16.66 0 l
o
0.00 0.00 390.75 302.25 cl
0.00 0.00 390.75 302.25 cl
0.00 0.00 390.75 302.25 cl
/Font1 findfont 10 s
0.4980 0.4980 0.4980 srgb
234.31 38.71 (0) 1 0 t
234.31 63.65 (25) 1 0 t
234.31 88.59 (50) 1 0 t
234.31 113.53 (75) 1 0 t
0.00 0.00 390.75 302.25 cl
0.00 0.00 390.75 302.25 cl
0.4980 0.4980 0.4980 srgb
1.06 setlinewidth
[] 0 setdash
0 setlinecap
1 setlinejoin
10.00 setmiterlimit
np
237.15 42.30 m
4.25 0 l
o
np
237.15 67.24 m
4.25 0 l
o
np
237.15 92.18 m
4.25 0 l
o
np
237.15 117.12 m
4.25 0 l
o
0.00 0.00 390.75 302.25 cl
0.00 0.00 390.75 302.25 cl
0.00 0.00 390.75 302.25 cl
0.00 0.00 390.75 302.25 cl
0.00 0.00 390.75 302.25 cl
0.00 0.00 390.75 302.25 cl
0.4980 0.4980 0.4980 srgb
1.06 setlinewidth
[] 0 setdash
0 setlinecap
1 setlinejoin
10.00 setmiterlimit
np
254.72 37.83 m
0 4.25 l
o
np
276.93 37.83 m
0 4.25 l
o
0.00 0.00 390.75 302.25 cl
0.00 0.00 390.75 302.25 cl
/Font1 findfont 10 s
0.4980 0.4980 0.4980 srgb
254.72 27.82 (basic) .5 0 t
276.93 27.82 (kfs) .5 0 t
0.00 0.00 390.75 302.25 cl
0.00 0.00 390.75 302.25 cl
0.00 0.00 390.75 302.25 cl
0.00 0.00 390.75 302.25 cl
0.00 0.00 390.75 302.25 cl
/Font1 findfont 12 s
0 0 0 srgb
247.16 14.40 (lear) 0 ta
0.300 (ner) tb gr
0.00 0.00 390.75 302.25 cl
0.00 0.00 390.75 302.25 cl
/Font1 findfont 12 s
0 0 0 srgb
218.39 87.00 (time) .5 90 t
0.00 0.00 390.75 302.25 cl
0.00 0.00 390.75 302.25 cl
0.00 0.00 390.75 302.25 cl
0.00 0.00 390.75 302.25 cl
0.00 0.00 390.75 302.25 cl
0.00 0.00 390.75 302.25 cl
/bg { 1 1 1 srgb } def
302.69 53.33 56.42 67.34 r p2
0.00 0.00 390.75 302.25 cl
0.00 0.00 390.75 302.25 cl
/Font2 findfont 10 s
0 0 0 srgb
306.94 109.33 (learner) 0 0 t
0.00 0.00 390.75 302.25 cl
0.00 0.00 390.75 302.25 cl
/bg { 0.9490 0.9490 0.9490 srgb } def
1 1 1 srgb
1.06 setlinewidth
[] 0 setdash
1 setlinecap
1 setlinejoin
10.00 setmiterlimit
306.94 80.62 23.04 23.04 r p3
0.00 0.00 390.75 302.25 cl
0.00 0.00 390.75 302.25 cl
0.9725 0.4627 0.4275 srgb
1.06 setlinewidth
[] 0 setdash
1 setlinecap
1 setlinejoin
10.00 setmiterlimit
np
318.46 82.93 m
0 3.45 l
o
np
318.46 97.90 m
0 3.46 l
o
/bg { 1 1 1 srgb } def
309.82 86.38 17.28 11.52 r p3
np
309.82 92.14 m
17.28 0 l
o
0.00 0.00 390.75 302.25 cl
0.00 0.00 390.75 302.25 cl
/bg { 0.9490 0.9490 0.9490 srgb } def
1 1 1 srgb
1.06 setlinewidth
[] 0 setdash
1 setlinecap
1 setlinejoin
10.00 setmiterlimit
306.94 57.58 23.04 23.04 r p3
0.00 0.00 390.75 302.25 cl
0.00 0.00 390.75 302.25 cl
0 0.7490 0.7686 srgb
1.06 setlinewidth
[] 0 setdash
1 setlinecap
1 setlinejoin
10.00 setmiterlimit
np
318.46 59.89 m
0 3.45 l
o
np
318.46 74.86 m
0 3.46 l
o
/bg { 1 1 1 srgb } def
309.82 63.34 17.28 11.52 r p3
np
309.82 69.10 m
17.28 0 l
o
0.00 0.00 390.75 302.25 cl
0.00 0.00 390.75 302.25 cl
/Font1 findfont 10 s
0 0 0 srgb
332.86 88.55 (basic) 0 0 t
0.00 0.00 390.75 302.25 cl
0.00 0.00 390.75 302.25 cl
/Font1 findfont 10 s
0 0 0 srgb
332.86 65.51 (kfs) 0 0 t
0.00 0.00 390.75 302.25 cl
0.00 0.00 390.75 302.25 cl
0.00 0.00 390.75 302.25 cl
0.00 0.00 390.75 302.25 cl
0.00 0.00 390.75 302.25 cl
0.00 0.00 390.75 302.25 cl
0.00 0.00 390.75 302.25 cl
0.00 0.00 390.75 302.25 cl
0.00 0.00 390.75 302.25 cl
0.00 0.00 390.75 302.25 cl
0.00 0.00 390.75 302.25 cl
0.00 0.00 390.75 302.25 cl
0.00 0.00 390.75 302.25 cl
0.00 151.13 390.75 302.25 cl
/bg { 1 1 1 srgb } def
1 1 1 srgb
1.06 setlinewidth
[] 0 setdash
1 setlinecap
1 setlinejoin
10.00 setmiterlimit
0.00 151.13 390.75 151.13 r p3
0.00 0.00 390.75 302.25 cl
0.00 0.00 390.75 302.25 cl
0.00 0.00 390.75 302.25 cl
48.80 193.21 290.26 263.40 cl
/bg { 0.8980 0.8980 0.8980 srgb } def
48.80 193.21 241.45 70.19 r p2
0.9490 0.9490 0.9490 srgb
0.53 setlinewidth
[] 0 setdash
0 setlinecap
1 setlinejoin
10.00 setmiterlimit
np
48.80 202.78 m
241.46 0 l
o
np
48.80 215.54 m
241.46 0 l
o
np
48.80 228.30 m
241.46 0 l
o
np
48.80 241.06 m
241.46 0 l
o
np
48.80 253.83 m
241.46 0 l
o
1 1 1 srgb
1.06 setlinewidth
[] 0 setdash
np
48.80 196.40 m
241.46 0 l
o
np
48.80 209.16 m
241.46 0 l
o
np
48.80 221.92 m
241.46 0 l
o
np
48.80 234.68 m
241.46 0 l
o
np
48.80 247.45 m
241.46 0 l
o
np
48.80 260.21 m
241.46 0 l
o
np
83.30 193.21 m
0 70.19 l
o
np
140.79 193.21 m
0 70.19 l
o
np
198.27 193.21 m
0 70.19 l
o
np
255.76 193.21 m
0 70.19 l
o
/bg { 0 0 0 srgb } def
72.52 200.39 2.13 c p2
0.9725 0.4627 0.4275 srgb
np
72.52 196.40 m
0 0 l
o
np
72.52 196.40 m
0 0 l
o
/bg { 1 1 1 srgb } def
1 setlinecap
np
 61.74 196.40 m
0 0 l
21.56 0 l
0 0 l
-21.56 0 l
cp p3
2.13 setlinewidth
[] 0 setdash
0 setlinecap
np
61.74 196.40 m
21.56 0 l
o
/bg { 0 0 0 srgb } def
94.08 212.35 2.13 c p2
94.08 212.35 2.13 c p2
94.08 228.30 2.13 c p2
94.08 228.30 2.13 c p2
94.08 212.35 2.13 c p2
94.08 228.30 2.13 c p2
94.08 228.30 2.13 c p2
94.08 228.30 2.13 c p2
94.08 228.30 2.13 c p2
94.08 228.30 2.13 c p2
0 0.7490 0.7686 srgb
1.06 setlinewidth
[] 0 setdash
np
94.08 196.40 m
0 0 l
o
np
94.08 196.40 m
0 0 l
o
/bg { 1 1 1 srgb } def
1 setlinecap
np
 83.30 196.40 m
0 0 l
21.55 0 l
0 0 l
-21.55 0 l
cp p3
2.13 setlinewidth
[] 0 setdash
0 setlinecap
np
83.30 196.40 m
21.55 0 l
o
0.9725 0.4627 0.4275 srgb
1.06 setlinewidth
[] 0 setdash
np
130.01 204.37 m
0 10.97 l
o
np
130.01 196.40 m
0 0 l
o
1 setlinecap
np
 119.23 204.37 m
0 -7.97 l
21.56 0 l
0 7.97 l
-21.56 0 l
cp p3
2.13 setlinewidth
[] 0 setdash
0 setlinecap
np
119.23 196.40 m
21.56 0 l
o
/bg { 0 0 0 srgb } def
151.56 228.30 2.13 c p2
0 0.7490 0.7686 srgb
1.06 setlinewidth
[] 0 setdash
np
151.56 204.37 m
0 7.98 l
o
np
151.56 196.40 m
0 0 l
o
/bg { 1 1 1 srgb } def
1 setlinecap
np
 140.79 204.37 m
0 -7.97 l
21.55 0 l
0 7.97 l
-21.55 0 l
cp p3
2.13 setlinewidth
[] 0 setdash
0 setlinecap
np
140.79 204.37 m
21.55 0 l
o
/bg { 0 0 0 srgb } def
187.49 230.30 2.13 c p2
187.49 227.31 2.13 c p2
187.49 227.80 2.13 c p2
0.9725 0.4627 0.4275 srgb
1.06 setlinewidth
[] 0 setdash
np
187.49 209.61 m
0 14.70 l
o
np
187.49 198.39 m
0 -1.99 l
o
/bg { 1 1 1 srgb } def
1 setlinecap
np
 176.72 209.61 m
0 -11.22 l
21.55 0 l
0 11.22 l
-21.55 0 l
cp p3
2.13 setlinewidth
[] 0 setdash
0 setlinecap
np
176.72 204.37 m
21.55 0 l
o
/bg { 0 0 0 srgb } def
209.05 220.33 2.13 c p2
209.05 228.30 2.13 c p2
209.05 260.21 2.13 c p2
0 0.7490 0.7686 srgb
1.06 setlinewidth
[] 0 setdash
np
209.05 204.37 m
0 11.97 l
o
np
209.05 196.40 m
0 0 l
o
/bg { 1 1 1 srgb } def
1 setlinecap
np
 198.27 204.37 m
0 -7.97 l
21.56 0 l
0 7.97 l
-21.56 0 l
cp p3
2.13 setlinewidth
[] 0 setdash
0 setlinecap
np
198.27 196.40 m
21.56 0 l
o
0.9725 0.4627 0.4275 srgb
1.06 setlinewidth
[] 0 setdash
np
244.98 221.45 m
0 25.80 l
o
np
244.98 204.25 m
0 -7.85 l
o
1 setlinecap
np
 234.20 221.45 m
0 -17.20 l
21.56 0 l
0 17.20 l
-21.56 0 l
cp p3
2.13 setlinewidth
[] 0 setdash
0 setlinecap
np
234.20 212.10 m
21.56 0 l
o
/bg { 0 0 0 srgb } def
266.54 260.21 2.13 c p2
266.54 240.77 2.13 c p2
266.54 234.29 2.13 c p2
266.54 243.26 2.13 c p2
266.54 238.77 2.13 c p2
266.54 227.31 2.13 c p2
266.54 232.79 2.13 c p2
0 0.7490 0.7686 srgb
1.06 setlinewidth
[] 0 setdash
np
266.54 208.36 m
0 17.45 l
o
np
266.54 196.40 m
0 0 l
o
/bg { 1 1 1 srgb } def
1 setlinecap
np
 255.76 208.36 m
0 -11.96 l
21.56 0 l
0 11.96 l
-21.56 0 l
cp p3
2.13 setlinewidth
[] 0 setdash
0 setlinecap
np
255.76 200.39 m
21.56 0 l
o
0.00 0.00 390.75 302.25 cl
0.00 0.00 390.75 302.25 cl
0.00 0.00 390.75 302.25 cl
/Font1 findfont 10 s
0.4980 0.4980 0.4980 srgb
41.72 192.81 (0.0) 1 0 t
41.72 205.57 (0.1) 1 0 t
41.72 218.33 (0.2) 1 0 t
41.72 231.09 (0.3) 1 0 t
41.72 243.86 (0.4) 1 0 t
41.72 256.62 (0.5) 1 0 t
0.00 0.00 390.75 302.25 cl
0.00 0.00 390.75 302.25 cl
0.4980 0.4980 0.4980 srgb
1.06 setlinewidth
[] 0 setdash
0 setlinecap
1 setlinejoin
10.00 setmiterlimit
np
44.55 196.40 m
4.25 0 l
o
np
44.55 209.16 m
4.25 0 l
o
np
44.55 221.92 m
4.25 0 l
o
np
44.55 234.68 m
4.25 0 l
o
np
44.55 247.45 m
4.25 0 l
o
np
44.55 260.21 m
4.25 0 l
o
0.00 0.00 390.75 302.25 cl
0.00 0.00 390.75 302.25 cl
0.00 0.00 390.75 302.25 cl
0.00 0.00 390.75 302.25 cl
0.00 0.00 390.75 302.25 cl
0.00 0.00 390.75 302.25 cl
0.4980 0.4980 0.4980 srgb
1.06 setlinewidth
[] 0 setdash
0 setlinecap
1 setlinejoin
10.00 setmiterlimit
np
83.30 188.96 m
0 4.25 l
o
np
140.79 188.96 m
0 4.25 l
o
np
198.27 188.96 m
0 4.25 l
o
np
255.76 188.96 m
0 4.25 l
o
0.00 0.00 390.75 302.25 cl
0.00 0.00 390.75 302.25 cl
/Font1 findfont 10 s
0.4980 0.4980 0.4980 srgb
83.30 178.94 (1) .5 0 t
140.79 178.94 (2) .5 0 t
198.27 178.94 (3) .5 0 t
255.76 178.94 (4) .5 0 t
0.00 0.00 390.75 302.25 cl
0.00 0.00 390.75 302.25 cl
0.00 0.00 390.75 302.25 cl
0.00 0.00 390.75 302.25 cl
0.00 0.00 390.75 302.25 cl
/Font1 findfont 12 s
0 0 0 srgb
169.53 165.53 (output) .5 0 t
0.00 0.00 390.75 302.25 cl
0.00 0.00 390.75 302.25 cl
/Font1 findfont 12 s
0 0 0 srgb
23.02 228.30 (error) .5 90 t
0.00 0.00 390.75 302.25 cl
0.00 0.00 390.75 302.25 cl
0.00 0.00 390.75 302.25 cl
0.00 0.00 390.75 302.25 cl
0.00 0.00 390.75 302.25 cl
0.00 0.00 390.75 302.25 cl
/bg { 1 1 1 srgb } def
302.69 194.63 56.42 67.34 r p2
0.00 0.00 390.75 302.25 cl
0.00 0.00 390.75 302.25 cl
/Font2 findfont 10 s
0 0 0 srgb
306.94 250.63 (learner) 0 0 t
0.00 0.00 390.75 302.25 cl
0.00 0.00 390.75 302.25 cl
/bg { 0.9490 0.9490 0.9490 srgb } def
1 1 1 srgb
1.06 setlinewidth
[] 0 setdash
1 setlinecap
1 setlinejoin
10.00 setmiterlimit
306.94 221.92 23.04 23.04 r p3
0.00 0.00 390.75 302.25 cl
0.00 0.00 390.75 302.25 cl
0.9725 0.4627 0.4275 srgb
1.06 setlinewidth
[] 0 setdash
1 setlinecap
1 setlinejoin
10.00 setmiterlimit
np
318.46 224.23 m
0 3.45 l
o
np
318.46 239.20 m
0 3.46 l
o
/bg { 1 1 1 srgb } def
309.82 227.68 17.28 11.52 r p3
np
309.82 233.44 m
17.28 0 l
o
0.00 0.00 390.75 302.25 cl
0.00 0.00 390.75 302.25 cl
/bg { 0.9490 0.9490 0.9490 srgb } def
1 1 1 srgb
1.06 setlinewidth
[] 0 setdash
1 setlinecap
1 setlinejoin
10.00 setmiterlimit
306.94 198.88 23.04 23.04 r p3
0.00 0.00 390.75 302.25 cl
0.00 0.00 390.75 302.25 cl
0 0.7490 0.7686 srgb
1.06 setlinewidth
[] 0 setdash
1 setlinecap
1 setlinejoin
10.00 setmiterlimit
np
318.46 201.19 m
0 3.45 l
o
np
318.46 216.16 m
0 3.46 l
o
/bg { 1 1 1 srgb } def
309.82 204.64 17.28 11.52 r p3
np
309.82 210.40 m
17.28 0 l
o
0.00 0.00 390.75 302.25 cl
0.00 0.00 390.75 302.25 cl
/Font1 findfont 10 s
0 0 0 srgb
332.86 229.85 (basic) 0 0 t
0.00 0.00 390.75 302.25 cl
0.00 0.00 390.75 302.25 cl
/Font1 findfont 10 s
0 0 0 srgb
332.86 206.81 (kfs) 0 0 t
0.00 0.00 390.75 302.25 cl
0.00 0.00 390.75 302.25 cl
0.00 0.00 390.75 302.25 cl
0.00 0.00 390.75 302.25 cl
0.00 0.00 390.75 302.25 cl
0.00 0.00 390.75 302.25 cl
0.00 0.00 390.75 302.25 cl
0.00 0.00 390.75 302.25 cl
0.00 0.00 390.75 302.25 cl
0.00 0.00 390.75 302.25 cl
/Font1 findfont 14 s
0 0 0 srgb
57.68 268.20 (Mean error per output \(T) 0 ta
-1.680 (r) tb
-0.140 (ain + T) tb
-1.680 (est\)) tb gr
0.00 0.00 390.75 302.25 cl
0.00 0.00 390.75 302.25 cl
0.00 0.00 390.75 302.25 cl
0.00 0.00 195.37 151.13 cl
/bg { 1 1 1 srgb } def
1 1 1 srgb
1.06 setlinewidth
[] 0 setdash
1 setlinecap
1 setlinejoin
10.00 setmiterlimit
0.00 0.00 195.37 151.13 r p3
0.00 0.00 390.75 302.25 cl
0.00 0.00 390.75 302.25 cl
0.00 0.00 390.75 302.25 cl
48.80 42.08 94.88 112.27 cl
/bg { 0.8980 0.8980 0.8980 srgb } def
48.80 42.08 46.08 70.19 r p2
0.9490 0.9490 0.9490 srgb
0.53 setlinewidth
[] 0 setdash
0 setlinecap
1 setlinejoin
10.00 setmiterlimit
np
48.80 53.13 m
46.08 0 l
o
np
48.80 68.83 m
46.08 0 l
o
np
48.80 84.54 m
46.08 0 l
o
np
48.80 100.25 m
46.08 0 l
o
1 1 1 srgb
1.06 setlinewidth
[] 0 setdash
np
48.80 45.27 m
46.08 0 l
o
np
48.80 60.98 m
46.08 0 l
o
np
48.80 76.69 m
46.08 0 l
o
np
48.80 92.39 m
46.08 0 l
o
np
48.80 108.10 m
46.08 0 l
o
np
61.37 42.08 m
0 70.19 l
o
np
82.31 42.08 m
0 70.19 l
o
0.9725 0.4627 0.4275 srgb
np
61.37 72.58 m
0 18.10 l
o
np
61.37 55.09 m
0 -9.82 l
o
/bg { 1 1 1 srgb } def
1 setlinecap
np
 53.52 72.58 m
0 -17.49 l
15.70 0 l
0 17.49 l
-15.70 0 l
cp p3
2.13 setlinewidth
[] 0 setdash
0 setlinecap
np
53.52 62.91 m
15.70 0 l
o
/bg { 0 0 0 srgb } def
82.31 109.08 2.13 c p2
82.31 108.47 2.13 c p2
82.31 98.65 2.13 c p2
82.31 106.94 2.13 c p2
0 0.7490 0.7686 srgb
1.06 setlinewidth
[] 0 setdash
np
82.31 65.90 m
0 18.03 l
o
np
82.31 47.11 m
0 -1.84 l
o
/bg { 1 1 1 srgb } def
1 setlinecap
np
 74.46 65.90 m
0 -18.79 l
15.71 0 l
0 18.79 l
-15.71 0 l
cp p3
2.13 setlinewidth
[] 0 setdash
0 setlinecap
np
74.46 52.94 m
15.71 0 l
o
0.00 0.00 390.75 302.25 cl
0.00 0.00 390.75 302.25 cl
0.00 0.00 390.75 302.25 cl
/Font1 findfont 10 s
0.4980 0.4980 0.4980 srgb
41.72 41.68 (0.0) 1 0 t
41.72 57.39 (0.2) 1 0 t
41.72 73.10 (0.4) 1 0 t
41.72 88.80 (0.6) 1 0 t
41.72 104.51 (0.8) 1 0 t
0.00 0.00 390.75 302.25 cl
0.00 0.00 390.75 302.25 cl
0.4980 0.4980 0.4980 srgb
1.06 setlinewidth
[] 0 setdash
0 setlinecap
1 setlinejoin
10.00 setmiterlimit
np
44.55 45.27 m
4.25 0 l
o
np
44.55 60.98 m
4.25 0 l
o
np
44.55 76.69 m
4.25 0 l
o
np
44.55 92.39 m
4.25 0 l
o
np
44.55 108.10 m
4.25 0 l
o
0.00 0.00 390.75 302.25 cl
0.00 0.00 390.75 302.25 cl
0.00 0.00 390.75 302.25 cl
0.00 0.00 390.75 302.25 cl
0.00 0.00 390.75 302.25 cl
0.00 0.00 390.75 302.25 cl
0.4980 0.4980 0.4980 srgb
1.06 setlinewidth
[] 0 setdash
0 setlinecap
1 setlinejoin
10.00 setmiterlimit
np
61.37 37.83 m
0 4.25 l
o
np
82.31 37.83 m
0 4.25 l
o
0.00 0.00 390.75 302.25 cl
0.00 0.00 390.75 302.25 cl
/Font1 findfont 10 s
0.4980 0.4980 0.4980 srgb
61.37 27.82 (basic) .5 0 t
82.31 27.82 (kfs) .5 0 t
0.00 0.00 390.75 302.25 cl
0.00 0.00 390.75 302.25 cl
0.00 0.00 390.75 302.25 cl
0.00 0.00 390.75 302.25 cl
0.00 0.00 390.75 302.25 cl
/Font1 findfont 12 s
0 0 0 srgb
53.17 14.40 (lear) 0 ta
0.300 (ner) tb gr
0.00 0.00 390.75 302.25 cl
0.00 0.00 390.75 302.25 cl
/Font1 findfont 12 s
0 0 0 srgb
23.02 77.18 (mean total error) .5 90 t
0.00 0.00 390.75 302.25 cl
0.00 0.00 390.75 302.25 cl
0.00 0.00 390.75 302.25 cl
0.00 0.00 390.75 302.25 cl
0.00 0.00 390.75 302.25 cl
0.00 0.00 390.75 302.25 cl
/bg { 1 1 1 srgb } def
107.32 43.51 56.42 67.34 r p2
0.00 0.00 390.75 302.25 cl
0.00 0.00 390.75 302.25 cl
/Font2 findfont 10 s
0 0 0 srgb
111.57 99.51 (learner) 0 0 t
0.00 0.00 390.75 302.25 cl
0.00 0.00 390.75 302.25 cl
/bg { 0.9490 0.9490 0.9490 srgb } def
1 1 1 srgb
1.06 setlinewidth
[] 0 setdash
1 setlinecap
1 setlinejoin
10.00 setmiterlimit
111.57 70.80 23.04 23.04 r p3
0.00 0.00 390.75 302.25 cl
0.00 0.00 390.75 302.25 cl
0.9725 0.4627 0.4275 srgb
1.06 setlinewidth
[] 0 setdash
1 setlinecap
1 setlinejoin
10.00 setmiterlimit
np
123.09 73.10 m
0 3.46 l
o
np
123.09 88.08 m
0 3.45 l
o
/bg { 1 1 1 srgb } def
114.45 76.56 17.28 11.52 r p3
np
114.45 82.32 m
17.28 0 l
o
0.00 0.00 390.75 302.25 cl
0.00 0.00 390.75 302.25 cl
/bg { 0.9490 0.9490 0.9490 srgb } def
1 1 1 srgb
1.06 setlinewidth
[] 0 setdash
1 setlinecap
1 setlinejoin
10.00 setmiterlimit
111.57 47.76 23.04 23.04 r p3
0.00 0.00 390.75 302.25 cl
0.00 0.00 390.75 302.25 cl
0 0.7490 0.7686 srgb
1.06 setlinewidth
[] 0 setdash
1 setlinecap
1 setlinejoin
10.00 setmiterlimit
np
123.09 50.06 m
0 3.46 l
o
np
123.09 65.04 m
0 3.45 l
o
/bg { 1 1 1 srgb } def
114.45 53.52 17.28 11.52 r p3
np
114.45 59.28 m
17.28 0 l
o
0.00 0.00 390.75 302.25 cl
0.00 0.00 390.75 302.25 cl
/Font1 findfont 10 s
0 0 0 srgb
137.49 78.73 (basic) 0 0 t
0.00 0.00 390.75 302.25 cl
0.00 0.00 390.75 302.25 cl
/Font1 findfont 10 s
0 0 0 srgb
137.49 55.69 (kfs) 0 0 t
0.00 0.00 390.75 302.25 cl
0.00 0.00 390.75 302.25 cl
0.00 0.00 390.75 302.25 cl
0.00 0.00 390.75 302.25 cl
0.00 0.00 390.75 302.25 cl
0.00 0.00 390.75 302.25 cl
0.00 0.00 390.75 302.25 cl
0.00 0.00 390.75 302.25 cl
0.00 0.00 390.75 302.25 cl
0.00 0.00 390.75 302.25 cl
/Font1 findfont 14 s
0 0 0 srgb
-6.54 117.07 (Mean error \(T) 0 ta
-1.680 (r) tb
-0.140 (ain + T) tb
-1.680 (est\)) tb gr
0.00 0.00 390.75 302.25 cl
0.00 0.00 390.75 302.25 cl
0.00 0.00 390.75 302.25 cl
195.37 0.00 390.75 151.13 cl
/bg { 1 1 1 srgb } def
1 1 1 srgb
1.06 setlinewidth
[] 0 setdash
1 setlinecap
1 setlinejoin
10.00 setmiterlimit
195.37 0.00 195.37 151.13 r p3
0.00 0.00 390.75 302.25 cl
0.00 0.00 390.75 302.25 cl
0.00 0.00 390.75 302.25 cl
241.40 42.08 290.26 112.27 cl
/bg { 0.8980 0.8980 0.8980 srgb } def
241.40 42.08 48.86 70.19 r p2
0.9490 0.9490 0.9490 srgb
0.53 setlinewidth
[] 0 setdash
0 setlinecap
1 setlinejoin
10.00 setmiterlimit
np
241.40 51.99 m
48.86 0 l
o
np
241.40 71.48 m
48.86 0 l
o
np
241.40 90.96 m
48.86 0 l
o
np
241.40 110.45 m
48.86 0 l
o
1 1 1 srgb
1.06 setlinewidth
[] 0 setdash
np
241.40 42.25 m
48.86 0 l
o
np
241.40 61.74 m
48.86 0 l
o
np
241.40 81.22 m
48.86 0 l
o
np
241.40 100.71 m
48.86 0 l
o
np
254.72 42.08 m
0 70.19 l
o
np
276.93 42.08 m
0 70.19 l
o
0.9725 0.4627 0.4275 srgb
np
254.72 82.16 m
0 26.92 l
o
np
254.72 60.64 m
0 -10.59 l
o
/bg { 1 1 1 srgb } def
1 setlinecap
np
 246.39 82.16 m
0 -21.52 l
16.66 0 l
0 21.52 l
-16.66 0 l
cp p3
2.13 setlinewidth
[] 0 setdash
0 setlinecap
np
246.39 69.26 m
16.66 0 l
o
/bg { 0 0 0 srgb } def
276.93 62.56 2.13 c p2
276.93 104.32 2.13 c p2
276.93 71.56 2.13 c p2
276.93 98.56 2.13 c p2
276.93 73.07 2.13 c p2
276.93 75.64 2.13 c p2
276.93 70.89 2.13 c p2
276.93 86.79 2.13 c p2
276.93 82.35 2.13 c p2
276.93 72.64 2.13 c p2
276.93 107.47 2.13 c p2
276.93 72.57 2.13 c p2
276.93 84.33 2.13 c p2
276.93 63.80 2.13 c p2
276.93 73.14 2.13 c p2
0 0.7490 0.7686 srgb
1.06 setlinewidth
[] 0 setdash
np
276.93 53.51 m
0 7.45 l
o
np
276.93 47.96 m
0 -2.69 l
o
/bg { 1 1 1 srgb } def
1 setlinecap
np
 268.60 53.51 m
0 -5.55 l
16.66 0 l
0 5.55 l
-16.66 0 l
cp p3
2.13 setlinewidth
[] 0 setdash
0 setlinecap
np
268.60 49.20 m
16.66 0 l
o
0.00 0.00 390.75 302.25 cl
0.00 0.00 390.75 302.25 cl
0.00 0.00 390.75 302.25 cl
/Font1 findfont 10 s
0.4980 0.4980 0.4980 srgb
234.31 38.66 (0) 1 0 t
234.31 58.15 (25) 1 0 t
234.31 77.63 (50) 1 0 t
234.31 97.12 (75) 1 0 t
0.00 0.00 390.75 302.25 cl
0.00 0.00 390.75 302.25 cl
0.4980 0.4980 0.4980 srgb
1.06 setlinewidth
[] 0 setdash
0 setlinecap
1 setlinejoin
10.00 setmiterlimit
np
237.15 42.25 m
4.25 0 l
o
np
237.15 61.74 m
4.25 0 l
o
np
237.15 81.22 m
4.25 0 l
o
np
237.15 100.71 m
4.25 0 l
o
0.00 0.00 390.75 302.25 cl
0.00 0.00 390.75 302.25 cl
0.00 0.00 390.75 302.25 cl
0.00 0.00 390.75 302.25 cl
0.00 0.00 390.75 302.25 cl
0.00 0.00 390.75 302.25 cl
0.4980 0.4980 0.4980 srgb
1.06 setlinewidth
[] 0 setdash
0 setlinecap
1 setlinejoin
10.00 setmiterlimit
np
254.72 37.83 m
0 4.25 l
o
np
276.93 37.83 m
0 4.25 l
o
0.00 0.00 390.75 302.25 cl
0.00 0.00 390.75 302.25 cl
/Font1 findfont 10 s
0.4980 0.4980 0.4980 srgb
254.72 27.82 (basic) .5 0 t
276.93 27.82 (kfs) .5 0 t
0.00 0.00 390.75 302.25 cl
0.00 0.00 390.75 302.25 cl
0.00 0.00 390.75 302.25 cl
0.00 0.00 390.75 302.25 cl
0.00 0.00 390.75 302.25 cl
/Font1 findfont 12 s
0 0 0 srgb
247.16 14.40 (lear) 0 ta
0.300 (ner) tb gr
0.00 0.00 390.75 302.25 cl
0.00 0.00 390.75 302.25 cl
/Font1 findfont 12 s
0 0 0 srgb
218.39 77.18 (time \(s\)) .5 90 t
0.00 0.00 390.75 302.25 cl
0.00 0.00 390.75 302.25 cl
0.00 0.00 390.75 302.25 cl
0.00 0.00 390.75 302.25 cl
0.00 0.00 390.75 302.25 cl
0.00 0.00 390.75 302.25 cl
/bg { 1 1 1 srgb } def
302.69 43.51 56.42 67.34 r p2
0.00 0.00 390.75 302.25 cl
0.00 0.00 390.75 302.25 cl
/Font2 findfont 10 s
0 0 0 srgb
306.94 99.51 (learner) 0 0 t
0.00 0.00 390.75 302.25 cl
0.00 0.00 390.75 302.25 cl
/bg { 0.9490 0.9490 0.9490 srgb } def
1 1 1 srgb
1.06 setlinewidth
[] 0 setdash
1 setlinecap
1 setlinejoin
10.00 setmiterlimit
306.94 70.80 23.04 23.04 r p3
0.00 0.00 390.75 302.25 cl
0.00 0.00 390.75 302.25 cl
0.9725 0.4627 0.4275 srgb
1.06 setlinewidth
[] 0 setdash
1 setlinecap
1 setlinejoin
10.00 setmiterlimit
np
318.46 73.10 m
0 3.46 l
o
np
318.46 88.08 m
0 3.45 l
o
/bg { 1 1 1 srgb } def
309.82 76.56 17.28 11.52 r p3
np
309.82 82.32 m
17.28 0 l
o
0.00 0.00 390.75 302.25 cl
0.00 0.00 390.75 302.25 cl
/bg { 0.9490 0.9490 0.9490 srgb } def
1 1 1 srgb
1.06 setlinewidth
[] 0 setdash
1 setlinecap
1 setlinejoin
10.00 setmiterlimit
306.94 47.76 23.04 23.04 r p3
0.00 0.00 390.75 302.25 cl
0.00 0.00 390.75 302.25 cl
0 0.7490 0.7686 srgb
1.06 setlinewidth
[] 0 setdash
1 setlinecap
1 setlinejoin
10.00 setmiterlimit
np
318.46 50.06 m
0 3.46 l
o
np
318.46 65.04 m
0 3.45 l
o
/bg { 1 1 1 srgb } def
309.82 53.52 17.28 11.52 r p3
np
309.82 59.28 m
17.28 0 l
o
0.00 0.00 390.75 302.25 cl
0.00 0.00 390.75 302.25 cl
/Font1 findfont 10 s
0 0 0 srgb
332.86 78.73 (basic) 0 0 t
0.00 0.00 390.75 302.25 cl
0.00 0.00 390.75 302.25 cl
/Font1 findfont 10 s
0 0 0 srgb
332.86 55.69 (kfs) 0 0 t
0.00 0.00 390.75 302.25 cl
0.00 0.00 390.75 302.25 cl
0.00 0.00 390.75 302.25 cl
0.00 0.00 390.75 302.25 cl
0.00 0.00 390.75 302.25 cl
0.00 0.00 390.75 302.25 cl
0.00 0.00 390.75 302.25 cl
0.00 0.00 390.75 302.25 cl
0.00 0.00 390.75 302.25 cl
0.00 0.00 390.75 302.25 cl
/Font1 findfont 14 s
0 0 0 srgb
176.74 117.07 (T) 0 ta
-1.680 (otal r) tb
0.210 (unning time b) tb
-0.280 (y lear) tb
0.350 (ner) tb gr
0.00 0.00 390.75 302.25 cl
0.00 0.00 390.75 302.25 cl
0.00 0.00 390.75 302.25 cl
0.00 151.13 390.75 302.25 cl
/bg { 1 1 1 srgb } def
1 1 1 srgb
1.06 setlinewidth
[] 0 setdash
1 setlinecap
1 setlinejoin
10.00 setmiterlimit
0.00 151.13 390.75 151.13 r p3
0.00 0.00 390.75 302.25 cl
0.00 0.00 390.75 302.25 cl
0.00 0.00 390.75 302.25 cl
48.80 193.21 290.26 247.85 cl
/bg { 0.8980 0.8980 0.8980 srgb } def
48.80 193.21 241.45 54.64 r p2
0.9490 0.9490 0.9490 srgb
0.53 setlinewidth
[] 0 setdash
0 setlinecap
1 setlinejoin
10.00 setmiterlimit
np
48.80 200.66 m
241.46 0 l
o
np
48.80 210.59 m
241.46 0 l
o
np
48.80 220.53 m
241.46 0 l
o
np
48.80 230.46 m
241.46 0 l
o
np
48.80 240.40 m
241.46 0 l
o
1 1 1 srgb
1.06 setlinewidth
[] 0 setdash
np
48.80 195.69 m
241.46 0 l
o
np
48.80 205.63 m
241.46 0 l
o
np
48.80 215.56 m
241.46 0 l
o
np
48.80 225.49 m
241.46 0 l
o
np
48.80 235.43 m
241.46 0 l
o
np
48.80 245.36 m
241.46 0 l
o
np
83.30 193.21 m
0 54.64 l
o
np
140.79 193.21 m
0 54.64 l
o
np
198.27 193.21 m
0 54.64 l
o
np
255.76 193.21 m
0 54.64 l
o
/bg { 0 0 0 srgb } def
72.52 198.80 2.13 c p2
0.9725 0.4627 0.4275 srgb
np
72.52 195.69 m
0 0 l
o
np
72.52 195.69 m
0 0 l
o
/bg { 1 1 1 srgb } def
1 setlinecap
np
 61.74 195.69 m
0 0 l
21.56 0 l
0 0 l
-21.56 0 l
cp p3
2.13 setlinewidth
[] 0 setdash
0 setlinecap
np
61.74 195.69 m
21.56 0 l
o
/bg { 0 0 0 srgb } def
94.08 208.11 2.13 c p2
94.08 208.11 2.13 c p2
94.08 220.53 2.13 c p2
94.08 220.53 2.13 c p2
94.08 208.11 2.13 c p2
94.08 220.53 2.13 c p2
94.08 220.53 2.13 c p2
94.08 220.53 2.13 c p2
94.08 220.53 2.13 c p2
94.08 220.53 2.13 c p2
0 0.7490 0.7686 srgb
1.06 setlinewidth
[] 0 setdash
np
94.08 195.69 m
0 0 l
o
np
94.08 195.69 m
0 0 l
o
/bg { 1 1 1 srgb } def
1 setlinecap
np
 83.30 195.69 m
0 0 l
21.55 0 l
0 0 l
-21.55 0 l
cp p3
2.13 setlinewidth
[] 0 setdash
0 setlinecap
np
83.30 195.69 m
21.55 0 l
o
0.9725 0.4627 0.4275 srgb
1.06 setlinewidth
[] 0 setdash
np
130.01 201.90 m
0 8.54 l
o
np
130.01 195.69 m
0 0 l
o
1 setlinecap
np
 119.23 201.90 m
0 -6.21 l
21.56 0 l
0 6.21 l
-21.56 0 l
cp p3
2.13 setlinewidth
[] 0 setdash
0 setlinecap
np
119.23 195.69 m
21.56 0 l
o
/bg { 0 0 0 srgb } def
151.56 220.53 2.13 c p2
0 0.7490 0.7686 srgb
1.06 setlinewidth
[] 0 setdash
np
151.56 201.90 m
0 6.21 l
o
np
151.56 195.69 m
0 0 l
o
/bg { 1 1 1 srgb } def
1 setlinecap
np
 140.79 201.90 m
0 -6.21 l
21.55 0 l
0 6.21 l
-21.55 0 l
cp p3
2.13 setlinewidth
[] 0 setdash
0 setlinecap
np
140.79 201.90 m
21.55 0 l
o
/bg { 0 0 0 srgb } def
187.49 222.08 2.13 c p2
187.49 219.75 2.13 c p2
187.49 220.14 2.13 c p2
0.9725 0.4627 0.4275 srgb
1.06 setlinewidth
[] 0 setdash
np
187.49 205.97 m
0 11.45 l
o
np
187.49 197.24 m
0 -1.55 l
o
/bg { 1 1 1 srgb } def
1 setlinecap
np
 176.72 205.97 m
0 -8.73 l
21.55 0 l
0 8.73 l
-21.55 0 l
cp p3
2.13 setlinewidth
[] 0 setdash
0 setlinecap
np
176.72 201.90 m
21.55 0 l
o
/bg { 0 0 0 srgb } def
209.05 214.32 2.13 c p2
209.05 220.53 2.13 c p2
209.05 245.36 2.13 c p2
0 0.7490 0.7686 srgb
1.06 setlinewidth
[] 0 setdash
np
209.05 201.90 m
0 9.31 l
o
np
209.05 195.69 m
0 0 l
o
/bg { 1 1 1 srgb } def
1 setlinecap
np
 198.27 201.90 m
0 -6.21 l
21.56 0 l
0 6.21 l
-21.56 0 l
cp p3
2.13 setlinewidth
[] 0 setdash
0 setlinecap
np
198.27 195.69 m
21.56 0 l
o
0.9725 0.4627 0.4275 srgb
1.06 setlinewidth
[] 0 setdash
np
244.98 215.19 m
0 20.08 l
o
np
244.98 201.80 m
0 -6.11 l
o
1 setlinecap
np
 234.20 215.19 m
0 -13.39 l
21.56 0 l
0 13.39 l
-21.56 0 l
cp p3
2.13 setlinewidth
[] 0 setdash
0 setlinecap
np
234.20 207.92 m
21.56 0 l
o
/bg { 0 0 0 srgb } def
266.54 245.36 2.13 c p2
266.54 230.23 2.13 c p2
266.54 225.18 2.13 c p2
266.54 232.17 2.13 c p2
266.54 228.68 2.13 c p2
266.54 219.75 2.13 c p2
266.54 224.02 2.13 c p2
0 0.7490 0.7686 srgb
1.06 setlinewidth
[] 0 setdash
np
266.54 205.00 m
0 13.59 l
o
np
266.54 195.69 m
0 0 l
o
/bg { 1 1 1 srgb } def
1 setlinecap
np
 255.76 205.00 m
0 -9.31 l
21.56 0 l
0 9.31 l
-21.56 0 l
cp p3
2.13 setlinewidth
[] 0 setdash
0 setlinecap
np
255.76 198.80 m
21.56 0 l
o
0.00 0.00 390.75 302.25 cl
0.00 0.00 390.75 302.25 cl
0.00 0.00 390.75 302.25 cl
/Font1 findfont 10 s
0.4980 0.4980 0.4980 srgb
41.72 192.10 (0.0) 1 0 t
41.72 202.04 (0.1) 1 0 t
41.72 211.97 (0.2) 1 0 t
41.72 221.90 (0.3) 1 0 t
41.72 231.84 (0.4) 1 0 t
41.72 241.77 (0.5) 1 0 t
0.00 0.00 390.75 302.25 cl
0.00 0.00 390.75 302.25 cl
0.4980 0.4980 0.4980 srgb
1.06 setlinewidth
[] 0 setdash
0 setlinecap
1 setlinejoin
10.00 setmiterlimit
np
44.55 195.69 m
4.25 0 l
o
np
44.55 205.63 m
4.25 0 l
o
np
44.55 215.56 m
4.25 0 l
o
np
44.55 225.49 m
4.25 0 l
o
np
44.55 235.43 m
4.25 0 l
o
np
44.55 245.36 m
4.25 0 l
o
0.00 0.00 390.75 302.25 cl
0.00 0.00 390.75 302.25 cl
0.00 0.00 390.75 302.25 cl
0.00 0.00 390.75 302.25 cl
0.00 0.00 390.75 302.25 cl
0.00 0.00 390.75 302.25 cl
0.4980 0.4980 0.4980 srgb
1.06 setlinewidth
[] 0 setdash
0 setlinecap
1 setlinejoin
10.00 setmiterlimit
np
83.30 188.96 m
0 4.25 l
o
np
140.79 188.96 m
0 4.25 l
o
np
198.27 188.96 m
0 4.25 l
o
np
255.76 188.96 m
0 4.25 l
o
0.00 0.00 390.75 302.25 cl
0.00 0.00 390.75 302.25 cl
/Font1 findfont 10 s
0.4980 0.4980 0.4980 srgb
83.30 178.94 (1) .5 0 t
140.79 178.94 (2) .5 0 t
198.27 178.94 (3) .5 0 t
255.76 178.94 (4) .5 0 t
0.00 0.00 390.75 302.25 cl
0.00 0.00 390.75 302.25 cl
0.00 0.00 390.75 302.25 cl
0.00 0.00 390.75 302.25 cl
0.00 0.00 390.75 302.25 cl
/Font1 findfont 12 s
0 0 0 srgb
169.53 165.53 (output) .5 0 t
0.00 0.00 390.75 302.25 cl
0.00 0.00 390.75 302.25 cl
/Font1 findfont 12 s
0 0 0 srgb
23.02 220.53 (error) .5 90 t
0.00 0.00 390.75 302.25 cl
0.00 0.00 390.75 302.25 cl
0.00 0.00 390.75 302.25 cl
0.00 0.00 390.75 302.25 cl
0.00 0.00 390.75 302.25 cl
0.00 0.00 390.75 302.25 cl
/bg { 1 1 1 srgb } def
302.69 186.86 56.42 67.34 r p2
0.00 0.00 390.75 302.25 cl
0.00 0.00 390.75 302.25 cl
/Font2 findfont 10 s
0 0 0 srgb
306.94 242.86 (learner) 0 0 t
0.00 0.00 390.75 302.25 cl
0.00 0.00 390.75 302.25 cl
/bg { 0.9490 0.9490 0.9490 srgb } def
1 1 1 srgb
1.06 setlinewidth
[] 0 setdash
1 setlinecap
1 setlinejoin
10.00 setmiterlimit
306.94 214.15 23.04 23.04 r p3
0.00 0.00 390.75 302.25 cl
0.00 0.00 390.75 302.25 cl
0.9725 0.4627 0.4275 srgb
1.06 setlinewidth
[] 0 setdash
1 setlinecap
1 setlinejoin
10.00 setmiterlimit
np
318.46 216.45 m
0 3.46 l
o
np
318.46 231.43 m
0 3.45 l
o
/bg { 1 1 1 srgb } def
309.82 219.91 17.28 11.52 r p3
np
309.82 225.67 m
17.28 0 l
o
0.00 0.00 390.75 302.25 cl
0.00 0.00 390.75 302.25 cl
/bg { 0.9490 0.9490 0.9490 srgb } def
1 1 1 srgb
1.06 setlinewidth
[] 0 setdash
1 setlinecap
1 setlinejoin
10.00 setmiterlimit
306.94 191.11 23.04 23.04 r p3
0.00 0.00 390.75 302.25 cl
0.00 0.00 390.75 302.25 cl
0 0.7490 0.7686 srgb
1.06 setlinewidth
[] 0 setdash
1 setlinecap
1 setlinejoin
10.00 setmiterlimit
np
318.46 193.41 m
0 3.46 l
o
np
318.46 208.39 m
0 3.45 l
o
/bg { 1 1 1 srgb } def
309.82 196.87 17.28 11.52 r p3
np
309.82 202.63 m
17.28 0 l
o
0.00 0.00 390.75 302.25 cl
0.00 0.00 390.75 302.25 cl
/Font1 findfont 10 s
0 0 0 srgb
332.86 222.08 (basic) 0 0 t
0.00 0.00 390.75 302.25 cl
0.00 0.00 390.75 302.25 cl
/Font1 findfont 10 s
0 0 0 srgb
332.86 199.04 (kfs) 0 0 t
0.00 0.00 390.75 302.25 cl
0.00 0.00 390.75 302.25 cl
0.00 0.00 390.75 302.25 cl
0.00 0.00 390.75 302.25 cl
0.00 0.00 390.75 302.25 cl
0.00 0.00 390.75 302.25 cl
0.00 0.00 390.75 302.25 cl
0.00 0.00 390.75 302.25 cl
0.00 0.00 390.75 302.25 cl
0.00 0.00 390.75 302.25 cl
/Font1 findfont 14 s
0 0 0 srgb
169.53 268.20 (Mean error per output) .5 0 t
127.33 252.65 (\(T) 0 ta
-1.680 (r) tb
-0.140 (ain + T) tb
-1.680 (est\)) tb gr
0.00 0.00 390.75 302.25 cl
0.00 0.00 390.75 302.25 cl
0.00 0.00 390.75 302.25 cl
0.00 0.00 195.37 151.13 cl
/bg { 1 1 1 srgb } def
1 1 1 srgb
1.06 setlinewidth
[] 0 setdash
1 setlinecap
1 setlinejoin
10.00 setmiterlimit
0.00 0.00 195.37 151.13 r p3
0.00 0.00 390.75 302.25 cl
0.00 0.00 390.75 302.25 cl
0.00 0.00 390.75 302.25 cl
48.80 42.08 94.88 96.72 cl
/bg { 0.8980 0.8980 0.8980 srgb } def
48.80 42.08 46.08 54.64 r p2
0.9490 0.9490 0.9490 srgb
0.53 setlinewidth
[] 0 setdash
0 setlinecap
1 setlinejoin
10.00 setmiterlimit
np
48.80 50.68 m
46.08 0 l
o
np
48.80 62.91 m
46.08 0 l
o
np
48.80 75.13 m
46.08 0 l
o
np
48.80 87.36 m
46.08 0 l
o
1 1 1 srgb
1.06 setlinewidth
[] 0 setdash
np
48.80 44.57 m
46.08 0 l
o
np
48.80 56.79 m
46.08 0 l
o
np
48.80 69.02 m
46.08 0 l
o
np
48.80 81.25 m
46.08 0 l
o
np
48.80 93.47 m
46.08 0 l
o
np
61.37 42.08 m
0 54.64 l
o
np
82.31 42.08 m
0 54.64 l
o
0.9725 0.4627 0.4275 srgb
np
61.37 65.82 m
0 14.09 l
o
np
61.37 52.21 m
0 -7.64 l
o
/bg { 1 1 1 srgb } def
1 setlinecap
np
 53.52 65.82 m
0 -13.61 l
15.70 0 l
0 13.61 l
-15.70 0 l
cp p3
2.13 setlinewidth
[] 0 setdash
0 setlinecap
np
53.52 58.30 m
15.70 0 l
o
/bg { 0 0 0 srgb } def
82.31 94.24 2.13 c p2
82.31 93.76 2.13 c p2
82.31 86.12 2.13 c p2
82.31 92.57 2.13 c p2
0 0.7490 0.7686 srgb
1.06 setlinewidth
[] 0 setdash
np
82.31 60.63 m
0 14.03 l
o
np
82.31 46.00 m
0 -1.43 l
o
/bg { 1 1 1 srgb } def
1 setlinecap
np
 74.46 60.63 m
0 -14.63 l
15.71 0 l
0 14.63 l
-15.71 0 l
cp p3
2.13 setlinewidth
[] 0 setdash
0 setlinecap
np
74.46 50.54 m
15.71 0 l
o
0.00 0.00 390.75 302.25 cl
0.00 0.00 390.75 302.25 cl
0.00 0.00 390.75 302.25 cl
/Font1 findfont 10 s
0.4980 0.4980 0.4980 srgb
41.72 40.98 (0.0) 1 0 t
41.72 53.20 (0.2) 1 0 t
41.72 65.43 (0.4) 1 0 t
41.72 77.66 (0.6) 1 0 t
41.72 89.88 (0.8) 1 0 t
0.00 0.00 390.75 302.25 cl
0.00 0.00 390.75 302.25 cl
0.4980 0.4980 0.4980 srgb
1.06 setlinewidth
[] 0 setdash
0 setlinecap
1 setlinejoin
10.00 setmiterlimit
np
44.55 44.57 m
4.25 0 l
o
np
44.55 56.79 m
4.25 0 l
o
np
44.55 69.02 m
4.25 0 l
o
np
44.55 81.25 m
4.25 0 l
o
np
44.55 93.47 m
4.25 0 l
o
0.00 0.00 390.75 302.25 cl
0.00 0.00 390.75 302.25 cl
0.00 0.00 390.75 302.25 cl
0.00 0.00 390.75 302.25 cl
0.00 0.00 390.75 302.25 cl
0.00 0.00 390.75 302.25 cl
0.4980 0.4980 0.4980 srgb
1.06 setlinewidth
[] 0 setdash
0 setlinecap
1 setlinejoin
10.00 setmiterlimit
np
61.37 37.83 m
0 4.25 l
o
np
82.31 37.83 m
0 4.25 l
o
0.00 0.00 390.75 302.25 cl
0.00 0.00 390.75 302.25 cl
/Font1 findfont 10 s
0.4980 0.4980 0.4980 srgb
61.37 27.82 (basic) .5 0 t
82.31 27.82 (kfs) .5 0 t
0.00 0.00 390.75 302.25 cl
0.00 0.00 390.75 302.25 cl
0.00 0.00 390.75 302.25 cl
0.00 0.00 390.75 302.25 cl
0.00 0.00 390.75 302.25 cl
/Font1 findfont 12 s
0 0 0 srgb
53.17 14.40 (lear) 0 ta
0.300 (ner) tb gr
0.00 0.00 390.75 302.25 cl
0.00 0.00 390.75 302.25 cl
/Font1 findfont 12 s
0 0 0 srgb
23.02 69.40 (mean total error) .5 90 t
0.00 0.00 390.75 302.25 cl
0.00 0.00 390.75 302.25 cl
0.00 0.00 390.75 302.25 cl
0.00 0.00 390.75 302.25 cl
0.00 0.00 390.75 302.25 cl
0.00 0.00 390.75 302.25 cl
/bg { 1 1 1 srgb } def
107.32 35.73 56.42 67.34 r p2
0.00 0.00 390.75 302.25 cl
0.00 0.00 390.75 302.25 cl
/Font2 findfont 10 s
0 0 0 srgb
111.57 91.73 (learner) 0 0 t
0.00 0.00 390.75 302.25 cl
0.00 0.00 390.75 302.25 cl
/bg { 0.9490 0.9490 0.9490 srgb } def
1 1 1 srgb
1.06 setlinewidth
[] 0 setdash
1 setlinecap
1 setlinejoin
10.00 setmiterlimit
111.57 63.02 23.04 23.04 r p3
0.00 0.00 390.75 302.25 cl
0.00 0.00 390.75 302.25 cl
0.9725 0.4627 0.4275 srgb
1.06 setlinewidth
[] 0 setdash
1 setlinecap
1 setlinejoin
10.00 setmiterlimit
np
123.09 65.33 m
0 3.45 l
o
np
123.09 80.30 m
0 3.46 l
o
/bg { 1 1 1 srgb } def
114.45 68.78 17.28 11.52 r p3
np
114.45 74.54 m
17.28 0 l
o
0.00 0.00 390.75 302.25 cl
0.00 0.00 390.75 302.25 cl
/bg { 0.9490 0.9490 0.9490 srgb } def
1 1 1 srgb
1.06 setlinewidth
[] 0 setdash
1 setlinecap
1 setlinejoin
10.00 setmiterlimit
111.57 39.98 23.04 23.04 r p3
0.00 0.00 390.75 302.25 cl
0.00 0.00 390.75 302.25 cl
0 0.7490 0.7686 srgb
1.06 setlinewidth
[] 0 setdash
1 setlinecap
1 setlinejoin
10.00 setmiterlimit
np
123.09 42.29 m
0 3.45 l
o
np
123.09 57.26 m
0 3.46 l
o
/bg { 1 1 1 srgb } def
114.45 45.74 17.28 11.52 r p3
np
114.45 51.50 m
17.28 0 l
o
0.00 0.00 390.75 302.25 cl
0.00 0.00 390.75 302.25 cl
/Font1 findfont 10 s
0 0 0 srgb
137.49 70.95 (basic) 0 0 t
0.00 0.00 390.75 302.25 cl
0.00 0.00 390.75 302.25 cl
/Font1 findfont 10 s
0 0 0 srgb
137.49 47.91 (kfs) 0 0 t
0.00 0.00 390.75 302.25 cl
0.00 0.00 390.75 302.25 cl
0.00 0.00 390.75 302.25 cl
0.00 0.00 390.75 302.25 cl
0.00 0.00 390.75 302.25 cl
0.00 0.00 390.75 302.25 cl
0.00 0.00 390.75 302.25 cl
0.00 0.00 390.75 302.25 cl
0.00 0.00 390.75 302.25 cl
0.00 0.00 390.75 302.25 cl
/Font1 findfont 14 s
0 0 0 srgb
71.84 117.07 (Mean error) .5 0 t
29.64 101.52 (\(T) 0 ta
-1.680 (r) tb
-0.140 (ain + T) tb
-1.680 (est\)) tb gr
0.00 0.00 390.75 302.25 cl
0.00 0.00 390.75 302.25 cl
0.00 0.00 390.75 302.25 cl
195.37 0.00 390.75 151.13 cl
/bg { 1 1 1 srgb } def
1 1 1 srgb
1.06 setlinewidth
[] 0 setdash
1 setlinecap
1 setlinejoin
10.00 setmiterlimit
195.37 0.00 195.37 151.13 r p3
0.00 0.00 390.75 302.25 cl
0.00 0.00 390.75 302.25 cl
0.00 0.00 390.75 302.25 cl
241.40 42.08 290.26 96.72 cl
/bg { 0.8980 0.8980 0.8980 srgb } def
241.40 42.08 48.86 54.64 r p2
0.9490 0.9490 0.9490 srgb
0.53 setlinewidth
[] 0 setdash
0 setlinecap
1 setlinejoin
10.00 setmiterlimit
np
241.40 49.80 m
48.86 0 l
o
np
241.40 64.97 m
48.86 0 l
o
np
241.40 80.13 m
48.86 0 l
o
np
241.40 95.30 m
48.86 0 l
o
1 1 1 srgb
1.06 setlinewidth
[] 0 setdash
np
241.40 42.21 m
48.86 0 l
o
np
241.40 57.38 m
48.86 0 l
o
np
241.40 72.55 m
48.86 0 l
o
np
241.40 87.72 m
48.86 0 l
o
np
254.72 42.08 m
0 54.64 l
o
np
276.93 42.08 m
0 54.64 l
o
0.9725 0.4627 0.4275 srgb
np
254.72 73.28 m
0 20.96 l
o
np
254.72 56.53 m
0 -8.24 l
o
/bg { 1 1 1 srgb } def
1 setlinecap
np
 246.39 73.28 m
0 -16.75 l
16.66 0 l
0 16.75 l
-16.66 0 l
cp p3
2.13 setlinewidth
[] 0 setdash
0 setlinecap
np
246.39 63.24 m
16.66 0 l
o
/bg { 0 0 0 srgb } def
276.93 58.02 2.13 c p2
276.93 90.53 2.13 c p2
276.93 65.03 2.13 c p2
276.93 86.05 2.13 c p2
276.93 66.20 2.13 c p2
276.93 68.20 2.13 c p2
276.93 64.51 2.13 c p2
276.93 76.88 2.13 c p2
276.93 73.43 2.13 c p2
276.93 65.87 2.13 c p2
276.93 92.98 2.13 c p2
276.93 65.82 2.13 c p2
276.93 74.97 2.13 c p2
276.93 58.99 2.13 c p2
276.93 66.26 2.13 c p2
0 0.7490 0.7686 srgb
1.06 setlinewidth
[] 0 setdash
np
276.93 50.98 m
0 5.80 l
o
np
276.93 46.65 m
0 -2.08 l
o
/bg { 1 1 1 srgb } def
1 setlinecap
np
 268.60 50.98 m
0 -4.33 l
16.66 0 l
0 4.33 l
-16.66 0 l
cp p3
2.13 setlinewidth
[] 0 setdash
0 setlinecap
np
268.60 47.62 m
16.66 0 l
o
0.00 0.00 390.75 302.25 cl
0.00 0.00 390.75 302.25 cl
0.00 0.00 390.75 302.25 cl
/Font1 findfont 10 s
0.4980 0.4980 0.4980 srgb
234.31 38.62 (0) 1 0 t
234.31 53.79 (25) 1 0 t
234.31 68.96 (50) 1 0 t
234.31 84.13 (75) 1 0 t
0.00 0.00 390.75 302.25 cl
0.00 0.00 390.75 302.25 cl
0.4980 0.4980 0.4980 srgb
1.06 setlinewidth
[] 0 setdash
0 setlinecap
1 setlinejoin
10.00 setmiterlimit
np
237.15 42.21 m
4.25 0 l
o
np
237.15 57.38 m
4.25 0 l
o
np
237.15 72.55 m
4.25 0 l
o
np
237.15 87.72 m
4.25 0 l
o
0.00 0.00 390.75 302.25 cl
0.00 0.00 390.75 302.25 cl
0.00 0.00 390.75 302.25 cl
0.00 0.00 390.75 302.25 cl
0.00 0.00 390.75 302.25 cl
0.00 0.00 390.75 302.25 cl
0.4980 0.4980 0.4980 srgb
1.06 setlinewidth
[] 0 setdash
0 setlinecap
1 setlinejoin
10.00 setmiterlimit
np
254.72 37.83 m
0 4.25 l
o
np
276.93 37.83 m
0 4.25 l
o
0.00 0.00 390.75 302.25 cl
0.00 0.00 390.75 302.25 cl
/Font1 findfont 10 s
0.4980 0.4980 0.4980 srgb
254.72 27.82 (basic) .5 0 t
276.93 27.82 (kfs) .5 0 t
0.00 0.00 390.75 302.25 cl
0.00 0.00 390.75 302.25 cl
0.00 0.00 390.75 302.25 cl
0.00 0.00 390.75 302.25 cl
0.00 0.00 390.75 302.25 cl
/Font1 findfont 12 s
0 0 0 srgb
247.16 14.40 (lear) 0 ta
0.300 (ner) tb gr
0.00 0.00 390.75 302.25 cl
0.00 0.00 390.75 302.25 cl
/Font1 findfont 12 s
0 0 0 srgb
218.39 69.40 (time \(s\)) .5 90 t
0.00 0.00 390.75 302.25 cl
0.00 0.00 390.75 302.25 cl
0.00 0.00 390.75 302.25 cl
0.00 0.00 390.75 302.25 cl
0.00 0.00 390.75 302.25 cl
0.00 0.00 390.75 302.25 cl
/bg { 1 1 1 srgb } def
302.69 35.73 56.42 67.34 r p2
0.00 0.00 390.75 302.25 cl
0.00 0.00 390.75 302.25 cl
/Font2 findfont 10 s
0 0 0 srgb
306.94 91.73 (learner) 0 0 t
0.00 0.00 390.75 302.25 cl
0.00 0.00 390.75 302.25 cl
/bg { 0.9490 0.9490 0.9490 srgb } def
1 1 1 srgb
1.06 setlinewidth
[] 0 setdash
1 setlinecap
1 setlinejoin
10.00 setmiterlimit
306.94 63.02 23.04 23.04 r p3
0.00 0.00 390.75 302.25 cl
0.00 0.00 390.75 302.25 cl
0.9725 0.4627 0.4275 srgb
1.06 setlinewidth
[] 0 setdash
1 setlinecap
1 setlinejoin
10.00 setmiterlimit
np
318.46 65.33 m
0 3.45 l
o
np
318.46 80.30 m
0 3.46 l
o
/bg { 1 1 1 srgb } def
309.82 68.78 17.28 11.52 r p3
np
309.82 74.54 m
17.28 0 l
o
0.00 0.00 390.75 302.25 cl
0.00 0.00 390.75 302.25 cl
/bg { 0.9490 0.9490 0.9490 srgb } def
1 1 1 srgb
1.06 setlinewidth
[] 0 setdash
1 setlinecap
1 setlinejoin
10.00 setmiterlimit
306.94 39.98 23.04 23.04 r p3
0.00 0.00 390.75 302.25 cl
0.00 0.00 390.75 302.25 cl
0 0.7490 0.7686 srgb
1.06 setlinewidth
[] 0 setdash
1 setlinecap
1 setlinejoin
10.00 setmiterlimit
np
318.46 42.29 m
0 3.45 l
o
np
318.46 57.26 m
0 3.46 l
o
/bg { 1 1 1 srgb } def
309.82 45.74 17.28 11.52 r p3
np
309.82 51.50 m
17.28 0 l
o
0.00 0.00 390.75 302.25 cl
0.00 0.00 390.75 302.25 cl
/Font1 findfont 10 s
0 0 0 srgb
332.86 70.95 (basic) 0 0 t
0.00 0.00 390.75 302.25 cl
0.00 0.00 390.75 302.25 cl
/Font1 findfont 10 s
0 0 0 srgb
332.86 47.91 (kfs) 0 0 t
0.00 0.00 390.75 302.25 cl
0.00 0.00 390.75 302.25 cl
0.00 0.00 390.75 302.25 cl
0.00 0.00 390.75 302.25 cl
0.00 0.00 390.75 302.25 cl
0.00 0.00 390.75 302.25 cl
0.00 0.00 390.75 302.25 cl
0.00 0.00 390.75 302.25 cl
0.00 0.00 390.75 302.25 cl
0.00 0.00 390.75 302.25 cl
/Font1 findfont 14 s
0 0 0 srgb
209.81 117.07 (T) 0 ta
-1.680 (otal r) tb
0.210 (unning time) tb gr
234.71 101.52 (b) 0 ta
-0.280 (y lear) tb
0.350 (ner) tb gr
0.00 0.00 390.75 302.25 cl
0.00 0.00 390.75 302.25 cl
0.00 0.00 390.75 302.25 cl
ep
%%Trailer
%%Pages: 1
%%EOF
