%!PS-Adobe-3.0 EPSF-3.0
%%DocumentNeededResources: font Helvetica
%%+ font Helvetica-Bold
%%+ font Helvetica-Oblique
%%+ font Helvetica-BoldOblique
%%+ font Symbol
%%Title: R Graphics Output
%%Creator: R Software
%%Pages: (atend)
%%BoundingBox: 0 0 541 354
%%EndComments
%%BeginProlog
/bp  { gs sRGB gs } def
% begin .ps.prolog
/gs  { gsave } bind def
/gr  { grestore } bind def
/ep  { showpage gr gr } bind def
/m   { moveto } bind def
/l  { rlineto } bind def
/np  { newpath } bind def
/cp  { closepath } bind def
/f   { fill } bind def
/o   { stroke } bind def
/c   { newpath 0 360 arc } bind def
/r   { 4 2 roll moveto 1 copy 3 -1 roll exch 0 exch rlineto 0 rlineto -1 mul 0 exch rlineto closepath } bind def
/p1  { stroke } bind def
/p2  { gsave bg fill grestore newpath } bind def
/p3  { gsave bg fill grestore stroke } bind def
/p6  { gsave bg eofill grestore newpath } bind def
/p7  { gsave bg eofill grestore stroke } bind def
/t   { 5 -2 roll moveto gsave rotate
       1 index stringwidth pop
       mul neg 0 rmoveto show grestore } bind def
/ta  { 4 -2 roll moveto gsave rotate show } bind def
/tb  { 2 -1 roll 0 rmoveto show } bind def
/cl  { grestore gsave newpath 3 index 3 index moveto 1 index
       4 -1 roll lineto  exch 1 index lineto lineto
       closepath clip newpath } bind def
/rgb { setrgbcolor } bind def
/s   { scalefont setfont } bind def
% end   .ps.prolog
/sRGB { [ /CIEBasedABC
          << /DecodeLMN
               [ { dup 0.03928 le
                        {12.92321 div}
                        {0.055 add 1.055 div 2.4 exp }
                     ifelse
                 } bind dup dup
               ]
             /MatrixLMN [0.412457 0.212673 0.019334
                         0.357576 0.715152 0.119192
                         0.180437 0.072175 0.950301]
             /WhitePoint [0.9505 1.0 1.0890]
           >>
         ] setcolorspace } bind def
/srgb { setcolor } bind def
%%IncludeResource: font Helvetica
/Helvetica findfont
dup length dict begin
  {1 index /FID ne {def} {pop pop} ifelse} forall
  /Encoding ISOLatin1Encoding def
  currentdict
  end
/Font1 exch definefont pop
%%IncludeResource: font Helvetica-Bold
/Helvetica-Bold findfont
dup length dict begin
  {1 index /FID ne {def} {pop pop} ifelse} forall
  /Encoding ISOLatin1Encoding def
  currentdict
  end
/Font2 exch definefont pop
%%IncludeResource: font Helvetica-Oblique
/Helvetica-Oblique findfont
dup length dict begin
  {1 index /FID ne {def} {pop pop} ifelse} forall
  /Encoding ISOLatin1Encoding def
  currentdict
  end
/Font3 exch definefont pop
%%IncludeResource: font Helvetica-BoldOblique
/Helvetica-BoldOblique findfont
dup length dict begin
  {1 index /FID ne {def} {pop pop} ifelse} forall
  /Encoding ISOLatin1Encoding def
  currentdict
  end
/Font4 exch definefont pop
%%IncludeResource: font Symbol
/Symbol findfont
dup length dict begin
  {1 index /FID ne {def} {pop pop} ifelse} forall
  currentdict
  end
/Font5 exch definefont pop
%%EndProlog
%%Page: 1 1
bp
0.00 0.00 540.75 354.00 cl
0.00 177.00 270.38 354.00 cl
/bg { 1 1 1 srgb } def
1 1 1 srgb
1.06 setlinewidth
[] 0 setdash
1 setlinecap
1 setlinejoin
10.00 setmiterlimit
0.00 177.00 270.38 177.00 r p3
0.00 0.00 540.75 354.00 cl
0.00 0.00 540.75 354.00 cl
0.00 0.00 540.75 354.00 cl
48.80 219.08 251.18 315.15 cl
/bg { 0.8980 0.8980 0.8980 srgb } def
48.80 219.08 202.37 96.07 r p2
0.9490 0.9490 0.9490 srgb
0.53 setlinewidth
[] 0 setdash
0 setlinecap
1 setlinejoin
10.00 setmiterlimit
np
48.80 239.51 m
202.38 0 l
o
np
48.80 268.07 m
202.38 0 l
o
np
48.80 296.63 m
202.38 0 l
o
1 1 1 srgb
1.06 setlinewidth
[] 0 setdash
np
48.80 225.23 m
202.38 0 l
o
np
48.80 253.79 m
202.38 0 l
o
np
48.80 282.35 m
202.38 0 l
o
np
48.80 310.91 m
202.38 0 l
o
np
77.71 219.08 m
0 96.07 l
o
np
125.90 219.08 m
0 96.07 l
o
np
174.08 219.08 m
0 96.07 l
o
np
222.26 219.08 m
0 96.07 l
o
/bg { 0 0 0 srgb } def
64.16 230.46 2.13 c p2
0.9725 0.4627 0.4275 srgb
np
64.16 280.90 m
0 29.24 l
o
np
64.16 260.98 m
0 -12.35 l
o
/bg { 1 1 1 srgb } def
1 setlinecap
np
 59.64 280.90 m
0 -5.54 l
2.26 -3.14 l
-2.26 -3.15 l
0 -8.09 l
9.04 0 l
0 8.09 l
-2.26 3.15 l
2.26 3.14 l
0 5.54 l
-9.04 0 l
cp p3
2.13 setlinewidth
[] 0 setdash
0 setlinecap
np
61.90 272.22 m
4.52 0 l
o
/bg { 0 0 0 srgb } def
73.20 230.14 2.13 c p2
0.4863 0.6824 0 srgb
1.06 setlinewidth
[] 0 setdash
np
73.20 281.22 m
0 18.72 l
o
np
73.20 260.90 m
0 -22.79 l
o
/bg { 1 1 1 srgb } def
1 setlinecap
np
 68.68 281.22 m
0 -6.11 l
2.26 -3.21 l
-2.26 -3.21 l
0 -7.79 l
9.03 0 l
0 7.79 l
-2.26 3.21 l
2.26 3.21 l
0 6.11 l
-9.03 0 l
cp p3
2.13 setlinewidth
[] 0 setdash
0 setlinecap
np
70.94 271.90 m
4.51 0 l
o
0 0.7490 0.7686 srgb
1.06 setlinewidth
[] 0 setdash
np
82.23 275.88 m
0 20.56 l
o
np
82.23 257.79 m
0 -26.69 l
o
1 setlinecap
np
 77.71 275.88 m
0 -6.38 l
2.26 -2.86 l
-2.26 -2.86 l
0 -5.99 l
9.04 0 l
0 5.99 l
-2.26 2.86 l
2.26 2.86 l
0 6.38 l
-9.04 0 l
cp p3
2.13 setlinewidth
[] 0 setdash
0 setlinecap
np
79.97 266.64 m
4.52 0 l
o
0.7804 0.4863 1 srgb
1.06 setlinewidth
[] 0 setdash
np
91.26 276.12 m
0 26.06 l
o
np
91.26 257.00 m
0 -27.18 l
o
1 setlinecap
np
 86.75 276.12 m
0 -5.50 l
2.26 -3.03 l
-2.26 -3.02 l
0 -7.57 l
9.03 0 l
0 7.57 l
-2.26 3.02 l
2.26 3.03 l
0 5.50 l
-9.03 0 l
cp p3
2.13 setlinewidth
[] 0 setdash
0 setlinecap
np
89.01 267.59 m
4.51 0 l
o
0.9725 0.4627 0.4275 srgb
1.06 setlinewidth
[] 0 setdash
np
112.35 280.58 m
0 24.78 l
o
np
112.35 261.78 m
0 -18.89 l
o
1 setlinecap
np
 107.83 280.58 m
0 -6.51 l
2.26 -2.97 l
-2.26 -2.97 l
0 -6.35 l
9.03 0 l
0 6.35 l
-2.26 2.97 l
2.26 2.97 l
0 6.51 l
-9.03 0 l
cp p3
2.13 setlinewidth
[] 0 setdash
0 setlinecap
np
110.09 271.10 m
4.51 0 l
o
/bg { 0 0 0 srgb } def
121.38 223.45 2.13 c p2
0.4863 0.6824 0 srgb
1.06 setlinewidth
[] 0 setdash
np
121.38 277.16 m
0 23.10 l
o
np
121.38 257.55 m
0 -19.76 l
o
/bg { 1 1 1 srgb } def
1 setlinecap
np
 116.86 277.16 m
0 -5.35 l
2.26 -3.10 l
-2.26 -3.10 l
0 -8.06 l
9.04 0 l
0 8.06 l
-2.26 3.10 l
2.26 3.10 l
0 5.35 l
-9.04 0 l
cp p3
2.13 setlinewidth
[] 0 setdash
0 setlinecap
np
119.12 268.71 m
4.52 0 l
o
/bg { 0 0 0 srgb } def
130.41 299.63 2.13 c p2
130.41 224.09 2.13 c p2
0 0.7490 0.7686 srgb
1.06 setlinewidth
[] 0 setdash
np
130.41 271.66 m
0 21.91 l
o
np
130.41 254.05 m
0 -18.81 l
o
/bg { 1 1 1 srgb } def
1 setlinecap
np
 125.90 271.66 m
0 -5.43 l
2.26 -2.78 l
-2.26 -2.78 l
0 -6.62 l
9.03 0 l
0 6.62 l
-2.26 2.78 l
2.26 2.78 l
0 5.43 l
-9.03 0 l
cp p3
2.13 setlinewidth
[] 0 setdash
0 setlinecap
np
128.16 263.45 m
4.51 0 l
o
0.7804 0.4863 1 srgb
1.06 setlinewidth
[] 0 setdash
np
139.45 272.69 m
0 28.53 l
o
np
139.45 251.02 m
0 -20.88 l
o
1 setlinecap
np
 134.93 272.69 m
0 -4.54 l
2.26 -3.42 l
-2.26 -3.43 l
0 -10.28 l
9.04 0 l
0 10.28 l
-2.26 3.43 l
2.26 3.42 l
0 4.54 l
-9.04 0 l
cp p3
2.13 setlinewidth
[] 0 setdash
0 setlinecap
np
137.19 264.73 m
4.52 0 l
o
/bg { 0 0 0 srgb } def
160.53 303.45 2.13 c p2
0.9725 0.4627 0.4275 srgb
1.06 setlinewidth
[] 0 setdash
np
160.53 277.39 m
0 25.42 l
o
np
160.53 260.10 m
0 -21.99 l
o
/bg { 1 1 1 srgb } def
1 setlinecap
np
 156.01 277.39 m
0 -6.11 l
2.26 -2.73 l
-2.26 -2.73 l
0 -5.72 l
9.04 0 l
0 5.72 l
-2.26 2.73 l
2.26 2.73 l
0 6.11 l
-9.04 0 l
cp p3
2.13 setlinewidth
[] 0 setdash
0 setlinecap
np
158.27 268.55 m
4.52 0 l
o
/bg { 0 0 0 srgb } def
169.56 310.78 2.13 c p2
169.56 300.58 2.13 c p2
0.4863 0.6824 0 srgb
1.06 setlinewidth
[] 0 setdash
np
169.56 275.16 m
0 21.28 l
o
np
169.56 258.51 m
0 -19.76 l
o
/bg { 1 1 1 srgb } def
1 setlinecap
np
 165.05 275.16 m
0 -6.05 l
2.25 -2.63 l
-2.25 -2.63 l
0 -5.34 l
9.03 0 l
0 5.34 l
-2.26 2.63 l
2.26 2.63 l
0 6.05 l
-9.03 0 l
cp p3
2.13 setlinewidth
[] 0 setdash
0 setlinecap
np
167.30 266.48 m
4.52 0 l
o
0 0.7490 0.7686 srgb
1.06 setlinewidth
[] 0 setdash
np
178.60 272.93 m
0 28.61 l
o
np
178.60 253.65 m
0 -24.14 l
o
1 setlinecap
np
 174.08 272.93 m
0 -6.11 l
2.26 -3.05 l
-2.26 -3.05 l
0 -7.07 l
9.04 0 l
0 7.07 l
-2.26 3.05 l
2.26 3.05 l
0 6.11 l
-9.04 0 l
cp p3
2.13 setlinewidth
[] 0 setdash
0 setlinecap
np
176.34 263.77 m
4.52 0 l
o
/bg { 0 0 0 srgb } def
187.63 307.59 2.13 c p2
0.7804 0.4863 1 srgb
1.06 setlinewidth
[] 0 setdash
np
187.63 273.33 m
0 26.61 l
o
np
187.63 252.14 m
0 -19.77 l
o
/bg { 1 1 1 srgb } def
1 setlinecap
np
 183.12 273.33 m
0 -6.37 l
2.25 -3.35 l
-2.25 -3.35 l
0 -8.12 l
9.03 0 l
0 8.12 l
-2.26 3.35 l
2.26 3.35 l
0 6.37 l
-9.03 0 l
cp p3
2.13 setlinewidth
[] 0 setdash
0 setlinecap
np
185.37 263.61 m
4.52 0 l
o
/bg { 0 0 0 srgb } def
208.71 236.20 2.13 c p2
0.9725 0.4627 0.4275 srgb
1.06 setlinewidth
[] 0 setdash
np
208.71 277.87 m
0 22.71 l
o
np
208.71 262.49 m
0 -20.55 l
o
/bg { 1 1 1 srgb } def
1 setlinecap
np
 204.20 277.87 m
0 -4.34 l
2.25 -2.43 l
-2.25 -2.43 l
0 -6.18 l
9.03 0 l
0 6.18 l
-2.26 2.43 l
2.26 2.43 l
0 4.34 l
-9.03 0 l
cp p3
2.13 setlinewidth
[] 0 setdash
0 setlinecap
np
206.45 271.10 m
4.52 0 l
o
/bg { 0 0 0 srgb } def
217.75 234.60 2.13 c p2
217.75 299.63 2.13 c p2
0.4863 0.6824 0 srgb
1.06 setlinewidth
[] 0 setdash
np
217.75 275.16 m
0 22.23 l
o
np
217.75 259.07 m
0 -20.32 l
o
/bg { 1 1 1 srgb } def
1 setlinecap
np
 213.23 275.16 m
0 -6.46 l
2.26 -2.54 l
-2.26 -2.54 l
0 -4.55 l
9.03 0 l
0 4.55 l
-2.25 2.54 l
2.25 2.54 l
0 6.46 l
-9.03 0 l
cp p3
2.13 setlinewidth
[] 0 setdash
0 setlinecap
np
215.49 266.16 m
4.52 0 l
o
/bg { 0 0 0 srgb } def
226.78 304.09 2.13 c p2
0 0.7490 0.7686 srgb
1.06 setlinewidth
[] 0 setdash
np
226.78 272.37 m
0 22.16 l
o
np
226.78 253.73 m
0 -25.82 l
o
/bg { 1 1 1 srgb } def
1 setlinecap
np
 222.26 272.37 m
0 -5.81 l
2.26 -2.95 l
-2.26 -2.95 l
0 -6.93 l
9.04 0 l
0 6.93 l
-2.26 2.95 l
2.26 2.95 l
0 5.81 l
-9.04 0 l
cp p3
2.13 setlinewidth
[] 0 setdash
0 setlinecap
np
224.52 263.61 m
4.52 0 l
o
/bg { 0 0 0 srgb } def
235.82 226.64 2.13 c p2
0.7804 0.4863 1 srgb
1.06 setlinewidth
[] 0 setdash
np
235.82 270.78 m
0 25.34 l
o
np
235.82 253.65 m
0 -20.64 l
o
/bg { 1 1 1 srgb } def
1 setlinecap
np
 231.30 270.78 m
0 -4.46 l
2.26 -2.71 l
-2.26 -2.71 l
0 -7.25 l
9.03 0 l
0 7.25 l
-2.25 2.71 l
2.25 2.71 l
0 4.46 l
-9.03 0 l
cp p3
2.13 setlinewidth
[] 0 setdash
0 setlinecap
np
233.56 263.61 m
4.52 0 l
o
0.00 0.00 540.75 354.00 cl
0.00 0.00 540.75 354.00 cl
0.00 0.00 540.75 354.00 cl
/Font1 findfont 10 s
0.4980 0.4980 0.4980 srgb
41.72 221.64 (0.1) 1 0 t
41.72 250.20 (0.2) 1 0 t
41.72 278.76 (0.3) 1 0 t
41.72 307.32 (0.4) 1 0 t
0.00 0.00 540.75 354.00 cl
0.00 0.00 540.75 354.00 cl
0.4980 0.4980 0.4980 srgb
1.06 setlinewidth
[] 0 setdash
0 setlinecap
1 setlinejoin
10.00 setmiterlimit
np
44.55 225.23 m
4.25 0 l
o
np
44.55 253.79 m
4.25 0 l
o
np
44.55 282.35 m
4.25 0 l
o
np
44.55 310.91 m
4.25 0 l
o
0.00 0.00 540.75 354.00 cl
0.00 0.00 540.75 354.00 cl
0.00 0.00 540.75 354.00 cl
0.00 0.00 540.75 354.00 cl
0.00 0.00 540.75 354.00 cl
0.00 0.00 540.75 354.00 cl
0.4980 0.4980 0.4980 srgb
1.06 setlinewidth
[] 0 setdash
0 setlinecap
1 setlinejoin
10.00 setmiterlimit
np
77.71 214.83 m
0 4.25 l
o
np
125.90 214.83 m
0 4.25 l
o
np
174.08 214.83 m
0 4.25 l
o
np
222.26 214.83 m
0 4.25 l
o
0.00 0.00 540.75 354.00 cl
0.00 0.00 540.75 354.00 cl
/Font1 findfont 10 s
0.4980 0.4980 0.4980 srgb
77.71 204.82 (e1) .5 0 t
125.90 204.82 (e2 lsb) .5 0 t
174.08 204.82 (e3 lsb) .5 0 t
222.26 204.82 (e6 lsb) .5 0 t
0.00 0.00 540.75 354.00 cl
0.00 0.00 540.75 354.00 cl
0.00 0.00 540.75 354.00 cl
0.00 0.00 540.75 354.00 cl
0.00 0.00 540.75 354.00 cl
/Font1 findfont 12 s
0 0 0 srgb
133.66 191.40 (metr) 0 ta
0.180 (ic) tb gr
0.00 0.00 540.75 354.00 cl
0.00 0.00 540.75 354.00 cl
/Font1 findfont 12 s
0 0 0 srgb
23.02 267.12 (error) .5 90 t
0.00 0.00 540.75 354.00 cl
0.00 0.00 540.75 354.00 cl
/Font1 findfont 14 s
0 0 0 srgb
88.14 319.95 (Gener) 0 ta
-0.140 (alisation error) tb gr
0.00 0.00 540.75 354.00 cl
0.00 0.00 540.75 354.00 cl
0.00 0.00 540.75 354.00 cl
270.38 177.00 540.75 354.00 cl
/bg { 1 1 1 srgb } def
1 1 1 srgb
1.06 setlinewidth
[] 0 setdash
1 setlinecap
1 setlinejoin
10.00 setmiterlimit
270.38 177.00 270.38 177.00 r p3
0.00 0.00 540.75 354.00 cl
0.00 0.00 540.75 354.00 cl
0.00 0.00 540.75 354.00 cl
316.12 219.08 521.55 315.15 cl
/bg { 0.8980 0.8980 0.8980 srgb } def
316.12 219.08 205.43 96.07 r p2
0.9490 0.9490 0.9490 srgb
0.53 setlinewidth
[] 0 setdash
0 setlinecap
1 setlinejoin
10.00 setmiterlimit
np
316.12 239.42 m
205.43 0 l
o
np
316.12 271.36 m
205.43 0 l
o
np
316.12 303.30 m
205.43 0 l
o
1 1 1 srgb
1.06 setlinewidth
[] 0 setdash
np
316.12 223.45 m
205.43 0 l
o
np
316.12 255.39 m
205.43 0 l
o
np
316.12 287.33 m
205.43 0 l
o
np
345.47 219.08 m
0 96.07 l
o
np
394.38 219.08 m
0 96.07 l
o
np
443.29 219.08 m
0 96.07 l
o
np
492.20 219.08 m
0 96.07 l
o
0.9725 0.4627 0.4275 srgb
np
331.71 223.45 m
0 0 l
o
np
331.71 223.45 m
0 0 l
o
/bg { 1 1 1 srgb } def
1 setlinecap
np
 327.13 223.45 m
0 0 l
9.17 0 l
0 0 l
-9.17 0 l
cp p3
2.13 setlinewidth
[] 0 setdash
0 setlinecap
np
327.13 223.45 m
9.17 0 l
o
0.4863 0.6824 0 srgb
1.06 setlinewidth
[] 0 setdash
np
340.88 223.45 m
0 0 l
o
np
340.88 223.45 m
0 0 l
o
1 setlinecap
np
 336.30 223.45 m
0 0 l
9.17 0 l
0 0 l
-9.17 0 l
cp p3
2.13 setlinewidth
[] 0 setdash
0 setlinecap
np
336.30 223.45 m
9.17 0 l
o
0 0.7490 0.7686 srgb
1.06 setlinewidth
[] 0 setdash
np
350.05 223.45 m
0 0 l
o
np
350.05 223.45 m
0 0 l
o
1 setlinecap
np
 345.47 223.45 m
0 0 l
9.17 0 l
0 0 l
-9.17 0 l
cp p3
2.13 setlinewidth
[] 0 setdash
0 setlinecap
np
345.47 223.45 m
9.17 0 l
o
/bg { 0 0 0 srgb } def
359.23 235.93 2.13 c p2
359.23 235.93 2.13 c p2
359.23 235.93 2.13 c p2
359.23 235.93 2.13 c p2
359.23 235.93 2.13 c p2
0.7804 0.4863 1 srgb
1.06 setlinewidth
[] 0 setdash
np
359.23 223.45 m
0 0 l
o
np
359.23 223.45 m
0 0 l
o
/bg { 1 1 1 srgb } def
1 setlinecap
np
 354.64 223.45 m
0 0 l
9.17 0 l
0 0 l
-9.17 0 l
cp p3
2.13 setlinewidth
[] 0 setdash
0 setlinecap
np
354.64 223.45 m
9.17 0 l
o
0.9725 0.4627 0.4275 srgb
1.06 setlinewidth
[] 0 setdash
np
380.62 223.45 m
0 0 l
o
np
380.62 223.45 m
0 0 l
o
1 setlinecap
np
 376.04 223.45 m
0 0 l
9.17 0 l
0 0 l
-9.17 0 l
cp p3
2.13 setlinewidth
[] 0 setdash
0 setlinecap
np
376.04 223.45 m
9.17 0 l
o
0.4863 0.6824 0 srgb
1.06 setlinewidth
[] 0 setdash
np
389.79 223.45 m
0 0 l
o
np
389.79 223.45 m
0 0 l
o
1 setlinecap
np
 385.21 223.45 m
0 0 l
9.17 0 l
0 0 l
-9.17 0 l
cp p3
2.13 setlinewidth
[] 0 setdash
0 setlinecap
np
385.21 223.45 m
9.17 0 l
o
/bg { 0 0 0 srgb } def
398.97 235.93 2.13 c p2
398.97 273.35 2.13 c p2
398.97 248.40 2.13 c p2
398.97 248.40 2.13 c p2
398.97 248.40 2.13 c p2
398.97 273.35 2.13 c p2
398.97 273.35 2.13 c p2
398.97 273.35 2.13 c p2
398.97 235.93 2.13 c p2
398.97 248.40 2.13 c p2
398.97 248.40 2.13 c p2
398.97 248.40 2.13 c p2
398.97 235.93 2.13 c p2
398.97 273.35 2.13 c p2
398.97 248.40 2.13 c p2
398.97 260.88 2.13 c p2
398.97 235.93 2.13 c p2
398.97 248.40 2.13 c p2
0 0.7490 0.7686 srgb
1.06 setlinewidth
[] 0 setdash
np
398.97 223.45 m
0 0 l
o
np
398.97 223.45 m
0 0 l
o
/bg { 1 1 1 srgb } def
1 setlinecap
np
 394.38 223.45 m
0 0 l
9.17 0 l
0 0 l
-9.17 0 l
cp p3
2.13 setlinewidth
[] 0 setdash
0 setlinecap
np
394.38 223.45 m
9.17 0 l
o
/bg { 0 0 0 srgb } def
408.14 285.83 2.13 c p2
408.14 273.35 2.13 c p2
408.14 298.31 2.13 c p2
408.14 298.31 2.13 c p2
408.14 310.78 2.13 c p2
408.14 273.35 2.13 c p2
408.14 273.35 2.13 c p2
408.14 273.35 2.13 c p2
408.14 298.31 2.13 c p2
0.7804 0.4863 1 srgb
1.06 setlinewidth
[] 0 setdash
np
408.14 239.04 m
0 21.84 l
o
np
408.14 223.45 m
0 0 l
o
/bg { 1 1 1 srgb } def
1 setlinecap
np
 403.55 239.04 m
0 -15.59 l
9.17 0 l
0 15.59 l
-9.17 0 l
cp p3
2.13 setlinewidth
[] 0 setdash
0 setlinecap
np
403.55 223.45 m
9.17 0 l
o
0.9725 0.4627 0.4275 srgb
1.06 setlinewidth
[] 0 setdash
np
429.54 223.45 m
0 0 l
o
np
429.54 223.45 m
0 0 l
o
1 setlinecap
np
 424.95 223.45 m
0 0 l
9.17 0 l
0 0 l
-9.17 0 l
cp p3
2.13 setlinewidth
[] 0 setdash
0 setlinecap
np
424.95 223.45 m
9.17 0 l
o
0.4863 0.6824 0 srgb
1.06 setlinewidth
[] 0 setdash
np
438.71 223.45 m
0 0 l
o
np
438.71 223.45 m
0 0 l
o
1 setlinecap
np
 434.12 223.45 m
0 0 l
9.17 0 l
0 0 l
-9.17 0 l
cp p3
2.13 setlinewidth
[] 0 setdash
0 setlinecap
np
434.12 223.45 m
9.17 0 l
o
0 0.7490 0.7686 srgb
1.06 setlinewidth
[] 0 setdash
np
447.88 223.45 m
0 0 l
o
np
447.88 223.45 m
0 0 l
o
1 setlinecap
np
 443.29 223.45 m
0 0 l
9.17 0 l
0 0 l
-9.17 0 l
cp p3
2.13 setlinewidth
[] 0 setdash
0 setlinecap
np
443.29 223.45 m
9.17 0 l
o
/bg { 0 0 0 srgb } def
457.05 235.93 2.13 c p2
457.05 235.93 2.13 c p2
457.05 235.93 2.13 c p2
457.05 235.93 2.13 c p2
0.7804 0.4863 1 srgb
1.06 setlinewidth
[] 0 setdash
np
457.05 223.45 m
0 0 l
o
np
457.05 223.45 m
0 0 l
o
/bg { 1 1 1 srgb } def
1 setlinecap
np
 452.46 223.45 m
0 0 l
9.17 0 l
0 0 l
-9.17 0 l
cp p3
2.13 setlinewidth
[] 0 setdash
0 setlinecap
np
452.46 223.45 m
9.17 0 l
o
0.9725 0.4627 0.4275 srgb
1.06 setlinewidth
[] 0 setdash
np
478.45 223.45 m
0 0 l
o
np
478.45 223.45 m
0 0 l
o
1 setlinecap
np
 473.86 223.45 m
0 0 l
9.17 0 l
0 0 l
-9.17 0 l
cp p3
2.13 setlinewidth
[] 0 setdash
0 setlinecap
np
473.86 223.45 m
9.17 0 l
o
0.4863 0.6824 0 srgb
1.06 setlinewidth
[] 0 setdash
np
487.62 223.45 m
0 0 l
o
np
487.62 223.45 m
0 0 l
o
1 setlinecap
np
 483.03 223.45 m
0 0 l
9.17 0 l
0 0 l
-9.17 0 l
cp p3
2.13 setlinewidth
[] 0 setdash
0 setlinecap
np
483.03 223.45 m
9.17 0 l
o
0 0.7490 0.7686 srgb
1.06 setlinewidth
[] 0 setdash
np
496.79 223.45 m
0 0 l
o
np
496.79 223.45 m
0 0 l
o
1 setlinecap
np
 492.20 223.45 m
0 0 l
9.17 0 l
0 0 l
-9.17 0 l
cp p3
2.13 setlinewidth
[] 0 setdash
0 setlinecap
np
492.20 223.45 m
9.17 0 l
o
/bg { 0 0 0 srgb } def
505.96 235.93 2.13 c p2
505.96 235.93 2.13 c p2
505.96 235.93 2.13 c p2
505.96 248.40 2.13 c p2
0.7804 0.4863 1 srgb
1.06 setlinewidth
[] 0 setdash
np
505.96 223.45 m
0 0 l
o
np
505.96 223.45 m
0 0 l
o
/bg { 1 1 1 srgb } def
1 setlinecap
np
 501.37 223.45 m
0 0 l
9.18 0 l
0 0 l
-9.18 0 l
cp p3
2.13 setlinewidth
[] 0 setdash
0 setlinecap
np
501.37 223.45 m
9.18 0 l
o
0.00 0.00 540.75 354.00 cl
0.00 0.00 540.75 354.00 cl
0.00 0.00 540.75 354.00 cl
/Font1 findfont 10 s
0.4980 0.4980 0.4980 srgb
309.04 219.86 (0.00) 1 0 t
309.04 251.80 (0.02) 1 0 t
309.04 283.74 (0.04) 1 0 t
0.00 0.00 540.75 354.00 cl
0.00 0.00 540.75 354.00 cl
0.4980 0.4980 0.4980 srgb
1.06 setlinewidth
[] 0 setdash
0 setlinecap
1 setlinejoin
10.00 setmiterlimit
np
311.87 223.45 m
4.25 0 l
o
np
311.87 255.39 m
4.25 0 l
o
np
311.87 287.33 m
4.25 0 l
o
0.00 0.00 540.75 354.00 cl
0.00 0.00 540.75 354.00 cl
0.00 0.00 540.75 354.00 cl
0.00 0.00 540.75 354.00 cl
0.00 0.00 540.75 354.00 cl
0.00 0.00 540.75 354.00 cl
0.4980 0.4980 0.4980 srgb
1.06 setlinewidth
[] 0 setdash
0 setlinecap
1 setlinejoin
10.00 setmiterlimit
np
345.47 214.83 m
0 4.25 l
o
np
394.38 214.83 m
0 4.25 l
o
np
443.29 214.83 m
0 4.25 l
o
np
492.20 214.83 m
0 4.25 l
o
0.00 0.00 540.75 354.00 cl
0.00 0.00 540.75 354.00 cl
/Font1 findfont 10 s
0.4980 0.4980 0.4980 srgb
345.47 204.82 (e1) .5 0 t
394.38 204.82 (e2 lsb) .5 0 t
443.29 204.82 (e3 lsb) .5 0 t
492.20 204.82 (e6 lsb) .5 0 t
0.00 0.00 540.75 354.00 cl
0.00 0.00 540.75 354.00 cl
0.00 0.00 540.75 354.00 cl
0.00 0.00 540.75 354.00 cl
0.00 0.00 540.75 354.00 cl
/Font1 findfont 12 s
0 0 0 srgb
402.50 191.40 (metr) 0 ta
0.180 (ic) tb gr
0.00 0.00 540.75 354.00 cl
0.00 0.00 540.75 354.00 cl
0.00 0.00 540.75 354.00 cl
0.00 0.00 540.75 354.00 cl
/Font1 findfont 14 s
0 0 0 srgb
376.83 319.95 (T) 0 ta
-1.680 (r) tb
-0.140 (aining error) tb gr
0.00 0.00 540.75 354.00 cl
0.00 0.00 540.75 354.00 cl
0.00 0.00 540.75 354.00 cl
0.00 0.00 270.38 177.00 cl
/bg { 1 1 1 srgb } def
1 1 1 srgb
1.06 setlinewidth
[] 0 setdash
1 setlinecap
1 setlinejoin
10.00 setmiterlimit
0.00 0.00 270.38 177.00 r p3
0.00 0.00 540.75 354.00 cl
0.00 0.00 540.75 354.00 cl
0.00 0.00 540.75 354.00 cl
62.98 42.08 251.18 138.15 cl
/bg { 0.8980 0.8980 0.8980 srgb } def
62.98 42.08 188.19 96.07 r p2
0.9490 0.9490 0.9490 srgb
0.53 setlinewidth
[] 0 setdash
0 setlinecap
1 setlinejoin
10.00 setmiterlimit
np
62.98 56.67 m
188.20 0 l
o
np
62.98 78.70 m
188.20 0 l
o
np
62.98 100.74 m
188.20 0 l
o
np
62.98 122.77 m
188.20 0 l
o
1 1 1 srgb
1.06 setlinewidth
[] 0 setdash
np
62.98 45.66 m
188.20 0 l
o
np
62.98 67.69 m
188.20 0 l
o
np
62.98 89.72 m
188.20 0 l
o
np
62.98 111.75 m
188.20 0 l
o
np
62.98 133.78 m
188.20 0 l
o
np
89.87 42.08 m
0 96.07 l
o
np
134.67 42.08 m
0 96.07 l
o
np
179.48 42.08 m
0 96.07 l
o
np
224.29 42.08 m
0 96.07 l
o
/bg { 0 0 0 srgb } def
77.27 72.64 2.13 c p2
77.27 74.66 2.13 c p2
77.27 82.33 2.13 c p2
77.27 84.47 2.13 c p2
0.9725 0.4627 0.4275 srgb
np
77.27 55.90 m
0 9.58 l
o
np
77.27 49.38 m
0 -1.75 l
o
/bg { 1 1 1 srgb } def
1 setlinecap
np
 73.06 55.90 m
0 -3.52 l
2.10 -1.03 l
-2.10 -1.03 l
0 -0.94 l
8.41 0 l
0 0.94 l
-2.10 1.03 l
2.10 1.03 l
0 3.52 l
-8.41 0 l
cp p3
2.13 setlinewidth
[] 0 setdash
0 setlinecap
np
75.16 51.35 m
4.21 0 l
o
0.4863 0.6824 0 srgb
1.06 setlinewidth
[] 0 setdash
np
85.67 79.01 m
0 24.85 l
o
np
85.67 58.82 m
0 -9.40 l
o
1 setlinecap
np
 81.47 79.01 m
0 -8.84 l
2.10 -3.19 l
-2.10 -3.19 l
0 -4.97 l
8.40 0 l
0 4.97 l
-2.10 3.19 l
2.10 3.19 l
0 8.84 l
-8.40 0 l
cp p3
2.13 setlinewidth
[] 0 setdash
0 setlinecap
np
83.57 66.98 m
4.20 0 l
o
/bg { 0 0 0 srgb } def
94.07 66.08 2.13 c p2
94.07 128.96 2.13 c p2
94.07 126.01 2.13 c p2
94.07 125.84 2.13 c p2
0 0.7490 0.7686 srgb
1.06 setlinewidth
[] 0 setdash
np
94.07 101.36 m
0 14.16 l
o
np
94.07 87.73 m
0 -16.04 l
o
/bg { 1 1 1 srgb } def
1 setlinecap
np
 89.87 101.36 m
0 -6.69 l
2.10 -2.15 l
-2.10 -2.15 l
0 -2.64 l
8.40 0 l
0 2.64 l
-2.10 2.15 l
2.10 2.15 l
0 6.69 l
-8.40 0 l
cp p3
2.13 setlinewidth
[] 0 setdash
0 setlinecap
np
91.97 92.52 m
4.20 0 l
o
/bg { 0 0 0 srgb } def
102.47 129.45 2.13 c p2
102.47 132.73 2.13 c p2
102.47 133.78 2.13 c p2
102.47 133.78 2.13 c p2
102.47 133.78 2.13 c p2
102.47 133.78 2.13 c p2
102.47 133.78 2.13 c p2
0.7804 0.4863 1 srgb
1.06 setlinewidth
[] 0 setdash
np
102.47 103.14 m
0 19.82 l
o
np
102.47 87.37 m
0 -19.15 l
o
/bg { 1 1 1 srgb } def
1 setlinecap
np
 98.27 103.14 m
0 -7.36 l
2.10 -2.49 l
-2.10 -2.49 l
0 -3.43 l
8.40 0 l
0 3.43 l
-2.10 2.49 l
2.10 2.49 l
0 7.36 l
-8.40 0 l
cp p3
2.13 setlinewidth
[] 0 setdash
0 setlinecap
np
100.37 93.29 m
4.20 0 l
o
/bg { 0 0 0 srgb } def
122.07 71.90 2.13 c p2
122.07 70.09 2.13 c p2
122.07 108.19 2.13 c p2
122.07 84.58 2.13 c p2
122.07 72.83 2.13 c p2
122.07 68.95 2.13 c p2
122.07 65.91 2.13 c p2
0.9725 0.4627 0.4275 srgb
1.06 setlinewidth
[] 0 setdash
np
122.07 55.03 m
0 6.67 l
o
np
122.07 49.62 m
0 -1.86 l
o
/bg { 1 1 1 srgb } def
1 setlinecap
np
 117.87 55.03 m
0 -3.04 l
2.10 -0.86 l
-2.10 -0.85 l
0 -0.66 l
8.40 0 l
0 0.66 l
-2.10 0.85 l
2.10 0.86 l
0 3.04 l
-8.40 0 l
cp p3
2.13 setlinewidth
[] 0 setdash
0 setlinecap
np
119.97 51.13 m
4.20 0 l
o
/bg { 0 0 0 srgb } def
130.47 106.86 2.13 c p2
130.47 100.46 2.13 c p2
130.47 117.17 2.13 c p2
0.4863 0.6824 0 srgb
1.06 setlinewidth
[] 0 setdash
np
130.47 75.76 m
0 22.08 l
o
np
130.47 59.98 m
0 -10.46 l
o
/bg { 1 1 1 srgb } def
1 setlinecap
np
 126.27 75.76 m
0 -7.64 l
2.10 -2.50 l
-2.10 -2.49 l
0 -3.15 l
8.40 0 l
0 3.15 l
-2.10 2.49 l
2.10 2.50 l
0 7.64 l
-8.40 0 l
cp p3
2.13 setlinewidth
[] 0 setdash
0 setlinecap
np
128.37 65.62 m
4.20 0 l
o
0 0.7490 0.7686 srgb
1.06 setlinewidth
[] 0 setdash
np
138.88 130.95 m
0 2.83 l
o
np
138.88 115.64 m
0 -17.30 l
o
1 setlinecap
np
 134.67 130.95 m
0 -6.93 l
2.11 -2.42 l
-2.11 -2.42 l
0 -3.54 l
8.41 0 l
0 3.54 l
-2.10 2.42 l
2.10 2.42 l
0 6.93 l
-8.41 0 l
cp p3
2.13 setlinewidth
[] 0 setdash
0 setlinecap
np
136.78 121.60 m
4.20 0 l
o
/bg { 0 0 0 srgb } def
147.28 98.76 2.13 c p2
147.28 98.10 2.13 c p2
0.7804 0.4863 1 srgb
1.06 setlinewidth
[] 0 setdash
np
147.28 133.78 m
0 0 l
o
np
147.28 120.01 m
0 -19.86 l
o
/bg { 1 1 1 srgb } def
1 setlinecap
np
 143.08 133.78 m
0 -2.70 l
2.10 -2.17 l
-2.10 -2.18 l
0 -6.72 l
8.40 0 l
0 6.72 l
-2.10 2.18 l
2.10 2.17 l
0 2.70 l
-8.40 0 l
cp p3
2.13 setlinewidth
[] 0 setdash
0 setlinecap
np
145.18 128.91 m
4.20 0 l
o
/bg { 0 0 0 srgb } def
166.88 72.12 2.13 c p2
166.88 71.84 2.13 c p2
166.88 75.35 2.13 c p2
166.88 93.21 2.13 c p2
166.88 68.50 2.13 c p2
166.88 65.06 2.13 c p2
166.88 69.70 2.13 c p2
0.9725 0.4627 0.4275 srgb
1.06 setlinewidth
[] 0 setdash
np
166.88 56.07 m
0 6.69 l
o
np
166.88 50.62 m
0 -3.24 l
o
/bg { 1 1 1 srgb } def
1 setlinecap
np
 162.68 56.07 m
0 -2.49 l
2.10 -0.87 l
-2.10 -0.86 l
0 -1.23 l
8.40 0 l
0 1.23 l
-2.10 0.86 l
2.10 0.87 l
0 2.49 l
-8.40 0 l
cp p3
2.13 setlinewidth
[] 0 setdash
0 setlinecap
np
164.78 52.71 m
4.20 0 l
o
/bg { 0 0 0 srgb } def
175.28 117.90 2.13 c p2
175.28 108.53 2.13 c p2
0.4863 0.6824 0 srgb
1.06 setlinewidth
[] 0 setdash
np
175.28 77.54 m
0 22.32 l
o
np
175.28 59.75 m
0 -9.98 l
o
/bg { 1 1 1 srgb } def
1 setlinecap
np
 171.08 77.54 m
0 -5.63 l
2.10 -2.81 l
-2.10 -2.81 l
0 -6.54 l
8.40 0 l
0 6.54 l
-2.10 2.81 l
2.10 2.81 l
0 5.63 l
-8.40 0 l
cp p3
2.13 setlinewidth
[] 0 setdash
0 setlinecap
np
173.18 69.10 m
4.20 0 l
o
/bg { 0 0 0 srgb } def
183.68 128.54 2.13 c p2
0 0.7490 0.7686 srgb
1.06 setlinewidth
[] 0 setdash
np
183.68 93.81 m
0 18.67 l
o
np
183.68 77.60 m
0 -11.34 l
o
/bg { 1 1 1 srgb } def
1 setlinecap
np
 179.48 93.81 m
0 -6.04 l
2.10 -2.56 l
-2.10 -2.56 l
0 -5.05 l
8.40 0 l
0 5.05 l
-2.10 2.56 l
2.10 2.56 l
0 6.04 l
-8.40 0 l
cp p3
2.13 setlinewidth
[] 0 setdash
0 setlinecap
np
181.58 85.21 m
4.20 0 l
o
/bg { 0 0 0 srgb } def
192.08 133.78 2.13 c p2
192.08 133.78 2.13 c p2
192.08 121.98 2.13 c p2
192.08 133.78 2.13 c p2
192.08 133.78 2.13 c p2
0.7804 0.4863 1 srgb
1.06 setlinewidth
[] 0 setdash
np
192.08 94.18 m
0 17.87 l
o
np
192.08 76.59 m
0 -22.70 l
o
/bg { 1 1 1 srgb } def
1 setlinecap
np
 187.88 94.18 m
0 -7.21 l
2.10 -2.78 l
-2.10 -2.78 l
0 -4.82 l
8.41 0 l
0 4.82 l
-2.10 2.78 l
2.10 2.78 l
0 7.21 l
-8.41 0 l
cp p3
2.13 setlinewidth
[] 0 setdash
0 setlinecap
np
189.98 84.19 m
4.21 0 l
o
/bg { 0 0 0 srgb } def
211.69 66.68 2.13 c p2
211.69 66.97 2.13 c p2
211.69 63.67 2.13 c p2
211.69 74.74 2.13 c p2
211.69 68.16 2.13 c p2
211.69 71.44 2.13 c p2
0.9725 0.4627 0.4275 srgb
1.06 setlinewidth
[] 0 setdash
np
211.69 55.01 m
0 5.42 l
o
np
211.69 50.06 m
0 -2.32 l
o
/bg { 1 1 1 srgb } def
1 setlinecap
np
 207.49 55.01 m
0 -1.68 l
2.10 -0.78 l
-2.10 -0.79 l
0 -1.70 l
8.40 0 l
0 1.70 l
-2.10 0.79 l
2.10 0.78 l
0 1.68 l
-8.40 0 l
cp p3
2.13 setlinewidth
[] 0 setdash
0 setlinecap
np
209.59 52.55 m
4.20 0 l
o
/bg { 0 0 0 srgb } def
220.09 99.37 2.13 c p2
220.09 91.60 2.13 c p2
220.09 108.07 2.13 c p2
220.09 105.39 2.13 c p2
220.09 98.69 2.13 c p2
220.09 92.64 2.13 c p2
0.4863 0.6824 0 srgb
1.06 setlinewidth
[] 0 setdash
np
220.09 70.45 m
0 11.49 l
o
np
220.09 56.85 m
0 -7.83 l
o
/bg { 1 1 1 srgb } def
1 setlinecap
np
 215.89 70.45 m
0 -4.92 l
2.10 -2.15 l
-2.10 -2.15 l
0 -4.38 l
8.40 0 l
0 4.38 l
-2.10 2.15 l
2.10 2.15 l
0 4.92 l
-8.40 0 l
cp p3
2.13 setlinewidth
[] 0 setdash
0 setlinecap
np
217.99 63.38 m
4.20 0 l
o
/bg { 0 0 0 srgb } def
228.49 119.32 2.13 c p2
228.49 52.47 2.13 c p2
228.49 123.39 2.13 c p2
228.49 120.15 2.13 c p2
0 0.7490 0.7686 srgb
1.06 setlinewidth
[] 0 setdash
np
228.49 91.10 m
0 20.58 l
o
np
228.49 76.51 m
0 -17.12 l
o
/bg { 1 1 1 srgb } def
1 setlinecap
np
 224.29 91.10 m
0 -5.27 l
2.10 -2.30 l
-2.10 -2.31 l
0 -4.71 l
8.40 0 l
0 4.71 l
-2.10 2.31 l
2.10 2.30 l
0 5.27 l
-8.40 0 l
cp p3
2.13 setlinewidth
[] 0 setdash
0 setlinecap
np
226.39 83.53 m
4.20 0 l
o
/bg { 0 0 0 srgb } def
236.89 46.45 2.13 c p2
236.89 116.34 2.13 c p2
236.89 133.78 2.13 c p2
236.89 133.78 2.13 c p2
236.89 133.78 2.13 c p2
236.89 133.78 2.13 c p2
0.7804 0.4863 1 srgb
1.06 setlinewidth
[] 0 setdash
np
236.89 90.49 m
0 22.58 l
o
np
236.89 73.44 m
0 -22.72 l
o
/bg { 1 1 1 srgb } def
1 setlinecap
np
 232.69 90.49 m
0 -6.79 l
2.10 -2.69 l
-2.10 -2.70 l
0 -4.87 l
8.40 0 l
0 4.87 l
-2.10 2.70 l
2.10 2.69 l
0 6.79 l
-8.40 0 l
cp p3
2.13 setlinewidth
[] 0 setdash
0 setlinecap
np
234.79 81.01 m
4.20 0 l
o
0.00 0.00 540.75 354.00 cl
0.00 0.00 540.75 354.00 cl
0.00 0.00 540.75 354.00 cl
/Font1 findfont 10 s
0.4980 0.4980 0.4980 srgb
55.90 42.07 (0e+00) 1 0 t
55.90 64.10 (1e+06) 1 0 t
55.90 86.13 (2e+06) 1 0 t
55.90 108.16 (3e+06) 1 0 t
55.90 130.19 (4e+06) 1 0 t
0.00 0.00 540.75 354.00 cl
0.00 0.00 540.75 354.00 cl
0.4980 0.4980 0.4980 srgb
1.06 setlinewidth
[] 0 setdash
0 setlinecap
1 setlinejoin
10.00 setmiterlimit
np
58.73 45.66 m
4.25 0 l
o
np
58.73 67.69 m
4.25 0 l
o
np
58.73 89.72 m
4.25 0 l
o
np
58.73 111.75 m
4.25 0 l
o
np
58.73 133.78 m
4.25 0 l
o
0.00 0.00 540.75 354.00 cl
0.00 0.00 540.75 354.00 cl
0.00 0.00 540.75 354.00 cl
0.00 0.00 540.75 354.00 cl
0.00 0.00 540.75 354.00 cl
0.00 0.00 540.75 354.00 cl
0.4980 0.4980 0.4980 srgb
1.06 setlinewidth
[] 0 setdash
0 setlinecap
1 setlinejoin
10.00 setmiterlimit
np
89.87 37.83 m
0 4.25 l
o
np
134.67 37.83 m
0 4.25 l
o
np
179.48 37.83 m
0 4.25 l
o
np
224.29 37.83 m
0 4.25 l
o
0.00 0.00 540.75 354.00 cl
0.00 0.00 540.75 354.00 cl
/Font1 findfont 10 s
0.4980 0.4980 0.4980 srgb
89.87 27.82 (e1) .5 0 t
134.67 27.82 (e2 lsb) .5 0 t
179.48 27.82 (e3 lsb) .5 0 t
224.29 27.82 (e6 lsb) .5 0 t
0.00 0.00 540.75 354.00 cl
0.00 0.00 540.75 354.00 cl
0.00 0.00 540.75 354.00 cl
0.00 0.00 540.75 354.00 cl
0.00 0.00 540.75 354.00 cl
/Font1 findfont 12 s
0 0 0 srgb
140.75 14.40 (metr) 0 ta
0.180 (ic) tb gr
0.00 0.00 540.75 354.00 cl
0.00 0.00 540.75 354.00 cl
/Font1 findfont 12 s
0 0 0 srgb
23.02 90.12 (steps) .5 90 t
0.00 0.00 540.75 354.00 cl
0.00 0.00 540.75 354.00 cl
/Font1 findfont 14 s
0 0 0 srgb
122.84 142.95 (T) 0 ta
-1.680 (otal steps) tb gr
0.00 0.00 540.75 354.00 cl
0.00 0.00 540.75 354.00 cl
0.00 0.00 540.75 354.00 cl
0.00 0.00 540.75 354.00 cl
0.00 0.00 540.75 354.00 cl
0.00 0.00 540.75 354.00 cl
/bg { 1 1 1 srgb } def
364.31 31.79 82.50 113.42 r p2
0.00 0.00 540.75 354.00 cl
0.00 0.00 540.75 354.00 cl
/Font2 findfont 10 s
0 0 0 srgb
368.56 133.87 (optimiser_name) 0 0 t
0.00 0.00 540.75 354.00 cl
0.00 0.00 540.75 354.00 cl
/bg { 0.9490 0.9490 0.9490 srgb } def
1 1 1 srgb
1.06 setlinewidth
[] 0 setdash
1 setlinecap
1 setlinejoin
10.00 setmiterlimit
368.56 105.16 23.04 23.04 r p3
0.00 0.00 540.75 354.00 cl
0.00 0.00 540.75 354.00 cl
0.9725 0.4627 0.4275 srgb
1.06 setlinewidth
[] 0 setdash
1 setlinecap
1 setlinejoin
10.00 setmiterlimit
np
380.08 107.46 m
0 3.46 l
o
np
380.08 122.44 m
0 3.46 l
o
/bg { 1 1 1 srgb } def
371.44 110.92 17.28 11.52 r p3
np
371.44 116.68 m
17.28 0 l
o
0.00 0.00 540.75 354.00 cl
0.00 0.00 540.75 354.00 cl
/bg { 0.9490 0.9490 0.9490 srgb } def
1 1 1 srgb
1.06 setlinewidth
[] 0 setdash
1 setlinecap
1 setlinejoin
10.00 setmiterlimit
368.56 82.12 23.04 23.04 r p3
0.00 0.00 540.75 354.00 cl
0.00 0.00 540.75 354.00 cl
0.4863 0.6824 0 srgb
1.06 setlinewidth
[] 0 setdash
1 setlinecap
1 setlinejoin
10.00 setmiterlimit
np
380.08 84.42 m
0 3.46 l
o
np
380.08 99.40 m
0 3.46 l
o
/bg { 1 1 1 srgb } def
371.44 87.88 17.28 11.52 r p3
np
371.44 93.64 m
17.28 0 l
o
0.00 0.00 540.75 354.00 cl
0.00 0.00 540.75 354.00 cl
/bg { 0.9490 0.9490 0.9490 srgb } def
1 1 1 srgb
1.06 setlinewidth
[] 0 setdash
1 setlinecap
1 setlinejoin
10.00 setmiterlimit
368.56 59.08 23.04 23.04 r p3
0.00 0.00 540.75 354.00 cl
0.00 0.00 540.75 354.00 cl
0 0.7490 0.7686 srgb
1.06 setlinewidth
[] 0 setdash
1 setlinecap
1 setlinejoin
10.00 setmiterlimit
np
380.08 61.38 m
0 3.46 l
o
np
380.08 76.36 m
0 3.46 l
o
/bg { 1 1 1 srgb } def
371.44 64.84 17.28 11.52 r p3
np
371.44 70.60 m
17.28 0 l
o
0.00 0.00 540.75 354.00 cl
0.00 0.00 540.75 354.00 cl
/bg { 0.9490 0.9490 0.9490 srgb } def
1 1 1 srgb
1.06 setlinewidth
[] 0 setdash
1 setlinecap
1 setlinejoin
10.00 setmiterlimit
368.56 36.04 23.04 23.04 r p3
0.00 0.00 540.75 354.00 cl
0.00 0.00 540.75 354.00 cl
0.7804 0.4863 1 srgb
1.06 setlinewidth
[] 0 setdash
1 setlinecap
1 setlinejoin
10.00 setmiterlimit
np
380.08 38.34 m
0 3.46 l
o
np
380.08 53.32 m
0 3.46 l
o
/bg { 1 1 1 srgb } def
371.44 41.80 17.28 11.52 r p3
np
371.44 47.56 m
17.28 0 l
o
0.00 0.00 540.75 354.00 cl
0.00 0.00 540.75 354.00 cl
/Font1 findfont 10 s
0 0 0 srgb
394.48 113.09 (LAHC) 0 0 t
0.00 0.00 540.75 354.00 cl
0.00 0.00 540.75 354.00 cl
/Font1 findfont 10 s
0 0 0 srgb
394.48 90.05 (LAHC-VN) 0 0 t
0.00 0.00 540.75 354.00 cl
0.00 0.00 540.75 354.00 cl
/Font1 findfont 10 s
0 0 0 srgb
394.48 67.01 (SA) 0 0 t
0.00 0.00 540.75 354.00 cl
0.00 0.00 540.75 354.00 cl
/Font1 findfont 10 s
0 0 0 srgb
394.48 43.97 (SA-VN) 0 0 t
0.00 0.00 540.75 354.00 cl
0.00 0.00 540.75 354.00 cl
0.00 0.00 540.75 354.00 cl
0.00 0.00 540.75 354.00 cl
0.00 0.00 540.75 354.00 cl
0.00 0.00 540.75 354.00 cl
0.00 0.00 540.75 354.00 cl
ep
%%Trailer
%%Pages: 1
%%EOF
