{
    "name": "test",
    "dataset filename": "/home/shannon/HMRI/Experiments/DataSets/addition4.json",

    "num samples":      10,
    "sample size":      64,
    "Ng":               100,
    "final Ng":         100,
    "metric":           "hierarchical linear lsb",
    "learner":          "kfs",
    "optimiser":        "SA",
    "num temps":        500,
    "steps per temp":   1000,
    "init temp":        0.5,
    "temp rate":        0.975,
    "log errors":       true,
    "logging level":    "debug"
}
