%!PS-Adobe-3.0 EPSF-3.0
%%DocumentNeededResources: font Helvetica
%%+ font Helvetica-Bold
%%+ font Helvetica-Oblique
%%+ font Helvetica-BoldOblique
%%+ font Symbol
%%Title: R Graphics Output
%%Creator: R Software
%%Pages: (atend)
%%BoundingBox: 0 0 658 449
%%EndComments
%%BeginProlog
/bp  { gs sRGB gs } def
% begin .ps.prolog
/gs  { gsave } bind def
/gr  { grestore } bind def
/ep  { showpage gr gr } bind def
/m   { moveto } bind def
/l  { rlineto } bind def
/np  { newpath } bind def
/cp  { closepath } bind def
/f   { fill } bind def
/o   { stroke } bind def
/c   { newpath 0 360 arc } bind def
/r   { 4 2 roll moveto 1 copy 3 -1 roll exch 0 exch rlineto 0 rlineto -1 mul 0 exch rlineto closepath } bind def
/p1  { stroke } bind def
/p2  { gsave bg fill grestore newpath } bind def
/p3  { gsave bg fill grestore stroke } bind def
/p6  { gsave bg eofill grestore newpath } bind def
/p7  { gsave bg eofill grestore stroke } bind def
/t   { 5 -2 roll moveto gsave rotate
       1 index stringwidth pop
       mul neg 0 rmoveto show grestore } bind def
/ta  { 4 -2 roll moveto gsave rotate show } bind def
/tb  { 2 -1 roll 0 rmoveto show } bind def
/cl  { grestore gsave newpath 3 index 3 index moveto 1 index
       4 -1 roll lineto  exch 1 index lineto lineto
       closepath clip newpath } bind def
/rgb { setrgbcolor } bind def
/s   { scalefont setfont } bind def
% end   .ps.prolog
/sRGB { [ /CIEBasedABC
          << /DecodeLMN
               [ { dup 0.03928 le
                        {12.92321 div}
                        {0.055 add 1.055 div 2.4 exp }
                     ifelse
                 } bind dup dup
               ]
             /MatrixLMN [0.412457 0.212673 0.019334
                         0.357576 0.715152 0.119192
                         0.180437 0.072175 0.950301]
             /WhitePoint [0.9505 1.0 1.0890]
           >>
         ] setcolorspace } bind def
/srgb { setcolor } bind def
%%IncludeResource: font Helvetica
/Helvetica findfont
dup length dict begin
  {1 index /FID ne {def} {pop pop} ifelse} forall
  /Encoding ISOLatin1Encoding def
  currentdict
  end
/Font1 exch definefont pop
%%IncludeResource: font Helvetica-Bold
/Helvetica-Bold findfont
dup length dict begin
  {1 index /FID ne {def} {pop pop} ifelse} forall
  /Encoding ISOLatin1Encoding def
  currentdict
  end
/Font2 exch definefont pop
%%IncludeResource: font Helvetica-Oblique
/Helvetica-Oblique findfont
dup length dict begin
  {1 index /FID ne {def} {pop pop} ifelse} forall
  /Encoding ISOLatin1Encoding def
  currentdict
  end
/Font3 exch definefont pop
%%IncludeResource: font Helvetica-BoldOblique
/Helvetica-BoldOblique findfont
dup length dict begin
  {1 index /FID ne {def} {pop pop} ifelse} forall
  /Encoding ISOLatin1Encoding def
  currentdict
  end
/Font4 exch definefont pop
%%IncludeResource: font Symbol
/Symbol findfont
dup length dict begin
  {1 index /FID ne {def} {pop pop} ifelse} forall
  currentdict
  end
/Font5 exch definefont pop
%%EndProlog
%%Page: 1 1
bp
0.00 0.00 657.75 449.25 cl
0.00 195.33 571.96 449.25 cl
/bg { 1 1 1 srgb } def
1 1 1 srgb
1.06 setlinewidth
[] 0 setdash
1 setlinecap
1 setlinejoin
10.00 setmiterlimit
-0.00 195.33 571.96 253.92 r p3
0.00 0.00 657.75 449.25 cl
0.00 0.00 657.75 449.25 cl
0.00 0.00 657.75 449.25 cl
48.80 237.41 394.38 410.40 cl
/bg { 0.8980 0.8980 0.8980 srgb } def
48.80 237.41 345.58 172.99 r p2
0.9490 0.9490 0.9490 srgb
0.53 setlinewidth
[] 0 setdash
0 setlinecap
1 setlinejoin
10.00 setmiterlimit
np
48.80 271.37 m
345.58 0 l
o
np
48.80 323.55 m
345.58 0 l
o
np
48.80 375.74 m
345.58 0 l
o
1 1 1 srgb
1.06 setlinewidth
[] 0 setdash
np
48.80 245.27 m
345.58 0 l
o
np
48.80 297.46 m
345.58 0 l
o
np
48.80 349.65 m
345.58 0 l
o
np
48.80 401.84 m
345.58 0 l
o
np
98.17 237.41 m
0 172.99 l
o
np
180.45 237.41 m
0 172.99 l
o
np
262.73 237.41 m
0 172.99 l
o
np
345.01 237.41 m
0 172.99 l
o
/bg { 0 0 0 srgb } def
69.89 282.55 2.13 c p2
69.89 282.55 2.13 c p2
69.89 263.91 2.13 c p2
69.89 263.91 2.13 c p2
69.89 282.55 2.13 c p2
69.89 273.23 2.13 c p2
69.89 263.91 2.13 c p2
69.89 263.91 2.13 c p2
69.89 273.23 2.13 c p2
69.89 268.57 2.13 c p2
69.89 263.91 2.13 c p2
69.89 254.59 2.13 c p2
69.89 263.91 2.13 c p2
69.89 273.23 2.13 c p2
69.89 269.73 2.13 c p2
69.89 249.93 2.13 c p2
69.89 261.58 2.13 c p2
69.89 254.59 2.13 c p2
0.9725 0.4627 0.4275 srgb
np
69.89 245.27 m
0 0 l
o
np
69.89 245.27 m
0 0 l
o
/bg { 1 1 1 srgb } def
1 setlinecap
np
 67.32 245.27 m
0 0 l
5.14 0 l
0 0 l
-5.14 0 l
cp p3
2.13 setlinewidth
[] 0 setdash
0 setlinecap
np
67.32 245.27 m
5.14 0 l
o
/bg { 0 0 0 srgb } def
75.03 252.26 2.13 c p2
75.03 273.23 2.13 c p2
75.03 277.89 2.13 c p2
75.03 254.59 2.13 c p2
75.03 263.91 2.13 c p2
75.03 263.91 2.13 c p2
75.03 282.55 2.13 c p2
75.03 282.55 2.13 c p2
75.03 282.55 2.13 c p2
75.03 263.91 2.13 c p2
75.03 263.91 2.13 c p2
75.03 263.91 2.13 c p2
0.8706 0.5490 0 srgb
1.06 setlinewidth
[] 0 setdash
np
75.03 245.27 m
0 0 l
o
np
75.03 245.27 m
0 0 l
o
/bg { 1 1 1 srgb } def
1 setlinecap
np
 72.46 245.27 m
0 0 l
5.14 0 l
0 0 l
-5.14 0 l
cp p3
2.13 setlinewidth
[] 0 setdash
0 setlinecap
np
72.46 245.27 m
5.14 0 l
o
/bg { 0 0 0 srgb } def
80.17 263.91 2.13 c p2
80.17 273.23 2.13 c p2
80.17 263.91 2.13 c p2
80.17 263.91 2.13 c p2
80.17 263.91 2.13 c p2
80.17 263.91 2.13 c p2
80.17 256.92 2.13 c p2
80.17 263.91 2.13 c p2
80.17 273.23 2.13 c p2
80.17 263.91 2.13 c p2
80.17 263.91 2.13 c p2
80.17 263.91 2.13 c p2
80.17 249.93 2.13 c p2
0.7176 0.6235 0 srgb
1.06 setlinewidth
[] 0 setdash
np
80.17 245.27 m
0 0 l
o
np
80.17 245.27 m
0 0 l
o
/bg { 1 1 1 srgb } def
1 setlinecap
np
 77.60 245.27 m
0 0 l
5.14 0 l
0 0 l
-5.14 0 l
cp p3
2.13 setlinewidth
[] 0 setdash
0 setlinecap
np
77.60 245.27 m
5.14 0 l
o
/bg { 0 0 0 srgb } def
85.31 282.55 2.13 c p2
85.31 263.91 2.13 c p2
85.31 263.91 2.13 c p2
85.31 259.25 2.13 c p2
85.31 273.23 2.13 c p2
85.31 282.55 2.13 c p2
85.31 263.91 2.13 c p2
85.31 287.21 2.13 c p2
85.31 284.88 2.13 c p2
85.31 297.69 2.13 c p2
85.31 263.91 2.13 c p2
85.31 280.22 2.13 c p2
85.31 263.91 2.13 c p2
85.31 254.59 2.13 c p2
85.31 288.37 2.13 c p2
0.4863 0.6824 0 srgb
1.06 setlinewidth
[] 0 setdash
np
85.31 245.27 m
0 0 l
o
np
85.31 245.27 m
0 0 l
o
/bg { 1 1 1 srgb } def
1 setlinecap
np
 82.74 245.27 m
0 0 l
5.15 0 l
0 0 l
-5.15 0 l
cp p3
2.13 setlinewidth
[] 0 setdash
0 setlinecap
np
82.74 245.27 m
5.15 0 l
o
/bg { 0 0 0 srgb } def
90.46 263.91 2.13 c p2
90.46 263.91 2.13 c p2
90.46 254.59 2.13 c p2
90.46 263.91 2.13 c p2
90.46 282.55 2.13 c p2
90.46 263.91 2.13 c p2
90.46 282.55 2.13 c p2
90.46 263.91 2.13 c p2
90.46 263.91 2.13 c p2
90.46 263.91 2.13 c p2
90.46 315.17 2.13 c p2
90.46 263.91 2.13 c p2
90.46 254.59 2.13 c p2
90.46 263.91 2.13 c p2
90.46 263.91 2.13 c p2
90.46 325.65 2.13 c p2
90.46 263.91 2.13 c p2
90.46 263.91 2.13 c p2
0 0.7294 0.2196 srgb
1.06 setlinewidth
[] 0 setdash
np
90.46 245.27 m
0 0 l
o
np
90.46 245.27 m
0 0 l
o
/bg { 1 1 1 srgb } def
1 setlinecap
np
 87.89 245.27 m
0 0 l
5.14 0 l
0 0 l
-5.14 0 l
cp p3
2.13 setlinewidth
[] 0 setdash
0 setlinecap
np
87.89 245.27 m
5.14 0 l
o
/bg { 0 0 0 srgb } def
95.60 282.55 2.13 c p2
95.60 263.91 2.13 c p2
95.60 282.55 2.13 c p2
95.60 254.59 2.13 c p2
95.60 282.55 2.13 c p2
95.60 282.55 2.13 c p2
95.60 263.91 2.13 c p2
95.60 263.91 2.13 c p2
95.60 263.91 2.13 c p2
95.60 273.23 2.13 c p2
95.60 254.59 2.13 c p2
95.60 282.55 2.13 c p2
95.60 263.91 2.13 c p2
95.60 259.25 2.13 c p2
95.60 254.59 2.13 c p2
95.60 268.57 2.13 c p2
95.60 263.91 2.13 c p2
95.60 263.91 2.13 c p2
95.60 291.87 2.13 c p2
95.60 254.59 2.13 c p2
95.60 263.91 2.13 c p2
95.60 254.59 2.13 c p2
95.60 263.91 2.13 c p2
95.60 263.91 2.13 c p2
0 0.7529 0.5451 srgb
1.06 setlinewidth
[] 0 setdash
np
95.60 245.27 m
0 0 l
o
np
95.60 245.27 m
0 0 l
o
/bg { 1 1 1 srgb } def
1 setlinecap
np
 93.03 245.27 m
0 0 l
5.14 0 l
0 0 l
-5.14 0 l
cp p3
2.13 setlinewidth
[] 0 setdash
0 setlinecap
np
93.03 245.27 m
5.14 0 l
o
/bg { 0 0 0 srgb } def
100.74 263.91 2.13 c p2
100.74 282.55 2.13 c p2
100.74 282.55 2.13 c p2
100.74 263.91 2.13 c p2
100.74 254.59 2.13 c p2
100.74 254.59 2.13 c p2
100.74 273.23 2.13 c p2
100.74 263.91 2.13 c p2
100.74 282.55 2.13 c p2
100.74 263.91 2.13 c p2
100.74 263.91 2.13 c p2
100.74 282.55 2.13 c p2
100.74 263.91 2.13 c p2
0 0.7490 0.7686 srgb
1.06 setlinewidth
[] 0 setdash
np
100.74 245.27 m
0 0 l
o
np
100.74 245.27 m
0 0 l
o
/bg { 1 1 1 srgb } def
1 setlinecap
np
 98.17 245.27 m
0 0 l
5.14 0 l
0 0 l
-5.14 0 l
cp p3
2.13 setlinewidth
[] 0 setdash
0 setlinecap
np
98.17 245.27 m
5.14 0 l
o
/bg { 0 0 0 srgb } def
105.89 301.19 2.13 c p2
105.89 282.55 2.13 c p2
105.89 282.55 2.13 c p2
105.89 254.59 2.13 c p2
105.89 273.23 2.13 c p2
105.89 263.91 2.13 c p2
105.89 263.91 2.13 c p2
105.89 263.91 2.13 c p2
105.89 263.91 2.13 c p2
105.89 268.57 2.13 c p2
105.89 263.91 2.13 c p2
105.89 263.91 2.13 c p2
105.89 291.87 2.13 c p2
105.89 310.51 2.13 c p2
105.89 282.55 2.13 c p2
105.89 282.55 2.13 c p2
105.89 282.55 2.13 c p2
105.89 263.91 2.13 c p2
105.89 254.59 2.13 c p2
105.89 273.23 2.13 c p2
105.89 263.91 2.13 c p2
0 0.7059 0.9412 srgb
1.06 setlinewidth
[] 0 setdash
np
105.89 245.27 m
0 0 l
o
np
105.89 245.27 m
0 0 l
o
/bg { 1 1 1 srgb } def
1 setlinecap
np
 103.31 245.27 m
0 0 l
5.15 0 l
0 0 l
-5.15 0 l
cp p3
2.13 setlinewidth
[] 0 setdash
0 setlinecap
np
103.31 245.27 m
5.15 0 l
o
0.3804 0.6118 1 srgb
1.06 setlinewidth
[] 0 setdash
np
111.03 245.27 m
0 0 l
o
np
111.03 245.27 m
0 0 l
o
1 setlinecap
np
 108.46 245.27 m
0 0 l
5.14 0 l
0 0 l
-5.14 0 l
cp p3
2.13 setlinewidth
[] 0 setdash
0 setlinecap
np
108.46 245.27 m
5.14 0 l
o
0.7804 0.4863 1 srgb
1.06 setlinewidth
[] 0 setdash
np
116.17 245.27 m
0 0 l
o
np
116.17 245.27 m
0 0 l
o
1 setlinecap
np
 113.60 245.27 m
0 0 l
5.14 0 l
0 0 l
-5.14 0 l
cp p3
2.13 setlinewidth
[] 0 setdash
0 setlinecap
np
113.60 245.27 m
5.14 0 l
o
0.9608 0.3922 0.8902 srgb
1.06 setlinewidth
[] 0 setdash
np
121.31 245.27 m
0 0 l
o
np
121.31 245.27 m
0 0 l
o
1 setlinecap
np
 118.74 245.27 m
0 0 l
5.14 0 l
0 0 l
-5.14 0 l
cp p3
2.13 setlinewidth
[] 0 setdash
0 setlinecap
np
118.74 245.27 m
5.14 0 l
o
1 0.3922 0.6902 srgb
1.06 setlinewidth
[] 0 setdash
np
126.46 245.27 m
0 0 l
o
np
126.46 245.27 m
0 0 l
o
1 setlinecap
np
 123.88 245.27 m
0 0 l
5.15 0 l
0 0 l
-5.15 0 l
cp p3
2.13 setlinewidth
[] 0 setdash
0 setlinecap
np
123.88 245.27 m
5.15 0 l
o
0.9725 0.4627 0.4275 srgb
1.06 setlinewidth
[] 0 setdash
np
152.17 322.16 m
0 75.71 l
o
np
152.17 270.32 m
0 -25.05 l
o
1 setlinecap
np
 149.60 322.16 m
0 -51.84 l
5.14 0 l
0 51.84 l
-5.14 0 l
cp p3
2.13 setlinewidth
[] 0 setdash
0 setlinecap
np
149.60 287.21 m
5.14 0 l
o
0.8706 0.5490 0 srgb
1.06 setlinewidth
[] 0 setdash
np
157.31 315.17 m
0 76.88 l
o
np
157.31 263.91 m
0 -18.64 l
o
1 setlinecap
np
 154.74 315.17 m
0 -51.26 l
5.14 0 l
0 51.26 l
-5.14 0 l
cp p3
2.13 setlinewidth
[] 0 setdash
0 setlinecap
np
154.74 284.88 m
5.14 0 l
o
/bg { 0 0 0 srgb } def
162.45 357.10 2.13 c p2
162.45 357.10 2.13 c p2
162.45 357.10 2.13 c p2
162.45 375.74 2.13 c p2
162.45 385.06 2.13 c p2
162.45 357.10 2.13 c p2
162.45 374.58 2.13 c p2
0.7176 0.6235 0 srgb
1.06 setlinewidth
[] 0 setdash
np
162.45 308.76 m
0 39.02 l
o
np
162.45 276.72 m
0 -31.45 l
o
/bg { 1 1 1 srgb } def
1 setlinecap
np
 159.88 308.76 m
0 -32.04 l
5.14 0 l
0 32.04 l
-5.14 0 l
cp p3
2.13 setlinewidth
[] 0 setdash
0 setlinecap
np
159.88 291.87 m
5.14 0 l
o
/bg { 0 0 0 srgb } def
167.60 383.90 2.13 c p2
167.60 375.74 2.13 c p2
0.4863 0.6824 0 srgb
1.06 setlinewidth
[] 0 setdash
np
167.60 304.68 m
0 60.58 l
o
np
167.60 263.91 m
0 -18.64 l
o
/bg { 1 1 1 srgb } def
1 setlinecap
np
 165.02 304.68 m
0 -40.77 l
5.15 0 l
0 40.77 l
-5.15 0 l
cp p3
2.13 setlinewidth
[] 0 setdash
0 setlinecap
np
165.02 282.55 m
5.15 0 l
o
/bg { 0 0 0 srgb } def
172.74 393.22 2.13 c p2
172.74 393.22 2.13 c p2
172.74 394.38 2.13 c p2
0 0.7294 0.2196 srgb
1.06 setlinewidth
[] 0 setdash
np
172.74 329.15 m
0 53.58 l
o
np
172.74 287.21 m
0 -41.94 l
o
/bg { 1 1 1 srgb } def
1 setlinecap
np
 170.17 329.15 m
0 -41.94 l
5.14 0 l
0 41.94 l
-5.14 0 l
cp p3
2.13 setlinewidth
[] 0 setdash
0 setlinecap
np
170.17 305.85 m
5.14 0 l
o
0 0.7529 0.5451 srgb
1.06 setlinewidth
[] 0 setdash
np
177.88 329.15 m
0 67.56 l
o
np
177.88 282.55 m
0 -37.28 l
o
1 setlinecap
np
 175.31 329.15 m
0 -46.60 l
5.14 0 l
0 46.60 l
-5.14 0 l
cp p3
2.13 setlinewidth
[] 0 setdash
0 setlinecap
np
175.31 306.43 m
5.14 0 l
o
0 0.7490 0.7686 srgb
1.06 setlinewidth
[] 0 setdash
np
183.02 339.05 m
0 54.17 l
o
np
183.02 282.55 m
0 -37.28 l
o
1 setlinecap
np
 180.45 339.05 m
0 -56.50 l
5.15 0 l
0 56.50 l
-5.15 0 l
cp p3
2.13 setlinewidth
[] 0 setdash
0 setlinecap
np
180.45 308.18 m
5.15 0 l
o
0 0.7059 0.9412 srgb
1.06 setlinewidth
[] 0 setdash
np
188.17 331.48 m
0 62.90 l
o
np
188.17 282.55 m
0 -37.28 l
o
1 setlinecap
np
 185.60 331.48 m
0 -48.93 l
5.14 0 l
0 48.93 l
-5.14 0 l
cp p3
2.13 setlinewidth
[] 0 setdash
0 setlinecap
np
185.60 302.35 m
5.14 0 l
o
0.3804 0.6118 1 srgb
1.06 setlinewidth
[] 0 setdash
np
193.31 263.91 m
0 18.64 l
o
np
193.31 245.27 m
0 0 l
o
1 setlinecap
np
 190.74 263.91 m
0 -18.64 l
5.14 0 l
0 18.64 l
-5.14 0 l
cp p3
2.13 setlinewidth
[] 0 setdash
0 setlinecap
np
190.74 245.27 m
5.14 0 l
o
0.7804 0.4863 1 srgb
1.06 setlinewidth
[] 0 setdash
np
198.45 263.91 m
0 18.64 l
o
np
198.45 245.27 m
0 0 l
o
1 setlinecap
np
 195.88 263.91 m
0 -18.64 l
5.14 0 l
0 18.64 l
-5.14 0 l
cp p3
2.13 setlinewidth
[] 0 setdash
0 setlinecap
np
195.88 245.27 m
5.14 0 l
o
0.9608 0.3922 0.8902 srgb
1.06 setlinewidth
[] 0 setdash
np
203.59 263.91 m
0 18.64 l
o
np
203.59 245.27 m
0 0 l
o
1 setlinecap
np
 201.02 263.91 m
0 -18.64 l
5.15 0 l
0 18.64 l
-5.15 0 l
cp p3
2.13 setlinewidth
[] 0 setdash
0 setlinecap
np
201.02 245.27 m
5.15 0 l
o
/bg { 0 0 0 srgb } def
208.74 301.19 2.13 c p2
208.74 301.19 2.13 c p2
1 0.3922 0.6902 srgb
1.06 setlinewidth
[] 0 setdash
np
208.74 263.91 m
0 18.64 l
o
np
208.74 245.27 m
0 0 l
o
/bg { 1 1 1 srgb } def
1 setlinecap
np
 206.17 263.91 m
0 -18.64 l
5.14 0 l
0 18.64 l
-5.14 0 l
cp p3
2.13 setlinewidth
[] 0 setdash
0 setlinecap
np
206.17 245.27 m
5.14 0 l
o
0.9725 0.4627 0.4275 srgb
1.06 setlinewidth
[] 0 setdash
np
234.45 369.33 m
0 25.05 l
o
np
234.45 314.58 m
0 -50.67 l
o
1 setlinecap
np
 231.88 369.33 m
0 -54.75 l
5.14 0 l
0 54.75 l
-5.14 0 l
cp p3
2.13 setlinewidth
[] 0 setdash
0 setlinecap
np
231.88 342.54 m
5.14 0 l
o
0.8706 0.5490 0 srgb
1.06 setlinewidth
[] 0 setdash
np
239.59 360.02 m
0 34.36 l
o
np
239.59 311.38 m
0 -66.11 l
o
1 setlinecap
np
 237.02 360.02 m
0 -48.64 l
5.14 0 l
0 48.64 l
-5.14 0 l
cp p3
2.13 setlinewidth
[] 0 setdash
0 setlinecap
np
237.02 340.21 m
5.14 0 l
o
0.7176 0.6235 0 srgb
1.06 setlinewidth
[] 0 setdash
np
244.73 367.00 m
0 30.87 l
o
np
244.73 315.17 m
0 -60.58 l
o
1 setlinecap
np
 242.16 367.00 m
0 -51.83 l
5.15 0 l
0 51.83 l
-5.15 0 l
cp p3
2.13 setlinewidth
[] 0 setdash
0 setlinecap
np
242.16 345.45 m
5.15 0 l
o
0.4863 0.6824 0 srgb
1.06 setlinewidth
[] 0 setdash
np
249.88 360.02 m
0 34.36 l
o
np
249.88 302.06 m
0 -56.79 l
o
1 setlinecap
np
 247.31 360.02 m
0 -57.96 l
5.14 0 l
0 57.96 l
-5.14 0 l
cp p3
2.13 setlinewidth
[] 0 setdash
0 setlinecap
np
247.31 329.15 m
5.14 0 l
o
/bg { 0 0 0 srgb } def
255.02 287.21 2.13 c p2
0 0.7294 0.2196 srgb
1.06 setlinewidth
[] 0 setdash
np
255.02 377.20 m
0 17.18 l
o
np
255.02 347.49 m
0 -42.81 l
o
/bg { 1 1 1 srgb } def
1 setlinecap
np
 252.45 377.20 m
0 -29.71 l
5.14 0 l
0 29.71 l
-5.14 0 l
cp p3
2.13 setlinewidth
[] 0 setdash
0 setlinecap
np
252.45 362.93 m
5.14 0 l
o
/bg { 0 0 0 srgb } def
260.16 296.53 2.13 c p2
260.16 290.70 2.13 c p2
0 0.7529 0.5451 srgb
1.06 setlinewidth
[] 0 setdash
np
260.16 380.69 m
0 14.86 l
o
np
260.16 349.82 m
0 -40.48 l
o
/bg { 1 1 1 srgb } def
1 setlinecap
np
 257.59 380.69 m
0 -30.87 l
5.14 0 l
0 30.87 l
-5.14 0 l
cp p3
2.13 setlinewidth
[] 0 setdash
0 setlinecap
np
257.59 367.00 m
5.14 0 l
o
/bg { 0 0 0 srgb } def
265.30 308.18 2.13 c p2
265.30 291.87 2.13 c p2
0 0.7490 0.7686 srgb
1.06 setlinewidth
[] 0 setdash
np
265.30 376.91 m
0 17.47 l
o
np
265.30 349.82 m
0 -39.31 l
o
/bg { 1 1 1 srgb } def
1 setlinecap
np
 262.73 376.91 m
0 -27.09 l
5.15 0 l
0 27.09 l
-5.15 0 l
cp p3
2.13 setlinewidth
[] 0 setdash
0 setlinecap
np
262.73 363.51 m
5.15 0 l
o
0 0.7059 0.9412 srgb
1.06 setlinewidth
[] 0 setdash
np
270.45 381.57 m
0 17.47 l
o
np
270.45 346.62 m
0 -40.77 l
o
1 setlinecap
np
 267.88 381.57 m
0 -34.95 l
5.14 0 l
0 34.95 l
-5.14 0 l
cp p3
2.13 setlinewidth
[] 0 setdash
0 setlinecap
np
267.88 364.09 m
5.14 0 l
o
0.3804 0.6118 1 srgb
1.06 setlinewidth
[] 0 setdash
np
275.59 287.21 m
0 51.25 l
o
np
275.59 245.27 m
0 0 l
o
1 setlinecap
np
 273.02 287.21 m
0 -41.94 l
5.14 0 l
0 41.94 l
-5.14 0 l
cp p3
2.13 setlinewidth
[] 0 setdash
0 setlinecap
np
273.02 263.91 m
5.14 0 l
o
/bg { 0 0 0 srgb } def
280.73 343.12 2.13 c p2
280.73 338.46 2.13 c p2
280.73 329.15 2.13 c p2
280.73 329.15 2.13 c p2
280.73 333.80 2.13 c p2
280.73 347.78 2.13 c p2
280.73 329.15 2.13 c p2
0.7804 0.4863 1 srgb
1.06 setlinewidth
[] 0 setdash
np
280.73 282.55 m
0 41.94 l
o
np
280.73 254.59 m
0 -9.32 l
o
/bg { 1 1 1 srgb } def
1 setlinecap
np
 278.16 282.55 m
0 -27.96 l
5.14 0 l
0 27.96 l
-5.14 0 l
cp p3
2.13 setlinewidth
[] 0 setdash
0 setlinecap
np
278.16 263.91 m
5.14 0 l
o
/bg { 0 0 0 srgb } def
285.88 366.42 2.13 c p2
285.88 368.75 2.13 c p2
0.9608 0.3922 0.8902 srgb
1.06 setlinewidth
[] 0 setdash
np
285.88 287.21 m
0 41.94 l
o
np
285.88 253.43 m
0 -8.16 l
o
/bg { 1 1 1 srgb } def
1 setlinecap
np
 283.30 287.21 m
0 -33.78 l
5.15 0 l
0 33.78 l
-5.15 0 l
cp p3
2.13 setlinewidth
[] 0 setdash
0 setlinecap
np
283.30 263.91 m
5.15 0 l
o
1 0.3922 0.6902 srgb
1.06 setlinewidth
[] 0 setdash
np
291.02 285.46 m
0 57.66 l
o
np
291.02 245.27 m
0 0 l
o
1 setlinecap
np
 288.45 285.46 m
0 -40.19 l
5.14 0 l
0 40.19 l
-5.14 0 l
cp p3
2.13 setlinewidth
[] 0 setdash
0 setlinecap
np
288.45 263.91 m
5.14 0 l
o
/bg { 0 0 0 srgb } def
316.73 301.19 2.13 c p2
316.73 307.01 2.13 c p2
0.9725 0.4627 0.4275 srgb
1.06 setlinewidth
[] 0 setdash
np
316.73 378.36 m
0 23.01 l
o
np
316.73 350.99 m
0 -38.15 l
o
/bg { 1 1 1 srgb } def
1 setlinecap
np
 314.16 378.36 m
0 -27.37 l
5.14 0 l
0 27.37 l
-5.14 0 l
cp p3
2.13 setlinewidth
[] 0 setdash
0 setlinecap
np
314.16 367.59 m
5.14 0 l
o
/bg { 0 0 0 srgb } def
321.87 291.87 2.13 c p2
0.8706 0.5490 0 srgb
1.06 setlinewidth
[] 0 setdash
np
321.87 379.24 m
0 19.80 l
o
np
321.87 351.28 m
0 -40.77 l
o
/bg { 1 1 1 srgb } def
1 setlinecap
np
 319.30 379.24 m
0 -27.96 l
5.14 0 l
0 27.96 l
-5.14 0 l
cp p3
2.13 setlinewidth
[] 0 setdash
0 setlinecap
np
319.30 366.42 m
5.14 0 l
o
0.7176 0.6235 0 srgb
1.06 setlinewidth
[] 0 setdash
np
327.02 381.57 m
0 16.30 l
o
np
327.02 347.78 m
0 -43.10 l
o
1 setlinecap
np
 324.44 381.57 m
0 -33.79 l
5.15 0 l
0 33.79 l
-5.15 0 l
cp p3
2.13 setlinewidth
[] 0 setdash
0 setlinecap
np
324.44 366.42 m
5.15 0 l
o
/bg { 0 0 0 srgb } def
332.16 305.85 2.13 c p2
0.4863 0.6824 0 srgb
1.06 setlinewidth
[] 0 setdash
np
332.16 377.20 m
0 25.33 l
o
np
332.16 350.11 m
0 -25.62 l
o
/bg { 1 1 1 srgb } def
1 setlinecap
np
 329.59 377.20 m
0 -27.09 l
5.14 0 l
0 27.09 l
-5.14 0 l
cp p3
2.13 setlinewidth
[] 0 setdash
0 setlinecap
np
329.59 363.51 m
5.14 0 l
o
/bg { 0 0 0 srgb } def
337.30 334.97 2.13 c p2
0 0.7294 0.2196 srgb
1.06 setlinewidth
[] 0 setdash
np
337.30 387.39 m
0 8.16 l
o
np
337.30 368.75 m
0 -24.46 l
o
/bg { 1 1 1 srgb } def
1 setlinecap
np
 334.73 387.39 m
0 -18.64 l
5.14 0 l
0 18.64 l
-5.14 0 l
cp p3
2.13 setlinewidth
[] 0 setdash
0 setlinecap
np
334.73 379.24 m
5.14 0 l
o
/bg { 0 0 0 srgb } def
342.44 333.80 2.13 c p2
342.44 333.80 2.13 c p2
342.44 331.48 2.13 c p2
342.44 337.30 2.13 c p2
342.44 323.32 2.13 c p2
0 0.7529 0.5451 srgb
1.06 setlinewidth
[] 0 setdash
np
342.44 386.52 m
0 7.86 l
o
np
342.44 367.59 m
0 -25.63 l
o
/bg { 1 1 1 srgb } def
1 setlinecap
np
 339.87 386.52 m
0 -18.93 l
5.14 0 l
0 18.93 l
-5.14 0 l
cp p3
2.13 setlinewidth
[] 0 setdash
0 setlinecap
np
339.87 378.07 m
5.14 0 l
o
/bg { 0 0 0 srgb } def
347.59 339.63 2.13 c p2
347.59 324.49 2.13 c p2
347.59 325.65 2.13 c p2
0 0.7490 0.7686 srgb
1.06 setlinewidth
[] 0 setdash
np
347.59 386.52 m
0 12.52 l
o
np
347.59 368.46 m
0 -23.01 l
o
/bg { 1 1 1 srgb } def
1 setlinecap
np
 345.01 386.52 m
0 -18.06 l
5.15 0 l
0 18.06 l
-5.15 0 l
cp p3
2.13 setlinewidth
[] 0 setdash
0 setlinecap
np
345.01 376.32 m
5.15 0 l
o
/bg { 0 0 0 srgb } def
352.73 354.77 2.13 c p2
352.73 397.87 2.13 c p2
352.73 401.37 2.13 c p2
352.73 345.45 2.13 c p2
352.73 352.44 2.13 c p2
0 0.7059 0.9412 srgb
1.06 setlinewidth
[] 0 setdash
np
352.73 381.57 m
0 11.65 l
o
np
352.73 371.08 m
0 -13.98 l
o
/bg { 1 1 1 srgb } def
1 setlinecap
np
 350.16 381.57 m
0 -10.49 l
5.14 0 l
0 10.49 l
-5.14 0 l
cp p3
2.13 setlinewidth
[] 0 setdash
0 setlinecap
np
350.16 375.74 m
5.14 0 l
o
0.3804 0.6118 1 srgb
1.06 setlinewidth
[] 0 setdash
np
357.87 324.49 m
0 69.89 l
o
np
357.87 273.23 m
0 -27.96 l
o
1 setlinecap
np
 355.30 324.49 m
0 -51.26 l
5.14 0 l
0 51.26 l
-5.14 0 l
cp p3
2.13 setlinewidth
[] 0 setdash
0 setlinecap
np
355.30 300.60 m
5.14 0 l
o
0.7804 0.4863 1 srgb
1.06 setlinewidth
[] 0 setdash
np
363.01 324.49 m
0 69.89 l
o
np
363.01 271.48 m
0 -26.21 l
o
1 setlinecap
np
 360.44 324.49 m
0 -53.01 l
5.15 0 l
0 53.01 l
-5.15 0 l
cp p3
2.13 setlinewidth
[] 0 setdash
0 setlinecap
np
360.44 300.02 m
5.15 0 l
o
0.9608 0.3922 0.8902 srgb
1.06 setlinewidth
[] 0 setdash
np
368.16 324.49 m
0 69.89 l
o
np
368.16 268.57 m
0 -23.30 l
o
1 setlinecap
np
 365.59 324.49 m
0 -55.92 l
5.14 0 l
0 55.92 l
-5.14 0 l
cp p3
2.13 setlinewidth
[] 0 setdash
0 setlinecap
np
365.59 291.87 m
5.14 0 l
o
/bg { 0 0 0 srgb } def
373.30 394.38 2.13 c p2
373.30 394.38 2.13 c p2
1 0.3922 0.6902 srgb
1.06 setlinewidth
[] 0 setdash
np
373.30 319.83 m
0 65.23 l
o
np
373.30 273.23 m
0 -27.96 l
o
/bg { 1 1 1 srgb } def
1 setlinecap
np
 370.73 319.83 m
0 -46.60 l
5.14 0 l
0 46.60 l
-5.14 0 l
cp p3
2.13 setlinewidth
[] 0 setdash
0 setlinecap
np
370.73 295.95 m
5.14 0 l
o
0.00 0.00 657.75 449.25 cl
0.00 0.00 657.75 449.25 cl
0.00 0.00 657.75 449.25 cl
/Font1 findfont 10 s
0.4980 0.4980 0.4980 srgb
41.72 241.68 (0.0) 1 0 t
41.72 293.87 (0.2) 1 0 t
41.72 346.06 (0.4) 1 0 t
41.72 398.25 (0.6) 1 0 t
0.00 0.00 657.75 449.25 cl
0.00 0.00 657.75 449.25 cl
0.4980 0.4980 0.4980 srgb
1.06 setlinewidth
[] 0 setdash
0 setlinecap
1 setlinejoin
10.00 setmiterlimit
np
44.55 245.27 m
4.25 0 l
o
np
44.55 297.46 m
4.25 0 l
o
np
44.55 349.65 m
4.25 0 l
o
np
44.55 401.84 m
4.25 0 l
o
0.00 0.00 657.75 449.25 cl
0.00 0.00 657.75 449.25 cl
0.00 0.00 657.75 449.25 cl
0.00 0.00 657.75 449.25 cl
0.00 0.00 657.75 449.25 cl
0.00 0.00 657.75 449.25 cl
0.4980 0.4980 0.4980 srgb
1.06 setlinewidth
[] 0 setdash
0 setlinecap
1 setlinejoin
10.00 setmiterlimit
np
98.17 233.16 m
0 4.25 l
o
np
180.45 233.16 m
0 4.25 l
o
np
262.73 233.16 m
0 4.25 l
o
np
345.01 233.16 m
0 4.25 l
o
0.00 0.00 657.75 449.25 cl
0.00 0.00 657.75 449.25 cl
/Font1 findfont 10 s
0.4980 0.4980 0.4980 srgb
98.17 223.14 (1) .5 0 t
180.45 223.14 (2) .5 0 t
262.73 223.14 (3) .5 0 t
345.01 223.14 (4) .5 0 t
0.00 0.00 657.75 449.25 cl
0.00 0.00 657.75 449.25 cl
0.00 0.00 657.75 449.25 cl
0.00 0.00 657.75 449.25 cl
0.00 0.00 657.75 449.25 cl
/Font1 findfont 12 s
0 0 0 srgb
221.59 209.73 (target) .5 0 t
0.00 0.00 657.75 449.25 cl
0.00 0.00 657.75 449.25 cl
/Font1 findfont 12 s
0 0 0 srgb
23.02 323.90 (error) .5 90 t
0.00 0.00 657.75 449.25 cl
0.00 0.00 657.75 449.25 cl
0.00 0.00 657.75 449.25 cl
0.00 0.00 657.75 449.25 cl
0.00 0.00 657.75 449.25 cl
0.00 0.00 657.75 449.25 cl
/bg { 1 1 1 srgb } def
406.82 175.03 133.50 297.74 r p2
0.00 0.00 657.75 449.25 cl
0.00 0.00 657.75 449.25 cl
0.00 0.00 657.75 449.25 cl
0.00 0.00 657.75 449.25 cl
/bg { 0.9490 0.9490 0.9490 srgb } def
1 1 1 srgb
1.06 setlinewidth
[] 0 setdash
1 setlinecap
1 setlinejoin
10.00 setmiterlimit
411.07 432.72 23.04 23.04 r p3
0.00 0.00 657.75 449.25 cl
0.00 0.00 657.75 449.25 cl
0.9725 0.4627 0.4275 srgb
1.06 setlinewidth
[] 0 setdash
1 setlinecap
1 setlinejoin
10.00 setmiterlimit
np
422.59 435.03 m
0 3.45 l
o
/bg { 1 1 1 srgb } def
413.95 438.48 17.28 11.52 r p3
np
413.95 444.24 m
17.28 0 l
o
0.00 0.00 657.75 449.25 cl
0.00 0.00 657.75 449.25 cl
/bg { 0.9490 0.9490 0.9490 srgb } def
1 1 1 srgb
1.06 setlinewidth
[] 0 setdash
1 setlinecap
1 setlinejoin
10.00 setmiterlimit
411.07 409.68 23.04 23.04 r p3
0.00 0.00 657.75 449.25 cl
0.00 0.00 657.75 449.25 cl
0.8706 0.5490 0 srgb
1.06 setlinewidth
[] 0 setdash
1 setlinecap
1 setlinejoin
10.00 setmiterlimit
np
422.59 411.99 m
0 3.45 l
o
np
422.59 426.96 m
0 3.46 l
o
/bg { 1 1 1 srgb } def
413.95 415.44 17.28 11.52 r p3
np
413.95 421.20 m
17.28 0 l
o
0.00 0.00 657.75 449.25 cl
0.00 0.00 657.75 449.25 cl
/bg { 0.9490 0.9490 0.9490 srgb } def
1 1 1 srgb
1.06 setlinewidth
[] 0 setdash
1 setlinecap
1 setlinejoin
10.00 setmiterlimit
411.07 386.64 23.04 23.04 r p3
0.00 0.00 657.75 449.25 cl
0.00 0.00 657.75 449.25 cl
0.7176 0.6235 0 srgb
1.06 setlinewidth
[] 0 setdash
1 setlinecap
1 setlinejoin
10.00 setmiterlimit
np
422.59 388.95 m
0 3.45 l
o
np
422.59 403.92 m
0 3.46 l
o
/bg { 1 1 1 srgb } def
413.95 392.40 17.28 11.52 r p3
np
413.95 398.16 m
17.28 0 l
o
0.00 0.00 657.75 449.25 cl
0.00 0.00 657.75 449.25 cl
/bg { 0.9490 0.9490 0.9490 srgb } def
1 1 1 srgb
1.06 setlinewidth
[] 0 setdash
1 setlinecap
1 setlinejoin
10.00 setmiterlimit
411.07 363.60 23.04 23.04 r p3
0.00 0.00 657.75 449.25 cl
0.00 0.00 657.75 449.25 cl
0.4863 0.6824 0 srgb
1.06 setlinewidth
[] 0 setdash
1 setlinecap
1 setlinejoin
10.00 setmiterlimit
np
422.59 365.91 m
0 3.45 l
o
np
422.59 380.88 m
0 3.46 l
o
/bg { 1 1 1 srgb } def
413.95 369.36 17.28 11.52 r p3
np
413.95 375.12 m
17.28 0 l
o
0.00 0.00 657.75 449.25 cl
0.00 0.00 657.75 449.25 cl
/bg { 0.9490 0.9490 0.9490 srgb } def
1 1 1 srgb
1.06 setlinewidth
[] 0 setdash
1 setlinecap
1 setlinejoin
10.00 setmiterlimit
411.07 340.56 23.04 23.04 r p3
0.00 0.00 657.75 449.25 cl
0.00 0.00 657.75 449.25 cl
0 0.7294 0.2196 srgb
1.06 setlinewidth
[] 0 setdash
1 setlinecap
1 setlinejoin
10.00 setmiterlimit
np
422.59 342.87 m
0 3.45 l
o
np
422.59 357.84 m
0 3.46 l
o
/bg { 1 1 1 srgb } def
413.95 346.32 17.28 11.52 r p3
np
413.95 352.08 m
17.28 0 l
o
0.00 0.00 657.75 449.25 cl
0.00 0.00 657.75 449.25 cl
/bg { 0.9490 0.9490 0.9490 srgb } def
1 1 1 srgb
1.06 setlinewidth
[] 0 setdash
1 setlinecap
1 setlinejoin
10.00 setmiterlimit
411.07 317.52 23.04 23.04 r p3
0.00 0.00 657.75 449.25 cl
0.00 0.00 657.75 449.25 cl
0 0.7529 0.5451 srgb
1.06 setlinewidth
[] 0 setdash
1 setlinecap
1 setlinejoin
10.00 setmiterlimit
np
422.59 319.83 m
0 3.45 l
o
np
422.59 334.80 m
0 3.46 l
o
/bg { 1 1 1 srgb } def
413.95 323.28 17.28 11.52 r p3
np
413.95 329.04 m
17.28 0 l
o
0.00 0.00 657.75 449.25 cl
0.00 0.00 657.75 449.25 cl
/bg { 0.9490 0.9490 0.9490 srgb } def
1 1 1 srgb
1.06 setlinewidth
[] 0 setdash
1 setlinecap
1 setlinejoin
10.00 setmiterlimit
411.07 294.48 23.04 23.04 r p3
0.00 0.00 657.75 449.25 cl
0.00 0.00 657.75 449.25 cl
0 0.7490 0.7686 srgb
1.06 setlinewidth
[] 0 setdash
1 setlinecap
1 setlinejoin
10.00 setmiterlimit
np
422.59 296.79 m
0 3.45 l
o
np
422.59 311.76 m
0 3.46 l
o
/bg { 1 1 1 srgb } def
413.95 300.24 17.28 11.52 r p3
np
413.95 306.00 m
17.28 0 l
o
0.00 0.00 657.75 449.25 cl
0.00 0.00 657.75 449.25 cl
/bg { 0.9490 0.9490 0.9490 srgb } def
1 1 1 srgb
1.06 setlinewidth
[] 0 setdash
1 setlinecap
1 setlinejoin
10.00 setmiterlimit
411.07 271.44 23.04 23.04 r p3
0.00 0.00 657.75 449.25 cl
0.00 0.00 657.75 449.25 cl
0 0.7059 0.9412 srgb
1.06 setlinewidth
[] 0 setdash
1 setlinecap
1 setlinejoin
10.00 setmiterlimit
np
422.59 273.75 m
0 3.45 l
o
np
422.59 288.72 m
0 3.46 l
o
/bg { 1 1 1 srgb } def
413.95 277.20 17.28 11.52 r p3
np
413.95 282.96 m
17.28 0 l
o
0.00 0.00 657.75 449.25 cl
0.00 0.00 657.75 449.25 cl
/bg { 0.9490 0.9490 0.9490 srgb } def
1 1 1 srgb
1.06 setlinewidth
[] 0 setdash
1 setlinecap
1 setlinejoin
10.00 setmiterlimit
411.07 248.40 23.04 23.04 r p3
0.00 0.00 657.75 449.25 cl
0.00 0.00 657.75 449.25 cl
0.3804 0.6118 1 srgb
1.06 setlinewidth
[] 0 setdash
1 setlinecap
1 setlinejoin
10.00 setmiterlimit
np
422.59 250.71 m
0 3.45 l
o
np
422.59 265.68 m
0 3.46 l
o
/bg { 1 1 1 srgb } def
413.95 254.16 17.28 11.52 r p3
np
413.95 259.92 m
17.28 0 l
o
0.00 0.00 657.75 449.25 cl
0.00 0.00 657.75 449.25 cl
/bg { 0.9490 0.9490 0.9490 srgb } def
1 1 1 srgb
1.06 setlinewidth
[] 0 setdash
1 setlinecap
1 setlinejoin
10.00 setmiterlimit
411.07 225.36 23.04 23.04 r p3
0.00 0.00 657.75 449.25 cl
0.00 0.00 657.75 449.25 cl
0.7804 0.4863 1 srgb
1.06 setlinewidth
[] 0 setdash
1 setlinecap
1 setlinejoin
10.00 setmiterlimit
np
422.59 227.67 m
0 3.45 l
o
np
422.59 242.64 m
0 3.46 l
o
/bg { 1 1 1 srgb } def
413.95 231.12 17.28 11.52 r p3
np
413.95 236.88 m
17.28 0 l
o
0.00 0.00 657.75 449.25 cl
0.00 0.00 657.75 449.25 cl
/bg { 0.9490 0.9490 0.9490 srgb } def
1 1 1 srgb
1.06 setlinewidth
[] 0 setdash
1 setlinecap
1 setlinejoin
10.00 setmiterlimit
411.07 202.32 23.04 23.04 r p3
0.00 0.00 657.75 449.25 cl
0.00 0.00 657.75 449.25 cl
0.9608 0.3922 0.8902 srgb
1.06 setlinewidth
[] 0 setdash
1 setlinecap
1 setlinejoin
10.00 setmiterlimit
np
422.59 204.63 m
0 3.45 l
o
np
422.59 219.60 m
0 3.46 l
o
/bg { 1 1 1 srgb } def
413.95 208.08 17.28 11.52 r p3
np
413.95 213.84 m
17.28 0 l
o
0.00 0.00 657.75 449.25 cl
0.00 0.00 657.75 449.25 cl
/bg { 0.9490 0.9490 0.9490 srgb } def
1 1 1 srgb
1.06 setlinewidth
[] 0 setdash
1 setlinecap
1 setlinejoin
10.00 setmiterlimit
411.07 179.28 23.04 23.04 r p3
0.00 0.00 657.75 449.25 cl
0.00 0.00 657.75 449.25 cl
1 0.3922 0.6902 srgb
1.06 setlinewidth
[] 0 setdash
1 setlinecap
1 setlinejoin
10.00 setmiterlimit
np
422.59 181.59 m
0 3.45 l
o
np
422.59 196.56 m
0 3.46 l
o
/bg { 1 1 1 srgb } def
413.95 185.04 17.28 11.52 r p3
np
413.95 190.80 m
17.28 0 l
o
0.00 0.00 657.75 449.25 cl
0.00 0.00 657.75 449.25 cl
/Font1 findfont 10 s
0 0 0 srgb
436.99 440.65 (basic + e1) 0 0 t
0.00 0.00 657.75 449.25 cl
0.00 0.00 657.75 449.25 cl
/Font1 findfont 10 s
0 0 0 srgb
436.99 417.61 (basic + e2 lsb) 0 0 t
0.00 0.00 657.75 449.25 cl
0.00 0.00 657.75 449.25 cl
/Font1 findfont 10 s
0 0 0 srgb
436.99 394.57 (basic + e3 lsb) 0 0 t
0.00 0.00 657.75 449.25 cl
0.00 0.00 657.75 449.25 cl
/Font1 findfont 10 s
0 0 0 srgb
436.99 371.53 (basic + e6 lsb) 0 0 t
0.00 0.00 657.75 449.25 cl
0.00 0.00 657.75 449.25 cl
/Font1 findfont 10 s
0 0 0 srgb
436.99 348.49 (str) 0 ta
-0.100 (atified + e1) tb gr
0.00 0.00 657.75 449.25 cl
0.00 0.00 657.75 449.25 cl
/Font1 findfont 10 s
0 0 0 srgb
436.99 325.45 (str) 0 ta
-0.100 (atified + e2 lsb) tb gr
0.00 0.00 657.75 449.25 cl
0.00 0.00 657.75 449.25 cl
/Font1 findfont 10 s
0 0 0 srgb
436.99 302.41 (str) 0 ta
-0.100 (atified + e3 lsb) tb gr
0.00 0.00 657.75 449.25 cl
0.00 0.00 657.75 449.25 cl
/Font1 findfont 10 s
0 0 0 srgb
436.99 279.37 (str) 0 ta
-0.100 (atified + e6 lsb) tb gr
0.00 0.00 657.75 449.25 cl
0.00 0.00 657.75 449.25 cl
/Font1 findfont 10 s
0 0 0 srgb
436.99 256.33 (str) 0 ta
-0.100 (atified kfs + e1) tb gr
0.00 0.00 657.75 449.25 cl
0.00 0.00 657.75 449.25 cl
/Font1 findfont 10 s
0 0 0 srgb
436.99 233.29 (str) 0 ta
-0.100 (atified kfs + e2 lsb) tb gr
0.00 0.00 657.75 449.25 cl
0.00 0.00 657.75 449.25 cl
/Font1 findfont 10 s
0 0 0 srgb
436.99 210.25 (str) 0 ta
-0.100 (atified kfs + e3 lsb) tb gr
0.00 0.00 657.75 449.25 cl
0.00 0.00 657.75 449.25 cl
/Font1 findfont 10 s
0 0 0 srgb
436.99 187.21 (str) 0 ta
-0.100 (atified kfs + e6 lsb) tb gr
0.00 0.00 657.75 449.25 cl
0.00 0.00 657.75 449.25 cl
0.00 0.00 657.75 449.25 cl
0.00 0.00 657.75 449.25 cl
0.00 0.00 657.75 449.25 cl
0.00 0.00 657.75 449.25 cl
0.00 0.00 657.75 449.25 cl
0.00 0.00 657.75 449.25 cl
0.00 0.00 657.75 449.25 cl
0.00 0.00 657.75 449.25 cl
/Font1 findfont 14 s
0 0 0 srgb
127.84 415.20 (Gener) 0 ta
-0.140 (alisation error per target) tb gr
0.00 0.00 657.75 449.25 cl
0.00 0.00 657.75 449.25 cl
0.00 0.00 657.75 449.25 cl
0.00 0.00 285.98 195.33 cl
/bg { 1 1 1 srgb } def
1 1 1 srgb
1.06 setlinewidth
[] 0 setdash
1 setlinecap
1 setlinejoin
10.00 setmiterlimit
-0.00 0.00 285.98 195.33 r p3
0.00 0.00 657.75 449.25 cl
0.00 0.00 657.75 449.25 cl
0.00 0.00 657.75 449.25 cl
48.80 58.96 266.78 156.47 cl
/bg { 0.8980 0.8980 0.8980 srgb } def
48.80 58.96 217.98 97.52 r p2
0.9490 0.9490 0.9490 srgb
0.53 setlinewidth
[] 0 setdash
0 setlinecap
1 setlinejoin
10.00 setmiterlimit
np
48.80 74.06 m
217.98 0 l
o
np
48.80 95.42 m
217.98 0 l
o
np
48.80 116.77 m
217.98 0 l
o
np
48.80 138.12 m
217.98 0 l
o
1 1 1 srgb
1.06 setlinewidth
[] 0 setdash
np
48.80 63.39 m
217.98 0 l
o
np
48.80 84.74 m
217.98 0 l
o
np
48.80 106.09 m
217.98 0 l
o
np
48.80 127.45 m
217.98 0 l
o
np
48.80 148.80 m
217.98 0 l
o
np
79.94 58.96 m
0 97.51 l
o
np
131.84 58.96 m
0 97.51 l
o
np
183.74 58.96 m
0 97.51 l
o
np
235.64 58.96 m
0 97.51 l
o
0.9725 0.4627 0.4275 srgb
np
66.97 127.14 m
0 17.28 l
o
np
66.97 110.40 m
0 -15.55 l
o
/bg { 1 1 1 srgb } def
1 setlinecap
np
 60.48 127.14 m
0 -16.74 l
12.97 0 l
0 16.74 l
-12.97 0 l
cp p3
2.13 setlinewidth
[] 0 setdash
0 setlinecap
np
60.48 116.41 m
12.97 0 l
o
0 0.7294 0.2196 srgb
1.06 setlinewidth
[] 0 setdash
np
79.94 134.41 m
0 17.63 l
o
np
79.94 120.76 m
0 -18.29 l
o
1 setlinecap
np
 73.45 134.41 m
0 -13.65 l
12.98 0 l
0 13.65 l
-12.98 0 l
cp p3
2.13 setlinewidth
[] 0 setdash
0 setlinecap
np
73.45 127.38 m
12.98 0 l
o
0.3804 0.6118 1 srgb
1.06 setlinewidth
[] 0 setdash
np
92.92 89.13 m
0 16.68 l
o
np
92.92 73.81 m
0 -10.42 l
o
1 setlinecap
np
 86.43 89.13 m
0 -15.32 l
12.97 0 l
0 15.32 l
-12.97 0 l
cp p3
2.13 setlinewidth
[] 0 setdash
0 setlinecap
np
86.43 80.31 m
12.97 0 l
o
/bg { 0 0 0 srgb } def
118.87 143.70 2.13 c p2
118.87 145.37 2.13 c p2
0.9725 0.4627 0.4275 srgb
1.06 setlinewidth
[] 0 setdash
np
118.87 123.15 m
0 16.26 l
o
np
118.87 109.74 m
0 -15.85 l
o
/bg { 1 1 1 srgb } def
1 setlinecap
np
 112.38 123.15 m
0 -13.41 l
12.97 0 l
0 13.41 l
-12.97 0 l
cp p3
2.13 setlinewidth
[] 0 setdash
0 setlinecap
np
112.38 115.94 m
12.97 0 l
o
0 0.7294 0.2196 srgb
1.06 setlinewidth
[] 0 setdash
np
131.84 134.94 m
0 9.95 l
o
np
131.84 121.06 m
0 -10.96 l
o
1 setlinecap
np
 125.35 134.94 m
0 -13.88 l
12.98 0 l
0 13.88 l
-12.98 0 l
cp p3
2.13 setlinewidth
[] 0 setdash
0 setlinecap
np
125.35 128.45 m
12.98 0 l
o
0.3804 0.6118 1 srgb
1.06 setlinewidth
[] 0 setdash
np
144.82 87.99 m
0 18.29 l
o
np
144.82 74.05 m
0 -10.66 l
o
1 setlinecap
np
 138.33 87.99 m
0 -13.94 l
12.97 0 l
0 13.94 l
-12.97 0 l
cp p3
2.13 setlinewidth
[] 0 setdash
0 setlinecap
np
138.33 82.93 m
12.97 0 l
o
/bg { 0 0 0 srgb } def
170.77 142.99 2.13 c p2
0.9725 0.4627 0.4275 srgb
1.06 setlinewidth
[] 0 setdash
np
170.77 121.60 m
0 17.33 l
o
np
170.77 107.77 m
0 -17.21 l
o
/bg { 1 1 1 srgb } def
1 setlinecap
np
 164.28 121.60 m
0 -13.83 l
12.97 0 l
0 13.83 l
-12.97 0 l
cp p3
2.13 setlinewidth
[] 0 setdash
0 setlinecap
np
164.28 114.27 m
12.97 0 l
o
0 0.7294 0.2196 srgb
1.06 setlinewidth
[] 0 setdash
np
183.74 133.69 m
0 11.20 l
o
np
183.74 121.06 m
0 -14.30 l
o
1 setlinecap
np
 177.25 133.69 m
0 -12.63 l
12.98 0 l
0 12.63 l
-12.98 0 l
cp p3
2.13 setlinewidth
[] 0 setdash
0 setlinecap
np
177.25 127.26 m
12.98 0 l
o
0.3804 0.6118 1 srgb
1.06 setlinewidth
[] 0 setdash
np
196.71 88.29 m
0 19.90 l
o
np
196.71 72.92 m
0 -9.53 l
o
1 setlinecap
np
 190.23 88.29 m
0 -15.37 l
12.97 0 l
0 15.37 l
-12.97 0 l
cp p3
2.13 setlinewidth
[] 0 setdash
0 setlinecap
np
190.23 80.90 m
12.97 0 l
o
/bg { 0 0 0 srgb } def
222.66 89.60 2.13 c p2
0.9725 0.4627 0.4275 srgb
1.06 setlinewidth
[] 0 setdash
np
222.66 125.71 m
0 16.08 l
o
np
222.66 111.41 m
0 -16.80 l
o
/bg { 1 1 1 srgb } def
1 setlinecap
np
 216.18 125.71 m
0 -14.30 l
12.97 0 l
0 14.30 l
-12.97 0 l
cp p3
2.13 setlinewidth
[] 0 setdash
0 setlinecap
np
216.18 117.13 m
12.97 0 l
o
0 0.7294 0.2196 srgb
1.06 setlinewidth
[] 0 setdash
np
235.64 135.84 m
0 11.67 l
o
np
235.64 121.95 m
0 -18.29 l
o
1 setlinecap
np
 229.15 135.84 m
0 -13.89 l
12.98 0 l
0 13.89 l
-12.98 0 l
cp p3
2.13 setlinewidth
[] 0 setdash
0 setlinecap
np
229.15 127.14 m
12.98 0 l
o
0.3804 0.6118 1 srgb
1.06 setlinewidth
[] 0 setdash
np
248.61 87.99 m
0 19.72 l
o
np
248.61 72.68 m
0 -9.29 l
o
1 setlinecap
np
 242.13 87.99 m
0 -15.31 l
12.97 0 l
0 15.31 l
-12.97 0 l
cp p3
2.13 setlinewidth
[] 0 setdash
0 setlinecap
np
242.13 80.55 m
12.97 0 l
o
0.00 0.00 657.75 449.25 cl
0.00 0.00 657.75 449.25 cl
0.00 0.00 657.75 449.25 cl
/Font1 findfont 10 s
0.4980 0.4980 0.4980 srgb
41.72 59.80 (0.0) 1 0 t
41.72 81.15 (0.1) 1 0 t
41.72 102.50 (0.2) 1 0 t
41.72 123.86 (0.3) 1 0 t
41.72 145.21 (0.4) 1 0 t
0.00 0.00 657.75 449.25 cl
0.00 0.00 657.75 449.25 cl
0.4980 0.4980 0.4980 srgb
1.06 setlinewidth
[] 0 setdash
0 setlinecap
1 setlinejoin
10.00 setmiterlimit
np
44.55 63.39 m
4.25 0 l
o
np
44.55 84.74 m
4.25 0 l
o
np
44.55 106.09 m
4.25 0 l
o
np
44.55 127.45 m
4.25 0 l
o
np
44.55 148.80 m
4.25 0 l
o
0.00 0.00 657.75 449.25 cl
0.00 0.00 657.75 449.25 cl
0.00 0.00 657.75 449.25 cl
0.00 0.00 657.75 449.25 cl
0.00 0.00 657.75 449.25 cl
0.00 0.00 657.75 449.25 cl
0.4980 0.4980 0.4980 srgb
1.06 setlinewidth
[] 0 setdash
0 setlinecap
1 setlinejoin
10.00 setmiterlimit
np
79.94 54.70 m
0 4.26 l
o
np
131.84 54.70 m
0 4.26 l
o
np
183.74 54.70 m
0 4.26 l
o
np
235.64 54.70 m
0 4.26 l
o
0.00 0.00 657.75 449.25 cl
0.00 0.00 657.75 449.25 cl
/Font1 findfont 10 s
0.4980 0.4980 0.4980 srgb
85.53 48.69 (e1) 1.01 45.00 t
137.43 48.69 (e2 lsb) 1.01 45.00 t
189.32 48.69 (e6 lsb) 1.01 45.00 t
241.22 48.69 (e3 lsb) 1.01 45.00 t
0.00 0.00 657.75 449.25 cl
0.00 0.00 657.75 449.25 cl
0.00 0.00 657.75 449.25 cl
0.00 0.00 657.75 449.25 cl
0.00 0.00 657.75 449.25 cl
/Font1 findfont 12 s
0 0 0 srgb
141.46 14.40 (metr) 0 ta
0.180 (ic) tb gr
0.00 0.00 657.75 449.25 cl
0.00 0.00 657.75 449.25 cl
/Font1 findfont 12 s
0 0 0 srgb
23.02 107.71 (error) .5 90 t
0.00 0.00 657.75 449.25 cl
0.00 0.00 657.75 449.25 cl
/Font1 findfont 14 s
0 0 0 srgb
95.94 161.27 (Gener) 0 ta
-0.140 (alisation error) tb gr
0.00 0.00 657.75 449.25 cl
0.00 0.00 657.75 449.25 cl
0.00 0.00 657.75 449.25 cl
285.98 0.00 571.96 195.33 cl
/bg { 1 1 1 srgb } def
1 1 1 srgb
1.06 setlinewidth
[] 0 setdash
1 setlinecap
1 setlinejoin
10.00 setmiterlimit
285.98 0.00 285.98 195.33 r p3
0.00 0.00 657.75 449.25 cl
0.00 0.00 657.75 449.25 cl
0.00 0.00 657.75 449.25 cl
334.78 58.96 552.76 156.47 cl
/bg { 0.8980 0.8980 0.8980 srgb } def
334.78 58.96 217.98 97.52 r p2
0.9490 0.9490 0.9490 srgb
0.53 setlinewidth
[] 0 setdash
0 setlinecap
1 setlinejoin
10.00 setmiterlimit
np
334.78 77.23 m
217.98 0 l
o
np
334.78 104.90 m
217.98 0 l
o
np
334.78 132.58 m
217.98 0 l
o
1 1 1 srgb
1.06 setlinewidth
[] 0 setdash
np
334.78 63.39 m
217.98 0 l
o
np
334.78 91.07 m
217.98 0 l
o
np
334.78 118.74 m
217.98 0 l
o
np
334.78 146.42 m
217.98 0 l
o
np
365.92 58.96 m
0 97.51 l
o
np
417.82 58.96 m
0 97.51 l
o
np
469.72 58.96 m
0 97.51 l
o
np
521.62 58.96 m
0 97.51 l
o
/bg { 0 0 0 srgb } def
352.95 65.55 2.13 c p2
0.9725 0.4627 0.4275 srgb
np
352.95 63.39 m
0 0 l
o
np
352.95 63.39 m
0 0 l
o
/bg { 1 1 1 srgb } def
1 setlinecap
np
 346.46 63.39 m
0 0 l
12.97 0 l
0 0 l
-12.97 0 l
cp p3
2.13 setlinewidth
[] 0 setdash
0 setlinecap
np
346.46 63.39 m
12.97 0 l
o
/bg { 0 0 0 srgb } def
365.92 78.52 2.13 c p2
365.92 78.52 2.13 c p2
365.92 89.34 2.13 c p2
0 0.7294 0.2196 srgb
1.06 setlinewidth
[] 0 setdash
np
365.92 69.87 m
0 6.49 l
o
np
365.92 65.55 m
0 -2.16 l
o
/bg { 1 1 1 srgb } def
1 setlinecap
np
 359.43 69.87 m
0 -4.32 l
12.98 0 l
0 4.32 l
-12.98 0 l
cp p3
2.13 setlinewidth
[] 0 setdash
0 setlinecap
np
359.43 67.71 m
12.98 0 l
o
0.3804 0.6118 1 srgb
1.06 setlinewidth
[] 0 setdash
np
378.90 63.39 m
0 0 l
o
np
378.90 63.39 m
0 0 l
o
1 setlinecap
np
 372.41 63.39 m
0 0 l
12.97 0 l
0 0 l
-12.97 0 l
cp p3
2.13 setlinewidth
[] 0 setdash
0 setlinecap
np
372.41 63.39 m
12.97 0 l
o
0.9725 0.4627 0.4275 srgb
1.06 setlinewidth
[] 0 setdash
np
404.84 63.39 m
0 0 l
o
np
404.84 63.39 m
0 0 l
o
1 setlinecap
np
 398.36 63.39 m
0 0 l
12.97 0 l
0 0 l
-12.97 0 l
cp p3
2.13 setlinewidth
[] 0 setdash
0 setlinecap
np
398.36 63.39 m
12.97 0 l
o
/bg { 0 0 0 srgb } def
417.82 78.52 2.13 c p2
417.82 78.52 2.13 c p2
417.82 78.52 2.13 c p2
0 0.7294 0.2196 srgb
1.06 setlinewidth
[] 0 setdash
np
417.82 69.87 m
0 6.49 l
o
np
417.82 65.55 m
0 -2.16 l
o
/bg { 1 1 1 srgb } def
1 setlinecap
np
 411.33 69.87 m
0 -4.32 l
12.98 0 l
0 4.32 l
-12.98 0 l
cp p3
2.13 setlinewidth
[] 0 setdash
0 setlinecap
np
411.33 67.71 m
12.98 0 l
o
/bg { 0 0 0 srgb } def
430.79 67.71 2.13 c p2
0.3804 0.6118 1 srgb
1.06 setlinewidth
[] 0 setdash
np
430.79 63.39 m
0 0 l
o
np
430.79 63.39 m
0 0 l
o
/bg { 1 1 1 srgb } def
1 setlinecap
np
 424.31 63.39 m
0 0 l
12.97 0 l
0 0 l
-12.97 0 l
cp p3
2.13 setlinewidth
[] 0 setdash
0 setlinecap
np
424.31 63.39 m
12.97 0 l
o
0.9725 0.4627 0.4275 srgb
1.06 setlinewidth
[] 0 setdash
np
456.74 63.39 m
0 0 l
o
np
456.74 63.39 m
0 0 l
o
1 setlinecap
np
 450.26 63.39 m
0 0 l
12.97 0 l
0 0 l
-12.97 0 l
cp p3
2.13 setlinewidth
[] 0 setdash
0 setlinecap
np
450.26 63.39 m
12.97 0 l
o
0 0.7294 0.2196 srgb
1.06 setlinewidth
[] 0 setdash
np
469.72 102.85 m
0 49.19 l
o
np
469.72 65.55 m
0 -2.16 l
o
1 setlinecap
np
 463.23 102.85 m
0 -37.30 l
12.98 0 l
0 37.30 l
-12.98 0 l
cp p3
2.13 setlinewidth
[] 0 setdash
0 setlinecap
np
463.23 73.12 m
12.98 0 l
o
/bg { 0 0 0 srgb } def
482.69 95.82 2.13 c p2
482.69 65.55 2.13 c p2
0.3804 0.6118 1 srgb
1.06 setlinewidth
[] 0 setdash
np
482.69 63.39 m
0 0 l
o
np
482.69 63.39 m
0 0 l
o
/bg { 1 1 1 srgb } def
1 setlinecap
np
 476.21 63.39 m
0 0 l
12.97 0 l
0 0 l
-12.97 0 l
cp p3
2.13 setlinewidth
[] 0 setdash
0 setlinecap
np
476.21 63.39 m
12.97 0 l
o
/bg { 0 0 0 srgb } def
508.64 65.55 2.13 c p2
0.9725 0.4627 0.4275 srgb
1.06 setlinewidth
[] 0 setdash
np
508.64 63.39 m
0 0 l
o
np
508.64 63.39 m
0 0 l
o
/bg { 1 1 1 srgb } def
1 setlinecap
np
 502.16 63.39 m
0 0 l
12.97 0 l
0 0 l
-12.97 0 l
cp p3
2.13 setlinewidth
[] 0 setdash
0 setlinecap
np
502.16 63.39 m
12.97 0 l
o
/bg { 0 0 0 srgb } def
521.62 100.15 2.13 c p2
0 0.7294 0.2196 srgb
1.06 setlinewidth
[] 0 setdash
np
521.62 72.04 m
0 8.65 l
o
np
521.62 65.55 m
0 -2.16 l
o
/bg { 1 1 1 srgb } def
1 setlinecap
np
 515.13 72.04 m
0 -6.49 l
12.97 0 l
0 6.49 l
-12.97 0 l
cp p3
2.13 setlinewidth
[] 0 setdash
0 setlinecap
np
515.13 67.71 m
12.97 0 l
o
/bg { 0 0 0 srgb } def
534.59 67.71 2.13 c p2
0.3804 0.6118 1 srgb
1.06 setlinewidth
[] 0 setdash
np
534.59 63.39 m
0 0 l
o
np
534.59 63.39 m
0 0 l
o
/bg { 1 1 1 srgb } def
1 setlinecap
np
 528.10 63.39 m
0 0 l
12.98 0 l
0 0 l
-12.98 0 l
cp p3
2.13 setlinewidth
[] 0 setdash
0 setlinecap
np
528.10 63.39 m
12.98 0 l
o
0.00 0.00 657.75 449.25 cl
0.00 0.00 657.75 449.25 cl
0.00 0.00 657.75 449.25 cl
/Font1 findfont 10 s
0.4980 0.4980 0.4980 srgb
327.69 59.80 (0.0) 1 0 t
327.69 87.48 (0.1) 1 0 t
327.69 115.15 (0.2) 1 0 t
327.69 142.83 (0.3) 1 0 t
0.00 0.00 657.75 449.25 cl
0.00 0.00 657.75 449.25 cl
0.4980 0.4980 0.4980 srgb
1.06 setlinewidth
[] 0 setdash
0 setlinecap
1 setlinejoin
10.00 setmiterlimit
np
330.53 63.39 m
4.25 0 l
o
np
330.53 91.07 m
4.25 0 l
o
np
330.53 118.74 m
4.25 0 l
o
np
330.53 146.42 m
4.25 0 l
o
0.00 0.00 657.75 449.25 cl
0.00 0.00 657.75 449.25 cl
0.00 0.00 657.75 449.25 cl
0.00 0.00 657.75 449.25 cl
0.00 0.00 657.75 449.25 cl
0.00 0.00 657.75 449.25 cl
0.4980 0.4980 0.4980 srgb
1.06 setlinewidth
[] 0 setdash
0 setlinecap
1 setlinejoin
10.00 setmiterlimit
np
365.92 54.70 m
0 4.26 l
o
np
417.82 54.70 m
0 4.26 l
o
np
469.72 54.70 m
0 4.26 l
o
np
521.62 54.70 m
0 4.26 l
o
0.00 0.00 657.75 449.25 cl
0.00 0.00 657.75 449.25 cl
/Font1 findfont 10 s
0.4980 0.4980 0.4980 srgb
371.51 48.69 (e1) 1.01 45.00 t
423.40 48.69 (e2 lsb) 1.01 45.00 t
475.30 48.69 (e6 lsb) 1.01 45.00 t
527.20 48.69 (e3 lsb) 1.01 45.00 t
0.00 0.00 657.75 449.25 cl
0.00 0.00 657.75 449.25 cl
0.00 0.00 657.75 449.25 cl
0.00 0.00 657.75 449.25 cl
0.00 0.00 657.75 449.25 cl
/Font1 findfont 12 s
0 0 0 srgb
427.44 14.40 (metr) 0 ta
0.180 (ic) tb gr
0.00 0.00 657.75 449.25 cl
0.00 0.00 657.75 449.25 cl
/Font1 findfont 12 s
0 0 0 srgb
308.99 107.71 (error) .5 90 t
0.00 0.00 657.75 449.25 cl
0.00 0.00 657.75 449.25 cl
/Font1 findfont 14 s
0 0 0 srgb
401.76 161.27 (T) 0 ta
-1.680 (r) tb
-0.140 (aining error) tb gr
0.00 0.00 657.75 449.25 cl
0.00 0.00 657.75 449.25 cl
0.00 0.00 657.75 449.25 cl
0.00 0.00 657.75 449.25 cl
0.00 0.00 657.75 449.25 cl
0.00 0.00 657.75 449.25 cl
/bg { 1 1 1 srgb } def
571.64 52.47 86.42 90.38 r p2
0.00 0.00 657.75 449.25 cl
0.00 0.00 657.75 449.25 cl
/Font2 findfont 10 s
0 0 0 srgb
575.89 131.51 (learner) 0 0 t
0.00 0.00 657.75 449.25 cl
0.00 0.00 657.75 449.25 cl
/bg { 0.9490 0.9490 0.9490 srgb } def
1 1 1 srgb
1.06 setlinewidth
[] 0 setdash
1 setlinecap
1 setlinejoin
10.00 setmiterlimit
575.89 102.80 23.04 23.04 r p3
0.00 0.00 657.75 449.25 cl
0.00 0.00 657.75 449.25 cl
0.9725 0.4627 0.4275 srgb
1.06 setlinewidth
[] 0 setdash
1 setlinecap
1 setlinejoin
10.00 setmiterlimit
np
587.41 105.11 m
0 3.45 l
o
np
587.41 120.08 m
0 3.46 l
o
/bg { 1 1 1 srgb } def
578.77 108.56 17.28 11.52 r p3
np
578.77 114.32 m
17.28 0 l
o
0.00 0.00 657.75 449.25 cl
0.00 0.00 657.75 449.25 cl
/bg { 0.9490 0.9490 0.9490 srgb } def
1 1 1 srgb
1.06 setlinewidth
[] 0 setdash
1 setlinecap
1 setlinejoin
10.00 setmiterlimit
575.89 79.76 23.04 23.04 r p3
0.00 0.00 657.75 449.25 cl
0.00 0.00 657.75 449.25 cl
0 0.7294 0.2196 srgb
1.06 setlinewidth
[] 0 setdash
1 setlinecap
1 setlinejoin
10.00 setmiterlimit
np
587.41 82.07 m
0 3.45 l
o
np
587.41 97.04 m
0 3.46 l
o
/bg { 1 1 1 srgb } def
578.77 85.52 17.28 11.52 r p3
np
578.77 91.28 m
17.28 0 l
o
0.00 0.00 657.75 449.25 cl
0.00 0.00 657.75 449.25 cl
/bg { 0.9490 0.9490 0.9490 srgb } def
1 1 1 srgb
1.06 setlinewidth
[] 0 setdash
1 setlinecap
1 setlinejoin
10.00 setmiterlimit
575.89 56.72 23.04 23.04 r p3
0.00 0.00 657.75 449.25 cl
0.00 0.00 657.75 449.25 cl
0.3804 0.6118 1 srgb
1.06 setlinewidth
[] 0 setdash
1 setlinecap
1 setlinejoin
10.00 setmiterlimit
np
587.41 59.03 m
0 3.45 l
o
np
587.41 74.00 m
0 3.46 l
o
/bg { 1 1 1 srgb } def
578.77 62.48 17.28 11.52 r p3
np
578.77 68.24 m
17.28 0 l
o
0.00 0.00 657.75 449.25 cl
0.00 0.00 657.75 449.25 cl
/Font1 findfont 10 s
0 0 0 srgb
601.81 110.73 (basic) 0 0 t
0.00 0.00 657.75 449.25 cl
0.00 0.00 657.75 449.25 cl
/Font1 findfont 10 s
0 0 0 srgb
601.81 87.69 (str) 0 ta
-0.100 (atified) tb gr
0.00 0.00 657.75 449.25 cl
0.00 0.00 657.75 449.25 cl
/Font1 findfont 10 s
0 0 0 srgb
601.81 64.65 (str) 0 ta
-0.100 (atified kfs) tb gr
0.00 0.00 657.75 449.25 cl
0.00 0.00 657.75 449.25 cl
0.00 0.00 657.75 449.25 cl
0.00 0.00 657.75 449.25 cl
0.00 0.00 657.75 449.25 cl
0.00 0.00 657.75 449.25 cl
0.00 0.00 657.75 449.25 cl
ep
%%Trailer
%%Pages: 1
%%EOF
