%!PS-Adobe-3.0 EPSF-3.0
%%DocumentNeededResources: font Helvetica
%%+ font Helvetica-Bold
%%+ font Helvetica-Oblique
%%+ font Helvetica-BoldOblique
%%+ font Symbol
%%Title: R Graphics Output
%%Creator: R Software
%%Pages: (atend)
%%BoundingBox: 0 0 658 449
%%EndComments
%%BeginProlog
/bp  { gs sRGB gs } def
% begin .ps.prolog
/gs  { gsave } bind def
/gr  { grestore } bind def
/ep  { showpage gr gr } bind def
/m   { moveto } bind def
/l  { rlineto } bind def
/np  { newpath } bind def
/cp  { closepath } bind def
/f   { fill } bind def
/o   { stroke } bind def
/c   { newpath 0 360 arc } bind def
/r   { 4 2 roll moveto 1 copy 3 -1 roll exch 0 exch rlineto 0 rlineto -1 mul 0 exch rlineto closepath } bind def
/p1  { stroke } bind def
/p2  { gsave bg fill grestore newpath } bind def
/p3  { gsave bg fill grestore stroke } bind def
/p6  { gsave bg eofill grestore newpath } bind def
/p7  { gsave bg eofill grestore stroke } bind def
/t   { 5 -2 roll moveto gsave rotate
       1 index stringwidth pop
       mul neg 0 rmoveto show grestore } bind def
/ta  { 4 -2 roll moveto gsave rotate show } bind def
/tb  { 2 -1 roll 0 rmoveto show } bind def
/cl  { grestore gsave newpath 3 index 3 index moveto 1 index
       4 -1 roll lineto  exch 1 index lineto lineto
       closepath clip newpath } bind def
/rgb { setrgbcolor } bind def
/s   { scalefont setfont } bind def
% end   .ps.prolog
/sRGB { [ /CIEBasedABC
          << /DecodeLMN
               [ { dup 0.03928 le
                        {12.92321 div}
                        {0.055 add 1.055 div 2.4 exp }
                     ifelse
                 } bind dup dup
               ]
             /MatrixLMN [0.412457 0.212673 0.019334
                         0.357576 0.715152 0.119192
                         0.180437 0.072175 0.950301]
             /WhitePoint [0.9505 1.0 1.0890]
           >>
         ] setcolorspace } bind def
/srgb { setcolor } bind def
%%IncludeResource: font Helvetica
/Helvetica findfont
dup length dict begin
  {1 index /FID ne {def} {pop pop} ifelse} forall
  /Encoding ISOLatin1Encoding def
  currentdict
  end
/Font1 exch definefont pop
%%IncludeResource: font Helvetica-Bold
/Helvetica-Bold findfont
dup length dict begin
  {1 index /FID ne {def} {pop pop} ifelse} forall
  /Encoding ISOLatin1Encoding def
  currentdict
  end
/Font2 exch definefont pop
%%IncludeResource: font Helvetica-Oblique
/Helvetica-Oblique findfont
dup length dict begin
  {1 index /FID ne {def} {pop pop} ifelse} forall
  /Encoding ISOLatin1Encoding def
  currentdict
  end
/Font3 exch definefont pop
%%IncludeResource: font Helvetica-BoldOblique
/Helvetica-BoldOblique findfont
dup length dict begin
  {1 index /FID ne {def} {pop pop} ifelse} forall
  /Encoding ISOLatin1Encoding def
  currentdict
  end
/Font4 exch definefont pop
%%IncludeResource: font Symbol
/Symbol findfont
dup length dict begin
  {1 index /FID ne {def} {pop pop} ifelse} forall
  currentdict
  end
/Font5 exch definefont pop
%%EndProlog
%%Page: 1 1
bp
0.00 0.00 657.75 449.25 cl
0.00 224.62 571.96 449.25 cl
/bg { 1 1 1 srgb } def
1 1 1 srgb
1.06 setlinewidth
[] 0 setdash
1 setlinecap
1 setlinejoin
10.00 setmiterlimit
-0.00 224.62 571.96 224.62 r p3
0.00 0.00 657.75 449.25 cl
0.00 0.00 657.75 449.25 cl
0.00 0.00 657.75 449.25 cl
48.80 266.71 552.76 410.40 cl
/bg { 0.8980 0.8980 0.8980 srgb } def
48.80 266.71 503.95 143.69 r p2
0.9490 0.9490 0.9490 srgb
0.53 setlinewidth
[] 0 setdash
0 setlinecap
1 setlinejoin
10.00 setmiterlimit
np
48.80 293.08 m
503.96 0 l
o
np
48.80 332.77 m
503.96 0 l
o
np
48.80 372.45 m
503.96 0 l
o
1 1 1 srgb
1.06 setlinewidth
[] 0 setdash
np
48.80 273.24 m
503.96 0 l
o
np
48.80 312.92 m
503.96 0 l
o
np
48.80 352.61 m
503.96 0 l
o
np
48.80 392.29 m
503.96 0 l
o
np
120.80 266.71 m
0 143.69 l
o
np
240.79 266.71 m
0 143.69 l
o
np
360.77 266.71 m
0 143.69 l
o
np
480.76 266.71 m
0 143.69 l
o
0.9725 0.4627 0.4275 srgb
np
79.26 340.21 m
0 38.85 l
o
np
79.26 278.20 m
0 -4.96 l
o
/bg { 1 1 1 srgb } def
1 setlinecap
np
 75.80 340.21 m
0 -7.57 l
1.73 -9.80 l
-1.73 -9.79 l
0 -34.85 l
6.92 0 l
0 34.85 l
-1.73 9.79 l
1.73 9.80 l
0 7.57 l
-6.92 0 l
cp p3
2.13 setlinewidth
[] 0 setdash
0 setlinecap
np
77.53 322.84 m
3.46 0 l
o
0.8824 0.5412 0 srgb
1.06 setlinewidth
[] 0 setdash
np
86.18 336.07 m
0 42.99 l
o
np
86.18 284.81 m
0 -11.57 l
o
1 setlinecap
np
 82.72 336.07 m
0 -16.29 l
1.73 -8.10 l
-1.73 -8.10 l
0 -18.77 l
6.93 0 l
0 18.77 l
-1.74 8.10 l
1.74 8.10 l
0 16.29 l
-6.93 0 l
cp p3
2.13 setlinewidth
[] 0 setdash
0 setlinecap
np
84.45 311.68 m
3.46 0 l
o
0.7451 0.6118 0 srgb
1.06 setlinewidth
[] 0 setdash
np
93.11 336.07 m
0 42.99 l
o
np
93.11 286.47 m
0 -13.23 l
o
1 setlinecap
np
 89.65 336.07 m
0 -15.31 l
1.73 -7.84 l
-1.73 -7.83 l
0 -18.62 l
6.92 0 l
0 18.62 l
-1.73 7.83 l
1.73 7.84 l
0 15.31 l
-6.92 0 l
cp p3
2.13 setlinewidth
[] 0 setdash
0 setlinecap
np
91.38 312.92 m
3.46 0 l
o
0.5490 0.6706 0 srgb
1.06 setlinewidth
[] 0 setdash
np
100.03 336.49 m
0 42.57 l
o
np
100.03 286.47 m
0 -13.23 l
o
1 setlinecap
np
 96.57 336.49 m
0 -15.66 l
1.73 -7.91 l
-1.73 -7.90 l
0 -18.55 l
6.92 0 l
0 18.55 l
-1.73 7.90 l
1.73 7.91 l
0 15.66 l
-6.92 0 l
cp p3
2.13 setlinewidth
[] 0 setdash
0 setlinecap
np
98.30 312.92 m
3.46 0 l
o
0.1412 0.7176 0 srgb
1.06 setlinewidth
[] 0 setdash
np
106.95 332.77 m
0 46.29 l
o
np
106.95 286.47 m
0 -13.23 l
o
1 setlinecap
np
 103.49 332.77 m
0 -15.01 l
1.73 -7.32 l
-1.73 -7.31 l
0 -16.66 l
6.92 0 l
0 16.66 l
-1.73 7.31 l
1.73 7.32 l
0 15.01 l
-6.92 0 l
cp p3
2.13 setlinewidth
[] 0 setdash
0 setlinecap
np
105.22 310.44 m
3.46 0 l
o
0 0.7451 0.4392 srgb
1.06 setlinewidth
[] 0 setdash
np
113.87 332.77 m
0 46.29 l
o
np
113.87 273.24 m
0 0 l
o
1 setlinecap
np
 110.41 332.77 m
0 -18.71 l
1.73 -9.40 l
-1.73 -9.41 l
0 -22.01 l
6.92 0 l
0 22.01 l
-1.73 9.41 l
1.73 9.40 l
0 18.71 l
-6.92 0 l
cp p3
2.13 setlinewidth
[] 0 setdash
0 setlinecap
np
112.14 304.66 m
3.46 0 l
o
0 0.7569 0.6706 srgb
1.06 setlinewidth
[] 0 setdash
np
120.80 329.46 m
0 49.60 l
o
np
120.80 273.24 m
0 0 l
o
1 setlinecap
np
 117.33 329.46 m
0 -20.88 l
1.74 -8.88 l
-1.74 -8.89 l
0 -17.57 l
6.93 0 l
0 17.57 l
-1.73 8.89 l
1.73 8.88 l
0 20.88 l
-6.93 0 l
cp p3
2.13 setlinewidth
[] 0 setdash
0 setlinecap
np
119.07 299.70 m
3.46 0 l
o
0 0.7333 0.8549 srgb
1.06 setlinewidth
[] 0 setdash
np
127.72 339.38 m
0 44.64 l
o
np
127.72 299.70 m
0 -26.46 l
o
1 setlinecap
np
 124.26 339.38 m
0 -6.96 l
1.73 -6.27 l
-1.73 -6.27 l
0 -20.18 l
6.92 0 l
0 20.18 l
-1.73 6.27 l
1.73 6.27 l
0 6.96 l
-6.92 0 l
cp p3
2.13 setlinewidth
[] 0 setdash
0 setlinecap
np
125.99 326.15 m
3.46 0 l
o
0 0.6745 0.9882 srgb
1.06 setlinewidth
[] 0 setdash
np
134.64 350.33 m
0 32.04 l
o
np
134.64 299.70 m
0 -26.46 l
o
1 setlinecap
np
 131.18 350.33 m
0 -12.87 l
1.73 -8.00 l
-1.73 -8.00 l
0 -21.76 l
6.92 0 l
0 21.76 l
-1.73 8.00 l
1.73 8.00 l
0 12.87 l
-6.92 0 l
cp p3
2.13 setlinewidth
[] 0 setdash
0 setlinecap
np
132.91 329.46 m
3.46 0 l
o
0.5451 0.5765 1 srgb
1.06 setlinewidth
[] 0 setdash
np
141.56 353.02 m
0 26.04 l
o
np
141.56 299.70 m
0 -26.46 l
o
1 setlinecap
np
 138.10 353.02 m
0 -11.83 l
1.73 -8.42 l
-1.73 -8.43 l
0 -24.64 l
6.92 0 l
0 24.64 l
-1.73 8.43 l
1.73 8.42 l
0 11.83 l
-6.92 0 l
cp p3
2.13 setlinewidth
[] 0 setdash
0 setlinecap
np
139.83 332.77 m
3.46 0 l
o
0.8353 0.4588 0.9961 srgb
1.06 setlinewidth
[] 0 setdash
np
148.49 356.33 m
0 22.73 l
o
np
148.49 306.31 m
0 -33.07 l
o
1 setlinecap
np
 145.02 356.33 m
0 -14.01 l
1.74 -7.90 l
-1.74 -7.90 l
0 -20.21 l
6.93 0 l
0 20.21 l
-1.73 7.90 l
1.73 7.90 l
0 14.01 l
-6.93 0 l
cp p3
2.13 setlinewidth
[] 0 setdash
0 setlinecap
np
146.76 334.42 m
3.46 0 l
o
0.9765 0.3843 0.8667 srgb
1.06 setlinewidth
[] 0 setdash
np
155.41 353.02 m
0 26.04 l
o
np
155.41 306.31 m
0 -33.07 l
o
1 setlinecap
np
 151.95 353.02 m
0 -13.70 l
1.73 -7.38 l
-1.73 -7.38 l
0 -18.25 l
6.92 0 l
0 18.25 l
-1.73 7.38 l
1.73 7.38 l
0 13.70 l
-6.92 0 l
cp p3
2.13 setlinewidth
[] 0 setdash
0 setlinecap
np
153.68 331.94 m
3.46 0 l
o
/bg { 0 0 0 srgb } def
162.33 381.54 2.13 c p2
162.33 346.82 2.13 c p2
162.33 363.36 2.13 c p2
162.33 381.54 2.13 c p2
162.33 355.91 2.13 c p2
162.33 396.43 2.13 c p2
162.33 360.88 2.13 c p2
162.33 381.54 2.13 c p2
162.33 397.25 2.13 c p2
162.33 387.33 2.13 c p2
162.33 363.36 2.13 c p2
162.33 383.20 2.13 c p2
162.33 350.95 2.13 c p2
162.33 364.18 2.13 c p2
162.33 348.47 2.13 c p2
162.33 398.91 2.13 c p2
162.33 306.31 2.13 c p2
162.33 385.68 2.13 c p2
162.33 398.08 2.13 c p2
162.33 393.12 2.13 c p2
162.33 346.82 2.13 c p2
1 0.3961 0.6745 srgb
1.06 setlinewidth
[] 0 setdash
np
162.33 374.93 m
0 5.79 l
o
np
162.33 370.80 m
0 -3.31 l
o
/bg { 1 1 1 srgb } def
1 setlinecap
np
 158.87 374.93 m
0 -1.83 l
1.73 -0.65 l
-1.73 -0.65 l
0 -1.00 l
6.92 0 l
0 1.00 l
-1.73 0.65 l
1.73 0.65 l
0 1.83 l
-6.92 0 l
cp p3
2.13 setlinewidth
[] 0 setdash
0 setlinecap
np
160.60 372.45 m
3.46 0 l
o
0.9725 0.4627 0.4275 srgb
1.06 setlinewidth
[] 0 setdash
np
199.25 379.06 m
0 1.66 l
o
np
199.25 352.61 m
0 -33.07 l
o
1 setlinecap
np
 195.79 379.06 m
0 -9.04 l
1.73 -4.18 l
-1.73 -4.18 l
0 -9.05 l
6.92 0 l
0 9.05 l
-1.73 4.18 l
1.73 4.18 l
0 9.04 l
-6.92 0 l
cp p3
2.13 setlinewidth
[] 0 setdash
0 setlinecap
np
197.52 365.84 m
3.46 0 l
o
/bg { 0 0 0 srgb } def
206.17 306.31 2.13 c p2
206.17 299.70 2.13 c p2
206.17 299.70 2.13 c p2
206.17 299.70 2.13 c p2
206.17 299.70 2.13 c p2
206.17 299.70 2.13 c p2
0.8824 0.5412 0 srgb
1.06 setlinewidth
[] 0 setdash
np
206.17 376.79 m
0 5.58 l
o
np
206.17 348.89 m
0 -35.97 l
o
/bg { 1 1 1 srgb } def
1 setlinecap
np
 202.71 376.79 m
0 -9.85 l
1.73 -4.41 l
-1.73 -4.41 l
0 -9.23 l
6.92 0 l
0 9.23 l
-1.73 4.41 l
1.73 4.41 l
0 9.85 l
-6.92 0 l
cp p3
2.13 setlinewidth
[] 0 setdash
0 setlinecap
np
204.44 362.53 m
3.46 0 l
o
/bg { 0 0 0 srgb } def
213.10 299.70 2.13 c p2
213.10 299.70 2.13 c p2
213.10 312.92 2.13 c p2
213.10 306.31 2.13 c p2
213.10 306.31 2.13 c p2
0.7451 0.6118 0 srgb
1.06 setlinewidth
[] 0 setdash
np
213.10 377.41 m
0 7.44 l
o
np
213.10 352.61 m
0 -33.07 l
o
/bg { 1 1 1 srgb } def
1 setlinecap
np
 209.63 377.41 m
0 -10.96 l
1.73 -3.92 l
-1.73 -3.92 l
0 -6.00 l
6.93 0 l
0 6.00 l
-1.73 3.92 l
1.73 3.92 l
0 10.96 l
-6.93 0 l
cp p3
2.13 setlinewidth
[] 0 setdash
0 setlinecap
np
211.36 362.53 m
3.47 0 l
o
/bg { 0 0 0 srgb } def
220.02 309.62 2.13 c p2
220.02 309.62 2.13 c p2
220.02 299.70 2.13 c p2
220.02 306.31 2.13 c p2
0.5490 0.6706 0 srgb
1.06 setlinewidth
[] 0 setdash
np
220.02 377.82 m
0 7.86 l
o
np
220.02 352.61 m
0 -33.07 l
o
/bg { 1 1 1 srgb } def
1 setlinecap
np
 216.56 377.82 m
0 -8.00 l
1.73 -3.98 l
-1.73 -3.99 l
0 -9.24 l
6.92 0 l
0 9.24 l
-1.73 3.99 l
1.73 3.98 l
0 8.00 l
-6.92 0 l
cp p3
2.13 setlinewidth
[] 0 setdash
0 setlinecap
np
218.29 365.84 m
3.46 0 l
o
/bg { 0 0 0 srgb } def
226.94 306.31 2.13 c p2
226.94 312.92 2.13 c p2
226.94 312.92 2.13 c p2
226.94 312.92 2.13 c p2
226.94 299.70 2.13 c p2
226.94 299.70 2.13 c p2
0.1412 0.7176 0 srgb
1.06 setlinewidth
[] 0 setdash
np
226.94 376.17 m
0 9.51 l
o
np
226.94 352.61 m
0 -33.07 l
o
/bg { 1 1 1 srgb } def
1 setlinecap
np
 223.48 376.17 m
0 -9.09 l
1.73 -3.72 l
-1.73 -3.73 l
0 -7.02 l
6.92 0 l
0 7.02 l
-1.73 3.73 l
1.73 3.72 l
0 9.09 l
-6.92 0 l
cp p3
2.13 setlinewidth
[] 0 setdash
0 setlinecap
np
225.21 363.36 m
3.46 0 l
o
/bg { 0 0 0 srgb } def
233.86 312.92 2.13 c p2
233.86 309.62 2.13 c p2
233.86 299.70 2.13 c p2
233.86 312.92 2.13 c p2
0 0.7451 0.4392 srgb
1.06 setlinewidth
[] 0 setdash
np
233.86 379.06 m
0 3.31 l
o
np
233.86 352.61 m
0 -21.50 l
o
/bg { 1 1 1 srgb } def
1 setlinecap
np
 230.40 379.06 m
0 -9.04 l
1.73 -4.18 l
-1.73 -4.18 l
0 -9.05 l
6.92 0 l
0 9.05 l
-1.73 4.18 l
1.73 4.18 l
0 9.04 l
-6.92 0 l
cp p3
2.13 setlinewidth
[] 0 setdash
0 setlinecap
np
232.13 365.84 m
3.46 0 l
o
/bg { 0 0 0 srgb } def
240.79 312.92 2.13 c p2
240.79 345.99 2.13 c p2
240.79 326.15 2.13 c p2
240.79 345.99 2.13 c p2
240.79 345.99 2.13 c p2
240.79 387.33 2.13 c p2
240.79 312.92 2.13 c p2
240.79 345.99 2.13 c p2
240.79 339.38 2.13 c p2
240.79 349.30 2.13 c p2
0 0.7569 0.6706 srgb
1.06 setlinewidth
[] 0 setdash
np
240.79 373.48 m
0 9.72 l
o
np
240.79 364.39 m
0 -11.78 l
o
/bg { 1 1 1 srgb } def
1 setlinecap
np
 237.32 373.48 m
0 -0.42 l
1.73 -1.44 l
-1.73 -1.43 l
0 -5.80 l
6.93 0 l
0 5.80 l
-1.73 1.43 l
1.73 1.44 l
0 0.42 l
-6.93 0 l
cp p3
2.13 setlinewidth
[] 0 setdash
0 setlinecap
np
239.05 371.62 m
3.47 0 l
o
/bg { 0 0 0 srgb } def
247.71 319.54 2.13 c p2
247.71 316.23 2.13 c p2
247.71 299.70 2.13 c p2
0 0.7333 0.8549 srgb
1.06 setlinewidth
[] 0 setdash
np
247.71 379.06 m
0 4.96 l
o
np
247.71 355.91 m
0 -29.76 l
o
/bg { 1 1 1 srgb } def
1 setlinecap
np
 244.25 379.06 m
0 -8.74 l
1.73 -3.66 l
-1.73 -3.66 l
0 -7.09 l
6.92 0 l
0 7.09 l
-1.73 3.66 l
1.73 3.66 l
0 8.74 l
-6.92 0 l
cp p3
2.13 setlinewidth
[] 0 setdash
0 setlinecap
np
245.98 366.66 m
3.46 0 l
o
/bg { 0 0 0 srgb } def
254.63 299.70 2.13 c p2
254.63 312.92 2.13 c p2
0 0.6745 0.9882 srgb
1.06 setlinewidth
[] 0 setdash
np
254.63 379.06 m
0 4.14 l
o
np
254.63 352.61 m
0 -38.03 l
o
/bg { 1 1 1 srgb } def
1 setlinecap
np
 251.17 379.06 m
0 -10.28 l
1.73 -4.18 l
-1.73 -4.18 l
0 -7.81 l
6.92 0 l
0 7.81 l
-1.73 4.18 l
1.73 4.18 l
0 10.28 l
-6.92 0 l
cp p3
2.13 setlinewidth
[] 0 setdash
0 setlinecap
np
252.90 364.60 m
3.46 0 l
o
0.5451 0.5765 1 srgb
1.06 setlinewidth
[] 0 setdash
np
261.55 379.06 m
0 3.31 l
o
np
261.55 352.61 m
0 -26.46 l
o
1 setlinecap
np
 258.09 379.06 m
0 -9.04 l
1.73 -4.18 l
-1.73 -4.18 l
0 -9.05 l
6.92 0 l
0 9.05 l
-1.73 4.18 l
1.73 4.18 l
0 9.04 l
-6.92 0 l
cp p3
2.13 setlinewidth
[] 0 setdash
0 setlinecap
np
259.82 365.84 m
3.46 0 l
o
/bg { 0 0 0 srgb } def
268.47 304.66 2.13 c p2
0.8353 0.4588 0.9961 srgb
1.06 setlinewidth
[] 0 setdash
np
268.47 379.06 m
0 3.31 l
o
np
268.47 353.85 m
0 -27.70 l
o
/bg { 1 1 1 srgb } def
1 setlinecap
np
 265.01 379.06 m
0 -7.59 l
1.73 -3.98 l
-1.73 -3.99 l
0 -9.65 l
6.93 0 l
0 9.65 l
-1.73 3.99 l
1.73 3.98 l
0 7.59 l
-6.93 0 l
cp p3
2.13 setlinewidth
[] 0 setdash
0 setlinecap
np
266.74 367.49 m
3.47 0 l
o
/bg { 0 0 0 srgb } def
275.40 286.47 2.13 c p2
275.40 299.70 2.13 c p2
0.9765 0.3843 0.8667 srgb
1.06 setlinewidth
[] 0 setdash
np
275.40 376.58 m
0 5.79 l
o
np
275.40 352.61 m
0 -26.46 l
o
/bg { 1 1 1 srgb } def
1 setlinecap
np
 271.94 376.58 m
0 -5.30 l
1.73 -3.79 l
-1.73 -3.79 l
0 -11.09 l
6.92 0 l
0 11.09 l
-1.73 3.79 l
1.73 3.79 l
0 5.30 l
-6.92 0 l
cp p3
2.13 setlinewidth
[] 0 setdash
0 setlinecap
np
273.67 367.49 m
3.46 0 l
o
/bg { 0 0 0 srgb } def
282.32 363.36 2.13 c p2
282.32 398.91 2.13 c p2
282.32 360.05 2.13 c p2
282.32 388.16 2.13 c p2
282.32 384.85 2.13 c p2
282.32 350.13 2.13 c p2
282.32 359.22 2.13 c p2
282.32 352.61 2.13 c p2
282.32 362.53 2.13 c p2
282.32 358.39 2.13 c p2
282.32 355.09 2.13 c p2
282.32 381.54 2.13 c p2
1 0.3961 0.6745 srgb
1.06 setlinewidth
[] 0 setdash
np
282.32 374.93 m
0 5.79 l
o
np
282.32 370.80 m
0 -4.96 l
o
/bg { 1 1 1 srgb } def
1 setlinecap
np
 278.86 374.93 m
0 -1.83 l
1.73 -0.65 l
-1.73 -0.65 l
0 -1.00 l
6.92 0 l
0 1.00 l
-1.73 0.65 l
1.73 0.65 l
0 1.83 l
-6.92 0 l
cp p3
2.13 setlinewidth
[] 0 setdash
0 setlinecap
np
280.59 372.45 m
3.46 0 l
o
/bg { 0 0 0 srgb } def
319.24 339.38 2.13 c p2
319.24 342.69 2.13 c p2
319.24 349.30 2.13 c p2
319.24 345.99 2.13 c p2
0.9725 0.4627 0.4275 srgb
1.06 setlinewidth
[] 0 setdash
np
319.24 379.06 m
0 6.62 l
o
np
319.24 367.49 m
0 -14.88 l
o
/bg { 1 1 1 srgb } def
1 setlinecap
np
 315.78 379.06 m
0 -3.13 l
1.73 -1.83 l
-1.73 -1.83 l
0 -4.78 l
6.92 0 l
0 4.78 l
-1.73 1.83 l
1.73 1.83 l
0 3.13 l
-6.92 0 l
cp p3
2.13 setlinewidth
[] 0 setdash
0 setlinecap
np
317.51 374.10 m
3.46 0 l
o
/bg { 0 0 0 srgb } def
326.16 339.38 2.13 c p2
326.16 339.38 2.13 c p2
0.8824 0.5412 0 srgb
1.06 setlinewidth
[] 0 setdash
np
326.16 377.41 m
0 4.96 l
o
np
326.16 364.18 m
0 -18.19 l
o
/bg { 1 1 1 srgb } def
1 setlinecap
np
 322.70 377.41 m
0 -6.18 l
1.73 -2.09 l
-1.73 -2.09 l
0 -2.87 l
6.92 0 l
0 2.87 l
-1.73 2.09 l
1.73 2.09 l
0 6.18 l
-6.92 0 l
cp p3
2.13 setlinewidth
[] 0 setdash
0 setlinecap
np
324.43 369.14 m
3.46 0 l
o
/bg { 0 0 0 srgb } def
333.08 345.99 2.13 c p2
333.08 345.99 2.13 c p2
333.08 345.99 2.13 c p2
0.7451 0.6118 0 srgb
1.06 setlinewidth
[] 0 setdash
np
333.08 379.06 m
0 2.48 l
o
np
333.08 365.84 m
0 -16.54 l
o
/bg { 1 1 1 srgb } def
1 setlinecap
np
 329.62 379.06 m
0 -2.87 l
1.73 -2.09 l
-1.73 -2.09 l
0 -6.17 l
6.93 0 l
0 6.17 l
-1.73 2.09 l
1.73 2.09 l
0 2.87 l
-6.93 0 l
cp p3
2.13 setlinewidth
[] 0 setdash
0 setlinecap
np
331.35 374.10 m
3.47 0 l
o
/bg { 0 0 0 srgb } def
340.01 352.61 2.13 c p2
340.01 352.61 2.13 c p2
340.01 344.34 2.13 c p2
340.01 342.69 2.13 c p2
340.01 345.99 2.13 c p2
340.01 349.30 2.13 c p2
340.01 352.61 2.13 c p2
0.5490 0.6706 0 srgb
1.06 setlinewidth
[] 0 setdash
np
340.01 379.06 m
0 11.58 l
o
np
340.01 368.94 m
0 -14.68 l
o
/bg { 1 1 1 srgb } def
1 setlinecap
np
 336.55 379.06 m
0 -3.36 l
1.73 -1.60 l
-1.73 -1.60 l
0 -3.56 l
6.92 0 l
0 3.56 l
-1.73 1.60 l
1.73 1.60 l
0 3.36 l
-6.92 0 l
cp p3
2.13 setlinewidth
[] 0 setdash
0 setlinecap
np
338.28 374.10 m
3.46 0 l
o
/bg { 0 0 0 srgb } def
346.93 336.07 2.13 c p2
346.93 332.77 2.13 c p2
346.93 332.77 2.13 c p2
0.1412 0.7176 0 srgb
1.06 setlinewidth
[] 0 setdash
np
346.93 379.06 m
0 6.62 l
o
np
346.93 363.15 m
0 -18.81 l
o
/bg { 1 1 1 srgb } def
1 setlinecap
np
 343.47 379.06 m
0 -4.10 l
1.73 -2.51 l
-1.73 -2.51 l
0 -6.79 l
6.92 0 l
0 6.79 l
-1.73 2.51 l
1.73 2.51 l
0 4.10 l
-6.92 0 l
cp p3
2.13 setlinewidth
[] 0 setdash
0 setlinecap
np
345.20 372.45 m
3.46 0 l
o
/bg { 0 0 0 srgb } def
353.85 344.34 2.13 c p2
353.85 322.84 2.13 c p2
353.85 339.38 2.13 c p2
0 0.7451 0.4392 srgb
1.06 setlinewidth
[] 0 setdash
np
353.85 379.06 m
0 2.48 l
o
np
353.85 365.84 m
0 -19.02 l
o
/bg { 1 1 1 srgb } def
1 setlinecap
np
 350.39 379.06 m
0 -4.52 l
1.73 -2.09 l
-1.73 -2.09 l
0 -4.52 l
6.92 0 l
0 4.52 l
-1.73 2.09 l
1.73 2.09 l
0 4.52 l
-6.92 0 l
cp p3
2.13 setlinewidth
[] 0 setdash
0 setlinecap
np
352.12 372.45 m
3.46 0 l
o
/bg { 0 0 0 srgb } def
360.77 384.02 2.13 c p2
360.77 364.18 2.13 c p2
360.77 383.20 2.13 c p2
360.77 357.57 2.13 c p2
360.77 355.91 2.13 c p2
360.77 388.98 2.13 c p2
0 0.7569 0.6706 srgb
1.06 setlinewidth
[] 0 setdash
np
360.77 374.93 m
0 5.79 l
o
np
360.77 370.80 m
0 -5.79 l
o
/bg { 1 1 1 srgb } def
1 setlinecap
np
 357.31 374.93 m
0 -1.83 l
1.73 -0.65 l
-1.73 -0.65 l
0 -1.00 l
6.93 0 l
0 1.00 l
-1.74 0.65 l
1.74 0.65 l
0 1.83 l
-6.93 0 l
cp p3
2.13 setlinewidth
[] 0 setdash
0 setlinecap
np
359.04 372.45 m
3.46 0 l
o
/bg { 0 0 0 srgb } def
367.70 326.15 2.13 c p2
0 0.7333 0.8549 srgb
1.06 setlinewidth
[] 0 setdash
np
367.70 379.06 m
0 6.62 l
o
np
367.70 362.53 m
0 -23.15 l
o
/bg { 1 1 1 srgb } def
1 setlinecap
np
 364.24 379.06 m
0 -3.17 l
1.73 -2.61 l
-1.73 -2.62 l
0 -8.13 l
6.92 0 l
0 8.13 l
-1.73 2.62 l
1.73 2.61 l
0 3.17 l
-6.92 0 l
cp p3
2.13 setlinewidth
[] 0 setdash
0 setlinecap
np
365.97 373.28 m
3.46 0 l
o
0 0.6745 0.9882 srgb
1.06 setlinewidth
[] 0 setdash
np
374.62 379.06 m
0 4.96 l
o
np
374.62 368.11 m
0 -15.50 l
o
1 setlinecap
np
 371.16 379.06 m
0 -1.99 l
1.73 -1.73 l
-1.73 -1.73 l
0 -5.50 l
6.92 0 l
0 5.50 l
-1.73 1.73 l
1.73 1.73 l
0 1.99 l
-6.92 0 l
cp p3
2.13 setlinewidth
[] 0 setdash
0 setlinecap
np
372.89 375.34 m
3.46 0 l
o
/bg { 0 0 0 srgb } def
381.54 343.51 2.13 c p2
381.54 332.77 2.13 c p2
381.54 339.38 2.13 c p2
381.54 339.38 2.13 c p2
381.54 344.34 2.13 c p2
0.5451 0.5765 1 srgb
1.06 setlinewidth
[] 0 setdash
np
381.54 379.06 m
0 3.31 l
o
np
381.54 365.84 m
0 -16.54 l
o
/bg { 1 1 1 srgb } def
1 setlinecap
np
 378.08 379.06 m
0 -4.52 l
1.73 -2.09 l
-1.73 -2.09 l
0 -4.52 l
6.92 0 l
0 4.52 l
-1.73 2.09 l
1.73 2.09 l
0 4.52 l
-6.92 0 l
cp p3
2.13 setlinewidth
[] 0 setdash
0 setlinecap
np
379.81 372.45 m
3.46 0 l
o
/bg { 0 0 0 srgb } def
388.46 326.15 2.13 c p2
388.46 332.77 2.13 c p2
388.46 319.54 2.13 c p2
0.8353 0.4588 0.9961 srgb
1.06 setlinewidth
[] 0 setdash
np
388.46 379.06 m
0 6.62 l
o
np
388.46 362.53 m
0 -18.19 l
o
/bg { 1 1 1 srgb } def
1 setlinecap
np
 385.00 379.06 m
0 -4.00 l
1.73 -2.61 l
-1.73 -2.61 l
0 -7.31 l
6.93 0 l
0 7.31 l
-1.74 2.61 l
1.74 2.61 l
0 4.00 l
-6.93 0 l
cp p3
2.13 setlinewidth
[] 0 setdash
0 setlinecap
np
386.73 372.45 m
3.46 0 l
o
/bg { 0 0 0 srgb } def
395.39 332.77 2.13 c p2
0.9765 0.3843 0.8667 srgb
1.06 setlinewidth
[] 0 setdash
np
395.39 379.06 m
0 6.62 l
o
np
395.39 365.84 m
0 -16.54 l
o
/bg { 1 1 1 srgb } def
1 setlinecap
np
 391.93 379.06 m
0 -4.52 l
1.73 -2.09 l
-1.73 -2.09 l
0 -4.52 l
6.92 0 l
0 4.52 l
-1.73 2.09 l
1.73 2.09 l
0 4.52 l
-6.92 0 l
cp p3
2.13 setlinewidth
[] 0 setdash
0 setlinecap
np
393.66 372.45 m
3.46 0 l
o
/bg { 0 0 0 srgb } def
402.31 403.87 2.13 c p2
402.31 344.34 2.13 c p2
402.31 363.36 2.13 c p2
402.31 362.53 2.13 c p2
402.31 345.99 2.13 c p2
402.31 365.01 2.13 c p2
402.31 357.57 2.13 c p2
1 0.3961 0.6745 srgb
1.06 setlinewidth
[] 0 setdash
np
402.31 374.10 m
0 4.96 l
o
np
402.31 370.80 m
0 -4.96 l
o
/bg { 1 1 1 srgb } def
1 setlinecap
np
 398.85 374.10 m
0 -1.13 l
1.73 -0.52 l
-1.73 -0.52 l
0 -1.13 l
6.92 0 l
0 1.13 l
-1.73 0.52 l
1.73 0.52 l
0 1.13 l
-6.92 0 l
cp p3
2.13 setlinewidth
[] 0 setdash
0 setlinecap
np
400.58 372.45 m
3.46 0 l
o
/bg { 0 0 0 srgb } def
439.23 345.99 2.13 c p2
439.23 350.95 2.13 c p2
0.9725 0.4627 0.4275 srgb
1.06 setlinewidth
[] 0 setdash
np
439.23 379.06 m
0 9.92 l
o
np
439.23 369.14 m
0 -11.57 l
o
/bg { 1 1 1 srgb } def
1 setlinecap
np
 435.77 379.06 m
0 -1.74 l
1.73 -1.56 l
-1.73 -1.57 l
0 -5.05 l
6.92 0 l
0 5.05 l
-1.73 1.57 l
1.73 1.56 l
0 1.74 l
-6.92 0 l
cp p3
2.13 setlinewidth
[] 0 setdash
0 setlinecap
np
437.50 375.76 m
3.46 0 l
o
/bg { 0 0 0 srgb } def
446.15 344.34 2.13 c p2
446.15 360.88 2.13 c p2
446.15 347.65 2.13 c p2
446.15 357.57 2.13 c p2
446.15 355.91 2.13 c p2
446.15 350.95 2.13 c p2
446.15 390.64 2.13 c p2
0.8824 0.5412 0 srgb
1.06 setlinewidth
[] 0 setdash
np
446.15 379.06 m
0 6.62 l
o
np
446.15 372.45 m
0 -9.92 l
o
/bg { 1 1 1 srgb } def
1 setlinecap
np
 442.69 379.06 m
0 -1.84 l
1.73 -1.05 l
-1.73 -1.04 l
0 -2.68 l
6.92 0 l
0 2.68 l
-1.73 1.04 l
1.73 1.05 l
0 1.84 l
-6.92 0 l
cp p3
2.13 setlinewidth
[] 0 setdash
0 setlinecap
np
444.42 376.17 m
3.46 0 l
o
/bg { 0 0 0 srgb } def
453.07 341.03 2.13 c p2
453.07 360.88 2.13 c p2
453.07 355.91 2.13 c p2
453.07 350.95 2.13 c p2
453.07 355.91 2.13 c p2
453.07 360.88 2.13 c p2
0.7451 0.6118 0 srgb
1.06 setlinewidth
[] 0 setdash
np
453.07 379.06 m
0 6.62 l
o
np
453.07 372.24 m
0 -9.71 l
o
/bg { 1 1 1 srgb } def
1 setlinecap
np
 449.61 379.06 m
0 -0.16 l
1.73 -1.08 l
-1.73 -1.07 l
0 -4.51 l
6.92 0 l
0 4.51 l
-1.73 1.07 l
1.73 1.08 l
0 0.16 l
-6.92 0 l
cp p3
2.13 setlinewidth
[] 0 setdash
0 setlinecap
np
451.34 377.82 m
3.46 0 l
o
/bg { 0 0 0 srgb } def
460.00 329.46 2.13 c p2
460.00 354.26 2.13 c p2
460.00 341.03 2.13 c p2
460.00 355.91 2.13 c p2
460.00 354.26 2.13 c p2
460.00 347.65 2.13 c p2
460.00 345.99 2.13 c p2
0.5490 0.6706 0 srgb
1.06 setlinewidth
[] 0 setdash
np
460.00 379.06 m
0 4.96 l
o
np
460.00 370.80 m
0 -8.27 l
o
/bg { 1 1 1 srgb } def
1 setlinecap
np
 456.53 379.06 m
0 -0.34 l
1.74 -1.31 l
-1.74 -1.31 l
0 -5.30 l
6.93 0 l
0 5.30 l
-1.73 1.31 l
1.73 1.31 l
0 0.34 l
-6.93 0 l
cp p3
2.13 setlinewidth
[] 0 setdash
0 setlinecap
np
458.27 377.41 m
3.46 0 l
o
/bg { 0 0 0 srgb } def
466.92 347.65 2.13 c p2
466.92 357.57 2.13 c p2
466.92 354.26 2.13 c p2
0.1412 0.7176 0 srgb
1.06 setlinewidth
[] 0 setdash
np
466.92 379.06 m
0 9.92 l
o
np
466.92 370.80 m
0 -9.92 l
o
/bg { 1 1 1 srgb } def
1 setlinecap
np
 463.46 379.06 m
0 -0.34 l
1.73 -1.31 l
-1.73 -1.31 l
0 -5.30 l
6.92 0 l
0 5.30 l
-1.73 1.31 l
1.73 1.31 l
0 0.34 l
-6.92 0 l
cp p3
2.13 setlinewidth
[] 0 setdash
0 setlinecap
np
465.19 377.41 m
3.46 0 l
o
/bg { 0 0 0 srgb } def
473.84 345.99 2.13 c p2
473.84 352.61 2.13 c p2
0 0.7451 0.4392 srgb
1.06 setlinewidth
[] 0 setdash
np
473.84 379.06 m
0 6.62 l
o
np
473.84 369.76 m
0 -12.19 l
o
/bg { 1 1 1 srgb } def
1 setlinecap
np
 470.38 379.06 m
0 -1.01 l
1.73 -1.47 l
-1.73 -1.47 l
0 -5.35 l
6.92 0 l
0 5.35 l
-1.73 1.47 l
1.73 1.47 l
0 1.01 l
-6.92 0 l
cp p3
2.13 setlinewidth
[] 0 setdash
0 setlinecap
np
472.11 376.58 m
3.46 0 l
o
/bg { 0 0 0 srgb } def
480.76 365.01 2.13 c p2
480.76 377.41 2.13 c p2
480.76 377.41 2.13 c p2
480.76 365.84 2.13 c p2
480.76 365.84 2.13 c p2
480.76 379.06 2.13 c p2
0 0.7569 0.6706 srgb
1.06 setlinewidth
[] 0 setdash
np
480.76 373.28 m
0 3.30 l
o
np
480.76 370.80 m
0 -2.48 l
o
/bg { 1 1 1 srgb } def
1 setlinecap
np
 477.30 373.28 m
0 -0.44 l
1.73 -0.39 l
-1.73 -0.39 l
0 -1.26 l
6.92 0 l
0 1.26 l
-1.73 0.39 l
1.73 0.39 l
0 0.44 l
-6.92 0 l
cp p3
2.13 setlinewidth
[] 0 setdash
0 setlinecap
np
479.03 372.45 m
3.46 0 l
o
/bg { 0 0 0 srgb } def
487.69 336.07 2.13 c p2
487.69 355.91 2.13 c p2
487.69 336.07 2.13 c p2
487.69 355.91 2.13 c p2
487.69 352.61 2.13 c p2
487.69 336.07 2.13 c p2
0 0.7333 0.8549 srgb
1.06 setlinewidth
[] 0 setdash
np
487.69 379.06 m
0 9.92 l
o
np
487.69 370.80 m
0 -11.58 l
o
/bg { 1 1 1 srgb } def
1 setlinecap
np
 484.22 379.06 m
0 0.07 l
1.74 -1.31 l
-1.74 -1.30 l
0 -5.72 l
6.93 0 l
0 5.72 l
-1.73 1.30 l
1.73 1.31 l
0 -0.07 l
-6.93 0 l
cp p3
2.13 setlinewidth
[] 0 setdash
0 setlinecap
np
485.96 377.82 m
3.46 0 l
o
/bg { 0 0 0 srgb } def
494.61 352.61 2.13 c p2
494.61 352.61 2.13 c p2
0 0.6745 0.9882 srgb
1.06 setlinewidth
[] 0 setdash
np
494.61 379.06 m
0 8.27 l
o
np
494.61 369.14 m
0 -14.88 l
o
/bg { 1 1 1 srgb } def
1 setlinecap
np
 491.15 379.06 m
0 -0.08 l
1.73 -1.57 l
-1.73 -1.57 l
0 -6.70 l
6.92 0 l
0 6.70 l
-1.73 1.57 l
1.73 1.57 l
0 0.08 l
-6.92 0 l
cp p3
2.13 setlinewidth
[] 0 setdash
0 setlinecap
np
492.88 377.41 m
3.46 0 l
o
/bg { 0 0 0 srgb } def
501.53 347.65 2.13 c p2
0.5451 0.5765 1 srgb
1.06 setlinewidth
[] 0 setdash
np
501.53 379.06 m
0 3.31 l
o
np
501.53 369.14 m
0 -14.88 l
o
/bg { 1 1 1 srgb } def
1 setlinecap
np
 498.07 379.06 m
0 -2.56 l
1.73 -1.57 l
-1.73 -1.57 l
0 -4.22 l
6.92 0 l
0 4.22 l
-1.73 1.57 l
1.73 1.57 l
0 2.56 l
-6.92 0 l
cp p3
2.13 setlinewidth
[] 0 setdash
0 setlinecap
np
499.80 374.93 m
3.46 0 l
o
/bg { 0 0 0 srgb } def
508.45 345.99 2.13 c p2
508.45 349.30 2.13 c p2
0.8353 0.4588 0.9961 srgb
1.06 setlinewidth
[] 0 setdash
np
508.45 379.06 m
0 9.92 l
o
np
508.45 368.73 m
0 -13.64 l
o
/bg { 1 1 1 srgb } def
1 setlinecap
np
 504.99 379.06 m
0 -1.67 l
1.73 -1.63 l
-1.73 -1.64 l
0 -5.39 l
6.92 0 l
0 5.39 l
-1.73 1.64 l
1.73 1.63 l
0 1.67 l
-6.92 0 l
cp p3
2.13 setlinewidth
[] 0 setdash
0 setlinecap
np
506.72 375.76 m
3.46 0 l
o
/bg { 0 0 0 srgb } def
515.38 349.30 2.13 c p2
515.38 345.99 2.13 c p2
0.9765 0.3843 0.8667 srgb
1.06 setlinewidth
[] 0 setdash
np
515.38 379.06 m
0 4.96 l
o
np
515.38 367.49 m
0 -16.54 l
o
/bg { 1 1 1 srgb } def
1 setlinecap
np
 511.91 379.06 m
0 -1.47 l
1.73 -1.83 l
-1.73 -1.83 l
0 -6.44 l
6.93 0 l
0 6.44 l
-1.73 1.83 l
1.73 1.83 l
0 1.47 l
-6.93 0 l
cp p3
2.13 setlinewidth
[] 0 setdash
0 setlinecap
np
513.64 375.76 m
3.47 0 l
o
/bg { 0 0 0 srgb } def
522.30 345.99 2.13 c p2
522.30 389.81 2.13 c p2
522.30 359.22 2.13 c p2
1 0.3961 0.6745 srgb
1.06 setlinewidth
[] 0 setdash
np
522.30 377.41 m
0 4.96 l
o
np
522.30 370.80 m
0 -8.27 l
o
/bg { 1 1 1 srgb } def
1 setlinecap
np
 518.84 377.41 m
0 -3.92 l
1.73 -1.04 l
-1.73 -1.05 l
0 -0.60 l
6.92 0 l
0 0.60 l
-1.73 1.05 l
1.73 1.04 l
0 3.92 l
-6.92 0 l
cp p3
2.13 setlinewidth
[] 0 setdash
0 setlinecap
np
520.57 372.45 m
3.46 0 l
o
0.00 0.00 657.75 449.25 cl
0.00 0.00 657.75 449.25 cl
0.00 0.00 657.75 449.25 cl
/Font1 findfont 10 s
0.4980 0.4980 0.4980 srgb
41.72 269.65 (0.0) 1 0 t
41.72 309.33 (0.2) 1 0 t
41.72 349.02 (0.4) 1 0 t
41.72 388.70 (0.6) 1 0 t
0.00 0.00 657.75 449.25 cl
0.00 0.00 657.75 449.25 cl
0.4980 0.4980 0.4980 srgb
1.06 setlinewidth
[] 0 setdash
0 setlinecap
1 setlinejoin
10.00 setmiterlimit
np
44.55 273.24 m
4.25 0 l
o
np
44.55 312.92 m
4.25 0 l
o
np
44.55 352.61 m
4.25 0 l
o
np
44.55 392.29 m
4.25 0 l
o
0.00 0.00 657.75 449.25 cl
0.00 0.00 657.75 449.25 cl
0.00 0.00 657.75 449.25 cl
0.00 0.00 657.75 449.25 cl
0.00 0.00 657.75 449.25 cl
0.00 0.00 657.75 449.25 cl
0.4980 0.4980 0.4980 srgb
1.06 setlinewidth
[] 0 setdash
0 setlinecap
1 setlinejoin
10.00 setmiterlimit
np
120.80 262.46 m
0 4.25 l
o
np
240.79 262.46 m
0 4.25 l
o
np
360.77 262.46 m
0 4.25 l
o
np
480.76 262.46 m
0 4.25 l
o
0.00 0.00 657.75 449.25 cl
0.00 0.00 657.75 449.25 cl
/Font1 findfont 10 s
0.4980 0.4980 0.4980 srgb
120.80 252.44 (1) .5 0 t
240.79 252.44 (2) .5 0 t
360.77 252.44 (3) .5 0 t
480.76 252.44 (4) .5 0 t
0.00 0.00 657.75 449.25 cl
0.00 0.00 657.75 449.25 cl
0.00 0.00 657.75 449.25 cl
0.00 0.00 657.75 449.25 cl
0.00 0.00 657.75 449.25 cl
/Font1 findfont 12 s
0 0 0 srgb
300.78 239.02 (target) .5 0 t
0.00 0.00 657.75 449.25 cl
0.00 0.00 657.75 449.25 cl
/Font1 findfont 12 s
0 0 0 srgb
23.02 338.55 (error) .5 90 t
0.00 0.00 657.75 449.25 cl
0.00 0.00 657.75 449.25 cl
/Font1 findfont 14 s
0 0 0 srgb
207.02 415.20 (Gener) 0 ta
-0.140 (alisation error per target) tb gr
0.00 0.00 657.75 449.25 cl
0.00 0.00 657.75 449.25 cl
0.00 0.00 657.75 449.25 cl
0.00 0.00 285.98 224.62 cl
/bg { 1 1 1 srgb } def
1 1 1 srgb
1.06 setlinewidth
[] 0 setdash
1 setlinecap
1 setlinejoin
10.00 setmiterlimit
-0.00 0.00 285.98 224.62 r p3
0.00 0.00 657.75 449.25 cl
0.00 0.00 657.75 449.25 cl
0.00 0.00 657.75 449.25 cl
48.80 63.32 266.78 185.77 cl
/bg { 0.8980 0.8980 0.8980 srgb } def
48.80 63.32 217.98 122.45 r p2
0.9490 0.9490 0.9490 srgb
0.53 setlinewidth
[] 0 setdash
0 setlinecap
1 setlinejoin
10.00 setmiterlimit
np
48.80 99.17 m
217.98 0 l
o
np
48.80 138.46 m
217.98 0 l
o
np
48.80 177.75 m
217.98 0 l
o
1 1 1 srgb
1.06 setlinewidth
[] 0 setdash
np
48.80 79.53 m
217.98 0 l
o
np
48.80 118.82 m
217.98 0 l
o
np
48.80 158.11 m
217.98 0 l
o
np
58.71 63.32 m
0 122.45 l
o
np
75.22 63.32 m
0 122.45 l
o
np
91.74 63.32 m
0 122.45 l
o
np
108.25 63.32 m
0 122.45 l
o
np
124.76 63.32 m
0 122.45 l
o
np
141.28 63.32 m
0 122.45 l
o
np
157.79 63.32 m
0 122.45 l
o
np
174.30 63.32 m
0 122.45 l
o
np
190.82 63.32 m
0 122.45 l
o
np
207.33 63.32 m
0 122.45 l
o
np
223.84 63.32 m
0 122.45 l
o
np
240.36 63.32 m
0 122.45 l
o
np
256.87 63.32 m
0 122.45 l
o
0.9725 0.4627 0.4275 srgb
np
58.71 139.79 m
0 18.73 l
o
np
58.71 109.71 m
0 -26.09 l
o
/bg { 1 1 1 srgb } def
1 setlinecap
np
 52.52 139.79 m
0 -8.24 l
3.09 -4.75 l
-3.09 -4.76 l
0 -12.33 l
12.38 0 l
0 12.33 l
-3.09 4.76 l
3.09 4.75 l
0 8.24 l
-12.38 0 l
cp p3
2.13 setlinewidth
[] 0 setdash
0 setlinecap
np
55.61 126.80 m
6.20 0 l
o
0.8824 0.5412 0 srgb
1.06 setlinewidth
[] 0 setdash
np
75.22 136.01 m
0 25.37 l
o
np
75.22 106.54 m
0 -37.66 l
o
1 setlinecap
np
 69.03 136.01 m
0 -10.90 l
3.10 -4.66 l
-3.10 -4.65 l
0 -9.26 l
12.39 0 l
0 9.26 l
-3.10 4.65 l
3.10 4.66 l
0 10.90 l
-12.39 0 l
cp p3
2.13 setlinewidth
[] 0 setdash
0 setlinecap
np
72.13 120.45 m
6.19 0 l
o
0.7451 0.6118 0 srgb
1.06 setlinewidth
[] 0 setdash
np
91.74 138.67 m
0 23.53 l
o
np
91.74 106.54 m
0 -28.65 l
o
1 setlinecap
np
 85.54 138.67 m
0 -10.48 l
3.10 -5.08 l
-3.10 -5.07 l
0 -11.50 l
12.39 0 l
0 11.50 l
-3.10 5.07 l
3.10 5.08 l
0 10.48 l
-12.39 0 l
cp p3
2.13 setlinewidth
[] 0 setdash
0 setlinecap
np
88.64 123.11 m
6.19 0 l
o
/bg { 0 0 0 srgb } def
108.25 70.52 2.13 c p2
0.5490 0.6706 0 srgb
1.06 setlinewidth
[] 0 setdash
np
108.25 136.11 m
0 31.41 l
o
np
108.25 110.63 m
0 -33.56 l
o
/bg { 1 1 1 srgb } def
1 setlinecap
np
 102.06 136.11 m
0 -9.59 l
3.09 -4.02 l
-3.09 -4.03 l
0 -7.84 l
12.38 0 l
0 7.84 l
-3.09 4.03 l
3.09 4.02 l
0 9.59 l
-12.38 0 l
cp p3
2.13 setlinewidth
[] 0 setdash
0 setlinecap
np
105.15 122.50 m
6.20 0 l
o
/bg { 0 0 0 srgb } def
124.76 78.71 2.13 c p2
124.76 73.39 2.13 c p2
0.1412 0.7176 0 srgb
1.06 setlinewidth
[] 0 setdash
np
124.76 132.12 m
0 30.90 l
o
np
124.76 111.04 m
0 -29.88 l
o
/bg { 1 1 1 srgb } def
1 setlinecap
np
 118.57 132.12 m
0 -8.13 l
3.10 -3.33 l
-3.10 -3.33 l
0 -6.29 l
12.39 0 l
0 6.29 l
-3.10 3.33 l
3.10 3.33 l
0 8.13 l
-12.39 0 l
cp p3
2.13 setlinewidth
[] 0 setdash
0 setlinecap
np
121.67 120.66 m
6.19 0 l
o
0 0.7451 0.4392 srgb
1.06 setlinewidth
[] 0 setdash
np
141.28 135.19 m
0 30.28 l
o
np
141.28 107.66 m
0 -32.23 l
o
1 setlinecap
np
 135.08 135.19 m
0 -10.18 l
3.10 -4.35 l
-3.10 -4.35 l
0 -8.65 l
12.39 0 l
0 8.65 l
-3.10 4.35 l
3.10 4.35 l
0 10.18 l
-12.39 0 l
cp p3
2.13 setlinewidth
[] 0 setdash
0 setlinecap
np
138.18 120.66 m
6.19 0 l
o
0 0.7569 0.6706 srgb
1.06 setlinewidth
[] 0 setdash
np
157.79 135.39 m
0 24.35 l
o
np
157.79 109.81 m
0 -29.87 l
o
1 setlinecap
np
 151.60 135.39 m
0 -10.90 l
3.09 -4.04 l
-3.09 -4.04 l
0 -6.60 l
12.38 0 l
0 6.60 l
-3.09 4.04 l
3.09 4.04 l
0 10.90 l
-12.38 0 l
cp p3
2.13 setlinewidth
[] 0 setdash
0 setlinecap
np
154.69 120.45 m
6.20 0 l
o
0 0.7333 0.8549 srgb
1.06 setlinewidth
[] 0 setdash
np
174.30 141.94 m
0 29.26 l
o
np
174.30 114.72 m
0 -35.19 l
o
1 setlinecap
np
 168.11 141.94 m
0 -6.14 l
3.10 -4.30 l
-3.10 -4.30 l
0 -12.48 l
12.39 0 l
0 12.48 l
-3.10 4.30 l
3.10 4.30 l
0 6.14 l
-12.39 0 l
cp p3
2.13 setlinewidth
[] 0 setdash
0 setlinecap
np
171.21 131.50 m
6.19 0 l
o
/bg { 0 0 0 srgb } def
190.82 79.53 2.13 c p2
0 0.6745 0.9882 srgb
1.06 setlinewidth
[] 0 setdash
np
190.82 141.94 m
0 28.04 l
o
np
190.82 118.82 m
0 -18.83 l
o
/bg { 1 1 1 srgb } def
1 setlinecap
np
 184.62 141.94 m
0 -6.37 l
3.10 -3.66 l
-3.10 -3.65 l
0 -9.44 l
12.39 0 l
0 9.44 l
-3.10 3.65 l
3.10 3.66 l
0 6.37 l
-12.39 0 l
cp p3
2.13 setlinewidth
[] 0 setdash
0 setlinecap
np
187.72 131.91 m
6.19 0 l
o
0.5451 0.5765 1 srgb
1.06 setlinewidth
[] 0 setdash
np
207.33 146.03 m
0 21.90 l
o
np
207.33 117.08 m
0 -43.28 l
o
1 setlinecap
np
 201.14 146.03 m
0 -9.54 l
3.09 -4.58 l
-3.09 -4.57 l
0 -10.26 l
12.38 0 l
0 10.26 l
-3.09 4.57 l
3.09 4.58 l
0 9.54 l
-12.38 0 l
cp p3
2.13 setlinewidth
[] 0 setdash
0 setlinecap
np
204.23 131.91 m
6.20 0 l
o
0.8353 0.4588 0.9961 srgb
1.06 setlinewidth
[] 0 setdash
np
223.84 144.60 m
0 19.24 l
o
np
223.84 120.45 m
0 -28.65 l
o
1 setlinecap
np
 217.65 144.60 m
0 -8.46 l
3.10 -3.82 l
-3.10 -3.81 l
0 -8.06 l
12.39 0 l
0 8.06 l
-3.10 3.81 l
3.10 3.82 l
0 8.46 l
-12.39 0 l
cp p3
2.13 setlinewidth
[] 0 setdash
0 setlinecap
np
220.75 132.32 m
6.19 0 l
o
/bg { 0 0 0 srgb } def
240.36 76.25 2.13 c p2
0.9765 0.3843 0.8667 srgb
1.06 setlinewidth
[] 0 setdash
np
240.36 143.78 m
0 22.10 l
o
np
240.36 119.43 m
0 -23.53 l
o
/bg { 1 1 1 srgb } def
1 setlinecap
np
 234.16 143.78 m
0 -8.43 l
3.10 -3.85 l
-3.10 -3.84 l
0 -8.23 l
12.39 0 l
0 8.23 l
-3.10 3.84 l
3.10 3.85 l
0 8.43 l
-12.39 0 l
cp p3
2.13 setlinewidth
[] 0 setdash
0 setlinecap
np
237.26 131.50 m
6.19 0 l
o
/bg { 0 0 0 srgb } def
256.87 144.19 2.13 c p2
256.87 180.21 2.13 c p2
256.87 172.43 2.13 c p2
256.87 170.79 2.13 c p2
256.87 137.23 2.13 c p2
256.87 146.65 2.13 c p2
256.87 136.82 2.13 c p2
256.87 123.73 2.13 c p2
256.87 142.96 2.13 c p2
256.87 146.24 2.13 c p2
256.87 141.74 2.13 c p2
1 0.3961 0.6745 srgb
1.06 setlinewidth
[] 0 setdash
np
256.87 161.89 m
0 6.86 l
o
np
256.87 156.06 m
0 -8.19 l
o
/bg { 1 1 1 srgb } def
1 setlinecap
np
 250.68 161.89 m
0 -1.84 l
3.09 -0.92 l
-3.09 -0.92 l
0 -2.15 l
12.38 0 l
0 2.15 l
-3.09 0.92 l
3.09 0.92 l
0 1.84 l
-12.38 0 l
cp p3
2.13 setlinewidth
[] 0 setdash
0 setlinecap
np
253.77 159.13 m
6.20 0 l
o
0.00 0.00 657.75 449.25 cl
0.00 0.00 657.75 449.25 cl
0.00 0.00 657.75 449.25 cl
/Font1 findfont 10 s
0.4980 0.4980 0.4980 srgb
41.72 75.94 (0.3) 1 0 t
41.72 115.23 (0.4) 1 0 t
41.72 154.52 (0.5) 1 0 t
0.00 0.00 657.75 449.25 cl
0.00 0.00 657.75 449.25 cl
0.4980 0.4980 0.4980 srgb
1.06 setlinewidth
[] 0 setdash
0 setlinecap
1 setlinejoin
10.00 setmiterlimit
np
44.55 79.53 m
4.25 0 l
o
np
44.55 118.82 m
4.25 0 l
o
np
44.55 158.11 m
4.25 0 l
o
0.00 0.00 657.75 449.25 cl
0.00 0.00 657.75 449.25 cl
0.00 0.00 657.75 449.25 cl
0.00 0.00 657.75 449.25 cl
0.00 0.00 657.75 449.25 cl
0.00 0.00 657.75 449.25 cl
0.4980 0.4980 0.4980 srgb
1.06 setlinewidth
[] 0 setdash
0 setlinecap
1 setlinejoin
10.00 setmiterlimit
np
58.71 59.07 m
0 4.25 l
o
np
75.22 59.07 m
0 4.25 l
o
np
91.74 59.07 m
0 4.25 l
o
np
108.25 59.07 m
0 4.25 l
o
np
124.76 59.07 m
0 4.25 l
o
np
141.28 59.07 m
0 4.25 l
o
np
157.79 59.07 m
0 4.25 l
o
np
174.30 59.07 m
0 4.25 l
o
np
190.82 59.07 m
0 4.25 l
o
np
207.33 59.07 m
0 4.25 l
o
np
223.84 59.07 m
0 4.25 l
o
np
240.36 59.07 m
0 4.25 l
o
np
256.87 59.07 m
0 4.25 l
o
0.00 0.00 657.75 449.25 cl
0.00 0.00 657.75 449.25 cl
/Font1 findfont 10 s
0.4980 0.4980 0.4980 srgb
64.30 53.49 (e1) 1.01 45.00 t
80.81 53.49 (e2 lsb) 1.01 45.00 t
97.32 53.49 (e3 lsb) 1.01 45.00 t
113.84 53.49 (e4 lsb) 1.01 45.00 t
130.35 53.49 (e5 lsb) 1.01 45.00 t
146.86 53.49 (e6 lsb) 1.01 45.00 t
163.38 53.49 (e7 lsb) 1.01 45.00 t
179.89 53.49 (e2 msb) 1.01 45.00 t
196.40 53.49 (e3 msb) 1.01 45.00 t
212.92 53.49 (e4 msb) 1.01 45.00 t
229.43 53.49 (e5 msb) 1.01 45.00 t
245.94 53.49 (e6 msb) 1.01 45.00 t
262.46 53.49 (e7 msb) 1.01 45.00 t
0.00 0.00 657.75 449.25 cl
0.00 0.00 657.75 449.25 cl
0.00 0.00 657.75 449.25 cl
0.00 0.00 657.75 449.25 cl
0.00 0.00 657.75 449.25 cl
/Font1 findfont 12 s
0 0 0 srgb
141.46 14.40 (metr) 0 ta
0.180 (ic) tb gr
0.00 0.00 657.75 449.25 cl
0.00 0.00 657.75 449.25 cl
/Font1 findfont 12 s
0 0 0 srgb
23.02 124.55 (error) .5 90 t
0.00 0.00 657.75 449.25 cl
0.00 0.00 657.75 449.25 cl
/Font1 findfont 14 s
0 0 0 srgb
95.94 190.57 (Gener) 0 ta
-0.140 (alisation error) tb gr
0.00 0.00 657.75 449.25 cl
0.00 0.00 657.75 449.25 cl
0.00 0.00 657.75 449.25 cl
285.98 0.00 571.96 224.62 cl
/bg { 1 1 1 srgb } def
1 1 1 srgb
1.06 setlinewidth
[] 0 setdash
1 setlinecap
1 setlinejoin
10.00 setmiterlimit
285.98 0.00 285.98 224.62 r p3
0.00 0.00 657.75 449.25 cl
0.00 0.00 657.75 449.25 cl
0.00 0.00 657.75 449.25 cl
334.78 63.32 552.76 185.77 cl
/bg { 0.8980 0.8980 0.8980 srgb } def
334.78 63.32 217.98 122.45 r p2
0.9490 0.9490 0.9490 srgb
0.53 setlinewidth
[] 0 setdash
0 setlinecap
1 setlinejoin
10.00 setmiterlimit
np
334.78 85.85 m
217.98 0 l
o
np
334.78 119.77 m
217.98 0 l
o
np
334.78 153.70 m
217.98 0 l
o
1 1 1 srgb
1.06 setlinewidth
[] 0 setdash
np
334.78 68.88 m
217.98 0 l
o
np
334.78 102.81 m
217.98 0 l
o
np
334.78 136.74 m
217.98 0 l
o
np
334.78 170.66 m
217.98 0 l
o
np
344.69 63.32 m
0 122.45 l
o
np
361.20 63.32 m
0 122.45 l
o
np
377.72 63.32 m
0 122.45 l
o
np
394.23 63.32 m
0 122.45 l
o
np
410.74 63.32 m
0 122.45 l
o
np
427.26 63.32 m
0 122.45 l
o
np
443.77 63.32 m
0 122.45 l
o
np
460.28 63.32 m
0 122.45 l
o
np
476.80 63.32 m
0 122.45 l
o
np
493.31 63.32 m
0 122.45 l
o
np
509.82 63.32 m
0 122.45 l
o
np
526.34 63.32 m
0 122.45 l
o
np
542.85 63.32 m
0 122.45 l
o
0.9725 0.4627 0.4275 srgb
np
344.69 68.88 m
0 0 l
o
np
344.69 68.88 m
0 0 l
o
/bg { 1 1 1 srgb } def
1 setlinecap
np
 338.50 68.88 m
0 0 l
12.38 0 l
0 0 l
-12.38 0 l
cp p3
2.13 setlinewidth
[] 0 setdash
0 setlinecap
np
338.50 68.88 m
12.38 0 l
o
0.8824 0.5412 0 srgb
1.06 setlinewidth
[] 0 setdash
np
361.20 68.88 m
0 0 l
o
np
361.20 68.88 m
0 0 l
o
1 setlinecap
np
 355.01 68.88 m
0 0 l
12.38 0 l
0 0 l
-12.38 0 l
cp p3
2.13 setlinewidth
[] 0 setdash
0 setlinecap
np
355.01 68.88 m
12.38 0 l
o
0.7451 0.6118 0 srgb
1.06 setlinewidth
[] 0 setdash
np
377.72 68.88 m
0 0 l
o
np
377.72 68.88 m
0 0 l
o
1 setlinecap
np
 371.52 68.88 m
0 0 l
12.39 0 l
0 0 l
-12.39 0 l
cp p3
2.13 setlinewidth
[] 0 setdash
0 setlinecap
np
371.52 68.88 m
12.39 0 l
o
0.5490 0.6706 0 srgb
1.06 setlinewidth
[] 0 setdash
np
394.23 68.88 m
0 0 l
o
np
394.23 68.88 m
0 0 l
o
1 setlinecap
np
 388.04 68.88 m
0 0 l
12.38 0 l
0 0 l
-12.38 0 l
cp p3
2.13 setlinewidth
[] 0 setdash
0 setlinecap
np
388.04 68.88 m
12.38 0 l
o
0.1412 0.7176 0 srgb
1.06 setlinewidth
[] 0 setdash
np
410.74 68.88 m
0 0 l
o
np
410.74 68.88 m
0 0 l
o
1 setlinecap
np
 404.55 68.88 m
0 0 l
12.38 0 l
0 0 l
-12.38 0 l
cp p3
2.13 setlinewidth
[] 0 setdash
0 setlinecap
np
404.55 68.88 m
12.38 0 l
o
0 0.7451 0.4392 srgb
1.06 setlinewidth
[] 0 setdash
np
427.26 68.88 m
0 0 l
o
np
427.26 68.88 m
0 0 l
o
1 setlinecap
np
 421.06 68.88 m
0 0 l
12.39 0 l
0 0 l
-12.39 0 l
cp p3
2.13 setlinewidth
[] 0 setdash
0 setlinecap
np
421.06 68.88 m
12.39 0 l
o
0 0.7569 0.6706 srgb
1.06 setlinewidth
[] 0 setdash
np
443.77 137.80 m
0 7.95 l
o
np
443.77 108.64 m
0 -39.76 l
o
1 setlinecap
np
 437.58 137.80 m
0 -29.16 l
12.38 0 l
0 29.16 l
-12.38 0 l
cp p3
2.13 setlinewidth
[] 0 setdash
0 setlinecap
np
437.58 123.22 m
12.38 0 l
o
0 0.7333 0.8549 srgb
1.06 setlinewidth
[] 0 setdash
np
460.28 68.88 m
0 0 l
o
np
460.28 68.88 m
0 0 l
o
1 setlinecap
np
 454.09 68.88 m
0 0 l
12.38 0 l
0 0 l
-12.38 0 l
cp p3
2.13 setlinewidth
[] 0 setdash
0 setlinecap
np
454.09 68.88 m
12.38 0 l
o
0 0.6745 0.9882 srgb
1.06 setlinewidth
[] 0 setdash
np
476.80 68.88 m
0 0 l
o
np
476.80 68.88 m
0 0 l
o
1 setlinecap
np
 470.60 68.88 m
0 0 l
12.39 0 l
0 0 l
-12.39 0 l
cp p3
2.13 setlinewidth
[] 0 setdash
0 setlinecap
np
470.60 68.88 m
12.39 0 l
o
0.5451 0.5765 1 srgb
1.06 setlinewidth
[] 0 setdash
np
493.31 68.88 m
0 0 l
o
np
493.31 68.88 m
0 0 l
o
1 setlinecap
np
 487.12 68.88 m
0 0 l
12.38 0 l
0 0 l
-12.38 0 l
cp p3
2.13 setlinewidth
[] 0 setdash
0 setlinecap
np
487.12 68.88 m
12.38 0 l
o
0.8353 0.4588 0.9961 srgb
1.06 setlinewidth
[] 0 setdash
np
509.82 68.88 m
0 0 l
o
np
509.82 68.88 m
0 0 l
o
1 setlinecap
np
 503.63 68.88 m
0 0 l
12.38 0 l
0 0 l
-12.38 0 l
cp p3
2.13 setlinewidth
[] 0 setdash
0 setlinecap
np
503.63 68.88 m
12.38 0 l
o
0.9765 0.3843 0.8667 srgb
1.06 setlinewidth
[] 0 setdash
np
526.34 68.88 m
0 0 l
o
np
526.34 68.88 m
0 0 l
o
1 setlinecap
np
 520.14 68.88 m
0 0 l
12.39 0 l
0 0 l
-12.39 0 l
cp p3
2.13 setlinewidth
[] 0 setdash
0 setlinecap
np
520.14 68.88 m
12.39 0 l
o
/bg { 0 0 0 srgb } def
542.85 82.14 2.13 c p2
542.85 68.88 2.13 c p2
1 0.3961 0.6745 srgb
1.06 setlinewidth
[] 0 setdash
np
542.85 156.35 m
0 23.86 l
o
np
542.85 135.15 m
0 -29.16 l
o
/bg { 1 1 1 srgb } def
1 setlinecap
np
 536.66 156.35 m
0 -21.20 l
12.38 0 l
0 21.20 l
-12.38 0 l
cp p3
2.13 setlinewidth
[] 0 setdash
0 setlinecap
np
536.66 145.75 m
12.38 0 l
o
0.00 0.00 657.75 449.25 cl
0.00 0.00 657.75 449.25 cl
0.00 0.00 657.75 449.25 cl
/Font1 findfont 10 s
0.4980 0.4980 0.4980 srgb
327.69 65.29 (0.0) 1 0 t
327.69 99.22 (0.2) 1 0 t
327.69 133.15 (0.4) 1 0 t
327.69 167.07 (0.6) 1 0 t
0.00 0.00 657.75 449.25 cl
0.00 0.00 657.75 449.25 cl
0.4980 0.4980 0.4980 srgb
1.06 setlinewidth
[] 0 setdash
0 setlinecap
1 setlinejoin
10.00 setmiterlimit
np
330.53 68.88 m
4.25 0 l
o
np
330.53 102.81 m
4.25 0 l
o
np
330.53 136.74 m
4.25 0 l
o
np
330.53 170.66 m
4.25 0 l
o
0.00 0.00 657.75 449.25 cl
0.00 0.00 657.75 449.25 cl
0.00 0.00 657.75 449.25 cl
0.00 0.00 657.75 449.25 cl
0.00 0.00 657.75 449.25 cl
0.00 0.00 657.75 449.25 cl
0.4980 0.4980 0.4980 srgb
1.06 setlinewidth
[] 0 setdash
0 setlinecap
1 setlinejoin
10.00 setmiterlimit
np
344.69 59.07 m
0 4.25 l
o
np
361.20 59.07 m
0 4.25 l
o
np
377.72 59.07 m
0 4.25 l
o
np
394.23 59.07 m
0 4.25 l
o
np
410.74 59.07 m
0 4.25 l
o
np
427.26 59.07 m
0 4.25 l
o
np
443.77 59.07 m
0 4.25 l
o
np
460.28 59.07 m
0 4.25 l
o
np
476.80 59.07 m
0 4.25 l
o
np
493.31 59.07 m
0 4.25 l
o
np
509.82 59.07 m
0 4.25 l
o
np
526.34 59.07 m
0 4.25 l
o
np
542.85 59.07 m
0 4.25 l
o
0.00 0.00 657.75 449.25 cl
0.00 0.00 657.75 449.25 cl
/Font1 findfont 10 s
0.4980 0.4980 0.4980 srgb
350.27 53.49 (e1) 1.01 45.00 t
366.79 53.49 (e2 lsb) 1.01 45.00 t
383.30 53.49 (e3 lsb) 1.01 45.00 t
399.81 53.49 (e4 lsb) 1.01 45.00 t
416.33 53.49 (e5 lsb) 1.01 45.00 t
432.84 53.49 (e6 lsb) 1.01 45.00 t
449.35 53.49 (e7 lsb) 1.01 45.00 t
465.87 53.49 (e2 msb) 1.01 45.00 t
482.38 53.49 (e3 msb) 1.01 45.00 t
498.89 53.49 (e4 msb) 1.01 45.00 t
515.41 53.49 (e5 msb) 1.01 45.00 t
531.92 53.49 (e6 msb) 1.01 45.00 t
548.43 53.49 (e7 msb) 1.01 45.00 t
0.00 0.00 657.75 449.25 cl
0.00 0.00 657.75 449.25 cl
0.00 0.00 657.75 449.25 cl
0.00 0.00 657.75 449.25 cl
0.00 0.00 657.75 449.25 cl
/Font1 findfont 12 s
0 0 0 srgb
427.44 14.40 (metr) 0 ta
0.180 (ic) tb gr
0.00 0.00 657.75 449.25 cl
0.00 0.00 657.75 449.25 cl
/Font1 findfont 12 s
0 0 0 srgb
308.99 124.55 (error) .5 90 t
0.00 0.00 657.75 449.25 cl
0.00 0.00 657.75 449.25 cl
/Font1 findfont 14 s
0 0 0 srgb
401.76 190.57 (T) 0 ta
-1.680 (r) tb
-0.140 (aining error) tb gr
0.00 0.00 657.75 449.25 cl
0.00 0.00 657.75 449.25 cl
0.00 0.00 657.75 449.25 cl
0.00 0.00 657.75 449.25 cl
0.00 0.00 657.75 449.25 cl
0.00 0.00 657.75 449.25 cl
/bg { 1 1 1 srgb } def
571.60 64.23 86.50 320.78 r p2
0.00 0.00 657.75 449.25 cl
0.00 0.00 657.75 449.25 cl
/Font2 findfont 10 s
0 0 0 srgb
575.85 373.67 (optimiser_metric) 0 0 t
0.00 0.00 657.75 449.25 cl
0.00 0.00 657.75 449.25 cl
/bg { 0.9490 0.9490 0.9490 srgb } def
1 1 1 srgb
1.06 setlinewidth
[] 0 setdash
1 setlinecap
1 setlinejoin
10.00 setmiterlimit
575.85 344.96 23.04 23.04 r p3
0.00 0.00 657.75 449.25 cl
0.00 0.00 657.75 449.25 cl
0.9725 0.4627 0.4275 srgb
1.06 setlinewidth
[] 0 setdash
1 setlinecap
1 setlinejoin
10.00 setmiterlimit
np
587.37 347.27 m
0 3.45 l
o
np
587.37 362.24 m
0 3.46 l
o
/bg { 1 1 1 srgb } def
578.73 350.72 17.28 11.52 r p3
np
578.73 356.48 m
17.28 0 l
o
0.00 0.00 657.75 449.25 cl
0.00 0.00 657.75 449.25 cl
/bg { 0.9490 0.9490 0.9490 srgb } def
1 1 1 srgb
1.06 setlinewidth
[] 0 setdash
1 setlinecap
1 setlinejoin
10.00 setmiterlimit
575.85 321.92 23.04 23.04 r p3
0.00 0.00 657.75 449.25 cl
0.00 0.00 657.75 449.25 cl
0.8824 0.5412 0 srgb
1.06 setlinewidth
[] 0 setdash
1 setlinecap
1 setlinejoin
10.00 setmiterlimit
np
587.37 324.23 m
0 3.45 l
o
np
587.37 339.20 m
0 3.46 l
o
/bg { 1 1 1 srgb } def
578.73 327.68 17.28 11.52 r p3
np
578.73 333.44 m
17.28 0 l
o
0.00 0.00 657.75 449.25 cl
0.00 0.00 657.75 449.25 cl
/bg { 0.9490 0.9490 0.9490 srgb } def
1 1 1 srgb
1.06 setlinewidth
[] 0 setdash
1 setlinecap
1 setlinejoin
10.00 setmiterlimit
575.85 298.88 23.04 23.04 r p3
0.00 0.00 657.75 449.25 cl
0.00 0.00 657.75 449.25 cl
0.7451 0.6118 0 srgb
1.06 setlinewidth
[] 0 setdash
1 setlinecap
1 setlinejoin
10.00 setmiterlimit
np
587.37 301.19 m
0 3.45 l
o
np
587.37 316.16 m
0 3.46 l
o
/bg { 1 1 1 srgb } def
578.73 304.64 17.28 11.52 r p3
np
578.73 310.40 m
17.28 0 l
o
0.00 0.00 657.75 449.25 cl
0.00 0.00 657.75 449.25 cl
/bg { 0.9490 0.9490 0.9490 srgb } def
1 1 1 srgb
1.06 setlinewidth
[] 0 setdash
1 setlinecap
1 setlinejoin
10.00 setmiterlimit
575.85 275.84 23.04 23.04 r p3
0.00 0.00 657.75 449.25 cl
0.00 0.00 657.75 449.25 cl
0.5490 0.6706 0 srgb
1.06 setlinewidth
[] 0 setdash
1 setlinecap
1 setlinejoin
10.00 setmiterlimit
np
587.37 278.15 m
0 3.45 l
o
np
587.37 293.12 m
0 3.46 l
o
/bg { 1 1 1 srgb } def
578.73 281.60 17.28 11.52 r p3
np
578.73 287.36 m
17.28 0 l
o
0.00 0.00 657.75 449.25 cl
0.00 0.00 657.75 449.25 cl
/bg { 0.9490 0.9490 0.9490 srgb } def
1 1 1 srgb
1.06 setlinewidth
[] 0 setdash
1 setlinecap
1 setlinejoin
10.00 setmiterlimit
575.85 252.80 23.04 23.04 r p3
0.00 0.00 657.75 449.25 cl
0.00 0.00 657.75 449.25 cl
0.1412 0.7176 0 srgb
1.06 setlinewidth
[] 0 setdash
1 setlinecap
1 setlinejoin
10.00 setmiterlimit
np
587.37 255.11 m
0 3.45 l
o
np
587.37 270.08 m
0 3.46 l
o
/bg { 1 1 1 srgb } def
578.73 258.56 17.28 11.52 r p3
np
578.73 264.32 m
17.28 0 l
o
0.00 0.00 657.75 449.25 cl
0.00 0.00 657.75 449.25 cl
/bg { 0.9490 0.9490 0.9490 srgb } def
1 1 1 srgb
1.06 setlinewidth
[] 0 setdash
1 setlinecap
1 setlinejoin
10.00 setmiterlimit
575.85 229.76 23.04 23.04 r p3
0.00 0.00 657.75 449.25 cl
0.00 0.00 657.75 449.25 cl
0 0.7451 0.4392 srgb
1.06 setlinewidth
[] 0 setdash
1 setlinecap
1 setlinejoin
10.00 setmiterlimit
np
587.37 232.07 m
0 3.45 l
o
np
587.37 247.04 m
0 3.46 l
o
/bg { 1 1 1 srgb } def
578.73 235.52 17.28 11.52 r p3
np
578.73 241.28 m
17.28 0 l
o
0.00 0.00 657.75 449.25 cl
0.00 0.00 657.75 449.25 cl
/bg { 0.9490 0.9490 0.9490 srgb } def
1 1 1 srgb
1.06 setlinewidth
[] 0 setdash
1 setlinecap
1 setlinejoin
10.00 setmiterlimit
575.85 206.72 23.04 23.04 r p3
0.00 0.00 657.75 449.25 cl
0.00 0.00 657.75 449.25 cl
0 0.7569 0.6706 srgb
1.06 setlinewidth
[] 0 setdash
1 setlinecap
1 setlinejoin
10.00 setmiterlimit
np
587.37 209.03 m
0 3.45 l
o
np
587.37 224.00 m
0 3.46 l
o
/bg { 1 1 1 srgb } def
578.73 212.48 17.28 11.52 r p3
np
578.73 218.24 m
17.28 0 l
o
0.00 0.00 657.75 449.25 cl
0.00 0.00 657.75 449.25 cl
/bg { 0.9490 0.9490 0.9490 srgb } def
1 1 1 srgb
1.06 setlinewidth
[] 0 setdash
1 setlinecap
1 setlinejoin
10.00 setmiterlimit
575.85 183.68 23.04 23.04 r p3
0.00 0.00 657.75 449.25 cl
0.00 0.00 657.75 449.25 cl
0 0.7333 0.8549 srgb
1.06 setlinewidth
[] 0 setdash
1 setlinecap
1 setlinejoin
10.00 setmiterlimit
np
587.37 185.99 m
0 3.45 l
o
np
587.37 200.96 m
0 3.46 l
o
/bg { 1 1 1 srgb } def
578.73 189.44 17.28 11.52 r p3
np
578.73 195.20 m
17.28 0 l
o
0.00 0.00 657.75 449.25 cl
0.00 0.00 657.75 449.25 cl
/bg { 0.9490 0.9490 0.9490 srgb } def
1 1 1 srgb
1.06 setlinewidth
[] 0 setdash
1 setlinecap
1 setlinejoin
10.00 setmiterlimit
575.85 160.64 23.04 23.04 r p3
0.00 0.00 657.75 449.25 cl
0.00 0.00 657.75 449.25 cl
0 0.6745 0.9882 srgb
1.06 setlinewidth
[] 0 setdash
1 setlinecap
1 setlinejoin
10.00 setmiterlimit
np
587.37 162.95 m
0 3.45 l
o
np
587.37 177.92 m
0 3.46 l
o
/bg { 1 1 1 srgb } def
578.73 166.40 17.28 11.52 r p3
np
578.73 172.16 m
17.28 0 l
o
0.00 0.00 657.75 449.25 cl
0.00 0.00 657.75 449.25 cl
/bg { 0.9490 0.9490 0.9490 srgb } def
1 1 1 srgb
1.06 setlinewidth
[] 0 setdash
1 setlinecap
1 setlinejoin
10.00 setmiterlimit
575.85 137.60 23.04 23.04 r p3
0.00 0.00 657.75 449.25 cl
0.00 0.00 657.75 449.25 cl
0.5451 0.5765 1 srgb
1.06 setlinewidth
[] 0 setdash
1 setlinecap
1 setlinejoin
10.00 setmiterlimit
np
587.37 139.91 m
0 3.45 l
o
np
587.37 154.88 m
0 3.46 l
o
/bg { 1 1 1 srgb } def
578.73 143.36 17.28 11.52 r p3
np
578.73 149.12 m
17.28 0 l
o
0.00 0.00 657.75 449.25 cl
0.00 0.00 657.75 449.25 cl
/bg { 0.9490 0.9490 0.9490 srgb } def
1 1 1 srgb
1.06 setlinewidth
[] 0 setdash
1 setlinecap
1 setlinejoin
10.00 setmiterlimit
575.85 114.56 23.04 23.04 r p3
0.00 0.00 657.75 449.25 cl
0.00 0.00 657.75 449.25 cl
0.8353 0.4588 0.9961 srgb
1.06 setlinewidth
[] 0 setdash
1 setlinecap
1 setlinejoin
10.00 setmiterlimit
np
587.37 116.87 m
0 3.45 l
o
np
587.37 131.84 m
0 3.46 l
o
/bg { 1 1 1 srgb } def
578.73 120.32 17.28 11.52 r p3
np
578.73 126.08 m
17.28 0 l
o
0.00 0.00 657.75 449.25 cl
0.00 0.00 657.75 449.25 cl
/bg { 0.9490 0.9490 0.9490 srgb } def
1 1 1 srgb
1.06 setlinewidth
[] 0 setdash
1 setlinecap
1 setlinejoin
10.00 setmiterlimit
575.85 91.52 23.04 23.04 r p3
0.00 0.00 657.75 449.25 cl
0.00 0.00 657.75 449.25 cl
0.9765 0.3843 0.8667 srgb
1.06 setlinewidth
[] 0 setdash
1 setlinecap
1 setlinejoin
10.00 setmiterlimit
np
587.37 93.83 m
0 3.45 l
o
np
587.37 108.80 m
0 3.46 l
o
/bg { 1 1 1 srgb } def
578.73 97.28 17.28 11.52 r p3
np
578.73 103.04 m
17.28 0 l
o
0.00 0.00 657.75 449.25 cl
0.00 0.00 657.75 449.25 cl
/bg { 0.9490 0.9490 0.9490 srgb } def
1 1 1 srgb
1.06 setlinewidth
[] 0 setdash
1 setlinecap
1 setlinejoin
10.00 setmiterlimit
575.85 68.48 23.04 23.04 r p3
0.00 0.00 657.75 449.25 cl
0.00 0.00 657.75 449.25 cl
1 0.3961 0.6745 srgb
1.06 setlinewidth
[] 0 setdash
1 setlinecap
1 setlinejoin
10.00 setmiterlimit
np
587.37 70.79 m
0 3.45 l
o
np
587.37 85.76 m
0 3.46 l
o
/bg { 1 1 1 srgb } def
578.73 74.24 17.28 11.52 r p3
np
578.73 80.00 m
17.28 0 l
o
0.00 0.00 657.75 449.25 cl
0.00 0.00 657.75 449.25 cl
/Font1 findfont 10 s
0 0 0 srgb
601.77 352.89 (e1) 0 0 t
0.00 0.00 657.75 449.25 cl
0.00 0.00 657.75 449.25 cl
/Font1 findfont 10 s
0 0 0 srgb
601.77 329.85 (e2 lsb) 0 0 t
0.00 0.00 657.75 449.25 cl
0.00 0.00 657.75 449.25 cl
/Font1 findfont 10 s
0 0 0 srgb
601.77 306.81 (e3 lsb) 0 0 t
0.00 0.00 657.75 449.25 cl
0.00 0.00 657.75 449.25 cl
/Font1 findfont 10 s
0 0 0 srgb
601.77 283.77 (e4 lsb) 0 0 t
0.00 0.00 657.75 449.25 cl
0.00 0.00 657.75 449.25 cl
/Font1 findfont 10 s
0 0 0 srgb
601.77 260.73 (e5 lsb) 0 0 t
0.00 0.00 657.75 449.25 cl
0.00 0.00 657.75 449.25 cl
/Font1 findfont 10 s
0 0 0 srgb
601.77 237.69 (e6 lsb) 0 0 t
0.00 0.00 657.75 449.25 cl
0.00 0.00 657.75 449.25 cl
/Font1 findfont 10 s
0 0 0 srgb
601.77 214.65 (e7 lsb) 0 0 t
0.00 0.00 657.75 449.25 cl
0.00 0.00 657.75 449.25 cl
/Font1 findfont 10 s
0 0 0 srgb
601.77 191.61 (e2 msb) 0 0 t
0.00 0.00 657.75 449.25 cl
0.00 0.00 657.75 449.25 cl
/Font1 findfont 10 s
0 0 0 srgb
601.77 168.57 (e3 msb) 0 0 t
0.00 0.00 657.75 449.25 cl
0.00 0.00 657.75 449.25 cl
/Font1 findfont 10 s
0 0 0 srgb
601.77 145.53 (e4 msb) 0 0 t
0.00 0.00 657.75 449.25 cl
0.00 0.00 657.75 449.25 cl
/Font1 findfont 10 s
0 0 0 srgb
601.77 122.49 (e5 msb) 0 0 t
0.00 0.00 657.75 449.25 cl
0.00 0.00 657.75 449.25 cl
/Font1 findfont 10 s
0 0 0 srgb
601.77 99.45 (e6 msb) 0 0 t
0.00 0.00 657.75 449.25 cl
0.00 0.00 657.75 449.25 cl
/Font1 findfont 10 s
0 0 0 srgb
601.77 76.41 (e7 msb) 0 0 t
0.00 0.00 657.75 449.25 cl
0.00 0.00 657.75 449.25 cl
0.00 0.00 657.75 449.25 cl
0.00 0.00 657.75 449.25 cl
0.00 0.00 657.75 449.25 cl
0.00 0.00 657.75 449.25 cl
0.00 0.00 657.75 449.25 cl
ep
%%Trailer
%%Pages: 1
%%EOF
