%!PS-Adobe-3.0 EPSF-3.0
%%DocumentNeededResources: font Helvetica
%%+ font Helvetica-Bold
%%+ font Helvetica-Oblique
%%+ font Helvetica-BoldOblique
%%+ font Symbol
%%Title: R Graphics Output
%%Creator: R Software
%%Pages: (atend)
%%BoundingBox: 0 0 658 449
%%EndComments
%%BeginProlog
/bp  { gs sRGB gs } def
% begin .ps.prolog
/gs  { gsave } bind def
/gr  { grestore } bind def
/ep  { showpage gr gr } bind def
/m   { moveto } bind def
/l  { rlineto } bind def
/np  { newpath } bind def
/cp  { closepath } bind def
/f   { fill } bind def
/o   { stroke } bind def
/c   { newpath 0 360 arc } bind def
/r   { 4 2 roll moveto 1 copy 3 -1 roll exch 0 exch rlineto 0 rlineto -1 mul 0 exch rlineto closepath } bind def
/p1  { stroke } bind def
/p2  { gsave bg fill grestore newpath } bind def
/p3  { gsave bg fill grestore stroke } bind def
/p6  { gsave bg eofill grestore newpath } bind def
/p7  { gsave bg eofill grestore stroke } bind def
/t   { 5 -2 roll moveto gsave rotate
       1 index stringwidth pop
       mul neg 0 rmoveto show grestore } bind def
/ta  { 4 -2 roll moveto gsave rotate show } bind def
/tb  { 2 -1 roll 0 rmoveto show } bind def
/cl  { grestore gsave newpath 3 index 3 index moveto 1 index
       4 -1 roll lineto  exch 1 index lineto lineto
       closepath clip newpath } bind def
/rgb { setrgbcolor } bind def
/s   { scalefont setfont } bind def
% end   .ps.prolog
/sRGB { [ /CIEBasedABC
          << /DecodeLMN
               [ { dup 0.03928 le
                        {12.92321 div}
                        {0.055 add 1.055 div 2.4 exp }
                     ifelse
                 } bind dup dup
               ]
             /MatrixLMN [0.412457 0.212673 0.019334
                         0.357576 0.715152 0.119192
                         0.180437 0.072175 0.950301]
             /WhitePoint [0.9505 1.0 1.0890]
           >>
         ] setcolorspace } bind def
/srgb { setcolor } bind def
%%IncludeResource: font Helvetica
/Helvetica findfont
dup length dict begin
  {1 index /FID ne {def} {pop pop} ifelse} forall
  /Encoding ISOLatin1Encoding def
  currentdict
  end
/Font1 exch definefont pop
%%IncludeResource: font Helvetica-Bold
/Helvetica-Bold findfont
dup length dict begin
  {1 index /FID ne {def} {pop pop} ifelse} forall
  /Encoding ISOLatin1Encoding def
  currentdict
  end
/Font2 exch definefont pop
%%IncludeResource: font Helvetica-Oblique
/Helvetica-Oblique findfont
dup length dict begin
  {1 index /FID ne {def} {pop pop} ifelse} forall
  /Encoding ISOLatin1Encoding def
  currentdict
  end
/Font3 exch definefont pop
%%IncludeResource: font Helvetica-BoldOblique
/Helvetica-BoldOblique findfont
dup length dict begin
  {1 index /FID ne {def} {pop pop} ifelse} forall
  /Encoding ISOLatin1Encoding def
  currentdict
  end
/Font4 exch definefont pop
%%IncludeResource: font Symbol
/Symbol findfont
dup length dict begin
  {1 index /FID ne {def} {pop pop} ifelse} forall
  currentdict
  end
/Font5 exch definefont pop
%%EndProlog
%%Page: 1 1
bp
0.00 0.00 657.75 449.25 cl
0.00 224.62 571.96 449.25 cl
/bg { 1 1 1 srgb } def
1 1 1 srgb
1.06 setlinewidth
[] 0 setdash
1 setlinecap
1 setlinejoin
10.00 setmiterlimit
-0.00 224.62 571.96 224.62 r p3
0.00 0.00 657.75 449.25 cl
0.00 0.00 657.75 449.25 cl
0.00 0.00 657.75 449.25 cl
48.80 266.71 552.76 410.40 cl
/bg { 0.8980 0.8980 0.8980 srgb } def
48.80 266.71 503.95 143.69 r p2
0.9490 0.9490 0.9490 srgb
0.53 setlinewidth
[] 0 setdash
0 setlinecap
1 setlinejoin
10.00 setmiterlimit
np
48.80 295.01 m
503.96 0 l
o
np
48.80 338.55 m
503.96 0 l
o
np
48.80 382.10 m
503.96 0 l
o
1 1 1 srgb
1.06 setlinewidth
[] 0 setdash
np
48.80 273.24 m
503.96 0 l
o
np
48.80 316.78 m
503.96 0 l
o
np
48.80 360.32 m
503.96 0 l
o
np
48.80 403.87 m
503.96 0 l
o
np
120.80 266.71 m
0 143.69 l
o
np
240.79 266.71 m
0 143.69 l
o
np
360.77 266.71 m
0 143.69 l
o
np
480.76 266.71 m
0 143.69 l
o
0.9725 0.4627 0.4275 srgb
np
83.30 367.58 m
0 21.77 l
o
np
83.30 325.40 m
0 -44.90 l
o
/bg { 1 1 1 srgb } def
1 setlinecap
np
 75.80 367.58 m
0 -42.18 l
15.00 0 l
0 42.18 l
-15.00 0 l
cp p3
2.13 setlinewidth
[] 0 setdash
0 setlinecap
np
75.80 345.36 m
15.00 0 l
o
0.7176 0.6235 0 srgb
1.06 setlinewidth
[] 0 setdash
np
98.30 368.26 m
0 24.72 l
o
np
98.30 316.33 m
0 -43.09 l
o
1 setlinecap
np
 90.80 368.26 m
0 -51.93 l
15.00 0 l
0 51.93 l
-15.00 0 l
cp p3
2.13 setlinewidth
[] 0 setdash
0 setlinecap
np
90.80 345.81 m
15.00 0 l
o
/bg { 0 0 0 srgb } def
113.30 273.24 2.13 c p2
113.30 273.24 2.13 c p2
113.30 273.24 2.13 c p2
113.30 273.24 2.13 c p2
113.30 273.24 2.13 c p2
0 0.7294 0.2196 srgb
1.06 setlinewidth
[] 0 setdash
np
113.30 367.58 m
0 24.49 l
o
np
113.30 331.30 m
0 -50.80 l
o
/bg { 1 1 1 srgb } def
1 setlinecap
np
 105.80 367.58 m
0 -36.28 l
15.00 0 l
0 36.28 l
-15.00 0 l
cp p3
2.13 setlinewidth
[] 0 setdash
0 setlinecap
np
105.80 346.72 m
15.00 0 l
o
0 0.7490 0.7686 srgb
1.06 setlinewidth
[] 0 setdash
np
128.30 370.98 m
0 32.89 l
o
np
128.30 331.30 m
0 -58.06 l
o
1 setlinecap
np
 120.80 370.98 m
0 -39.68 l
14.99 0 l
0 39.68 l
-14.99 0 l
cp p3
2.13 setlinewidth
[] 0 setdash
0 setlinecap
np
120.80 354.88 m
14.99 0 l
o
0.3804 0.6118 1 srgb
1.06 setlinewidth
[] 0 setdash
np
143.29 367.58 m
0 22.68 l
o
np
143.29 305.90 m
0 -32.66 l
o
1 setlinecap
np
 135.79 367.58 m
0 -61.68 l
15.00 0 l
0 61.68 l
-15.00 0 l
cp p3
2.13 setlinewidth
[] 0 setdash
0 setlinecap
np
135.79 349.44 m
15.00 0 l
o
0.9608 0.3922 0.8902 srgb
1.06 setlinewidth
[] 0 setdash
np
158.29 357.15 m
0 34.02 l
o
np
158.29 314.97 m
0 -41.73 l
o
1 setlinecap
np
 150.79 357.15 m
0 -42.18 l
15.00 0 l
0 42.18 l
-15.00 0 l
cp p3
2.13 setlinewidth
[] 0 setdash
0 setlinecap
np
150.79 334.47 m
15.00 0 l
o
/bg { 0 0 0 srgb } def
203.29 320.41 2.13 c p2
203.29 316.78 2.13 c p2
203.29 329.48 2.13 c p2
0.9725 0.4627 0.4275 srgb
1.06 setlinewidth
[] 0 setdash
np
203.29 388.45 m
0 6.35 l
o
np
203.29 365.31 m
0 -34.01 l
o
/bg { 1 1 1 srgb } def
1 setlinecap
np
 195.79 388.45 m
0 -23.14 l
15.00 0 l
0 23.14 l
-15.00 0 l
cp p3
2.13 setlinewidth
[] 0 setdash
0 setlinecap
np
195.79 382.10 m
15.00 0 l
o
/bg { 0 0 0 srgb } def
218.29 309.52 2.13 c p2
0.7176 0.6235 0 srgb
1.06 setlinewidth
[] 0 setdash
np
218.29 386.63 m
0 9.98 l
o
np
218.29 356.70 m
0 -39.92 l
o
/bg { 1 1 1 srgb } def
1 setlinecap
np
 210.79 386.63 m
0 -29.93 l
15.00 0 l
0 29.93 l
-15.00 0 l
cp p3
2.13 setlinewidth
[] 0 setdash
0 setlinecap
np
210.79 374.84 m
15.00 0 l
o
/bg { 0 0 0 srgb } def
233.29 324.04 2.13 c p2
233.29 331.30 2.13 c p2
0 0.7294 0.2196 srgb
1.06 setlinewidth
[] 0 setdash
np
233.29 387.54 m
0 7.26 l
o
np
233.29 366.45 m
0 -31.53 l
o
/bg { 1 1 1 srgb } def
1 setlinecap
np
 225.79 387.54 m
0 -21.09 l
15.00 0 l
0 21.09 l
-15.00 0 l
cp p3
2.13 setlinewidth
[] 0 setdash
0 setlinecap
np
225.79 378.01 m
15.00 0 l
o
/bg { 0 0 0 srgb } def
248.28 346.72 2.13 c p2
248.28 320.41 2.13 c p2
248.28 334.92 2.13 c p2
248.28 331.30 2.13 c p2
248.28 331.30 2.13 c p2
248.28 324.04 2.13 c p2
0 0.7490 0.7686 srgb
1.06 setlinewidth
[] 0 setdash
np
248.28 386.63 m
0 11.79 l
o
np
248.28 371.21 m
0 -20.86 l
o
/bg { 1 1 1 srgb } def
1 setlinecap
np
 240.79 386.63 m
0 -15.42 l
14.99 0 l
0 15.42 l
-14.99 0 l
cp p3
2.13 setlinewidth
[] 0 setdash
0 setlinecap
np
240.79 379.37 m
14.99 0 l
o
/bg { 0 0 0 srgb } def
263.28 324.04 2.13 c p2
263.28 324.04 2.13 c p2
0.3804 0.6118 1 srgb
1.06 setlinewidth
[] 0 setdash
np
263.28 383.91 m
0 10.89 l
o
np
263.28 361.91 m
0 -30.61 l
o
/bg { 1 1 1 srgb } def
1 setlinecap
np
 255.78 383.91 m
0 -22.00 l
15.00 0 l
0 22.00 l
-15.00 0 l
cp p3
2.13 setlinewidth
[] 0 setdash
0 setlinecap
np
255.78 378.47 m
15.00 0 l
o
/bg { 0 0 0 srgb } def
278.28 302.27 2.13 c p2
0.9608 0.3922 0.8902 srgb
1.06 setlinewidth
[] 0 setdash
np
278.28 387.54 m
0 6.35 l
o
np
278.28 362.82 m
0 -36.97 l
o
/bg { 1 1 1 srgb } def
1 setlinecap
np
 270.78 387.54 m
0 -24.72 l
15.00 0 l
0 24.72 l
-15.00 0 l
cp p3
2.13 setlinewidth
[] 0 setdash
0 setlinecap
np
270.78 378.92 m
15.00 0 l
o
0.9725 0.4627 0.4275 srgb
1.06 setlinewidth
[] 0 setdash
np
323.28 387.54 m
0 5.44 l
o
np
323.28 374.84 m
0 -17.24 l
o
1 setlinecap
np
 315.78 387.54 m
0 -12.70 l
15.00 0 l
0 12.70 l
-15.00 0 l
cp p3
2.13 setlinewidth
[] 0 setdash
0 setlinecap
np
315.78 382.10 m
15.00 0 l
o
/bg { 0 0 0 srgb } def
338.28 356.70 2.13 c p2
338.28 360.32 2.13 c p2
338.28 349.44 2.13 c p2
0.7176 0.6235 0 srgb
1.06 setlinewidth
[] 0 setdash
np
338.28 389.35 m
0 3.63 l
o
np
338.28 378.47 m
0 -14.52 l
o
/bg { 1 1 1 srgb } def
1 setlinecap
np
 330.78 389.35 m
0 -10.88 l
15.00 0 l
0 10.88 l
-15.00 0 l
cp p3
2.13 setlinewidth
[] 0 setdash
0 setlinecap
np
330.78 384.82 m
15.00 0 l
o
/bg { 0 0 0 srgb } def
353.27 362.14 2.13 c p2
353.27 338.55 2.13 c p2
353.27 360.32 2.13 c p2
0 0.7294 0.2196 srgb
1.06 setlinewidth
[] 0 setdash
np
353.27 388.67 m
0 4.31 l
o
np
353.27 378.47 m
0 -11.80 l
o
/bg { 1 1 1 srgb } def
1 setlinecap
np
 345.78 388.67 m
0 -10.20 l
14.99 0 l
0 10.20 l
-14.99 0 l
cp p3
2.13 setlinewidth
[] 0 setdash
0 setlinecap
np
345.78 385.72 m
14.99 0 l
o
/bg { 0 0 0 srgb } def
368.27 351.25 2.13 c p2
368.27 353.07 2.13 c p2
0 0.7490 0.7686 srgb
1.06 setlinewidth
[] 0 setdash
np
368.27 386.63 m
0 7.26 l
o
np
368.27 374.84 m
0 -16.33 l
o
/bg { 1 1 1 srgb } def
1 setlinecap
np
 360.77 386.63 m
0 -11.79 l
15.00 0 l
0 11.79 l
-15.00 0 l
cp p3
2.13 setlinewidth
[] 0 setdash
0 setlinecap
np
360.77 382.55 m
15.00 0 l
o
/bg { 0 0 0 srgb } def
383.27 362.14 2.13 c p2
383.27 362.14 2.13 c p2
383.27 349.44 2.13 c p2
383.27 360.32 2.13 c p2
383.27 356.70 2.13 c p2
0.3804 0.6118 1 srgb
1.06 setlinewidth
[] 0 setdash
np
383.27 387.54 m
0 8.16 l
o
np
383.27 377.56 m
0 -13.61 l
o
/bg { 1 1 1 srgb } def
1 setlinecap
np
 375.77 387.54 m
0 -9.98 l
15.00 0 l
0 9.98 l
-15.00 0 l
cp p3
2.13 setlinewidth
[] 0 setdash
0 setlinecap
np
375.77 383.00 m
15.00 0 l
o
/bg { 0 0 0 srgb } def
398.27 354.88 2.13 c p2
398.27 359.42 2.13 c p2
398.27 360.32 2.13 c p2
398.27 363.95 2.13 c p2
398.27 360.32 2.13 c p2
398.27 349.44 2.13 c p2
398.27 360.32 2.13 c p2
398.27 342.18 2.13 c p2
398.27 356.70 2.13 c p2
398.27 357.60 2.13 c p2
398.27 361.23 2.13 c p2
0.9608 0.3922 0.8902 srgb
1.06 setlinewidth
[] 0 setdash
np
398.27 387.54 m
0 11.79 l
o
np
398.27 378.24 m
0 -12.47 l
o
/bg { 1 1 1 srgb } def
1 setlinecap
np
 390.77 387.54 m
0 -9.30 l
15.00 0 l
0 9.30 l
-15.00 0 l
cp p3
2.13 setlinewidth
[] 0 setdash
0 setlinecap
np
390.77 383.00 m
15.00 0 l
o
/bg { 0 0 0 srgb } def
443.27 344.00 2.13 c p2
443.27 354.88 2.13 c p2
0.9725 0.4627 0.4275 srgb
1.06 setlinewidth
[] 0 setdash
np
443.27 389.35 m
0 1.82 l
o
np
443.27 378.24 m
0 -16.10 l
o
/bg { 1 1 1 srgb } def
1 setlinecap
np
 435.77 389.35 m
0 -11.11 l
15.00 0 l
0 11.11 l
-15.00 0 l
cp p3
2.13 setlinewidth
[] 0 setdash
0 setlinecap
np
435.77 385.72 m
15.00 0 l
o
/bg { 0 0 0 srgb } def
458.27 362.14 2.13 c p2
458.27 369.40 2.13 c p2
458.27 360.32 2.13 c p2
458.27 363.95 2.13 c p2
458.27 371.21 2.13 c p2
458.27 353.07 2.13 c p2
458.27 371.21 2.13 c p2
458.27 363.05 2.13 c p2
458.27 365.77 2.13 c p2
0.7176 0.6235 0 srgb
1.06 setlinewidth
[] 0 setdash
np
458.27 388.45 m
0 2.72 l
o
np
458.27 382.10 m
0 -9.08 l
o
/bg { 1 1 1 srgb } def
1 setlinecap
np
 450.77 388.45 m
0 -6.35 l
14.99 0 l
0 6.35 l
-14.99 0 l
cp p3
2.13 setlinewidth
[] 0 setdash
0 setlinecap
np
450.77 385.72 m
14.99 0 l
o
/bg { 0 0 0 srgb } def
473.26 351.25 2.13 c p2
473.26 363.95 2.13 c p2
473.26 360.32 2.13 c p2
0 0.7294 0.2196 srgb
1.06 setlinewidth
[] 0 setdash
np
473.26 389.35 m
0 5.45 l
o
np
473.26 379.37 m
0 -13.60 l
o
/bg { 1 1 1 srgb } def
1 setlinecap
np
 465.76 389.35 m
0 -9.98 l
15.00 0 l
0 9.98 l
-15.00 0 l
cp p3
2.13 setlinewidth
[] 0 setdash
0 setlinecap
np
465.76 384.82 m
15.00 0 l
o
/bg { 0 0 0 srgb } def
488.26 363.95 2.13 c p2
488.26 400.24 2.13 c p2
488.26 366.67 2.13 c p2
488.26 370.30 2.13 c p2
0 0.7490 0.7686 srgb
1.06 setlinewidth
[] 0 setdash
np
488.26 387.54 m
0 6.35 l
o
np
488.26 380.96 m
0 -9.75 l
o
/bg { 1 1 1 srgb } def
1 setlinecap
np
 480.76 387.54 m
0 -6.58 l
15.00 0 l
0 6.58 l
-15.00 0 l
cp p3
2.13 setlinewidth
[] 0 setdash
0 setlinecap
np
480.76 383.91 m
15.00 0 l
o
/bg { 0 0 0 srgb } def
503.26 371.21 2.13 c p2
503.26 366.67 2.13 c p2
503.26 359.42 2.13 c p2
503.26 369.40 2.13 c p2
503.26 371.21 2.13 c p2
503.26 367.58 2.13 c p2
503.26 351.25 2.13 c p2
503.26 360.32 2.13 c p2
503.26 371.21 2.13 c p2
0.3804 0.6118 1 srgb
1.06 setlinewidth
[] 0 setdash
np
503.26 386.86 m
0 7.94 l
o
np
503.26 380.96 m
0 -7.94 l
o
/bg { 1 1 1 srgb } def
1 setlinecap
np
 495.76 386.86 m
0 -5.90 l
15.00 0 l
0 5.90 l
-15.00 0 l
cp p3
2.13 setlinewidth
[] 0 setdash
0 setlinecap
np
495.76 383.00 m
15.00 0 l
o
/bg { 0 0 0 srgb } def
518.26 396.61 2.13 c p2
518.26 362.14 2.13 c p2
518.26 369.40 2.13 c p2
0.9608 0.3922 0.8902 srgb
1.06 setlinewidth
[] 0 setdash
np
518.26 385.72 m
0 7.26 l
o
np
518.26 380.28 m
0 -6.35 l
o
/bg { 1 1 1 srgb } def
1 setlinecap
np
 510.76 385.72 m
0 -5.44 l
15.00 0 l
0 5.44 l
-15.00 0 l
cp p3
2.13 setlinewidth
[] 0 setdash
0 setlinecap
np
510.76 383.00 m
15.00 0 l
o
0.00 0.00 657.75 449.25 cl
0.00 0.00 657.75 449.25 cl
0.00 0.00 657.75 449.25 cl
/Font1 findfont 10 s
0.4980 0.4980 0.4980 srgb
41.72 269.65 (0.0) 1 0 t
41.72 313.19 (0.2) 1 0 t
41.72 356.73 (0.4) 1 0 t
41.72 400.28 (0.6) 1 0 t
0.00 0.00 657.75 449.25 cl
0.00 0.00 657.75 449.25 cl
0.4980 0.4980 0.4980 srgb
1.06 setlinewidth
[] 0 setdash
0 setlinecap
1 setlinejoin
10.00 setmiterlimit
np
44.55 273.24 m
4.25 0 l
o
np
44.55 316.78 m
4.25 0 l
o
np
44.55 360.32 m
4.25 0 l
o
np
44.55 403.87 m
4.25 0 l
o
0.00 0.00 657.75 449.25 cl
0.00 0.00 657.75 449.25 cl
0.00 0.00 657.75 449.25 cl
0.00 0.00 657.75 449.25 cl
0.00 0.00 657.75 449.25 cl
0.00 0.00 657.75 449.25 cl
0.4980 0.4980 0.4980 srgb
1.06 setlinewidth
[] 0 setdash
0 setlinecap
1 setlinejoin
10.00 setmiterlimit
np
120.80 262.46 m
0 4.25 l
o
np
240.79 262.46 m
0 4.25 l
o
np
360.77 262.46 m
0 4.25 l
o
np
480.76 262.46 m
0 4.25 l
o
0.00 0.00 657.75 449.25 cl
0.00 0.00 657.75 449.25 cl
/Font1 findfont 10 s
0.4980 0.4980 0.4980 srgb
120.80 252.44 (1) .5 0 t
240.79 252.44 (2) .5 0 t
360.77 252.44 (3) .5 0 t
480.76 252.44 (4) .5 0 t
0.00 0.00 657.75 449.25 cl
0.00 0.00 657.75 449.25 cl
0.00 0.00 657.75 449.25 cl
0.00 0.00 657.75 449.25 cl
0.00 0.00 657.75 449.25 cl
/Font1 findfont 12 s
0 0 0 srgb
300.78 239.02 (target) .5 0 t
0.00 0.00 657.75 449.25 cl
0.00 0.00 657.75 449.25 cl
/Font1 findfont 12 s
0 0 0 srgb
23.02 338.55 (error) .5 90 t
0.00 0.00 657.75 449.25 cl
0.00 0.00 657.75 449.25 cl
/Font1 findfont 14 s
0 0 0 srgb
207.02 415.20 (Gener) 0 ta
-0.140 (alisation error per target) tb gr
0.00 0.00 657.75 449.25 cl
0.00 0.00 657.75 449.25 cl
0.00 0.00 657.75 449.25 cl
0.00 0.00 285.98 224.62 cl
/bg { 1 1 1 srgb } def
1 1 1 srgb
1.06 setlinewidth
[] 0 setdash
1 setlinecap
1 setlinejoin
10.00 setmiterlimit
-0.00 0.00 285.98 224.62 r p3
0.00 0.00 657.75 449.25 cl
0.00 0.00 657.75 449.25 cl
0.00 0.00 657.75 449.25 cl
54.36 58.96 266.78 185.77 cl
/bg { 0.8980 0.8980 0.8980 srgb } def
54.36 58.96 212.42 126.82 r p2
0.9490 0.9490 0.9490 srgb
0.53 setlinewidth
[] 0 setdash
0 setlinecap
1 setlinejoin
10.00 setmiterlimit
np
54.36 77.76 m
212.42 0 l
o
np
54.36 102.80 m
212.42 0 l
o
np
54.36 127.84 m
212.42 0 l
o
np
54.36 152.88 m
212.42 0 l
o
np
54.36 177.92 m
212.42 0 l
o
1 1 1 srgb
1.06 setlinewidth
[] 0 setdash
np
54.36 65.24 m
212.42 0 l
o
np
54.36 90.28 m
212.42 0 l
o
np
54.36 115.32 m
212.42 0 l
o
np
54.36 140.36 m
212.42 0 l
o
np
54.36 165.40 m
212.42 0 l
o
np
74.92 58.96 m
0 126.81 l
o
np
109.18 58.96 m
0 126.81 l
o
np
143.44 58.96 m
0 126.81 l
o
np
177.70 58.96 m
0 126.81 l
o
np
211.96 58.96 m
0 126.81 l
o
np
246.22 58.96 m
0 126.81 l
o
0.9725 0.4627 0.4275 srgb
np
74.92 156.14 m
0 22.30 l
o
np
74.92 126.54 m
0 -39.39 l
o
/bg { 1 1 1 srgb } def
1 setlinecap
np
 62.07 156.14 m
0 -29.60 l
25.70 0 l
0 29.60 l
-25.70 0 l
cp p3
2.13 setlinewidth
[] 0 setdash
0 setlinecap
np
62.07 136.19 m
25.70 0 l
o
/bg { 0 0 0 srgb } def
109.18 73.59 2.13 c p2
0.7176 0.6235 0 srgb
1.06 setlinewidth
[] 0 setdash
np
109.18 154.06 m
0 19.69 l
o
np
109.18 121.97 m
0 -33.78 l
o
/bg { 1 1 1 srgb } def
1 setlinecap
np
 96.33 154.06 m
0 -32.09 l
25.70 0 l
0 32.09 l
-25.70 0 l
cp p3
2.13 setlinewidth
[] 0 setdash
0 setlinecap
np
96.33 138.27 m
25.70 0 l
o
/bg { 0 0 0 srgb } def
143.44 86.11 2.13 c p2
0 0.7294 0.2196 srgb
1.06 setlinewidth
[] 0 setdash
np
143.44 154.58 m
0 22.30 l
o
np
143.44 127.58 m
0 -40.43 l
o
/bg { 1 1 1 srgb } def
1 setlinecap
np
 130.59 154.58 m
0 -27.00 l
25.70 0 l
0 27.00 l
-25.70 0 l
cp p3
2.13 setlinewidth
[] 0 setdash
0 setlinecap
np
130.59 143.49 m
25.70 0 l
o
0 0.7490 0.7686 srgb
1.06 setlinewidth
[] 0 setdash
np
177.70 155.10 m
0 24.91 l
o
np
177.70 128.10 m
0 -29.47 l
o
1 setlinecap
np
 164.85 155.10 m
0 -27.00 l
25.70 0 l
0 27.00 l
-25.70 0 l
cp p3
2.13 setlinewidth
[] 0 setdash
0 setlinecap
np
164.85 143.23 m
25.70 0 l
o
0.3804 0.6118 1 srgb
1.06 setlinewidth
[] 0 setdash
np
211.96 156.14 m
0 20.22 l
o
np
211.96 116.23 m
0 -35.86 l
o
1 setlinecap
np
 199.11 156.14 m
0 -39.91 l
25.70 0 l
0 39.91 l
-25.70 0 l
cp p3
2.13 setlinewidth
[] 0 setdash
0 setlinecap
np
199.11 136.45 m
25.70 0 l
o
0.9608 0.3922 0.8902 srgb
1.06 setlinewidth
[] 0 setdash
np
246.22 150.27 m
0 22.44 l
o
np
246.22 114.54 m
0 -49.82 l
o
1 setlinecap
np
 233.37 150.27 m
0 -35.73 l
25.70 0 l
0 35.73 l
-25.70 0 l
cp p3
2.13 setlinewidth
[] 0 setdash
0 setlinecap
np
233.37 135.41 m
25.70 0 l
o
0.00 0.00 657.75 449.25 cl
0.00 0.00 657.75 449.25 cl
0.00 0.00 657.75 449.25 cl
/Font1 findfont 10 s
0.4980 0.4980 0.4980 srgb
47.28 61.65 (0.30) 1 0 t
47.28 86.69 (0.35) 1 0 t
47.28 111.73 (0.40) 1 0 t
47.28 136.77 (0.45) 1 0 t
47.28 161.81 (0.50) 1 0 t
0.00 0.00 657.75 449.25 cl
0.00 0.00 657.75 449.25 cl
0.4980 0.4980 0.4980 srgb
1.06 setlinewidth
[] 0 setdash
0 setlinecap
1 setlinejoin
10.00 setmiterlimit
np
50.11 65.24 m
4.25 0 l
o
np
50.11 90.28 m
4.25 0 l
o
np
50.11 115.32 m
4.25 0 l
o
np
50.11 140.36 m
4.25 0 l
o
np
50.11 165.40 m
4.25 0 l
o
0.00 0.00 657.75 449.25 cl
0.00 0.00 657.75 449.25 cl
0.00 0.00 657.75 449.25 cl
0.00 0.00 657.75 449.25 cl
0.00 0.00 657.75 449.25 cl
0.00 0.00 657.75 449.25 cl
0.4980 0.4980 0.4980 srgb
1.06 setlinewidth
[] 0 setdash
0 setlinecap
1 setlinejoin
10.00 setmiterlimit
np
74.92 54.70 m
0 4.26 l
o
np
109.18 54.70 m
0 4.26 l
o
np
143.44 54.70 m
0 4.26 l
o
np
177.70 54.70 m
0 4.26 l
o
np
211.96 54.70 m
0 4.26 l
o
np
246.22 54.70 m
0 4.26 l
o
0.00 0.00 657.75 449.25 cl
0.00 0.00 657.75 449.25 cl
/Font1 findfont 10 s
0.4980 0.4980 0.4980 srgb
80.50 48.69 (e1) 1.01 45.00 t
114.76 48.69 (e2 lsb) 1.01 45.00 t
149.02 48.69 (e3 lsb) 1.01 45.00 t
183.29 48.69 (e4 lsb) 1.01 45.00 t
217.55 48.69 (e5 lsb) 1.01 45.00 t
251.81 48.69 (e6 lsb) 1.01 45.00 t
0.00 0.00 657.75 449.25 cl
0.00 0.00 657.75 449.25 cl
0.00 0.00 657.75 449.25 cl
0.00 0.00 657.75 449.25 cl
0.00 0.00 657.75 449.25 cl
/Font1 findfont 12 s
0 0 0 srgb
144.24 14.40 (metr) 0 ta
0.180 (ic) tb gr
0.00 0.00 657.75 449.25 cl
0.00 0.00 657.75 449.25 cl
/Font1 findfont 12 s
0 0 0 srgb
23.02 122.36 (error) .5 90 t
0.00 0.00 657.75 449.25 cl
0.00 0.00 657.75 449.25 cl
/Font1 findfont 14 s
0 0 0 srgb
98.72 190.57 (Gener) 0 ta
-0.140 (alisation error) tb gr
0.00 0.00 657.75 449.25 cl
0.00 0.00 657.75 449.25 cl
0.00 0.00 657.75 449.25 cl
285.98 0.00 571.96 224.62 cl
/bg { 1 1 1 srgb } def
1 1 1 srgb
1.06 setlinewidth
[] 0 setdash
1 setlinecap
1 setlinejoin
10.00 setmiterlimit
285.98 0.00 285.98 224.62 r p3
0.00 0.00 657.75 449.25 cl
0.00 0.00 657.75 449.25 cl
0.00 0.00 657.75 449.25 cl
334.78 58.96 552.76 185.77 cl
/bg { 0.8980 0.8980 0.8980 srgb } def
334.78 58.96 217.98 126.82 r p2
0.9490 0.9490 0.9490 srgb
0.53 setlinewidth
[] 0 setdash
0 setlinecap
1 setlinejoin
10.00 setmiterlimit
np
334.78 83.64 m
217.98 0 l
o
np
334.78 121.48 m
217.98 0 l
o
np
334.78 159.32 m
217.98 0 l
o
1 1 1 srgb
1.06 setlinewidth
[] 0 setdash
np
334.78 64.72 m
217.98 0 l
o
np
334.78 102.56 m
217.98 0 l
o
np
334.78 140.40 m
217.98 0 l
o
np
334.78 178.23 m
217.98 0 l
o
np
355.88 58.96 m
0 126.81 l
o
np
391.03 58.96 m
0 126.81 l
o
np
426.19 58.96 m
0 126.81 l
o
np
461.35 58.96 m
0 126.81 l
o
np
496.50 58.96 m
0 126.81 l
o
np
531.66 58.96 m
0 126.81 l
o
/bg { 0 0 0 srgb } def
355.88 82.46 2.13 c p2
355.88 73.59 2.13 c p2
355.88 88.37 2.13 c p2
355.88 79.50 2.13 c p2
355.88 76.54 2.13 c p2
355.88 76.54 2.13 c p2
355.88 79.50 2.13 c p2
355.88 76.54 2.13 c p2
355.88 76.54 2.13 c p2
355.88 73.59 2.13 c p2
355.88 76.54 2.13 c p2
355.88 76.54 2.13 c p2
355.88 73.59 2.13 c p2
355.88 73.59 2.13 c p2
355.88 76.54 2.13 c p2
355.88 73.59 2.13 c p2
0.9725 0.4627 0.4275 srgb
np
355.88 67.68 m
0 2.95 l
o
np
355.88 64.72 m
0 0 l
o
/bg { 1 1 1 srgb } def
1 setlinecap
np
 342.69 67.68 m
0 -2.96 l
26.37 0 l
0 2.96 l
-26.37 0 l
cp p3
2.13 setlinewidth
[] 0 setdash
0 setlinecap
np
342.69 64.72 m
26.37 0 l
o
/bg { 0 0 0 srgb } def
391.03 91.32 2.13 c p2
391.03 82.46 2.13 c p2
391.03 94.28 2.13 c p2
391.03 82.46 2.13 c p2
391.03 97.24 2.13 c p2
391.03 82.46 2.13 c p2
391.03 88.37 2.13 c p2
391.03 82.46 2.13 c p2
391.03 97.24 2.13 c p2
0.7176 0.6235 0 srgb
1.06 setlinewidth
[] 0 setdash
np
391.03 70.63 m
0 8.87 l
o
np
391.03 64.72 m
0 0 l
o
/bg { 1 1 1 srgb } def
1 setlinecap
np
 377.85 70.63 m
0 -5.91 l
26.37 0 l
0 5.91 l
-26.37 0 l
cp p3
2.13 setlinewidth
[] 0 setdash
0 setlinecap
np
377.85 64.72 m
26.37 0 l
o
/bg { 0 0 0 srgb } def
426.19 106.11 2.13 c p2
426.19 120.89 2.13 c p2
426.19 100.19 2.13 c p2
426.19 117.93 2.13 c p2
426.19 103.15 2.13 c p2
426.19 103.15 2.13 c p2
426.19 117.93 2.13 c p2
0 0.7294 0.2196 srgb
1.06 setlinewidth
[] 0 setdash
np
426.19 76.54 m
0 17.74 l
o
np
426.19 64.72 m
0 0 l
o
/bg { 1 1 1 srgb } def
1 setlinecap
np
 413.01 76.54 m
0 -11.82 l
26.36 0 l
0 11.82 l
-26.36 0 l
cp p3
2.13 setlinewidth
[] 0 setdash
0 setlinecap
np
413.01 64.72 m
26.36 0 l
o
/bg { 0 0 0 srgb } def
461.35 177.05 2.13 c p2
461.35 180.01 2.13 c p2
0 0.7490 0.7686 srgb
1.06 setlinewidth
[] 0 setdash
np
461.35 109.06 m
0 62.08 l
o
np
461.35 64.72 m
0 0 l
o
/bg { 1 1 1 srgb } def
1 setlinecap
np
 448.16 109.06 m
0 -44.34 l
26.37 0 l
0 44.34 l
-26.37 0 l
cp p3
2.13 setlinewidth
[] 0 setdash
0 setlinecap
np
448.16 79.50 m
26.37 0 l
o
0.3804 0.6118 1 srgb
1.06 setlinewidth
[] 0 setdash
np
496.50 106.84 m
0 58.39 l
o
np
496.50 64.72 m
0 0 l
o
1 setlinecap
np
 483.32 106.84 m
0 -42.12 l
26.37 0 l
0 42.12 l
-26.37 0 l
cp p3
2.13 setlinewidth
[] 0 setdash
0 setlinecap
np
483.32 72.11 m
26.37 0 l
o
/bg { 0 0 0 srgb } def
531.66 153.40 2.13 c p2
531.66 150.45 2.13 c p2
0.9608 0.3922 0.8902 srgb
1.06 setlinewidth
[] 0 setdash
np
531.66 97.24 m
0 44.34 l
o
np
531.66 64.72 m
0 0 l
o
/bg { 1 1 1 srgb } def
1 setlinecap
np
 518.48 97.24 m
0 -32.52 l
26.37 0 l
0 32.52 l
-26.37 0 l
cp p3
2.13 setlinewidth
[] 0 setdash
0 setlinecap
np
518.48 64.72 m
26.37 0 l
o
0.00 0.00 657.75 449.25 cl
0.00 0.00 657.75 449.25 cl
0.00 0.00 657.75 449.25 cl
/Font1 findfont 10 s
0.4980 0.4980 0.4980 srgb
327.69 61.13 (0.0) 1 0 t
327.69 98.97 (0.2) 1 0 t
327.69 136.81 (0.4) 1 0 t
327.69 174.64 (0.6) 1 0 t
0.00 0.00 657.75 449.25 cl
0.00 0.00 657.75 449.25 cl
0.4980 0.4980 0.4980 srgb
1.06 setlinewidth
[] 0 setdash
0 setlinecap
1 setlinejoin
10.00 setmiterlimit
np
330.53 64.72 m
4.25 0 l
o
np
330.53 102.56 m
4.25 0 l
o
np
330.53 140.40 m
4.25 0 l
o
np
330.53 178.23 m
4.25 0 l
o
0.00 0.00 657.75 449.25 cl
0.00 0.00 657.75 449.25 cl
0.00 0.00 657.75 449.25 cl
0.00 0.00 657.75 449.25 cl
0.00 0.00 657.75 449.25 cl
0.00 0.00 657.75 449.25 cl
0.4980 0.4980 0.4980 srgb
1.06 setlinewidth
[] 0 setdash
0 setlinecap
1 setlinejoin
10.00 setmiterlimit
np
355.88 54.70 m
0 4.26 l
o
np
391.03 54.70 m
0 4.26 l
o
np
426.19 54.70 m
0 4.26 l
o
np
461.35 54.70 m
0 4.26 l
o
np
496.50 54.70 m
0 4.26 l
o
np
531.66 54.70 m
0 4.26 l
o
0.00 0.00 657.75 449.25 cl
0.00 0.00 657.75 449.25 cl
/Font1 findfont 10 s
0.4980 0.4980 0.4980 srgb
361.46 48.69 (e1) 1.01 45.00 t
396.62 48.69 (e2 lsb) 1.01 45.00 t
431.77 48.69 (e3 lsb) 1.01 45.00 t
466.93 48.69 (e4 lsb) 1.01 45.00 t
502.09 48.69 (e5 lsb) 1.01 45.00 t
537.25 48.69 (e6 lsb) 1.01 45.00 t
0.00 0.00 657.75 449.25 cl
0.00 0.00 657.75 449.25 cl
0.00 0.00 657.75 449.25 cl
0.00 0.00 657.75 449.25 cl
0.00 0.00 657.75 449.25 cl
/Font1 findfont 12 s
0 0 0 srgb
427.44 14.40 (metr) 0 ta
0.180 (ic) tb gr
0.00 0.00 657.75 449.25 cl
0.00 0.00 657.75 449.25 cl
/Font1 findfont 12 s
0 0 0 srgb
308.99 122.36 (error) .5 90 t
0.00 0.00 657.75 449.25 cl
0.00 0.00 657.75 449.25 cl
/Font1 findfont 14 s
0 0 0 srgb
401.76 190.57 (T) 0 ta
-1.680 (r) tb
-0.140 (aining error) tb gr
0.00 0.00 657.75 449.25 cl
0.00 0.00 657.75 449.25 cl
0.00 0.00 657.75 449.25 cl
0.00 0.00 657.75 449.25 cl
0.00 0.00 657.75 449.25 cl
0.00 0.00 657.75 449.25 cl
/bg { 1 1 1 srgb } def
571.60 144.87 86.50 159.50 r p2
0.00 0.00 657.75 449.25 cl
0.00 0.00 657.75 449.25 cl
/Font2 findfont 10 s
0 0 0 srgb
575.85 293.03 (optimiser_metric) 0 0 t
0.00 0.00 657.75 449.25 cl
0.00 0.00 657.75 449.25 cl
/bg { 0.9490 0.9490 0.9490 srgb } def
1 1 1 srgb
1.06 setlinewidth
[] 0 setdash
1 setlinecap
1 setlinejoin
10.00 setmiterlimit
575.85 264.32 23.04 23.04 r p3
0.00 0.00 657.75 449.25 cl
0.00 0.00 657.75 449.25 cl
0.9725 0.4627 0.4275 srgb
1.06 setlinewidth
[] 0 setdash
1 setlinecap
1 setlinejoin
10.00 setmiterlimit
np
587.37 266.63 m
0 3.45 l
o
np
587.37 281.60 m
0 3.46 l
o
/bg { 1 1 1 srgb } def
578.73 270.08 17.28 11.52 r p3
np
578.73 275.84 m
17.28 0 l
o
0.00 0.00 657.75 449.25 cl
0.00 0.00 657.75 449.25 cl
/bg { 0.9490 0.9490 0.9490 srgb } def
1 1 1 srgb
1.06 setlinewidth
[] 0 setdash
1 setlinecap
1 setlinejoin
10.00 setmiterlimit
575.85 241.28 23.04 23.04 r p3
0.00 0.00 657.75 449.25 cl
0.00 0.00 657.75 449.25 cl
0.7176 0.6235 0 srgb
1.06 setlinewidth
[] 0 setdash
1 setlinecap
1 setlinejoin
10.00 setmiterlimit
np
587.37 243.59 m
0 3.45 l
o
np
587.37 258.56 m
0 3.46 l
o
/bg { 1 1 1 srgb } def
578.73 247.04 17.28 11.52 r p3
np
578.73 252.80 m
17.28 0 l
o
0.00 0.00 657.75 449.25 cl
0.00 0.00 657.75 449.25 cl
/bg { 0.9490 0.9490 0.9490 srgb } def
1 1 1 srgb
1.06 setlinewidth
[] 0 setdash
1 setlinecap
1 setlinejoin
10.00 setmiterlimit
575.85 218.24 23.04 23.04 r p3
0.00 0.00 657.75 449.25 cl
0.00 0.00 657.75 449.25 cl
0 0.7294 0.2196 srgb
1.06 setlinewidth
[] 0 setdash
1 setlinecap
1 setlinejoin
10.00 setmiterlimit
np
587.37 220.55 m
0 3.45 l
o
np
587.37 235.52 m
0 3.46 l
o
/bg { 1 1 1 srgb } def
578.73 224.00 17.28 11.52 r p3
np
578.73 229.76 m
17.28 0 l
o
0.00 0.00 657.75 449.25 cl
0.00 0.00 657.75 449.25 cl
/bg { 0.9490 0.9490 0.9490 srgb } def
1 1 1 srgb
1.06 setlinewidth
[] 0 setdash
1 setlinecap
1 setlinejoin
10.00 setmiterlimit
575.85 195.20 23.04 23.04 r p3
0.00 0.00 657.75 449.25 cl
0.00 0.00 657.75 449.25 cl
0 0.7490 0.7686 srgb
1.06 setlinewidth
[] 0 setdash
1 setlinecap
1 setlinejoin
10.00 setmiterlimit
np
587.37 197.51 m
0 3.45 l
o
np
587.37 212.48 m
0 3.46 l
o
/bg { 1 1 1 srgb } def
578.73 200.96 17.28 11.52 r p3
np
578.73 206.72 m
17.28 0 l
o
0.00 0.00 657.75 449.25 cl
0.00 0.00 657.75 449.25 cl
/bg { 0.9490 0.9490 0.9490 srgb } def
1 1 1 srgb
1.06 setlinewidth
[] 0 setdash
1 setlinecap
1 setlinejoin
10.00 setmiterlimit
575.85 172.16 23.04 23.04 r p3
0.00 0.00 657.75 449.25 cl
0.00 0.00 657.75 449.25 cl
0.3804 0.6118 1 srgb
1.06 setlinewidth
[] 0 setdash
1 setlinecap
1 setlinejoin
10.00 setmiterlimit
np
587.37 174.47 m
0 3.45 l
o
np
587.37 189.44 m
0 3.46 l
o
/bg { 1 1 1 srgb } def
578.73 177.92 17.28 11.52 r p3
np
578.73 183.68 m
17.28 0 l
o
0.00 0.00 657.75 449.25 cl
0.00 0.00 657.75 449.25 cl
/bg { 0.9490 0.9490 0.9490 srgb } def
1 1 1 srgb
1.06 setlinewidth
[] 0 setdash
1 setlinecap
1 setlinejoin
10.00 setmiterlimit
575.85 149.12 23.04 23.04 r p3
0.00 0.00 657.75 449.25 cl
0.00 0.00 657.75 449.25 cl
0.9608 0.3922 0.8902 srgb
1.06 setlinewidth
[] 0 setdash
1 setlinecap
1 setlinejoin
10.00 setmiterlimit
np
587.37 151.43 m
0 3.45 l
o
np
587.37 166.40 m
0 3.46 l
o
/bg { 1 1 1 srgb } def
578.73 154.88 17.28 11.52 r p3
np
578.73 160.64 m
17.28 0 l
o
0.00 0.00 657.75 449.25 cl
0.00 0.00 657.75 449.25 cl
/Font1 findfont 10 s
0 0 0 srgb
601.77 272.25 (e1) 0 0 t
0.00 0.00 657.75 449.25 cl
0.00 0.00 657.75 449.25 cl
/Font1 findfont 10 s
0 0 0 srgb
601.77 249.21 (e2 lsb) 0 0 t
0.00 0.00 657.75 449.25 cl
0.00 0.00 657.75 449.25 cl
/Font1 findfont 10 s
0 0 0 srgb
601.77 226.17 (e3 lsb) 0 0 t
0.00 0.00 657.75 449.25 cl
0.00 0.00 657.75 449.25 cl
/Font1 findfont 10 s
0 0 0 srgb
601.77 203.13 (e4 lsb) 0 0 t
0.00 0.00 657.75 449.25 cl
0.00 0.00 657.75 449.25 cl
/Font1 findfont 10 s
0 0 0 srgb
601.77 180.09 (e5 lsb) 0 0 t
0.00 0.00 657.75 449.25 cl
0.00 0.00 657.75 449.25 cl
/Font1 findfont 10 s
0 0 0 srgb
601.77 157.05 (e6 lsb) 0 0 t
0.00 0.00 657.75 449.25 cl
0.00 0.00 657.75 449.25 cl
0.00 0.00 657.75 449.25 cl
0.00 0.00 657.75 449.25 cl
0.00 0.00 657.75 449.25 cl
0.00 0.00 657.75 449.25 cl
0.00 0.00 657.75 449.25 cl
ep
%%Trailer
%%Pages: 1
%%EOF
