%!PS-Adobe-3.0 EPSF-3.0
%%DocumentNeededResources: font Helvetica
%%+ font Helvetica-Bold
%%+ font Helvetica-Oblique
%%+ font Helvetica-BoldOblique
%%+ font Symbol
%%Title: R Graphics Output
%%Creator: R Software
%%Pages: (atend)
%%BoundingBox: 0 0 658 449
%%EndComments
%%BeginProlog
/bp  { gs sRGB gs } def
% begin .ps.prolog
/gs  { gsave } bind def
/gr  { grestore } bind def
/ep  { showpage gr gr } bind def
/m   { moveto } bind def
/l  { rlineto } bind def
/np  { newpath } bind def
/cp  { closepath } bind def
/f   { fill } bind def
/o   { stroke } bind def
/c   { newpath 0 360 arc } bind def
/r   { 4 2 roll moveto 1 copy 3 -1 roll exch 0 exch rlineto 0 rlineto -1 mul 0 exch rlineto closepath } bind def
/p1  { stroke } bind def
/p2  { gsave bg fill grestore newpath } bind def
/p3  { gsave bg fill grestore stroke } bind def
/p6  { gsave bg eofill grestore newpath } bind def
/p7  { gsave bg eofill grestore stroke } bind def
/t   { 5 -2 roll moveto gsave rotate
       1 index stringwidth pop
       mul neg 0 rmoveto show grestore } bind def
/ta  { 4 -2 roll moveto gsave rotate show } bind def
/tb  { 2 -1 roll 0 rmoveto show } bind def
/cl  { grestore gsave newpath 3 index 3 index moveto 1 index
       4 -1 roll lineto  exch 1 index lineto lineto
       closepath clip newpath } bind def
/rgb { setrgbcolor } bind def
/s   { scalefont setfont } bind def
% end   .ps.prolog
/sRGB { [ /CIEBasedABC
          << /DecodeLMN
               [ { dup 0.03928 le
                        {12.92321 div}
                        {0.055 add 1.055 div 2.4 exp }
                     ifelse
                 } bind dup dup
               ]
             /MatrixLMN [0.412457 0.212673 0.019334
                         0.357576 0.715152 0.119192
                         0.180437 0.072175 0.950301]
             /WhitePoint [0.9505 1.0 1.0890]
           >>
         ] setcolorspace } bind def
/srgb { setcolor } bind def
%%IncludeResource: font Helvetica
/Helvetica findfont
dup length dict begin
  {1 index /FID ne {def} {pop pop} ifelse} forall
  /Encoding ISOLatin1Encoding def
  currentdict
  end
/Font1 exch definefont pop
%%IncludeResource: font Helvetica-Bold
/Helvetica-Bold findfont
dup length dict begin
  {1 index /FID ne {def} {pop pop} ifelse} forall
  /Encoding ISOLatin1Encoding def
  currentdict
  end
/Font2 exch definefont pop
%%IncludeResource: font Helvetica-Oblique
/Helvetica-Oblique findfont
dup length dict begin
  {1 index /FID ne {def} {pop pop} ifelse} forall
  /Encoding ISOLatin1Encoding def
  currentdict
  end
/Font3 exch definefont pop
%%IncludeResource: font Helvetica-BoldOblique
/Helvetica-BoldOblique findfont
dup length dict begin
  {1 index /FID ne {def} {pop pop} ifelse} forall
  /Encoding ISOLatin1Encoding def
  currentdict
  end
/Font4 exch definefont pop
%%IncludeResource: font Symbol
/Symbol findfont
dup length dict begin
  {1 index /FID ne {def} {pop pop} ifelse} forall
  currentdict
  end
/Font5 exch definefont pop
%%EndProlog
%%Page: 1 1
bp
0.00 0.00 657.75 449.25 cl
0.00 224.62 571.96 449.25 cl
/bg { 1 1 1 srgb } def
1 1 1 srgb
1.06 setlinewidth
[] 0 setdash
1 setlinecap
1 setlinejoin
10.00 setmiterlimit
-0.00 224.62 571.96 224.62 r p3
0.00 0.00 657.75 449.25 cl
0.00 0.00 657.75 449.25 cl
0.00 0.00 657.75 449.25 cl
48.80 266.71 552.76 410.40 cl
/bg { 0.8980 0.8980 0.8980 srgb } def
48.80 266.71 503.95 143.69 r p2
0.9490 0.9490 0.9490 srgb
0.53 setlinewidth
[] 0 setdash
0 setlinecap
1 setlinejoin
10.00 setmiterlimit
np
48.80 292.00 m
503.96 0 l
o
np
48.80 329.51 m
503.96 0 l
o
np
48.80 367.02 m
503.96 0 l
o
np
48.80 404.54 m
503.96 0 l
o
1 1 1 srgb
1.06 setlinewidth
[] 0 setdash
np
48.80 273.24 m
503.96 0 l
o
np
48.80 310.75 m
503.96 0 l
o
np
48.80 348.27 m
503.96 0 l
o
np
48.80 385.78 m
503.96 0 l
o
np
120.80 266.71 m
0 143.69 l
o
np
240.79 266.71 m
0 143.69 l
o
np
360.77 266.71 m
0 143.69 l
o
np
480.76 266.71 m
0 143.69 l
o
/bg { 0 0 0 srgb } def
79.89 361.16 2.13 c p2
0.9725 0.4627 0.4275 srgb
np
79.89 306.94 m
0 50.03 l
o
np
79.89 273.24 m
0 0 l
o
/bg { 1 1 1 srgb } def
1 setlinecap
np
 75.80 306.94 m
0 -33.70 l
8.18 0 l
0 33.70 l
-8.18 0 l
cp p3
2.13 setlinewidth
[] 0 setdash
0 setlinecap
np
75.80 286.64 m
8.18 0 l
o
/bg { 0 0 0 srgb } def
88.07 356.14 2.13 c p2
88.07 366.19 2.13 c p2
88.07 368.70 2.13 c p2
0.8588 0.5569 0 srgb
1.06 setlinewidth
[] 0 setdash
np
88.07 306.11 m
0 48.35 l
o
np
88.07 273.24 m
0 0 l
o
/bg { 1 1 1 srgb } def
1 setlinecap
np
 83.98 306.11 m
0 -32.87 l
8.18 0 l
0 32.87 l
-8.18 0 l
cp p3
2.13 setlinewidth
[] 0 setdash
0 setlinecap
np
83.98 286.64 m
8.18 0 l
o
/bg { 0 0 0 srgb } def
96.25 372.05 2.13 c p2
96.25 348.60 2.13 c p2
96.25 346.93 2.13 c p2
96.25 350.28 2.13 c p2
96.25 347.76 2.13 c p2
0.6824 0.6353 0 srgb
1.06 setlinewidth
[] 0 setdash
np
96.25 300.03 m
0 33.50 l
o
np
96.25 273.24 m
0 0 l
o
/bg { 1 1 1 srgb } def
1 setlinecap
np
 92.16 300.03 m
0 -26.79 l
8.18 0 l
0 26.79 l
-8.18 0 l
cp p3
2.13 setlinewidth
[] 0 setdash
0 setlinecap
np
92.16 284.12 m
8.18 0 l
o
/bg { 0 0 0 srgb } def
104.43 369.53 2.13 c p2
104.43 369.53 2.13 c p2
104.43 367.02 2.13 c p2
104.43 364.51 2.13 c p2
104.43 369.53 2.13 c p2
104.43 367.02 2.13 c p2
104.43 366.19 2.13 c p2
104.43 369.53 2.13 c p2
104.43 362.00 2.13 c p2
104.43 356.14 2.13 c p2
0.3922 0.6980 0 srgb
1.06 setlinewidth
[] 0 setdash
np
104.43 294.17 m
0 19.26 l
o
np
104.43 273.24 m
0 0 l
o
/bg { 1 1 1 srgb } def
1 setlinecap
np
 100.34 294.17 m
0 -20.93 l
8.18 0 l
0 20.93 l
-8.18 0 l
cp p3
2.13 setlinewidth
[] 0 setdash
0 setlinecap
np
100.34 276.59 m
8.18 0 l
o
/bg { 0 0 0 srgb } def
112.61 367.86 2.13 c p2
112.61 373.72 2.13 c p2
112.61 367.02 2.13 c p2
112.61 367.86 2.13 c p2
112.61 364.51 2.13 c p2
112.61 370.37 2.13 c p2
112.61 356.14 2.13 c p2
112.61 362.84 2.13 c p2
112.61 366.19 2.13 c p2
112.61 360.32 2.13 c p2
0 0.7412 0.3608 srgb
1.06 setlinewidth
[] 0 setdash
np
112.61 298.78 m
0 34.75 l
o
np
112.61 273.24 m
0 0 l
o
/bg { 1 1 1 srgb } def
1 setlinecap
np
 108.52 298.78 m
0 -25.54 l
8.19 0 l
0 25.54 l
-8.19 0 l
cp p3
2.13 setlinewidth
[] 0 setdash
0 setlinecap
np
108.52 278.26 m
8.19 0 l
o
/bg { 0 0 0 srgb } def
120.80 326.83 2.13 c p2
120.80 347.76 2.13 c p2
120.80 335.20 2.13 c p2
120.80 353.63 2.13 c p2
120.80 356.14 2.13 c p2
120.80 330.18 2.13 c p2
120.80 328.50 2.13 c p2
120.80 332.69 2.13 c p2
120.80 333.53 2.13 c p2
0 0.7569 0.6549 srgb
1.06 setlinewidth
[] 0 setdash
np
120.80 294.17 m
0 26.80 l
o
np
120.80 273.24 m
0 0 l
o
/bg { 1 1 1 srgb } def
1 setlinecap
np
 116.71 294.17 m
0 -20.93 l
8.18 0 l
0 20.93 l
-8.18 0 l
cp p3
2.13 setlinewidth
[] 0 setdash
0 setlinecap
np
116.71 279.94 m
8.18 0 l
o
0 0.7294 0.8706 srgb
1.06 setlinewidth
[] 0 setdash
np
128.98 338.76 m
0 40.82 l
o
np
128.98 286.64 m
0 -13.40 l
o
1 setlinecap
np
 124.89 338.76 m
0 -52.12 l
8.18 0 l
0 52.12 l
-8.18 0 l
cp p3
2.13 setlinewidth
[] 0 setdash
0 setlinecap
np
124.89 321.39 m
8.18 0 l
o
0 0.6510 1 srgb
1.06 setlinewidth
[] 0 setdash
np
137.16 329.55 m
0 45.85 l
o
np
137.16 285.80 m
0 -12.56 l
o
1 setlinecap
np
 133.07 329.55 m
0 -43.75 l
8.18 0 l
0 43.75 l
-8.18 0 l
cp p3
2.13 setlinewidth
[] 0 setdash
0 setlinecap
np
133.07 307.99 m
8.18 0 l
o
0.7020 0.5216 1 srgb
1.06 setlinewidth
[] 0 setdash
np
145.34 366.19 m
0 15.07 l
o
np
145.34 312.39 m
0 -39.15 l
o
1 setlinecap
np
 141.25 366.19 m
0 -53.80 l
8.18 0 l
0 53.80 l
-8.18 0 l
cp p3
2.13 setlinewidth
[] 0 setdash
0 setlinecap
np
141.25 341.06 m
8.18 0 l
o
/bg { 0 0 0 srgb } def
153.52 332.69 2.13 c p2
153.52 347.76 2.13 c p2
153.52 377.91 2.13 c p2
153.52 377.07 2.13 c p2
153.52 403.03 2.13 c p2
153.52 356.14 2.13 c p2
153.52 385.44 2.13 c p2
153.52 338.55 2.13 c p2
153.52 320.97 2.13 c p2
153.52 382.93 2.13 c p2
153.52 354.46 2.13 c p2
153.52 357.81 2.13 c p2
153.52 356.14 2.13 c p2
153.52 377.07 2.13 c p2
153.52 352.79 2.13 c p2
153.52 340.23 2.13 c p2
153.52 351.11 2.13 c p2
153.52 305.90 2.13 c p2
153.52 351.95 2.13 c p2
153.52 344.41 2.13 c p2
153.52 389.63 2.13 c p2
153.52 357.81 2.13 c p2
0.9373 0.4039 0.9216 srgb
1.06 setlinewidth
[] 0 setdash
np
153.52 368.91 m
0 5.65 l
o
np
153.52 364.51 m
0 -4.19 l
o
/bg { 1 1 1 srgb } def
1 setlinecap
np
 149.43 368.91 m
0 -4.40 l
8.18 0 l
0 4.40 l
-8.18 0 l
cp p3
2.13 setlinewidth
[] 0 setdash
0 setlinecap
np
149.43 366.60 m
8.18 0 l
o
/bg { 0 0 0 srgb } def
161.70 321.81 2.13 c p2
161.70 387.12 2.13 c p2
161.70 344.41 2.13 c p2
161.70 403.87 2.13 c p2
161.70 310.08 2.13 c p2
161.70 336.88 2.13 c p2
161.70 320.97 2.13 c p2
161.70 348.60 2.13 c p2
161.70 380.42 2.13 c p2
161.70 377.91 2.13 c p2
161.70 314.27 2.13 c p2
161.70 321.81 2.13 c p2
161.70 382.93 2.13 c p2
161.70 346.09 2.13 c p2
161.70 386.28 2.13 c p2
161.70 383.77 2.13 c p2
161.70 342.74 2.13 c p2
161.70 342.74 2.13 c p2
161.70 321.81 2.13 c p2
161.70 292.50 2.13 c p2
1 0.3882 0.7137 srgb
1.06 setlinewidth
[] 0 setdash
np
161.70 368.70 m
0 6.70 l
o
np
161.70 363.67 m
0 -5.86 l
o
/bg { 1 1 1 srgb } def
1 setlinecap
np
 157.61 368.70 m
0 -5.03 l
8.18 0 l
0 5.03 l
-8.18 0 l
cp p3
2.13 setlinewidth
[] 0 setdash
0 setlinecap
np
157.61 366.19 m
8.18 0 l
o
0.9725 0.4627 0.4275 srgb
1.06 setlinewidth
[] 0 setdash
np
199.88 352.16 m
0 27.42 l
o
np
199.88 311.76 m
0 -38.52 l
o
1 setlinecap
np
 195.79 352.16 m
0 -40.40 l
8.18 0 l
0 40.40 l
-8.18 0 l
cp p3
2.13 setlinewidth
[] 0 setdash
0 setlinecap
np
195.79 331.44 m
8.18 0 l
o
0.8588 0.5569 0 srgb
1.06 setlinewidth
[] 0 setdash
np
208.06 344.62 m
0 32.45 l
o
np
208.06 301.29 m
0 -28.05 l
o
1 setlinecap
np
 203.97 344.62 m
0 -43.33 l
8.18 0 l
0 43.33 l
-8.18 0 l
cp p3
2.13 setlinewidth
[] 0 setdash
0 setlinecap
np
203.97 323.48 m
8.18 0 l
o
0.6824 0.6353 0 srgb
1.06 setlinewidth
[] 0 setdash
np
216.24 337.30 m
0 42.28 l
o
np
216.24 302.55 m
0 -29.31 l
o
1 setlinecap
np
 212.15 337.30 m
0 -34.75 l
8.18 0 l
0 34.75 l
-8.18 0 l
cp p3
2.13 setlinewidth
[] 0 setdash
0 setlinecap
np
212.15 319.71 m
8.18 0 l
o
0.3922 0.6980 0 srgb
1.06 setlinewidth
[] 0 setdash
np
224.42 363.05 m
0 17.37 l
o
np
224.42 311.76 m
0 -38.52 l
o
1 setlinecap
np
 220.33 363.05 m
0 -51.29 l
8.18 0 l
0 51.29 l
-8.18 0 l
cp p3
2.13 setlinewidth
[] 0 setdash
0 setlinecap
np
220.33 339.39 m
8.18 0 l
o
0 0.7412 0.3608 srgb
1.06 setlinewidth
[] 0 setdash
np
232.60 356.97 m
0 24.29 l
o
np
232.60 313.43 m
0 -40.19 l
o
1 setlinecap
np
 228.51 356.97 m
0 -43.54 l
8.18 0 l
0 43.54 l
-8.18 0 l
cp p3
2.13 setlinewidth
[] 0 setdash
0 setlinecap
np
228.51 331.85 m
8.18 0 l
o
0 0.7569 0.6549 srgb
1.06 setlinewidth
[] 0 setdash
np
240.79 346.72 m
0 28.68 l
o
np
240.79 310.08 m
0 -36.84 l
o
1 setlinecap
np
 236.69 346.72 m
0 -36.64 l
8.19 0 l
0 36.64 l
-8.19 0 l
cp p3
2.13 setlinewidth
[] 0 setdash
0 setlinecap
np
236.69 326.83 m
8.19 0 l
o
0 0.7294 0.8706 srgb
1.06 setlinewidth
[] 0 setdash
np
248.97 353.42 m
0 26.16 l
o
np
248.97 318.25 m
0 -45.01 l
o
1 setlinecap
np
 244.88 353.42 m
0 -35.17 l
8.18 0 l
0 35.17 l
-8.18 0 l
cp p3
2.13 setlinewidth
[] 0 setdash
0 setlinecap
np
244.88 336.04 m
8.18 0 l
o
0 0.6510 1 srgb
1.06 setlinewidth
[] 0 setdash
np
257.15 358.65 m
0 20.93 l
o
np
257.15 324.11 m
0 -50.87 l
o
1 setlinecap
np
 253.06 358.65 m
0 -34.54 l
8.18 0 l
0 34.54 l
-8.18 0 l
cp p3
2.13 setlinewidth
[] 0 setdash
0 setlinecap
np
253.06 342.32 m
8.18 0 l
o
/bg { 0 0 0 srgb } def
265.33 300.03 2.13 c p2
265.33 286.64 2.13 c p2
265.33 298.36 2.13 c p2
265.33 300.03 2.13 c p2
265.33 301.71 2.13 c p2
265.33 300.03 2.13 c p2
0.7020 0.5216 1 srgb
1.06 setlinewidth
[] 0 setdash
np
265.33 368.70 m
0 9.21 l
o
np
265.33 342.53 m
0 -35.80 l
o
/bg { 1 1 1 srgb } def
1 setlinecap
np
 261.24 368.70 m
0 -26.17 l
8.18 0 l
0 26.17 l
-8.18 0 l
cp p3
2.13 setlinewidth
[] 0 setdash
0 setlinecap
np
261.24 357.81 m
8.18 0 l
o
/bg { 0 0 0 srgb } def
273.51 332.69 2.13 c p2
273.51 340.23 2.13 c p2
273.51 377.91 2.13 c p2
273.51 333.53 2.13 c p2
273.51 377.91 2.13 c p2
273.51 340.23 2.13 c p2
273.51 346.93 2.13 c p2
273.51 350.28 2.13 c p2
273.51 346.09 2.13 c p2
273.51 328.50 2.13 c p2
273.51 345.25 2.13 c p2
273.51 348.60 2.13 c p2
273.51 320.13 2.13 c p2
273.51 353.63 2.13 c p2
273.51 336.88 2.13 c p2
273.51 377.07 2.13 c p2
273.51 377.07 2.13 c p2
273.51 306.73 2.13 c p2
0.9373 0.4039 0.9216 srgb
1.06 setlinewidth
[] 0 setdash
np
273.51 368.70 m
0 7.53 l
o
np
273.51 363.46 m
0 -4.81 l
o
/bg { 1 1 1 srgb } def
1 setlinecap
np
 269.42 368.70 m
0 -5.24 l
8.18 0 l
0 5.24 l
-8.18 0 l
cp p3
2.13 setlinewidth
[] 0 setdash
0 setlinecap
np
269.42 367.02 m
8.18 0 l
o
/bg { 0 0 0 srgb } def
281.69 343.58 2.13 c p2
281.69 349.44 2.13 c p2
281.69 340.23 2.13 c p2
281.69 381.26 2.13 c p2
281.69 350.28 2.13 c p2
281.69 306.73 2.13 c p2
281.69 328.50 2.13 c p2
281.69 385.44 2.13 c p2
281.69 379.58 2.13 c p2
281.69 301.71 2.13 c p2
281.69 345.25 2.13 c p2
281.69 332.69 2.13 c p2
281.69 349.44 2.13 c p2
281.69 312.59 2.13 c p2
281.69 306.73 2.13 c p2
281.69 340.23 2.13 c p2
281.69 293.34 2.13 c p2
281.69 329.34 2.13 c p2
1 0.3882 0.7137 srgb
1.06 setlinewidth
[] 0 setdash
np
281.69 368.91 m
0 9.00 l
o
np
281.69 362.63 m
0 -8.17 l
o
/bg { 1 1 1 srgb } def
1 setlinecap
np
 277.60 368.91 m
0 -6.28 l
8.18 0 l
0 6.28 l
-8.18 0 l
cp p3
2.13 setlinewidth
[] 0 setdash
0 setlinecap
np
277.60 366.19 m
8.18 0 l
o
/bg { 0 0 0 srgb } def
319.87 289.99 2.13 c p2
319.87 300.03 2.13 c p2
0.9725 0.4627 0.4275 srgb
1.06 setlinewidth
[] 0 setdash
np
319.87 367.23 m
0 12.35 l
o
np
319.87 343.58 m
0 -33.50 l
o
/bg { 1 1 1 srgb } def
1 setlinecap
np
 315.78 367.23 m
0 -23.65 l
8.18 0 l
0 23.65 l
-8.18 0 l
cp p3
2.13 setlinewidth
[] 0 setdash
0 setlinecap
np
315.78 355.72 m
8.18 0 l
o
/bg { 0 0 0 srgb } def
328.05 286.64 2.13 c p2
0.8588 0.5569 0 srgb
1.06 setlinewidth
[] 0 setdash
np
328.05 368.91 m
0 12.35 l
o
np
328.05 341.69 m
0 -34.96 l
o
/bg { 1 1 1 srgb } def
1 setlinecap
np
 323.96 368.91 m
0 -27.22 l
8.18 0 l
0 27.22 l
-8.18 0 l
cp p3
2.13 setlinewidth
[] 0 setdash
0 setlinecap
np
323.96 359.49 m
8.18 0 l
o
0.6824 0.6353 0 srgb
1.06 setlinewidth
[] 0 setdash
np
336.23 365.56 m
0 15.70 l
o
np
336.23 334.99 m
0 -43.33 l
o
1 setlinecap
np
 332.14 365.56 m
0 -30.57 l
8.18 0 l
0 30.57 l
-8.18 0 l
cp p3
2.13 setlinewidth
[] 0 setdash
0 setlinecap
np
332.14 354.04 m
8.18 0 l
o
/bg { 0 0 0 srgb } def
344.41 339.39 2.13 c p2
344.41 331.02 2.13 c p2
344.41 323.48 2.13 c p2
344.41 313.43 2.13 c p2
344.41 313.43 2.13 c p2
344.41 340.23 2.13 c p2
344.41 306.73 2.13 c p2
0.3922 0.6980 0 srgb
1.06 setlinewidth
[] 0 setdash
np
344.41 371.21 m
0 12.56 l
o
np
344.41 359.49 m
0 -15.91 l
o
/bg { 1 1 1 srgb } def
1 setlinecap
np
 340.32 371.21 m
0 -11.72 l
8.18 0 l
0 11.72 l
-8.18 0 l
cp p3
2.13 setlinewidth
[] 0 setdash
0 setlinecap
np
340.32 366.19 m
8.18 0 l
o
/bg { 0 0 0 srgb } def
352.59 316.78 2.13 c p2
352.59 323.48 2.13 c p2
352.59 326.83 2.13 c p2
352.59 306.73 2.13 c p2
352.59 320.13 2.13 c p2
352.59 330.18 2.13 c p2
352.59 331.85 2.13 c p2
352.59 320.13 2.13 c p2
352.59 325.15 2.13 c p2
0 0.7412 0.3608 srgb
1.06 setlinewidth
[] 0 setdash
np
352.59 368.07 m
0 12.35 l
o
np
352.59 353.63 m
0 -20.10 l
o
/bg { 1 1 1 srgb } def
1 setlinecap
np
 348.50 368.07 m
0 -14.44 l
8.18 0 l
0 14.44 l
-8.18 0 l
cp p3
2.13 setlinewidth
[] 0 setdash
0 setlinecap
np
348.50 364.51 m
8.18 0 l
o
/bg { 0 0 0 srgb } def
360.77 320.13 2.13 c p2
360.77 298.36 2.13 c p2
360.77 319.29 2.13 c p2
0 0.7569 0.6549 srgb
1.06 setlinewidth
[] 0 setdash
np
360.77 368.70 m
0 20.93 l
o
np
360.77 350.90 m
0 -26.58 l
o
/bg { 1 1 1 srgb } def
1 setlinecap
np
 356.68 368.70 m
0 -17.80 l
8.18 0 l
0 17.80 l
-8.18 0 l
cp p3
2.13 setlinewidth
[] 0 setdash
0 setlinecap
np
356.68 363.67 m
8.18 0 l
o
0 0.7294 0.8706 srgb
1.06 setlinewidth
[] 0 setdash
np
368.96 366.39 m
0 12.36 l
o
np
368.96 341.48 m
0 -36.42 l
o
1 setlinecap
np
 364.86 366.39 m
0 -24.91 l
8.19 0 l
0 24.91 l
-8.19 0 l
cp p3
2.13 setlinewidth
[] 0 setdash
0 setlinecap
np
364.86 355.30 m
8.19 0 l
o
/bg { 0 0 0 srgb } def
377.14 305.90 2.13 c p2
0 0.6510 1 srgb
1.06 setlinewidth
[] 0 setdash
np
377.14 365.35 m
0 14.23 l
o
np
377.14 344.20 m
0 -29.09 l
o
/bg { 1 1 1 srgb } def
1 setlinecap
np
 373.05 365.35 m
0 -21.15 l
8.18 0 l
0 21.15 l
-8.18 0 l
cp p3
2.13 setlinewidth
[] 0 setdash
0 setlinecap
np
373.05 355.30 m
8.18 0 l
o
/bg { 0 0 0 srgb } def
385.32 309.25 2.13 c p2
385.32 323.48 2.13 c p2
385.32 306.73 2.13 c p2
0.7020 0.5216 1 srgb
1.06 setlinewidth
[] 0 setdash
np
385.32 370.37 m
0 8.38 l
o
np
385.32 351.95 m
0 -20.93 l
o
/bg { 1 1 1 srgb } def
1 setlinecap
np
 381.23 370.37 m
0 -18.42 l
8.18 0 l
0 18.42 l
-8.18 0 l
cp p3
2.13 setlinewidth
[] 0 setdash
0 setlinecap
np
381.23 362.00 m
8.18 0 l
o
/bg { 0 0 0 srgb } def
393.50 316.78 2.13 c p2
393.50 326.83 2.13 c p2
393.50 333.53 2.13 c p2
393.50 321.81 2.13 c p2
0.9373 0.4039 0.9216 srgb
1.06 setlinewidth
[] 0 setdash
np
393.50 370.37 m
0 10.05 l
o
np
393.50 356.14 m
0 -19.26 l
o
/bg { 1 1 1 srgb } def
1 setlinecap
np
 389.41 370.37 m
0 -14.23 l
8.18 0 l
0 14.23 l
-8.18 0 l
cp p3
2.13 setlinewidth
[] 0 setdash
0 setlinecap
np
389.41 364.09 m
8.18 0 l
o
/bg { 0 0 0 srgb } def
401.68 323.48 2.13 c p2
401.68 325.99 2.13 c p2
401.68 318.46 2.13 c p2
401.68 325.15 2.13 c p2
401.68 323.48 2.13 c p2
401.68 316.78 2.13 c p2
401.68 325.99 2.13 c p2
1 0.3882 0.7137 srgb
1.06 setlinewidth
[] 0 setdash
np
401.68 368.70 m
0 12.56 l
o
np
401.68 352.58 m
0 -22.40 l
o
/bg { 1 1 1 srgb } def
1 setlinecap
np
 397.59 368.70 m
0 -16.12 l
8.18 0 l
0 16.12 l
-8.18 0 l
cp p3
2.13 setlinewidth
[] 0 setdash
0 setlinecap
np
397.59 363.67 m
8.18 0 l
o
/bg { 0 0 0 srgb } def
439.86 326.83 2.13 c p2
439.86 313.43 2.13 c p2
439.86 318.46 2.13 c p2
0.9725 0.4627 0.4275 srgb
1.06 setlinewidth
[] 0 setdash
np
439.86 372.26 m
0 9.84 l
o
np
439.86 354.88 m
0 -18.84 l
o
/bg { 1 1 1 srgb } def
1 setlinecap
np
 435.77 372.26 m
0 -17.38 l
8.18 0 l
0 17.38 l
-8.18 0 l
cp p3
2.13 setlinewidth
[] 0 setdash
0 setlinecap
np
435.77 364.51 m
8.18 0 l
o
/bg { 0 0 0 srgb } def
448.04 346.09 2.13 c p2
0.8588 0.5569 0 srgb
1.06 setlinewidth
[] 0 setdash
np
448.04 373.93 m
0 5.65 l
o
np
448.04 363.67 m
0 -12.56 l
o
/bg { 1 1 1 srgb } def
1 setlinecap
np
 443.95 373.93 m
0 -10.26 l
8.18 0 l
0 10.26 l
-8.18 0 l
cp p3
2.13 setlinewidth
[] 0 setdash
0 setlinecap
np
443.95 370.37 m
8.18 0 l
o
/bg { 0 0 0 srgb } def
456.22 319.29 2.13 c p2
456.22 330.18 2.13 c p2
456.22 327.67 2.13 c p2
0.6824 0.6353 0 srgb
1.06 setlinewidth
[] 0 setdash
np
456.22 373.09 m
0 6.49 l
o
np
456.22 357.81 m
0 -16.75 l
o
/bg { 1 1 1 srgb } def
1 setlinecap
np
 452.13 373.09 m
0 -15.28 l
8.18 0 l
0 15.28 l
-8.18 0 l
cp p3
2.13 setlinewidth
[] 0 setdash
0 setlinecap
np
452.13 365.35 m
8.18 0 l
o
/bg { 0 0 0 srgb } def
464.40 351.95 2.13 c p2
464.40 352.79 2.13 c p2
464.40 353.63 2.13 c p2
464.40 350.28 2.13 c p2
464.40 346.93 2.13 c p2
0.3922 0.6980 0 srgb
1.06 setlinewidth
[] 0 setdash
np
464.40 371.21 m
0 7.54 l
o
np
464.40 364.51 m
0 -10.05 l
o
/bg { 1 1 1 srgb } def
1 setlinecap
np
 460.31 371.21 m
0 -6.70 l
8.18 0 l
0 6.70 l
-8.18 0 l
cp p3
2.13 setlinewidth
[] 0 setdash
0 setlinecap
np
460.31 368.28 m
8.18 0 l
o
/bg { 0 0 0 srgb } def
472.58 357.81 2.13 c p2
472.58 358.65 2.13 c p2
472.58 357.81 2.13 c p2
472.58 355.30 2.13 c p2
472.58 353.63 2.13 c p2
472.58 384.61 2.13 c p2
472.58 342.74 2.13 c p2
472.58 355.30 2.13 c p2
472.58 345.25 2.13 c p2
472.58 356.97 2.13 c p2
0 0.7412 0.3608 srgb
1.06 setlinewidth
[] 0 setdash
np
472.58 369.53 m
0 4.19 l
o
np
472.58 365.35 m
0 -5.86 l
o
/bg { 1 1 1 srgb } def
1 setlinecap
np
 468.49 369.53 m
0 -4.18 l
8.18 0 l
0 4.18 l
-8.18 0 l
cp p3
2.13 setlinewidth
[] 0 setdash
0 setlinecap
np
468.49 367.86 m
8.18 0 l
o
/bg { 0 0 0 srgb } def
480.76 351.95 2.13 c p2
480.76 352.79 2.13 c p2
480.76 353.63 2.13 c p2
480.76 351.11 2.13 c p2
480.76 331.85 2.13 c p2
480.76 352.79 2.13 c p2
480.76 377.91 2.13 c p2
0 0.7569 0.6549 srgb
1.06 setlinewidth
[] 0 setdash
np
480.76 369.53 m
0 5.87 l
o
np
480.76 365.35 m
0 -5.03 l
o
/bg { 1 1 1 srgb } def
1 setlinecap
np
 476.67 369.53 m
0 -4.18 l
8.18 0 l
0 4.18 l
-8.18 0 l
cp p3
2.13 setlinewidth
[] 0 setdash
0 setlinecap
np
476.67 367.02 m
8.18 0 l
o
/bg { 0 0 0 srgb } def
488.94 323.48 2.13 c p2
488.94 300.03 2.13 c p2
488.94 322.64 2.13 c p2
488.94 300.03 2.13 c p2
488.94 321.81 2.13 c p2
0 0.7294 0.8706 srgb
1.06 setlinewidth
[] 0 setdash
np
488.94 368.70 m
0 12.56 l
o
np
488.94 350.90 m
0 -24.07 l
o
/bg { 1 1 1 srgb } def
1 setlinecap
np
 484.85 368.70 m
0 -17.80 l
8.18 0 l
0 17.80 l
-8.18 0 l
cp p3
2.13 setlinewidth
[] 0 setdash
0 setlinecap
np
484.85 360.32 m
8.18 0 l
o
/bg { 0 0 0 srgb } def
497.13 310.08 2.13 c p2
497.13 309.25 2.13 c p2
0 0.6510 1 srgb
1.06 setlinewidth
[] 0 setdash
np
497.13 372.05 m
0 13.39 l
o
np
497.13 347.55 m
0 -32.44 l
o
/bg { 1 1 1 srgb } def
1 setlinecap
np
 493.03 372.05 m
0 -24.50 l
8.19 0 l
0 24.50 l
-8.19 0 l
cp p3
2.13 setlinewidth
[] 0 setdash
0 setlinecap
np
493.03 362.00 m
8.19 0 l
o
/bg { 0 0 0 srgb } def
505.31 316.78 2.13 c p2
505.31 316.78 2.13 c p2
0.7020 0.5216 1 srgb
1.06 setlinewidth
[] 0 setdash
np
505.31 368.70 m
0 19.26 l
o
np
505.31 350.28 m
0 -24.29 l
o
/bg { 1 1 1 srgb } def
1 setlinecap
np
 501.22 368.70 m
0 -18.42 l
8.18 0 l
0 18.42 l
-8.18 0 l
cp p3
2.13 setlinewidth
[] 0 setdash
0 setlinecap
np
501.22 359.91 m
8.18 0 l
o
/bg { 0 0 0 srgb } def
513.49 304.22 2.13 c p2
0.9373 0.4039 0.9216 srgb
1.06 setlinewidth
[] 0 setdash
np
513.49 369.53 m
0 14.24 l
o
np
513.49 346.72 m
0 -31.61 l
o
/bg { 1 1 1 srgb } def
1 setlinecap
np
 509.40 369.53 m
0 -22.81 l
8.18 0 l
0 22.81 l
-8.18 0 l
cp p3
2.13 setlinewidth
[] 0 setdash
0 setlinecap
np
509.40 357.81 m
8.18 0 l
o
1 0.3882 0.7137 srgb
1.06 setlinewidth
[] 0 setdash
np
521.67 368.49 m
0 11.93 l
o
np
521.67 343.58 m
0 -27.64 l
o
1 setlinecap
np
 517.58 368.49 m
0 -24.91 l
8.18 0 l
0 24.91 l
-8.18 0 l
cp p3
2.13 setlinewidth
[] 0 setdash
0 setlinecap
np
517.58 358.65 m
8.18 0 l
o
0.00 0.00 657.75 449.25 cl
0.00 0.00 657.75 449.25 cl
0.00 0.00 657.75 449.25 cl
/Font1 findfont 10 s
0.4980 0.4980 0.4980 srgb
41.72 269.65 (0.0) 1 0 t
41.72 307.16 (0.2) 1 0 t
41.72 344.68 (0.4) 1 0 t
41.72 382.19 (0.6) 1 0 t
0.00 0.00 657.75 449.25 cl
0.00 0.00 657.75 449.25 cl
0.4980 0.4980 0.4980 srgb
1.06 setlinewidth
[] 0 setdash
0 setlinecap
1 setlinejoin
10.00 setmiterlimit
np
44.55 273.24 m
4.25 0 l
o
np
44.55 310.75 m
4.25 0 l
o
np
44.55 348.27 m
4.25 0 l
o
np
44.55 385.78 m
4.25 0 l
o
0.00 0.00 657.75 449.25 cl
0.00 0.00 657.75 449.25 cl
0.00 0.00 657.75 449.25 cl
0.00 0.00 657.75 449.25 cl
0.00 0.00 657.75 449.25 cl
0.00 0.00 657.75 449.25 cl
0.4980 0.4980 0.4980 srgb
1.06 setlinewidth
[] 0 setdash
0 setlinecap
1 setlinejoin
10.00 setmiterlimit
np
120.80 262.46 m
0 4.25 l
o
np
240.79 262.46 m
0 4.25 l
o
np
360.77 262.46 m
0 4.25 l
o
np
480.76 262.46 m
0 4.25 l
o
0.00 0.00 657.75 449.25 cl
0.00 0.00 657.75 449.25 cl
/Font1 findfont 10 s
0.4980 0.4980 0.4980 srgb
120.80 252.44 (1) .5 0 t
240.79 252.44 (2) .5 0 t
360.77 252.44 (3) .5 0 t
480.76 252.44 (4) .5 0 t
0.00 0.00 657.75 449.25 cl
0.00 0.00 657.75 449.25 cl
0.00 0.00 657.75 449.25 cl
0.00 0.00 657.75 449.25 cl
0.00 0.00 657.75 449.25 cl
/Font1 findfont 12 s
0 0 0 srgb
300.78 239.02 (target) .5 0 t
0.00 0.00 657.75 449.25 cl
0.00 0.00 657.75 449.25 cl
/Font1 findfont 12 s
0 0 0 srgb
23.02 338.55 (error) .5 90 t
0.00 0.00 657.75 449.25 cl
0.00 0.00 657.75 449.25 cl
/Font1 findfont 14 s
0 0 0 srgb
207.02 415.20 (Gener) 0 ta
-0.140 (alisation error per target) tb gr
0.00 0.00 657.75 449.25 cl
0.00 0.00 657.75 449.25 cl
0.00 0.00 657.75 449.25 cl
0.00 0.00 285.98 224.62 cl
/bg { 1 1 1 srgb } def
1 1 1 srgb
1.06 setlinewidth
[] 0 setdash
1 setlinecap
1 setlinejoin
10.00 setmiterlimit
-0.00 0.00 285.98 224.62 r p3
0.00 0.00 657.75 449.25 cl
0.00 0.00 657.75 449.25 cl
0.00 0.00 657.75 449.25 cl
48.80 63.32 266.78 185.77 cl
/bg { 0.8980 0.8980 0.8980 srgb } def
48.80 63.32 217.98 122.45 r p2
0.9490 0.9490 0.9490 srgb
0.53 setlinewidth
[] 0 setdash
0 setlinecap
1 setlinejoin
10.00 setmiterlimit
np
48.80 68.69 m
217.98 0 l
o
np
48.80 97.85 m
217.98 0 l
o
np
48.80 127.02 m
217.98 0 l
o
np
48.80 156.18 m
217.98 0 l
o
np
48.80 185.35 m
217.98 0 l
o
1 1 1 srgb
1.06 setlinewidth
[] 0 setdash
np
48.80 83.27 m
217.98 0 l
o
np
48.80 112.44 m
217.98 0 l
o
np
48.80 141.60 m
217.98 0 l
o
np
48.80 170.77 m
217.98 0 l
o
np
60.48 63.32 m
0 122.45 l
o
np
79.94 63.32 m
0 122.45 l
o
np
99.40 63.32 m
0 122.45 l
o
np
118.87 63.32 m
0 122.45 l
o
np
138.33 63.32 m
0 122.45 l
o
np
157.79 63.32 m
0 122.45 l
o
np
177.25 63.32 m
0 122.45 l
o
np
196.71 63.32 m
0 122.45 l
o
np
216.18 63.32 m
0 122.45 l
o
np
235.64 63.32 m
0 122.45 l
o
np
255.10 63.32 m
0 122.45 l
o
0.9725 0.4627 0.4275 srgb
np
60.48 132.68 m
0 24.09 l
o
np
60.48 110.31 m
0 -28.73 l
o
/bg { 1 1 1 srgb } def
1 setlinecap
np
 53.18 132.68 m
0 -22.37 l
14.60 0 l
0 22.37 l
-14.60 0 l
cp p3
2.13 setlinewidth
[] 0 setdash
0 setlinecap
np
53.18 121.94 m
14.60 0 l
o
0.8588 0.5569 0 srgb
1.06 setlinewidth
[] 0 setdash
np
79.94 131.87 m
0 29.46 l
o
np
79.94 110.47 m
0 -28.89 l
o
1 setlinecap
np
 72.64 131.87 m
0 -21.40 l
14.60 0 l
0 21.40 l
-14.60 0 l
cp p3
2.13 setlinewidth
[] 0 setdash
0 setlinecap
np
72.64 120.97 m
14.60 0 l
o
0.6824 0.6353 0 srgb
1.06 setlinewidth
[] 0 setdash
np
99.40 129.75 m
0 35.48 l
o
np
99.40 101.44 m
0 -22.46 l
o
1 setlinecap
np
 92.11 129.75 m
0 -28.31 l
14.59 0 l
0 28.31 l
-14.59 0 l
cp p3
2.13 setlinewidth
[] 0 setdash
0 setlinecap
np
92.11 115.76 m
14.59 0 l
o
/bg { 0 0 0 srgb } def
118.87 174.67 2.13 c p2
118.87 174.02 2.13 c p2
118.87 175.00 2.13 c p2
118.87 172.72 2.13 c p2
118.87 172.39 2.13 c p2
0.3922 0.6980 0 srgb
1.06 setlinewidth
[] 0 setdash
np
118.87 137.08 m
0 32.39 l
o
np
118.87 113.72 m
0 -18.47 l
o
/bg { 1 1 1 srgb } def
1 setlinecap
np
 111.57 137.08 m
0 -23.36 l
14.59 0 l
0 23.36 l
-14.59 0 l
cp p3
2.13 setlinewidth
[] 0 setdash
0 setlinecap
np
111.57 125.03 m
14.59 0 l
o
/bg { 0 0 0 srgb } def
138.33 180.21 2.13 c p2
138.33 174.35 2.13 c p2
138.33 178.25 2.13 c p2
138.33 171.09 2.13 c p2
0 0.7412 0.3608 srgb
1.06 setlinewidth
[] 0 setdash
np
138.33 135.69 m
0 32.15 l
o
np
138.33 112.34 m
0 -27.51 l
o
/bg { 1 1 1 srgb } def
1 setlinecap
np
 131.03 135.69 m
0 -23.35 l
14.60 0 l
0 23.35 l
-14.60 0 l
cp p3
2.13 setlinewidth
[] 0 setdash
0 setlinecap
np
131.03 121.13 m
14.60 0 l
o
/bg { 0 0 0 srgb } def
157.79 163.93 2.13 c p2
157.79 164.91 2.13 c p2
157.79 165.23 2.13 c p2
0 0.7569 0.6549 srgb
1.06 setlinewidth
[] 0 setdash
np
157.79 131.54 m
0 30.11 l
o
np
157.79 110.14 m
0 -25.31 l
o
/bg { 1 1 1 srgb } def
1 setlinecap
np
 150.49 131.54 m
0 -21.40 l
14.60 0 l
0 21.40 l
-14.60 0 l
cp p3
2.13 setlinewidth
[] 0 setdash
0 setlinecap
np
150.49 119.66 m
14.60 0 l
o
0 0.7294 0.8706 srgb
1.06 setlinewidth
[] 0 setdash
np
177.25 143.59 m
0 24.90 l
o
np
177.25 116.49 m
0 -27.75 l
o
1 setlinecap
np
 169.95 143.59 m
0 -27.10 l
14.60 0 l
0 27.10 l
-14.60 0 l
cp p3
2.13 setlinewidth
[] 0 setdash
0 setlinecap
np
169.95 126.66 m
14.60 0 l
o
0 0.6510 1 srgb
1.06 setlinewidth
[] 0 setdash
np
196.71 141.55 m
0 24.01 l
o
np
196.71 115.11 m
0 -31.90 l
o
1 setlinecap
np
 189.42 141.55 m
0 -26.44 l
14.59 0 l
0 26.44 l
-14.59 0 l
cp p3
2.13 setlinewidth
[] 0 setdash
0 setlinecap
np
189.42 130.73 m
14.59 0 l
o
/bg { 0 0 0 srgb } def
216.18 95.90 2.13 c p2
216.18 96.88 2.13 c p2
216.18 103.39 2.13 c p2
216.18 68.88 2.13 c p2
0.7020 0.5216 1 srgb
1.06 setlinewidth
[] 0 setdash
np
216.18 159.78 m
0 18.15 l
o
np
216.18 137.32 m
0 -33.28 l
o
/bg { 1 1 1 srgb } def
1 setlinecap
np
 208.88 159.78 m
0 -22.46 l
14.60 0 l
0 22.46 l
-14.60 0 l
cp p3
2.13 setlinewidth
[] 0 setdash
0 setlinecap
np
208.88 148.47 m
14.60 0 l
o
/bg { 0 0 0 srgb } def
235.64 127.48 2.13 c p2
235.64 126.17 2.13 c p2
0.9373 0.4039 0.9216 srgb
1.06 setlinewidth
[] 0 setdash
np
235.64 171.09 m
0 9.12 l
o
np
235.64 155.79 m
0 -22.78 l
o
/bg { 1 1 1 srgb } def
1 setlinecap
np
 228.34 171.09 m
0 -15.30 l
14.60 0 l
0 15.30 l
-14.60 0 l
cp p3
2.13 setlinewidth
[] 0 setdash
0 setlinecap
np
228.34 165.07 m
14.60 0 l
o
/bg { 0 0 0 srgb } def
255.10 112.83 2.13 c p2
255.10 112.83 2.13 c p2
255.10 121.94 2.13 c p2
255.10 130.40 2.13 c p2
255.10 131.71 2.13 c p2
255.10 117.71 2.13 c p2
255.10 127.48 2.13 c p2
255.10 112.50 2.13 c p2
1 0.3882 0.7137 srgb
1.06 setlinewidth
[] 0 setdash
np
255.10 170.12 m
0 10.09 l
o
np
255.10 155.14 m
0 -20.18 l
o
/bg { 1 1 1 srgb } def
1 setlinecap
np
 247.80 170.12 m
0 -14.98 l
14.60 0 l
0 14.98 l
-14.60 0 l
cp p3
2.13 setlinewidth
[] 0 setdash
0 setlinecap
np
247.80 163.12 m
14.60 0 l
o
0.00 0.00 657.75 449.25 cl
0.00 0.00 657.75 449.25 cl
0.00 0.00 657.75 449.25 cl
/Font1 findfont 10 s
0.4980 0.4980 0.4980 srgb
41.72 79.68 (0.2) 1 0 t
41.72 108.85 (0.3) 1 0 t
41.72 138.01 (0.4) 1 0 t
41.72 167.18 (0.5) 1 0 t
0.00 0.00 657.75 449.25 cl
0.00 0.00 657.75 449.25 cl
0.4980 0.4980 0.4980 srgb
1.06 setlinewidth
[] 0 setdash
0 setlinecap
1 setlinejoin
10.00 setmiterlimit
np
44.55 83.27 m
4.25 0 l
o
np
44.55 112.44 m
4.25 0 l
o
np
44.55 141.60 m
4.25 0 l
o
np
44.55 170.77 m
4.25 0 l
o
0.00 0.00 657.75 449.25 cl
0.00 0.00 657.75 449.25 cl
0.00 0.00 657.75 449.25 cl
0.00 0.00 657.75 449.25 cl
0.00 0.00 657.75 449.25 cl
0.00 0.00 657.75 449.25 cl
0.4980 0.4980 0.4980 srgb
1.06 setlinewidth
[] 0 setdash
0 setlinecap
1 setlinejoin
10.00 setmiterlimit
np
60.48 59.07 m
0 4.25 l
o
np
79.94 59.07 m
0 4.25 l
o
np
99.40 59.07 m
0 4.25 l
o
np
118.87 59.07 m
0 4.25 l
o
np
138.33 59.07 m
0 4.25 l
o
np
157.79 59.07 m
0 4.25 l
o
np
177.25 59.07 m
0 4.25 l
o
np
196.71 59.07 m
0 4.25 l
o
np
216.18 59.07 m
0 4.25 l
o
np
235.64 59.07 m
0 4.25 l
o
np
255.10 59.07 m
0 4.25 l
o
0.00 0.00 657.75 449.25 cl
0.00 0.00 657.75 449.25 cl
/Font1 findfont 10 s
0.4980 0.4980 0.4980 srgb
66.06 53.49 (e1) 1.01 45.00 t
85.53 53.49 (e2 lsb) 1.01 45.00 t
104.99 53.49 (e3 lsb) 1.01 45.00 t
124.45 53.49 (e4 lsb) 1.01 45.00 t
143.91 53.49 (e5 lsb) 1.01 45.00 t
163.38 53.49 (e6 lsb) 1.01 45.00 t
182.84 53.49 (e2 msb) 1.01 45.00 t
202.30 53.49 (e3 msb) 1.01 45.00 t
221.76 53.49 (e4 msb) 1.01 45.00 t
241.22 53.49 (e5 msb) 1.01 45.00 t
260.69 53.49 (e6 msb) 1.01 45.00 t
0.00 0.00 657.75 449.25 cl
0.00 0.00 657.75 449.25 cl
0.00 0.00 657.75 449.25 cl
0.00 0.00 657.75 449.25 cl
0.00 0.00 657.75 449.25 cl
/Font1 findfont 12 s
0 0 0 srgb
141.46 14.40 (metr) 0 ta
0.180 (ic) tb gr
0.00 0.00 657.75 449.25 cl
0.00 0.00 657.75 449.25 cl
/Font1 findfont 12 s
0 0 0 srgb
23.02 124.55 (error) .5 90 t
0.00 0.00 657.75 449.25 cl
0.00 0.00 657.75 449.25 cl
/Font1 findfont 14 s
0 0 0 srgb
95.94 190.57 (Gener) 0 ta
-0.140 (alisation error) tb gr
0.00 0.00 657.75 449.25 cl
0.00 0.00 657.75 449.25 cl
0.00 0.00 657.75 449.25 cl
285.98 0.00 571.96 224.62 cl
/bg { 1 1 1 srgb } def
1 1 1 srgb
1.06 setlinewidth
[] 0 setdash
1 setlinecap
1 setlinejoin
10.00 setmiterlimit
285.98 0.00 285.98 224.62 r p3
0.00 0.00 657.75 449.25 cl
0.00 0.00 657.75 449.25 cl
0.00 0.00 657.75 449.25 cl
334.78 63.32 552.76 185.77 cl
/bg { 0.8980 0.8980 0.8980 srgb } def
334.78 63.32 217.98 122.45 r p2
0.9490 0.9490 0.9490 srgb
0.53 setlinewidth
[] 0 setdash
0 setlinecap
1 setlinejoin
10.00 setmiterlimit
np
334.78 88.14 m
217.98 0 l
o
np
334.78 126.65 m
217.98 0 l
o
np
334.78 165.16 m
217.98 0 l
o
1 1 1 srgb
1.06 setlinewidth
[] 0 setdash
np
334.78 68.88 m
217.98 0 l
o
np
334.78 107.40 m
217.98 0 l
o
np
334.78 145.91 m
217.98 0 l
o
np
334.78 184.42 m
217.98 0 l
o
np
346.46 63.32 m
0 122.45 l
o
np
365.92 63.32 m
0 122.45 l
o
np
385.38 63.32 m
0 122.45 l
o
np
404.84 63.32 m
0 122.45 l
o
np
424.31 63.32 m
0 122.45 l
o
np
443.77 63.32 m
0 122.45 l
o
np
463.23 63.32 m
0 122.45 l
o
np
482.69 63.32 m
0 122.45 l
o
np
502.16 63.32 m
0 122.45 l
o
np
521.62 63.32 m
0 122.45 l
o
np
541.08 63.32 m
0 122.45 l
o
/bg { 0 0 0 srgb } def
346.46 98.97 2.13 c p2
346.46 98.97 2.13 c p2
0.9725 0.4627 0.4275 srgb
np
346.46 84.30 m
0 13.17 l
o
np
346.46 74.90 m
0 -6.02 l
o
/bg { 1 1 1 srgb } def
1 setlinecap
np
 339.16 84.30 m
0 -9.40 l
14.60 0 l
0 9.40 l
-14.60 0 l
cp p3
2.13 setlinewidth
[] 0 setdash
0 setlinecap
np
339.16 77.91 m
14.60 0 l
o
/bg { 0 0 0 srgb } def
365.92 101.98 2.13 c p2
365.92 111.01 2.13 c p2
365.92 106.49 2.13 c p2
365.92 114.02 2.13 c p2
365.92 103.49 2.13 c p2
0.8588 0.5569 0 srgb
1.06 setlinewidth
[] 0 setdash
np
365.92 89.95 m
0 10.53 l
o
np
365.92 82.42 m
0 -9.02 l
o
/bg { 1 1 1 srgb } def
1 setlinecap
np
 358.62 89.95 m
0 -7.53 l
14.60 0 l
0 7.53 l
-14.60 0 l
cp p3
2.13 setlinewidth
[] 0 setdash
0 setlinecap
np
358.62 85.43 m
14.60 0 l
o
/bg { 0 0 0 srgb } def
385.38 112.51 2.13 c p2
385.38 117.02 2.13 c p2
385.38 112.51 2.13 c p2
0.6824 0.6353 0 srgb
1.06 setlinewidth
[] 0 setdash
np
385.38 86.94 m
0 18.05 l
o
np
385.38 74.90 m
0 -6.02 l
o
/bg { 1 1 1 srgb } def
1 setlinecap
np
 378.08 86.94 m
0 -12.04 l
14.60 0 l
0 12.04 l
-14.60 0 l
cp p3
2.13 setlinewidth
[] 0 setdash
0 setlinecap
np
378.08 79.42 m
14.60 0 l
o
/bg { 0 0 0 srgb } def
404.84 178.70 2.13 c p2
404.84 180.21 2.13 c p2
0.3922 0.6980 0 srgb
1.06 setlinewidth
[] 0 setdash
np
404.84 115.90 m
0 43.25 l
o
np
404.84 85.43 m
0 -16.55 l
o
/bg { 1 1 1 srgb } def
1 setlinecap
np
 397.55 115.90 m
0 -30.47 l
14.59 0 l
0 30.47 l
-14.59 0 l
cp p3
2.13 setlinewidth
[] 0 setdash
0 setlinecap
np
397.55 95.96 m
14.59 0 l
o
/bg { 0 0 0 srgb } def
424.31 177.20 2.13 c p2
424.31 178.70 2.13 c p2
0 0.7412 0.3608 srgb
1.06 setlinewidth
[] 0 setdash
np
424.31 121.54 m
0 51.15 l
o
np
424.31 86.94 m
0 -18.06 l
o
/bg { 1 1 1 srgb } def
1 setlinecap
np
 417.01 121.54 m
0 -34.60 l
14.60 0 l
0 34.60 l
-14.60 0 l
cp p3
2.13 setlinewidth
[] 0 setdash
0 setlinecap
np
417.01 105.74 m
14.60 0 l
o
0 0.7569 0.6549 srgb
1.06 setlinewidth
[] 0 setdash
np
443.77 121.54 m
0 34.60 l
o
np
443.77 91.45 m
0 -22.57 l
o
1 setlinecap
np
 436.47 121.54 m
0 -30.09 l
14.60 0 l
0 30.09 l
-14.60 0 l
cp p3
2.13 setlinewidth
[] 0 setdash
0 setlinecap
np
436.47 101.98 m
14.60 0 l
o
/bg { 0 0 0 srgb } def
463.23 114.02 2.13 c p2
463.23 103.49 2.13 c p2
463.23 104.99 2.13 c p2
463.23 106.49 2.13 c p2
463.23 111.01 2.13 c p2
0 0.7294 0.8706 srgb
1.06 setlinewidth
[] 0 setdash
np
463.23 86.94 m
0 15.04 l
o
np
463.23 76.41 m
0 -7.53 l
o
/bg { 1 1 1 srgb } def
1 setlinecap
np
 455.93 86.94 m
0 -10.53 l
14.60 0 l
0 10.53 l
-14.60 0 l
cp p3
2.13 setlinewidth
[] 0 setdash
0 setlinecap
np
455.93 80.92 m
14.60 0 l
o
/bg { 0 0 0 srgb } def
482.69 115.52 2.13 c p2
482.69 111.01 2.13 c p2
482.69 118.53 2.13 c p2
482.69 120.03 2.13 c p2
0 0.6510 1 srgb
1.06 setlinewidth
[] 0 setdash
np
482.69 88.44 m
0 18.05 l
o
np
482.69 74.90 m
0 -6.02 l
o
/bg { 1 1 1 srgb } def
1 setlinecap
np
 475.39 88.44 m
0 -13.54 l
14.60 0 l
0 13.54 l
-14.60 0 l
cp p3
2.13 setlinewidth
[] 0 setdash
0 setlinecap
np
475.39 79.42 m
14.60 0 l
o
/bg { 0 0 0 srgb } def
502.16 162.15 2.13 c p2
502.16 147.11 2.13 c p2
502.16 147.11 2.13 c p2
502.16 144.10 2.13 c p2
502.16 151.62 2.13 c p2
502.16 166.67 2.13 c p2
502.16 151.62 2.13 c p2
502.16 141.09 2.13 c p2
0.7020 0.5216 1 srgb
1.06 setlinewidth
[] 0 setdash
np
502.16 106.49 m
0 33.10 l
o
np
502.16 83.93 m
0 -15.05 l
o
/bg { 1 1 1 srgb } def
1 setlinecap
np
 494.86 106.49 m
0 -22.56 l
14.59 0 l
0 22.56 l
-14.59 0 l
cp p3
2.13 setlinewidth
[] 0 setdash
0 setlinecap
np
494.86 95.21 m
14.59 0 l
o
/bg { 0 0 0 srgb } def
521.62 70.39 2.13 c p2
521.62 68.88 2.13 c p2
0.9373 0.4039 0.9216 srgb
1.06 setlinewidth
[] 0 setdash
np
521.62 138.09 m
0 37.60 l
o
np
521.62 112.14 m
0 -37.24 l
o
/bg { 1 1 1 srgb } def
1 setlinecap
np
 514.32 138.09 m
0 -25.95 l
14.60 0 l
0 25.95 l
-14.60 0 l
cp p3
2.13 setlinewidth
[] 0 setdash
0 setlinecap
np
514.32 126.05 m
14.60 0 l
o
/bg { 0 0 0 srgb } def
541.08 77.91 2.13 c p2
541.08 68.88 2.13 c p2
541.08 168.17 2.13 c p2
541.08 71.89 2.13 c p2
541.08 76.41 2.13 c p2
541.08 77.91 2.13 c p2
541.08 70.39 2.13 c p2
1 0.3882 0.7137 srgb
1.06 setlinewidth
[] 0 setdash
np
541.08 132.07 m
0 28.58 l
o
np
541.08 110.63 m
0 -31.21 l
o
/bg { 1 1 1 srgb } def
1 setlinecap
np
 533.78 132.07 m
0 -21.44 l
14.60 0 l
0 21.44 l
-14.60 0 l
cp p3
2.13 setlinewidth
[] 0 setdash
0 setlinecap
np
533.78 120.79 m
14.60 0 l
o
0.00 0.00 657.75 449.25 cl
0.00 0.00 657.75 449.25 cl
0.00 0.00 657.75 449.25 cl
/Font1 findfont 10 s
0.4980 0.4980 0.4980 srgb
327.69 65.29 (0.0) 1 0 t
327.69 103.81 (0.2) 1 0 t
327.69 142.32 (0.4) 1 0 t
327.69 180.83 (0.6) 1 0 t
0.00 0.00 657.75 449.25 cl
0.00 0.00 657.75 449.25 cl
0.4980 0.4980 0.4980 srgb
1.06 setlinewidth
[] 0 setdash
0 setlinecap
1 setlinejoin
10.00 setmiterlimit
np
330.53 68.88 m
4.25 0 l
o
np
330.53 107.40 m
4.25 0 l
o
np
330.53 145.91 m
4.25 0 l
o
np
330.53 184.42 m
4.25 0 l
o
0.00 0.00 657.75 449.25 cl
0.00 0.00 657.75 449.25 cl
0.00 0.00 657.75 449.25 cl
0.00 0.00 657.75 449.25 cl
0.00 0.00 657.75 449.25 cl
0.00 0.00 657.75 449.25 cl
0.4980 0.4980 0.4980 srgb
1.06 setlinewidth
[] 0 setdash
0 setlinecap
1 setlinejoin
10.00 setmiterlimit
np
346.46 59.07 m
0 4.25 l
o
np
365.92 59.07 m
0 4.25 l
o
np
385.38 59.07 m
0 4.25 l
o
np
404.84 59.07 m
0 4.25 l
o
np
424.31 59.07 m
0 4.25 l
o
np
443.77 59.07 m
0 4.25 l
o
np
463.23 59.07 m
0 4.25 l
o
np
482.69 59.07 m
0 4.25 l
o
np
502.16 59.07 m
0 4.25 l
o
np
521.62 59.07 m
0 4.25 l
o
np
541.08 59.07 m
0 4.25 l
o
0.00 0.00 657.75 449.25 cl
0.00 0.00 657.75 449.25 cl
/Font1 findfont 10 s
0.4980 0.4980 0.4980 srgb
352.04 53.49 (e1) 1.01 45.00 t
371.51 53.49 (e2 lsb) 1.01 45.00 t
390.97 53.49 (e3 lsb) 1.01 45.00 t
410.43 53.49 (e4 lsb) 1.01 45.00 t
429.89 53.49 (e5 lsb) 1.01 45.00 t
449.35 53.49 (e6 lsb) 1.01 45.00 t
468.82 53.49 (e2 msb) 1.01 45.00 t
488.28 53.49 (e3 msb) 1.01 45.00 t
507.74 53.49 (e4 msb) 1.01 45.00 t
527.20 53.49 (e5 msb) 1.01 45.00 t
546.66 53.49 (e6 msb) 1.01 45.00 t
0.00 0.00 657.75 449.25 cl
0.00 0.00 657.75 449.25 cl
0.00 0.00 657.75 449.25 cl
0.00 0.00 657.75 449.25 cl
0.00 0.00 657.75 449.25 cl
/Font1 findfont 12 s
0 0 0 srgb
427.44 14.40 (metr) 0 ta
0.180 (ic) tb gr
0.00 0.00 657.75 449.25 cl
0.00 0.00 657.75 449.25 cl
/Font1 findfont 12 s
0 0 0 srgb
308.99 124.55 (error) .5 90 t
0.00 0.00 657.75 449.25 cl
0.00 0.00 657.75 449.25 cl
/Font1 findfont 14 s
0 0 0 srgb
401.76 190.57 (T) 0 ta
-1.680 (r) tb
-0.140 (aining error) tb gr
0.00 0.00 657.75 449.25 cl
0.00 0.00 657.75 449.25 cl
0.00 0.00 657.75 449.25 cl
0.00 0.00 657.75 449.25 cl
0.00 0.00 657.75 449.25 cl
0.00 0.00 657.75 449.25 cl
/bg { 1 1 1 srgb } def
571.60 87.27 86.50 274.70 r p2
0.00 0.00 657.75 449.25 cl
0.00 0.00 657.75 449.25 cl
/Font2 findfont 10 s
0 0 0 srgb
575.85 350.63 (optimiser_metric) 0 0 t
0.00 0.00 657.75 449.25 cl
0.00 0.00 657.75 449.25 cl
/bg { 0.9490 0.9490 0.9490 srgb } def
1 1 1 srgb
1.06 setlinewidth
[] 0 setdash
1 setlinecap
1 setlinejoin
10.00 setmiterlimit
575.85 321.92 23.04 23.04 r p3
0.00 0.00 657.75 449.25 cl
0.00 0.00 657.75 449.25 cl
0.9725 0.4627 0.4275 srgb
1.06 setlinewidth
[] 0 setdash
1 setlinecap
1 setlinejoin
10.00 setmiterlimit
np
587.37 324.23 m
0 3.45 l
o
np
587.37 339.20 m
0 3.46 l
o
/bg { 1 1 1 srgb } def
578.73 327.68 17.28 11.52 r p3
np
578.73 333.44 m
17.28 0 l
o
0.00 0.00 657.75 449.25 cl
0.00 0.00 657.75 449.25 cl
/bg { 0.9490 0.9490 0.9490 srgb } def
1 1 1 srgb
1.06 setlinewidth
[] 0 setdash
1 setlinecap
1 setlinejoin
10.00 setmiterlimit
575.85 298.88 23.04 23.04 r p3
0.00 0.00 657.75 449.25 cl
0.00 0.00 657.75 449.25 cl
0.8588 0.5569 0 srgb
1.06 setlinewidth
[] 0 setdash
1 setlinecap
1 setlinejoin
10.00 setmiterlimit
np
587.37 301.19 m
0 3.45 l
o
np
587.37 316.16 m
0 3.46 l
o
/bg { 1 1 1 srgb } def
578.73 304.64 17.28 11.52 r p3
np
578.73 310.40 m
17.28 0 l
o
0.00 0.00 657.75 449.25 cl
0.00 0.00 657.75 449.25 cl
/bg { 0.9490 0.9490 0.9490 srgb } def
1 1 1 srgb
1.06 setlinewidth
[] 0 setdash
1 setlinecap
1 setlinejoin
10.00 setmiterlimit
575.85 275.84 23.04 23.04 r p3
0.00 0.00 657.75 449.25 cl
0.00 0.00 657.75 449.25 cl
0.6824 0.6353 0 srgb
1.06 setlinewidth
[] 0 setdash
1 setlinecap
1 setlinejoin
10.00 setmiterlimit
np
587.37 278.15 m
0 3.45 l
o
np
587.37 293.12 m
0 3.46 l
o
/bg { 1 1 1 srgb } def
578.73 281.60 17.28 11.52 r p3
np
578.73 287.36 m
17.28 0 l
o
0.00 0.00 657.75 449.25 cl
0.00 0.00 657.75 449.25 cl
/bg { 0.9490 0.9490 0.9490 srgb } def
1 1 1 srgb
1.06 setlinewidth
[] 0 setdash
1 setlinecap
1 setlinejoin
10.00 setmiterlimit
575.85 252.80 23.04 23.04 r p3
0.00 0.00 657.75 449.25 cl
0.00 0.00 657.75 449.25 cl
0.3922 0.6980 0 srgb
1.06 setlinewidth
[] 0 setdash
1 setlinecap
1 setlinejoin
10.00 setmiterlimit
np
587.37 255.11 m
0 3.45 l
o
np
587.37 270.08 m
0 3.46 l
o
/bg { 1 1 1 srgb } def
578.73 258.56 17.28 11.52 r p3
np
578.73 264.32 m
17.28 0 l
o
0.00 0.00 657.75 449.25 cl
0.00 0.00 657.75 449.25 cl
/bg { 0.9490 0.9490 0.9490 srgb } def
1 1 1 srgb
1.06 setlinewidth
[] 0 setdash
1 setlinecap
1 setlinejoin
10.00 setmiterlimit
575.85 229.76 23.04 23.04 r p3
0.00 0.00 657.75 449.25 cl
0.00 0.00 657.75 449.25 cl
0 0.7412 0.3608 srgb
1.06 setlinewidth
[] 0 setdash
1 setlinecap
1 setlinejoin
10.00 setmiterlimit
np
587.37 232.07 m
0 3.45 l
o
np
587.37 247.04 m
0 3.46 l
o
/bg { 1 1 1 srgb } def
578.73 235.52 17.28 11.52 r p3
np
578.73 241.28 m
17.28 0 l
o
0.00 0.00 657.75 449.25 cl
0.00 0.00 657.75 449.25 cl
/bg { 0.9490 0.9490 0.9490 srgb } def
1 1 1 srgb
1.06 setlinewidth
[] 0 setdash
1 setlinecap
1 setlinejoin
10.00 setmiterlimit
575.85 206.72 23.04 23.04 r p3
0.00 0.00 657.75 449.25 cl
0.00 0.00 657.75 449.25 cl
0 0.7569 0.6549 srgb
1.06 setlinewidth
[] 0 setdash
1 setlinecap
1 setlinejoin
10.00 setmiterlimit
np
587.37 209.03 m
0 3.45 l
o
np
587.37 224.00 m
0 3.46 l
o
/bg { 1 1 1 srgb } def
578.73 212.48 17.28 11.52 r p3
np
578.73 218.24 m
17.28 0 l
o
0.00 0.00 657.75 449.25 cl
0.00 0.00 657.75 449.25 cl
/bg { 0.9490 0.9490 0.9490 srgb } def
1 1 1 srgb
1.06 setlinewidth
[] 0 setdash
1 setlinecap
1 setlinejoin
10.00 setmiterlimit
575.85 183.68 23.04 23.04 r p3
0.00 0.00 657.75 449.25 cl
0.00 0.00 657.75 449.25 cl
0 0.7294 0.8706 srgb
1.06 setlinewidth
[] 0 setdash
1 setlinecap
1 setlinejoin
10.00 setmiterlimit
np
587.37 185.99 m
0 3.45 l
o
np
587.37 200.96 m
0 3.46 l
o
/bg { 1 1 1 srgb } def
578.73 189.44 17.28 11.52 r p3
np
578.73 195.20 m
17.28 0 l
o
0.00 0.00 657.75 449.25 cl
0.00 0.00 657.75 449.25 cl
/bg { 0.9490 0.9490 0.9490 srgb } def
1 1 1 srgb
1.06 setlinewidth
[] 0 setdash
1 setlinecap
1 setlinejoin
10.00 setmiterlimit
575.85 160.64 23.04 23.04 r p3
0.00 0.00 657.75 449.25 cl
0.00 0.00 657.75 449.25 cl
0 0.6510 1 srgb
1.06 setlinewidth
[] 0 setdash
1 setlinecap
1 setlinejoin
10.00 setmiterlimit
np
587.37 162.95 m
0 3.45 l
o
np
587.37 177.92 m
0 3.46 l
o
/bg { 1 1 1 srgb } def
578.73 166.40 17.28 11.52 r p3
np
578.73 172.16 m
17.28 0 l
o
0.00 0.00 657.75 449.25 cl
0.00 0.00 657.75 449.25 cl
/bg { 0.9490 0.9490 0.9490 srgb } def
1 1 1 srgb
1.06 setlinewidth
[] 0 setdash
1 setlinecap
1 setlinejoin
10.00 setmiterlimit
575.85 137.60 23.04 23.04 r p3
0.00 0.00 657.75 449.25 cl
0.00 0.00 657.75 449.25 cl
0.7020 0.5216 1 srgb
1.06 setlinewidth
[] 0 setdash
1 setlinecap
1 setlinejoin
10.00 setmiterlimit
np
587.37 139.91 m
0 3.45 l
o
np
587.37 154.88 m
0 3.46 l
o
/bg { 1 1 1 srgb } def
578.73 143.36 17.28 11.52 r p3
np
578.73 149.12 m
17.28 0 l
o
0.00 0.00 657.75 449.25 cl
0.00 0.00 657.75 449.25 cl
/bg { 0.9490 0.9490 0.9490 srgb } def
1 1 1 srgb
1.06 setlinewidth
[] 0 setdash
1 setlinecap
1 setlinejoin
10.00 setmiterlimit
575.85 114.56 23.04 23.04 r p3
0.00 0.00 657.75 449.25 cl
0.00 0.00 657.75 449.25 cl
0.9373 0.4039 0.9216 srgb
1.06 setlinewidth
[] 0 setdash
1 setlinecap
1 setlinejoin
10.00 setmiterlimit
np
587.37 116.87 m
0 3.45 l
o
np
587.37 131.84 m
0 3.46 l
o
/bg { 1 1 1 srgb } def
578.73 120.32 17.28 11.52 r p3
np
578.73 126.08 m
17.28 0 l
o
0.00 0.00 657.75 449.25 cl
0.00 0.00 657.75 449.25 cl
/bg { 0.9490 0.9490 0.9490 srgb } def
1 1 1 srgb
1.06 setlinewidth
[] 0 setdash
1 setlinecap
1 setlinejoin
10.00 setmiterlimit
575.85 91.52 23.04 23.04 r p3
0.00 0.00 657.75 449.25 cl
0.00 0.00 657.75 449.25 cl
1 0.3882 0.7137 srgb
1.06 setlinewidth
[] 0 setdash
1 setlinecap
1 setlinejoin
10.00 setmiterlimit
np
587.37 93.83 m
0 3.45 l
o
np
587.37 108.80 m
0 3.46 l
o
/bg { 1 1 1 srgb } def
578.73 97.28 17.28 11.52 r p3
np
578.73 103.04 m
17.28 0 l
o
0.00 0.00 657.75 449.25 cl
0.00 0.00 657.75 449.25 cl
/Font1 findfont 10 s
0 0 0 srgb
601.77 329.85 (e1) 0 0 t
0.00 0.00 657.75 449.25 cl
0.00 0.00 657.75 449.25 cl
/Font1 findfont 10 s
0 0 0 srgb
601.77 306.81 (e2 lsb) 0 0 t
0.00 0.00 657.75 449.25 cl
0.00 0.00 657.75 449.25 cl
/Font1 findfont 10 s
0 0 0 srgb
601.77 283.77 (e2 msb) 0 0 t
0.00 0.00 657.75 449.25 cl
0.00 0.00 657.75 449.25 cl
/Font1 findfont 10 s
0 0 0 srgb
601.77 260.73 (e3 lsb) 0 0 t
0.00 0.00 657.75 449.25 cl
0.00 0.00 657.75 449.25 cl
/Font1 findfont 10 s
0 0 0 srgb
601.77 237.69 (e3 msb) 0 0 t
0.00 0.00 657.75 449.25 cl
0.00 0.00 657.75 449.25 cl
/Font1 findfont 10 s
0 0 0 srgb
601.77 214.65 (e4 lsb) 0 0 t
0.00 0.00 657.75 449.25 cl
0.00 0.00 657.75 449.25 cl
/Font1 findfont 10 s
0 0 0 srgb
601.77 191.61 (e4 msb) 0 0 t
0.00 0.00 657.75 449.25 cl
0.00 0.00 657.75 449.25 cl
/Font1 findfont 10 s
0 0 0 srgb
601.77 168.57 (e5 lsb) 0 0 t
0.00 0.00 657.75 449.25 cl
0.00 0.00 657.75 449.25 cl
/Font1 findfont 10 s
0 0 0 srgb
601.77 145.53 (e5 msb) 0 0 t
0.00 0.00 657.75 449.25 cl
0.00 0.00 657.75 449.25 cl
/Font1 findfont 10 s
0 0 0 srgb
601.77 122.49 (e6 lsb) 0 0 t
0.00 0.00 657.75 449.25 cl
0.00 0.00 657.75 449.25 cl
/Font1 findfont 10 s
0 0 0 srgb
601.77 99.45 (e6 msb) 0 0 t
0.00 0.00 657.75 449.25 cl
0.00 0.00 657.75 449.25 cl
0.00 0.00 657.75 449.25 cl
0.00 0.00 657.75 449.25 cl
0.00 0.00 657.75 449.25 cl
0.00 0.00 657.75 449.25 cl
0.00 0.00 657.75 449.25 cl
ep
%%Trailer
%%Pages: 1
%%EOF
