%!PS-Adobe-3.0 EPSF-3.0
%%DocumentNeededResources: font Helvetica
%%+ font Helvetica-Bold
%%+ font Helvetica-Oblique
%%+ font Helvetica-BoldOblique
%%+ font Symbol
%%Title: R Graphics Output
%%Creator: R Software
%%Pages: (atend)
%%BoundingBox: 0 0 658 449
%%EndComments
%%BeginProlog
/bp  { gs sRGB gs } def
% begin .ps.prolog
/gs  { gsave } bind def
/gr  { grestore } bind def
/ep  { showpage gr gr } bind def
/m   { moveto } bind def
/l  { rlineto } bind def
/np  { newpath } bind def
/cp  { closepath } bind def
/f   { fill } bind def
/o   { stroke } bind def
/c   { newpath 0 360 arc } bind def
/r   { 4 2 roll moveto 1 copy 3 -1 roll exch 0 exch rlineto 0 rlineto -1 mul 0 exch rlineto closepath } bind def
/p1  { stroke } bind def
/p2  { gsave bg fill grestore newpath } bind def
/p3  { gsave bg fill grestore stroke } bind def
/p6  { gsave bg eofill grestore newpath } bind def
/p7  { gsave bg eofill grestore stroke } bind def
/t   { 5 -2 roll moveto gsave rotate
       1 index stringwidth pop
       mul neg 0 rmoveto show grestore } bind def
/ta  { 4 -2 roll moveto gsave rotate show } bind def
/tb  { 2 -1 roll 0 rmoveto show } bind def
/cl  { grestore gsave newpath 3 index 3 index moveto 1 index
       4 -1 roll lineto  exch 1 index lineto lineto
       closepath clip newpath } bind def
/rgb { setrgbcolor } bind def
/s   { scalefont setfont } bind def
% end   .ps.prolog
/sRGB { [ /CIEBasedABC
          << /DecodeLMN
               [ { dup 0.03928 le
                        {12.92321 div}
                        {0.055 add 1.055 div 2.4 exp }
                     ifelse
                 } bind dup dup
               ]
             /MatrixLMN [0.412457 0.212673 0.019334
                         0.357576 0.715152 0.119192
                         0.180437 0.072175 0.950301]
             /WhitePoint [0.9505 1.0 1.0890]
           >>
         ] setcolorspace } bind def
/srgb { setcolor } bind def
%%IncludeResource: font Helvetica
/Helvetica findfont
dup length dict begin
  {1 index /FID ne {def} {pop pop} ifelse} forall
  /Encoding ISOLatin1Encoding def
  currentdict
  end
/Font1 exch definefont pop
%%IncludeResource: font Helvetica-Bold
/Helvetica-Bold findfont
dup length dict begin
  {1 index /FID ne {def} {pop pop} ifelse} forall
  /Encoding ISOLatin1Encoding def
  currentdict
  end
/Font2 exch definefont pop
%%IncludeResource: font Helvetica-Oblique
/Helvetica-Oblique findfont
dup length dict begin
  {1 index /FID ne {def} {pop pop} ifelse} forall
  /Encoding ISOLatin1Encoding def
  currentdict
  end
/Font3 exch definefont pop
%%IncludeResource: font Helvetica-BoldOblique
/Helvetica-BoldOblique findfont
dup length dict begin
  {1 index /FID ne {def} {pop pop} ifelse} forall
  /Encoding ISOLatin1Encoding def
  currentdict
  end
/Font4 exch definefont pop
%%IncludeResource: font Symbol
/Symbol findfont
dup length dict begin
  {1 index /FID ne {def} {pop pop} ifelse} forall
  currentdict
  end
/Font5 exch definefont pop
%%EndProlog
%%Page: 1 1
bp
0.00 0.00 657.75 449.25 cl
0.00 224.62 657.75 449.25 cl
/bg { 1 1 1 srgb } def
1 1 1 srgb
1.06 setlinewidth
[] 0 setdash
1 setlinecap
1 setlinejoin
10.00 setmiterlimit
0.00 224.62 657.75 224.62 r p3
0.00 0.00 657.75 449.25 cl
0.00 0.00 657.75 449.25 cl
0.00 0.00 657.75 449.25 cl
54.36 266.71 638.55 410.40 cl
/bg { 0.8980 0.8980 0.8980 srgb } def
54.36 266.71 584.19 143.69 r p2
0.9490 0.9490 0.9490 srgb
0.53 setlinewidth
[] 0 setdash
0 setlinecap
1 setlinejoin
10.00 setmiterlimit
np
54.36 294.65 m
584.19 0 l
o
np
54.36 337.48 m
584.19 0 l
o
np
54.36 380.31 m
584.19 0 l
o
1 1 1 srgb
1.06 setlinewidth
[] 0 setdash
np
54.36 273.24 m
584.19 0 l
o
np
54.36 316.07 m
584.19 0 l
o
np
54.36 358.90 m
584.19 0 l
o
np
54.36 401.73 m
584.19 0 l
o
np
97.11 266.71 m
0 143.69 l
o
np
168.35 266.71 m
0 143.69 l
o
np
239.59 266.71 m
0 143.69 l
o
np
310.84 266.71 m
0 143.69 l
o
np
382.08 266.71 m
0 143.69 l
o
np
453.32 266.71 m
0 143.69 l
o
np
524.56 266.71 m
0 143.69 l
o
np
595.80 266.71 m
0 143.69 l
o
0.9725 0.4627 0.4275 srgb
np
97.11 273.24 m
0 0 l
o
np
97.11 273.24 m
0 0 l
o
/bg { 1 1 1 srgb } def
1 setlinecap
np
 70.39 273.24 m
0 0 l
53.43 0 l
0 0 l
-53.43 0 l
cp p3
2.13 setlinewidth
[] 0 setdash
0 setlinecap
np
70.39 273.24 m
53.43 0 l
o
1.06 setlinewidth
[] 0 setdash
np
168.35 273.24 m
0 0 l
o
np
168.35 273.24 m
0 0 l
o
1 setlinecap
np
 141.63 273.24 m
0 0 l
53.44 0 l
0 0 l
-53.44 0 l
cp p3
2.13 setlinewidth
[] 0 setdash
0 setlinecap
np
141.63 273.24 m
53.44 0 l
o
1.06 setlinewidth
[] 0 setdash
np
239.59 273.24 m
0 0 l
o
np
239.59 273.24 m
0 0 l
o
1 setlinecap
np
 212.88 273.24 m
0 0 l
53.43 0 l
0 0 l
-53.43 0 l
cp p3
2.13 setlinewidth
[] 0 setdash
0 setlinecap
np
212.88 273.24 m
53.43 0 l
o
1.06 setlinewidth
[] 0 setdash
np
310.84 273.24 m
0 0 l
o
np
310.84 273.24 m
0 0 l
o
1 setlinecap
np
 284.12 273.24 m
0 0 l
53.43 0 l
0 0 l
-53.43 0 l
cp p3
2.13 setlinewidth
[] 0 setdash
0 setlinecap
np
284.12 273.24 m
53.43 0 l
o
/bg { 0 0 0 srgb } def
382.08 401.24 2.13 c p2
1.06 setlinewidth
[] 0 setdash
np
382.08 305.24 m
0 0 l
o
np
382.08 273.24 m
0 0 l
o
/bg { 1 1 1 srgb } def
1 setlinecap
np
 355.36 305.24 m
0 -32.00 l
53.43 0 l
0 32.00 l
-53.43 0 l
cp p3
2.13 setlinewidth
[] 0 setdash
0 setlinecap
np
355.36 273.24 m
53.43 0 l
o
1.06 setlinewidth
[] 0 setdash
np
453.32 301.83 m
0 35.41 l
o
np
453.32 273.24 m
0 0 l
o
1 setlinecap
np
 426.60 301.83 m
0 -28.59 l
53.44 0 l
0 28.59 l
-53.44 0 l
cp p3
2.13 setlinewidth
[] 0 setdash
0 setlinecap
np
426.60 281.63 m
53.44 0 l
o
1.06 setlinewidth
[] 0 setdash
np
524.56 354.68 m
0 49.19 l
o
np
524.56 306.42 m
0 -1.18 l
o
1 setlinecap
np
 497.85 354.68 m
0 -48.26 l
53.43 0 l
0 48.26 l
-53.43 0 l
cp p3
2.13 setlinewidth
[] 0 setdash
0 setlinecap
np
497.85 322.55 m
53.43 0 l
o
1.06 setlinewidth
[] 0 setdash
np
595.80 334.88 m
0 33.84 l
o
np
595.80 295.27 m
0 -9.44 l
o
1 setlinecap
np
 569.09 334.88 m
0 -39.61 l
53.43 0 l
0 39.61 l
-53.43 0 l
cp p3
2.13 setlinewidth
[] 0 setdash
0 setlinecap
np
569.09 311.01 m
53.43 0 l
o
0.00 0.00 657.75 449.25 cl
0.00 0.00 657.75 449.25 cl
0.00 0.00 657.75 449.25 cl
/Font1 findfont 10 s
0.4980 0.4980 0.4980 srgb
47.28 269.65 (0.00) 1 0 t
47.28 312.48 (0.02) 1 0 t
47.28 355.31 (0.04) 1 0 t
47.28 398.14 (0.06) 1 0 t
0.00 0.00 657.75 449.25 cl
0.00 0.00 657.75 449.25 cl
0.4980 0.4980 0.4980 srgb
1.06 setlinewidth
[] 0 setdash
0 setlinecap
1 setlinejoin
10.00 setmiterlimit
np
50.11 273.24 m
4.25 0 l
o
np
50.11 316.07 m
4.25 0 l
o
np
50.11 358.90 m
4.25 0 l
o
np
50.11 401.73 m
4.25 0 l
o
0.00 0.00 657.75 449.25 cl
0.00 0.00 657.75 449.25 cl
0.00 0.00 657.75 449.25 cl
0.00 0.00 657.75 449.25 cl
0.00 0.00 657.75 449.25 cl
0.00 0.00 657.75 449.25 cl
0.4980 0.4980 0.4980 srgb
1.06 setlinewidth
[] 0 setdash
0 setlinecap
1 setlinejoin
10.00 setmiterlimit
np
97.11 262.46 m
0 4.25 l
o
np
168.35 262.46 m
0 4.25 l
o
np
239.59 262.46 m
0 4.25 l
o
np
310.84 262.46 m
0 4.25 l
o
np
382.08 262.46 m
0 4.25 l
o
np
453.32 262.46 m
0 4.25 l
o
np
524.56 262.46 m
0 4.25 l
o
np
595.80 262.46 m
0 4.25 l
o
0.00 0.00 657.75 449.25 cl
0.00 0.00 657.75 449.25 cl
/Font1 findfont 10 s
0.4980 0.4980 0.4980 srgb
97.11 252.44 (1) .5 0 t
168.35 252.44 (2) .5 0 t
239.59 252.44 (3) .5 0 t
310.84 252.44 (4) .5 0 t
382.08 252.44 (5) .5 0 t
453.32 252.44 (6) .5 0 t
524.56 252.44 (7) .5 0 t
595.80 252.44 (8) .5 0 t
0.00 0.00 657.75 449.25 cl
0.00 0.00 657.75 449.25 cl
0.00 0.00 657.75 449.25 cl
0.00 0.00 657.75 449.25 cl
0.00 0.00 657.75 449.25 cl
/Font1 findfont 12 s
0 0 0 srgb
346.46 239.02 (target) .5 0 t
0.00 0.00 657.75 449.25 cl
0.00 0.00 657.75 449.25 cl
/Font1 findfont 12 s
0 0 0 srgb
23.02 338.55 (error) .5 90 t
0.00 0.00 657.75 449.25 cl
0.00 0.00 657.75 449.25 cl
/Font1 findfont 14 s
0 0 0 srgb
252.70 415.20 (Gener) 0 ta
-0.140 (alisation error per target) tb gr
0.00 0.00 657.75 449.25 cl
0.00 0.00 657.75 449.25 cl
0.00 0.00 657.75 449.25 cl
0.00 0.00 328.88 224.62 cl
/bg { 1 1 1 srgb } def
1 1 1 srgb
1.06 setlinewidth
[] 0 setdash
1 setlinecap
1 setlinejoin
10.00 setmiterlimit
0.00 0.00 328.88 224.62 r p3
0.00 0.00 657.75 449.25 cl
0.00 0.00 657.75 449.25 cl
0.00 0.00 657.75 449.25 cl
59.92 47.84 309.68 185.77 cl
/bg { 0.8980 0.8980 0.8980 srgb } def
59.92 47.84 249.75 137.93 r p2
0.9490 0.9490 0.9490 srgb
0.53 setlinewidth
[] 0 setdash
0 setlinecap
1 setlinejoin
10.00 setmiterlimit
np
59.92 61.99 m
249.76 0 l
o
np
59.92 88.66 m
249.76 0 l
o
np
59.92 115.34 m
249.76 0 l
o
np
59.92 142.02 m
249.76 0 l
o
np
59.92 168.69 m
249.76 0 l
o
1 1 1 srgb
1.06 setlinewidth
[] 0 setdash
np
59.92 48.65 m
249.76 0 l
o
np
59.92 75.32 m
249.76 0 l
o
np
59.92 102.00 m
249.76 0 l
o
np
59.92 128.68 m
249.76 0 l
o
np
59.92 155.35 m
249.76 0 l
o
np
59.92 182.03 m
249.76 0 l
o
np
184.80 47.84 m
0 137.93 l
o
0.9725 0.4627 0.4275 srgb
np
184.80 173.38 m
0 6.12 l
o
np
184.80 77.39 m
0 -23.28 l
o
/bg { 1 1 1 srgb } def
1 setlinecap
np
 91.14 173.38 m
0 -95.99 l
187.32 0 l
0 95.99 l
-187.32 0 l
cp p3
2.13 setlinewidth
[] 0 setdash
0 setlinecap
np
91.14 128.24 m
187.32 0 l
o
0.00 0.00 657.75 449.25 cl
0.00 0.00 657.75 449.25 cl
0.00 0.00 657.75 449.25 cl
/Font1 findfont 10 s
0.4980 0.4980 0.4980 srgb
52.84 45.06 (0.004) 1 0 t
52.84 71.73 (0.006) 1 0 t
52.84 98.41 (0.008) 1 0 t
52.84 125.09 (0.010) 1 0 t
52.84 151.76 (0.012) 1 0 t
52.84 178.44 (0.014) 1 0 t
0.00 0.00 657.75 449.25 cl
0.00 0.00 657.75 449.25 cl
0.4980 0.4980 0.4980 srgb
1.06 setlinewidth
[] 0 setdash
0 setlinecap
1 setlinejoin
10.00 setmiterlimit
np
55.67 48.65 m
4.25 0 l
o
np
55.67 75.32 m
4.25 0 l
o
np
55.67 102.00 m
4.25 0 l
o
np
55.67 128.68 m
4.25 0 l
o
np
55.67 155.35 m
4.25 0 l
o
np
55.67 182.03 m
4.25 0 l
o
0.00 0.00 657.75 449.25 cl
0.00 0.00 657.75 449.25 cl
0.00 0.00 657.75 449.25 cl
0.00 0.00 657.75 449.25 cl
0.00 0.00 657.75 449.25 cl
0.00 0.00 657.75 449.25 cl
0.4980 0.4980 0.4980 srgb
1.06 setlinewidth
[] 0 setdash
0 setlinecap
1 setlinejoin
10.00 setmiterlimit
np
184.80 43.59 m
0 4.25 l
o
0.00 0.00 657.75 449.25 cl
0.00 0.00 657.75 449.25 cl
/Font1 findfont 10 s
0.4980 0.4980 0.4980 srgb
190.38 36.47 (e1) 1.01 45.00 t
0.00 0.00 657.75 449.25 cl
0.00 0.00 657.75 449.25 cl
0.00 0.00 657.75 449.25 cl
0.00 0.00 657.75 449.25 cl
0.00 0.00 657.75 449.25 cl
/Font1 findfont 12 s
0 0 0 srgb
168.47 14.40 (metr) 0 ta
0.180 (ic) tb gr
0.00 0.00 657.75 449.25 cl
0.00 0.00 657.75 449.25 cl
/Font1 findfont 12 s
0 0 0 srgb
23.02 116.81 (error) .5 90 t
0.00 0.00 657.75 449.25 cl
0.00 0.00 657.75 449.25 cl
/Font1 findfont 14 s
0 0 0 srgb
122.95 190.57 (Gener) 0 ta
-0.140 (alisation error) tb gr
0.00 0.00 657.75 449.25 cl
0.00 0.00 657.75 449.25 cl
0.00 0.00 657.75 449.25 cl
328.88 0.00 657.75 224.62 cl
/bg { 1 1 1 srgb } def
1 1 1 srgb
1.06 setlinewidth
[] 0 setdash
1 setlinecap
1 setlinejoin
10.00 setmiterlimit
328.88 0.00 328.88 224.62 r p3
0.00 0.00 657.75 449.25 cl
0.00 0.00 657.75 449.25 cl
0.00 0.00 657.75 449.25 cl
389.08 47.84 638.55 185.77 cl
/bg { 0.8980 0.8980 0.8980 srgb } def
389.08 47.84 249.47 137.93 r p2
0.9490 0.9490 0.9490 srgb
0.53 setlinewidth
[] 0 setdash
0 setlinecap
1 setlinejoin
10.00 setmiterlimit
np
389.08 65.08 m
249.47 0 l
o
np
389.08 99.57 m
249.47 0 l
o
np
389.08 134.05 m
249.47 0 l
o
np
389.08 168.53 m
249.47 0 l
o
1 1 1 srgb
1.06 setlinewidth
[] 0 setdash
np
389.08 47.84 m
249.47 0 l
o
np
389.08 82.33 m
249.47 0 l
o
np
389.08 116.81 m
249.47 0 l
o
np
389.08 151.29 m
249.47 0 l
o
np
389.08 185.77 m
249.47 0 l
o
np
513.81 47.84 m
0 137.93 l
o
0.9725 0.4627 0.4275 srgb
np
513.81 116.81 m
0 0 l
o
np
513.81 116.81 m
0 0 l
o
/bg { 1 1 1 srgb } def
1 setlinecap
np
 420.26 116.81 m
0 0 l
187.11 0 l
0 0 l
-187.11 0 l
cp p3
2.13 setlinewidth
[] 0 setdash
0 setlinecap
np
420.26 116.81 m
187.11 0 l
o
0.00 0.00 657.75 449.25 cl
0.00 0.00 657.75 449.25 cl
0.00 0.00 657.75 449.25 cl
/Font1 findfont 10 s
0.4980 0.4980 0.4980 srgb
381.99 44.25 (-0.50) 1 0 t
381.99 78.74 (-0.25) 1 0 t
381.99 113.22 (0.00) 1 0 t
381.99 147.70 (0.25) 1 0 t
381.99 182.18 (0.50) 1 0 t
0.00 0.00 657.75 449.25 cl
0.00 0.00 657.75 449.25 cl
0.4980 0.4980 0.4980 srgb
1.06 setlinewidth
[] 0 setdash
0 setlinecap
1 setlinejoin
10.00 setmiterlimit
np
384.83 47.84 m
4.25 0 l
o
np
384.83 82.33 m
4.25 0 l
o
np
384.83 116.81 m
4.25 0 l
o
np
384.83 151.29 m
4.25 0 l
o
np
384.83 185.77 m
4.25 0 l
o
0.00 0.00 657.75 449.25 cl
0.00 0.00 657.75 449.25 cl
0.00 0.00 657.75 449.25 cl
0.00 0.00 657.75 449.25 cl
0.00 0.00 657.75 449.25 cl
0.00 0.00 657.75 449.25 cl
0.4980 0.4980 0.4980 srgb
1.06 setlinewidth
[] 0 setdash
0 setlinecap
1 setlinejoin
10.00 setmiterlimit
np
513.81 43.59 m
0 4.25 l
o
0.00 0.00 657.75 449.25 cl
0.00 0.00 657.75 449.25 cl
/Font1 findfont 10 s
0.4980 0.4980 0.4980 srgb
519.40 36.47 (e1) 1.01 45.00 t
0.00 0.00 657.75 449.25 cl
0.00 0.00 657.75 449.25 cl
0.00 0.00 657.75 449.25 cl
0.00 0.00 657.75 449.25 cl
0.00 0.00 657.75 449.25 cl
/Font1 findfont 12 s
0 0 0 srgb
497.48 14.40 (metr) 0 ta
0.180 (ic) tb gr
0.00 0.00 657.75 449.25 cl
0.00 0.00 657.75 449.25 cl
/Font1 findfont 12 s
0 0 0 srgb
351.89 116.81 (error) .5 90 t
0.00 0.00 657.75 449.25 cl
0.00 0.00 657.75 449.25 cl
/Font1 findfont 14 s
0 0 0 srgb
471.81 190.57 (T) 0 ta
-1.680 (r) tb
-0.140 (aining error) tb gr
0.00 0.00 657.75 449.25 cl
0.00 0.00 657.75 449.25 cl
0.00 0.00 657.75 449.25 cl
ep
%%Trailer
%%Pages: 1
%%EOF
