%!PS-Adobe-3.0 EPSF-3.0
%%DocumentNeededResources: font Helvetica
%%+ font Helvetica-Bold
%%+ font Helvetica-Oblique
%%+ font Helvetica-BoldOblique
%%+ font Symbol
%%Title: R Graphics Output
%%Creator: R Software
%%Pages: (atend)
%%BoundingBox: 0 0 391 302
%%EndComments
%%BeginProlog
/bp  { gs sRGB gs } def
% begin .ps.prolog
/gs  { gsave } bind def
/gr  { grestore } bind def
/ep  { showpage gr gr } bind def
/m   { moveto } bind def
/l  { rlineto } bind def
/np  { newpath } bind def
/cp  { closepath } bind def
/f   { fill } bind def
/o   { stroke } bind def
/c   { newpath 0 360 arc } bind def
/r   { 4 2 roll moveto 1 copy 3 -1 roll exch 0 exch rlineto 0 rlineto -1 mul 0 exch rlineto closepath } bind def
/p1  { stroke } bind def
/p2  { gsave bg fill grestore newpath } bind def
/p3  { gsave bg fill grestore stroke } bind def
/p6  { gsave bg eofill grestore newpath } bind def
/p7  { gsave bg eofill grestore stroke } bind def
/t   { 5 -2 roll moveto gsave rotate
       1 index stringwidth pop
       mul neg 0 rmoveto show grestore } bind def
/ta  { 4 -2 roll moveto gsave rotate show } bind def
/tb  { 2 -1 roll 0 rmoveto show } bind def
/cl  { grestore gsave newpath 3 index 3 index moveto 1 index
       4 -1 roll lineto  exch 1 index lineto lineto
       closepath clip newpath } bind def
/rgb { setrgbcolor } bind def
/s   { scalefont setfont } bind def
% end   .ps.prolog
/sRGB { [ /CIEBasedABC
          << /DecodeLMN
               [ { dup 0.03928 le
                        {12.92321 div}
                        {0.055 add 1.055 div 2.4 exp }
                     ifelse
                 } bind dup dup
               ]
             /MatrixLMN [0.412457 0.212673 0.019334
                         0.357576 0.715152 0.119192
                         0.180437 0.072175 0.950301]
             /WhitePoint [0.9505 1.0 1.0890]
           >>
         ] setcolorspace } bind def
/srgb { setcolor } bind def
%%IncludeResource: font Helvetica
/Helvetica findfont
dup length dict begin
  {1 index /FID ne {def} {pop pop} ifelse} forall
  /Encoding ISOLatin1Encoding def
  currentdict
  end
/Font1 exch definefont pop
%%IncludeResource: font Helvetica-Bold
/Helvetica-Bold findfont
dup length dict begin
  {1 index /FID ne {def} {pop pop} ifelse} forall
  /Encoding ISOLatin1Encoding def
  currentdict
  end
/Font2 exch definefont pop
%%IncludeResource: font Helvetica-Oblique
/Helvetica-Oblique findfont
dup length dict begin
  {1 index /FID ne {def} {pop pop} ifelse} forall
  /Encoding ISOLatin1Encoding def
  currentdict
  end
/Font3 exch definefont pop
%%IncludeResource: font Helvetica-BoldOblique
/Helvetica-BoldOblique findfont
dup length dict begin
  {1 index /FID ne {def} {pop pop} ifelse} forall
  /Encoding ISOLatin1Encoding def
  currentdict
  end
/Font4 exch definefont pop
%%IncludeResource: font Symbol
/Symbol findfont
dup length dict begin
  {1 index /FID ne {def} {pop pop} ifelse} forall
  currentdict
  end
/Font5 exch definefont pop
%%EndProlog
%%Page: 1 1
bp
0.00 0.00 390.75 302.25 cl
0.00 151.13 390.75 302.25 cl
/bg { 1 1 1 srgb } def
1 1 1 srgb
1.06 setlinewidth
[] 0 setdash
1 setlinecap
1 setlinejoin
10.00 setmiterlimit
0.00 151.13 390.75 151.13 r p3
0.00 0.00 390.75 302.25 cl
0.00 0.00 390.75 302.25 cl
0.00 0.00 390.75 302.25 cl
48.80 193.21 290.26 247.85 cl
/bg { 0.8980 0.8980 0.8980 srgb } def
48.80 193.21 241.45 54.64 r p2
0.9490 0.9490 0.9490 srgb
0.53 setlinewidth
[] 0 setdash
0 setlinecap
1 setlinejoin
10.00 setmiterlimit
np
48.80 201.47 m
241.46 0 l
o
np
48.80 213.03 m
241.46 0 l
o
np
48.80 224.59 m
241.46 0 l
o
np
48.80 236.15 m
241.46 0 l
o
np
48.80 247.71 m
241.46 0 l
o
1 1 1 srgb
1.06 setlinewidth
[] 0 setdash
np
48.80 195.69 m
241.46 0 l
o
np
48.80 207.25 m
241.46 0 l
o
np
48.80 218.81 m
241.46 0 l
o
np
48.80 230.37 m
241.46 0 l
o
np
48.80 241.93 m
241.46 0 l
o
np
83.30 193.21 m
0 54.64 l
o
np
140.79 193.21 m
0 54.64 l
o
np
198.27 193.21 m
0 54.64 l
o
np
255.76 193.21 m
0 54.64 l
o
/bg { 0 0 0 srgb } def
72.52 199.30 2.13 c p2
72.52 196.59 2.13 c p2
72.52 199.30 2.13 c p2
72.52 199.30 2.13 c p2
0.9725 0.4627 0.4275 srgb
np
72.52 195.69 m
0 0 l
o
np
72.52 195.69 m
0 0 l
o
/bg { 1 1 1 srgb } def
1 setlinecap
np
 61.74 195.69 m
0 0 l
21.56 0 l
0 0 l
-21.56 0 l
cp p3
2.13 setlinewidth
[] 0 setdash
0 setlinecap
np
61.74 195.69 m
21.56 0 l
o
/bg { 0 0 0 srgb } def
94.08 210.14 2.13 c p2
94.08 217.37 2.13 c p2
94.08 202.92 2.13 c p2
94.08 224.59 2.13 c p2
94.08 224.59 2.13 c p2
94.08 243.56 2.13 c p2
94.08 224.59 2.13 c p2
94.08 210.14 2.13 c p2
94.08 224.59 2.13 c p2
94.08 224.59 2.13 c p2
94.08 210.14 2.13 c p2
0 0.7490 0.7686 srgb
1.06 setlinewidth
[] 0 setdash
np
94.08 195.69 m
0 0 l
o
np
94.08 195.69 m
0 0 l
o
/bg { 1 1 1 srgb } def
1 setlinecap
np
 83.30 195.69 m
0 0 l
21.55 0 l
0 0 l
-21.55 0 l
cp p3
2.13 setlinewidth
[] 0 setdash
0 setlinecap
np
83.30 195.69 m
21.55 0 l
o
0.9725 0.4627 0.4275 srgb
1.06 setlinewidth
[] 0 setdash
np
130.01 202.92 m
0 7.22 l
o
np
130.01 195.69 m
0 0 l
o
1 setlinecap
np
 119.23 202.92 m
0 -7.23 l
21.56 0 l
0 7.23 l
-21.56 0 l
cp p3
2.13 setlinewidth
[] 0 setdash
0 setlinecap
np
119.23 195.69 m
21.56 0 l
o
/bg { 0 0 0 srgb } def
151.56 239.04 2.13 c p2
151.56 217.37 2.13 c p2
0 0.7490 0.7686 srgb
1.06 setlinewidth
[] 0 setdash
np
151.56 202.92 m
0 7.22 l
o
np
151.56 195.69 m
0 0 l
o
/bg { 1 1 1 srgb } def
1 setlinecap
np
 140.79 202.92 m
0 -7.23 l
21.55 0 l
0 7.23 l
-21.55 0 l
cp p3
2.13 setlinewidth
[] 0 setdash
0 setlinecap
np
140.79 202.92 m
21.55 0 l
o
/bg { 0 0 0 srgb } def
187.49 215.56 2.13 c p2
187.49 215.56 2.13 c p2
187.49 215.56 2.13 c p2
187.49 217.37 2.13 c p2
187.49 220.08 2.13 c p2
187.49 220.98 2.13 c p2
0.9725 0.4627 0.4275 srgb
1.06 setlinewidth
[] 0 setdash
np
187.49 202.92 m
0 10.83 l
o
np
187.49 195.69 m
0 0 l
o
/bg { 1 1 1 srgb } def
1 setlinecap
np
 176.72 202.92 m
0 -7.23 l
21.55 0 l
0 7.23 l
-21.55 0 l
cp p3
2.13 setlinewidth
[] 0 setdash
0 setlinecap
np
176.72 200.21 m
21.55 0 l
o
/bg { 0 0 0 srgb } def
209.05 224.59 2.13 c p2
0 0.7490 0.7686 srgb
1.06 setlinewidth
[] 0 setdash
np
209.05 202.92 m
0 10.83 l
o
np
209.05 195.69 m
0 0 l
o
/bg { 1 1 1 srgb } def
1 setlinecap
np
 198.27 202.92 m
0 -7.23 l
21.56 0 l
0 7.23 l
-21.56 0 l
cp p3
2.13 setlinewidth
[] 0 setdash
0 setlinecap
np
198.27 202.92 m
21.56 0 l
o
0.9725 0.4627 0.4275 srgb
1.06 setlinewidth
[] 0 setdash
np
244.98 220.98 m
0 24.38 l
o
np
244.98 204.72 m
0 -9.03 l
o
1 setlinecap
np
 234.20 220.98 m
0 -16.26 l
21.56 0 l
0 16.26 l
-21.56 0 l
cp p3
2.13 setlinewidth
[] 0 setdash
0 setlinecap
np
234.20 212.85 m
21.56 0 l
o
0 0.7490 0.7686 srgb
1.06 setlinewidth
[] 0 setdash
np
266.54 215.79 m
0 23.25 l
o
np
266.54 197.50 m
0 -1.81 l
o
1 setlinecap
np
 255.76 215.79 m
0 -18.29 l
21.56 0 l
0 18.29 l
-21.56 0 l
cp p3
2.13 setlinewidth
[] 0 setdash
0 setlinecap
np
255.76 205.17 m
21.56 0 l
o
0.00 0.00 390.75 302.25 cl
0.00 0.00 390.75 302.25 cl
0.00 0.00 390.75 302.25 cl
/Font1 findfont 10 s
0.4980 0.4980 0.4980 srgb
41.72 192.10 (0.0) 1 0 t
41.72 203.66 (0.1) 1 0 t
41.72 215.22 (0.2) 1 0 t
41.72 226.78 (0.3) 1 0 t
41.72 238.34 (0.4) 1 0 t
0.00 0.00 390.75 302.25 cl
0.00 0.00 390.75 302.25 cl
0.4980 0.4980 0.4980 srgb
1.06 setlinewidth
[] 0 setdash
0 setlinecap
1 setlinejoin
10.00 setmiterlimit
np
44.55 195.69 m
4.25 0 l
o
np
44.55 207.25 m
4.25 0 l
o
np
44.55 218.81 m
4.25 0 l
o
np
44.55 230.37 m
4.25 0 l
o
np
44.55 241.93 m
4.25 0 l
o
0.00 0.00 390.75 302.25 cl
0.00 0.00 390.75 302.25 cl
0.00 0.00 390.75 302.25 cl
0.00 0.00 390.75 302.25 cl
0.00 0.00 390.75 302.25 cl
0.00 0.00 390.75 302.25 cl
0.4980 0.4980 0.4980 srgb
1.06 setlinewidth
[] 0 setdash
0 setlinecap
1 setlinejoin
10.00 setmiterlimit
np
83.30 188.96 m
0 4.25 l
o
np
140.79 188.96 m
0 4.25 l
o
np
198.27 188.96 m
0 4.25 l
o
np
255.76 188.96 m
0 4.25 l
o
0.00 0.00 390.75 302.25 cl
0.00 0.00 390.75 302.25 cl
/Font1 findfont 10 s
0.4980 0.4980 0.4980 srgb
83.30 178.94 (1) .5 0 t
140.79 178.94 (2) .5 0 t
198.27 178.94 (3) .5 0 t
255.76 178.94 (4) .5 0 t
0.00 0.00 390.75 302.25 cl
0.00 0.00 390.75 302.25 cl
0.00 0.00 390.75 302.25 cl
0.00 0.00 390.75 302.25 cl
0.00 0.00 390.75 302.25 cl
/Font1 findfont 12 s
0 0 0 srgb
169.53 165.53 (output) .5 0 t
0.00 0.00 390.75 302.25 cl
0.00 0.00 390.75 302.25 cl
/Font1 findfont 12 s
0 0 0 srgb
23.02 220.53 (error) .5 90 t
0.00 0.00 390.75 302.25 cl
0.00 0.00 390.75 302.25 cl
0.00 0.00 390.75 302.25 cl
0.00 0.00 390.75 302.25 cl
0.00 0.00 390.75 302.25 cl
0.00 0.00 390.75 302.25 cl
/bg { 1 1 1 srgb } def
302.69 186.86 56.42 67.34 r p2
0.00 0.00 390.75 302.25 cl
0.00 0.00 390.75 302.25 cl
/Font2 findfont 10 s
0 0 0 srgb
306.94 242.86 (learner) 0 0 t
0.00 0.00 390.75 302.25 cl
0.00 0.00 390.75 302.25 cl
/bg { 0.9490 0.9490 0.9490 srgb } def
1 1 1 srgb
1.06 setlinewidth
[] 0 setdash
1 setlinecap
1 setlinejoin
10.00 setmiterlimit
306.94 214.15 23.04 23.04 r p3
0.00 0.00 390.75 302.25 cl
0.00 0.00 390.75 302.25 cl
0.9725 0.4627 0.4275 srgb
1.06 setlinewidth
[] 0 setdash
1 setlinecap
1 setlinejoin
10.00 setmiterlimit
np
318.46 216.45 m
0 3.46 l
o
np
318.46 231.43 m
0 3.45 l
o
/bg { 1 1 1 srgb } def
309.82 219.91 17.28 11.52 r p3
np
309.82 225.67 m
17.28 0 l
o
0.00 0.00 390.75 302.25 cl
0.00 0.00 390.75 302.25 cl
/bg { 0.9490 0.9490 0.9490 srgb } def
1 1 1 srgb
1.06 setlinewidth
[] 0 setdash
1 setlinecap
1 setlinejoin
10.00 setmiterlimit
306.94 191.11 23.04 23.04 r p3
0.00 0.00 390.75 302.25 cl
0.00 0.00 390.75 302.25 cl
0 0.7490 0.7686 srgb
1.06 setlinewidth
[] 0 setdash
1 setlinecap
1 setlinejoin
10.00 setmiterlimit
np
318.46 193.41 m
0 3.46 l
o
np
318.46 208.39 m
0 3.45 l
o
/bg { 1 1 1 srgb } def
309.82 196.87 17.28 11.52 r p3
np
309.82 202.63 m
17.28 0 l
o
0.00 0.00 390.75 302.25 cl
0.00 0.00 390.75 302.25 cl
/Font1 findfont 10 s
0 0 0 srgb
332.86 222.08 (basic) 0 0 t
0.00 0.00 390.75 302.25 cl
0.00 0.00 390.75 302.25 cl
/Font1 findfont 10 s
0 0 0 srgb
332.86 199.04 (kfs) 0 0 t
0.00 0.00 390.75 302.25 cl
0.00 0.00 390.75 302.25 cl
0.00 0.00 390.75 302.25 cl
0.00 0.00 390.75 302.25 cl
0.00 0.00 390.75 302.25 cl
0.00 0.00 390.75 302.25 cl
0.00 0.00 390.75 302.25 cl
0.00 0.00 390.75 302.25 cl
0.00 0.00 390.75 302.25 cl
0.00 0.00 390.75 302.25 cl
/Font1 findfont 14 s
0 0 0 srgb
169.53 268.20 (Mean error per output) .5 0 t
127.33 252.65 (\(T) 0 ta
-1.680 (r) tb
-0.140 (ain + T) tb
-1.680 (est\)) tb gr
0.00 0.00 390.75 302.25 cl
0.00 0.00 390.75 302.25 cl
0.00 0.00 390.75 302.25 cl
0.00 0.00 195.37 151.13 cl
/bg { 1 1 1 srgb } def
1 1 1 srgb
1.06 setlinewidth
[] 0 setdash
1 setlinecap
1 setlinejoin
10.00 setmiterlimit
0.00 0.00 195.37 151.13 r p3
0.00 0.00 390.75 302.25 cl
0.00 0.00 390.75 302.25 cl
0.00 0.00 390.75 302.25 cl
54.36 42.08 94.88 96.72 cl
/bg { 0.8980 0.8980 0.8980 srgb } def
54.36 42.08 40.52 54.64 r p2
0.9490 0.9490 0.9490 srgb
0.53 setlinewidth
[] 0 setdash
0 setlinecap
1 setlinejoin
10.00 setmiterlimit
np
54.36 51.66 m
40.52 0 l
o
np
54.36 65.85 m
40.52 0 l
o
np
54.36 80.05 m
40.52 0 l
o
np
54.36 94.24 m
40.52 0 l
o
1 1 1 srgb
1.06 setlinewidth
[] 0 setdash
np
54.36 44.57 m
40.52 0 l
o
np
54.36 58.76 m
40.52 0 l
o
np
54.36 72.95 m
40.52 0 l
o
np
54.36 87.14 m
40.52 0 l
o
np
65.41 42.08 m
0 54.64 l
o
np
83.83 42.08 m
0 54.64 l
o
0.9725 0.4627 0.4275 srgb
np
65.41 63.25 m
0 10.59 l
o
np
65.41 52.27 m
0 -7.70 l
o
/bg { 1 1 1 srgb } def
1 setlinecap
np
 58.51 63.25 m
0 -10.98 l
13.81 0 l
0 10.98 l
-13.81 0 l
cp p3
2.13 setlinewidth
[] 0 setdash
0 setlinecap
np
58.51 58.09 m
13.81 0 l
o
/bg { 0 0 0 srgb } def
83.83 85.59 2.13 c p2
83.83 94.24 2.13 c p2
83.83 79.38 2.13 c p2
0 0.7490 0.7686 srgb
1.06 setlinewidth
[] 0 setdash
np
83.83 62.53 m
0 13.08 l
o
np
83.83 51.33 m
0 -6.76 l
o
/bg { 1 1 1 srgb } def
1 setlinecap
np
 76.92 62.53 m
0 -11.20 l
13.82 0 l
0 11.20 l
-13.82 0 l
cp p3
2.13 setlinewidth
[] 0 setdash
0 setlinecap
np
76.92 55.10 m
13.82 0 l
o
0.00 0.00 390.75 302.25 cl
0.00 0.00 390.75 302.25 cl
0.00 0.00 390.75 302.25 cl
/Font1 findfont 10 s
0.4980 0.4980 0.4980 srgb
47.28 40.98 (0.00) 1 0 t
47.28 55.17 (0.25) 1 0 t
47.28 69.36 (0.50) 1 0 t
47.28 83.55 (0.75) 1 0 t
0.00 0.00 390.75 302.25 cl
0.00 0.00 390.75 302.25 cl
0.4980 0.4980 0.4980 srgb
1.06 setlinewidth
[] 0 setdash
0 setlinecap
1 setlinejoin
10.00 setmiterlimit
np
50.11 44.57 m
4.25 0 l
o
np
50.11 58.76 m
4.25 0 l
o
np
50.11 72.95 m
4.25 0 l
o
np
50.11 87.14 m
4.25 0 l
o
0.00 0.00 390.75 302.25 cl
0.00 0.00 390.75 302.25 cl
0.00 0.00 390.75 302.25 cl
0.00 0.00 390.75 302.25 cl
0.00 0.00 390.75 302.25 cl
0.00 0.00 390.75 302.25 cl
0.4980 0.4980 0.4980 srgb
1.06 setlinewidth
[] 0 setdash
0 setlinecap
1 setlinejoin
10.00 setmiterlimit
np
65.41 37.83 m
0 4.25 l
o
np
83.83 37.83 m
0 4.25 l
o
0.00 0.00 390.75 302.25 cl
0.00 0.00 390.75 302.25 cl
/Font1 findfont 10 s
0.4980 0.4980 0.4980 srgb
65.41 27.82 (basic) .5 0 t
83.83 27.82 (kfs) .5 0 t
0.00 0.00 390.75 302.25 cl
0.00 0.00 390.75 302.25 cl
0.00 0.00 390.75 302.25 cl
0.00 0.00 390.75 302.25 cl
0.00 0.00 390.75 302.25 cl
/Font1 findfont 12 s
0 0 0 srgb
55.95 14.40 (lear) 0 ta
0.300 (ner) tb gr
0.00 0.00 390.75 302.25 cl
0.00 0.00 390.75 302.25 cl
/Font1 findfont 12 s
0 0 0 srgb
23.02 69.40 (mean total error) .5 90 t
0.00 0.00 390.75 302.25 cl
0.00 0.00 390.75 302.25 cl
0.00 0.00 390.75 302.25 cl
0.00 0.00 390.75 302.25 cl
0.00 0.00 390.75 302.25 cl
0.00 0.00 390.75 302.25 cl
/bg { 1 1 1 srgb } def
107.32 35.73 56.42 67.34 r p2
0.00 0.00 390.75 302.25 cl
0.00 0.00 390.75 302.25 cl
/Font2 findfont 10 s
0 0 0 srgb
111.57 91.73 (learner) 0 0 t
0.00 0.00 390.75 302.25 cl
0.00 0.00 390.75 302.25 cl
/bg { 0.9490 0.9490 0.9490 srgb } def
1 1 1 srgb
1.06 setlinewidth
[] 0 setdash
1 setlinecap
1 setlinejoin
10.00 setmiterlimit
111.57 63.02 23.04 23.04 r p3
0.00 0.00 390.75 302.25 cl
0.00 0.00 390.75 302.25 cl
0.9725 0.4627 0.4275 srgb
1.06 setlinewidth
[] 0 setdash
1 setlinecap
1 setlinejoin
10.00 setmiterlimit
np
123.09 65.33 m
0 3.45 l
o
np
123.09 80.30 m
0 3.46 l
o
/bg { 1 1 1 srgb } def
114.45 68.78 17.28 11.52 r p3
np
114.45 74.54 m
17.28 0 l
o
0.00 0.00 390.75 302.25 cl
0.00 0.00 390.75 302.25 cl
/bg { 0.9490 0.9490 0.9490 srgb } def
1 1 1 srgb
1.06 setlinewidth
[] 0 setdash
1 setlinecap
1 setlinejoin
10.00 setmiterlimit
111.57 39.98 23.04 23.04 r p3
0.00 0.00 390.75 302.25 cl
0.00 0.00 390.75 302.25 cl
0 0.7490 0.7686 srgb
1.06 setlinewidth
[] 0 setdash
1 setlinecap
1 setlinejoin
10.00 setmiterlimit
np
123.09 42.29 m
0 3.45 l
o
np
123.09 57.26 m
0 3.46 l
o
/bg { 1 1 1 srgb } def
114.45 45.74 17.28 11.52 r p3
np
114.45 51.50 m
17.28 0 l
o
0.00 0.00 390.75 302.25 cl
0.00 0.00 390.75 302.25 cl
/Font1 findfont 10 s
0 0 0 srgb
137.49 70.95 (basic) 0 0 t
0.00 0.00 390.75 302.25 cl
0.00 0.00 390.75 302.25 cl
/Font1 findfont 10 s
0 0 0 srgb
137.49 47.91 (kfs) 0 0 t
0.00 0.00 390.75 302.25 cl
0.00 0.00 390.75 302.25 cl
0.00 0.00 390.75 302.25 cl
0.00 0.00 390.75 302.25 cl
0.00 0.00 390.75 302.25 cl
0.00 0.00 390.75 302.25 cl
0.00 0.00 390.75 302.25 cl
0.00 0.00 390.75 302.25 cl
0.00 0.00 390.75 302.25 cl
0.00 0.00 390.75 302.25 cl
/Font1 findfont 14 s
0 0 0 srgb
74.62 117.07 (Mean error) .5 0 t
32.42 101.52 (\(T) 0 ta
-1.680 (r) tb
-0.140 (ain + T) tb
-1.680 (est\)) tb gr
0.00 0.00 390.75 302.25 cl
0.00 0.00 390.75 302.25 cl
0.00 0.00 390.75 302.25 cl
195.37 0.00 390.75 151.13 cl
/bg { 1 1 1 srgb } def
1 1 1 srgb
1.06 setlinewidth
[] 0 setdash
1 setlinecap
1 setlinejoin
10.00 setmiterlimit
195.37 0.00 195.37 151.13 r p3
0.00 0.00 390.75 302.25 cl
0.00 0.00 390.75 302.25 cl
0.00 0.00 390.75 302.25 cl
241.40 42.08 290.26 96.72 cl
/bg { 0.8980 0.8980 0.8980 srgb } def
241.40 42.08 48.86 54.64 r p2
0.9490 0.9490 0.9490 srgb
0.53 setlinewidth
[] 0 setdash
0 setlinecap
1 setlinejoin
10.00 setmiterlimit
np
241.40 49.16 m
48.86 0 l
o
np
241.40 61.44 m
48.86 0 l
o
np
241.40 73.72 m
48.86 0 l
o
np
241.40 86.00 m
48.86 0 l
o
1 1 1 srgb
1.06 setlinewidth
[] 0 setdash
np
241.40 43.02 m
48.86 0 l
o
np
241.40 55.30 m
48.86 0 l
o
np
241.40 67.58 m
48.86 0 l
o
np
241.40 79.86 m
48.86 0 l
o
np
241.40 92.14 m
48.86 0 l
o
np
254.72 42.08 m
0 54.64 l
o
np
276.93 42.08 m
0 54.64 l
o
/bg { 0 0 0 srgb } def
254.72 64.20 2.13 c p2
254.72 63.12 2.13 c p2
254.72 64.14 2.13 c p2
0.9725 0.4627 0.4275 srgb
np
254.72 92.99 m
0 1.25 l
o
np
254.72 82.17 m
0 -13.18 l
o
/bg { 1 1 1 srgb } def
1 setlinecap
np
 246.39 92.99 m
0 -10.82 l
16.66 0 l
0 10.82 l
-16.66 0 l
cp p3
2.13 setlinewidth
[] 0 setdash
0 setlinecap
np
246.39 92.04 m
16.66 0 l
o
/bg { 0 0 0 srgb } def
276.93 58.77 2.13 c p2
0 0.7490 0.7686 srgb
1.06 setlinewidth
[] 0 setdash
np
276.93 51.78 m
0 3.28 l
o
np
276.93 47.38 m
0 -2.81 l
o
/bg { 1 1 1 srgb } def
1 setlinecap
np
 268.60 51.78 m
0 -4.40 l
16.66 0 l
0 4.40 l
-16.66 0 l
cp p3
2.13 setlinewidth
[] 0 setdash
0 setlinecap
np
268.60 49.00 m
16.66 0 l
o
0.00 0.00 390.75 302.25 cl
0.00 0.00 390.75 302.25 cl
0.00 0.00 390.75 302.25 cl
/Font1 findfont 10 s
0.4980 0.4980 0.4980 srgb
234.31 39.43 (0) 1 0 t
234.31 51.71 (20) 1 0 t
234.31 63.99 (40) 1 0 t
234.31 76.27 (60) 1 0 t
234.31 88.55 (80) 1 0 t
0.00 0.00 390.75 302.25 cl
0.00 0.00 390.75 302.25 cl
0.4980 0.4980 0.4980 srgb
1.06 setlinewidth
[] 0 setdash
0 setlinecap
1 setlinejoin
10.00 setmiterlimit
np
237.15 43.02 m
4.25 0 l
o
np
237.15 55.30 m
4.25 0 l
o
np
237.15 67.58 m
4.25 0 l
o
np
237.15 79.86 m
4.25 0 l
o
np
237.15 92.14 m
4.25 0 l
o
0.00 0.00 390.75 302.25 cl
0.00 0.00 390.75 302.25 cl
0.00 0.00 390.75 302.25 cl
0.00 0.00 390.75 302.25 cl
0.00 0.00 390.75 302.25 cl
0.00 0.00 390.75 302.25 cl
0.4980 0.4980 0.4980 srgb
1.06 setlinewidth
[] 0 setdash
0 setlinecap
1 setlinejoin
10.00 setmiterlimit
np
254.72 37.83 m
0 4.25 l
o
np
276.93 37.83 m
0 4.25 l
o
0.00 0.00 390.75 302.25 cl
0.00 0.00 390.75 302.25 cl
/Font1 findfont 10 s
0.4980 0.4980 0.4980 srgb
254.72 27.82 (basic) .5 0 t
276.93 27.82 (kfs) .5 0 t
0.00 0.00 390.75 302.25 cl
0.00 0.00 390.75 302.25 cl
0.00 0.00 390.75 302.25 cl
0.00 0.00 390.75 302.25 cl
0.00 0.00 390.75 302.25 cl
/Font1 findfont 12 s
0 0 0 srgb
247.16 14.40 (lear) 0 ta
0.300 (ner) tb gr
0.00 0.00 390.75 302.25 cl
0.00 0.00 390.75 302.25 cl
/Font1 findfont 12 s
0 0 0 srgb
218.39 69.40 (time \(s\)) .5 90 t
0.00 0.00 390.75 302.25 cl
0.00 0.00 390.75 302.25 cl
0.00 0.00 390.75 302.25 cl
0.00 0.00 390.75 302.25 cl
0.00 0.00 390.75 302.25 cl
0.00 0.00 390.75 302.25 cl
/bg { 1 1 1 srgb } def
302.69 35.73 56.42 67.34 r p2
0.00 0.00 390.75 302.25 cl
0.00 0.00 390.75 302.25 cl
/Font2 findfont 10 s
0 0 0 srgb
306.94 91.73 (learner) 0 0 t
0.00 0.00 390.75 302.25 cl
0.00 0.00 390.75 302.25 cl
/bg { 0.9490 0.9490 0.9490 srgb } def
1 1 1 srgb
1.06 setlinewidth
[] 0 setdash
1 setlinecap
1 setlinejoin
10.00 setmiterlimit
306.94 63.02 23.04 23.04 r p3
0.00 0.00 390.75 302.25 cl
0.00 0.00 390.75 302.25 cl
0.9725 0.4627 0.4275 srgb
1.06 setlinewidth
[] 0 setdash
1 setlinecap
1 setlinejoin
10.00 setmiterlimit
np
318.46 65.33 m
0 3.45 l
o
np
318.46 80.30 m
0 3.46 l
o
/bg { 1 1 1 srgb } def
309.82 68.78 17.28 11.52 r p3
np
309.82 74.54 m
17.28 0 l
o
0.00 0.00 390.75 302.25 cl
0.00 0.00 390.75 302.25 cl
/bg { 0.9490 0.9490 0.9490 srgb } def
1 1 1 srgb
1.06 setlinewidth
[] 0 setdash
1 setlinecap
1 setlinejoin
10.00 setmiterlimit
306.94 39.98 23.04 23.04 r p3
0.00 0.00 390.75 302.25 cl
0.00 0.00 390.75 302.25 cl
0 0.7490 0.7686 srgb
1.06 setlinewidth
[] 0 setdash
1 setlinecap
1 setlinejoin
10.00 setmiterlimit
np
318.46 42.29 m
0 3.45 l
o
np
318.46 57.26 m
0 3.46 l
o
/bg { 1 1 1 srgb } def
309.82 45.74 17.28 11.52 r p3
np
309.82 51.50 m
17.28 0 l
o
0.00 0.00 390.75 302.25 cl
0.00 0.00 390.75 302.25 cl
/Font1 findfont 10 s
0 0 0 srgb
332.86 70.95 (basic) 0 0 t
0.00 0.00 390.75 302.25 cl
0.00 0.00 390.75 302.25 cl
/Font1 findfont 10 s
0 0 0 srgb
332.86 47.91 (kfs) 0 0 t
0.00 0.00 390.75 302.25 cl
0.00 0.00 390.75 302.25 cl
0.00 0.00 390.75 302.25 cl
0.00 0.00 390.75 302.25 cl
0.00 0.00 390.75 302.25 cl
0.00 0.00 390.75 302.25 cl
0.00 0.00 390.75 302.25 cl
0.00 0.00 390.75 302.25 cl
0.00 0.00 390.75 302.25 cl
0.00 0.00 390.75 302.25 cl
/Font1 findfont 14 s
0 0 0 srgb
209.81 117.07 (T) 0 ta
-1.680 (otal r) tb
0.210 (unning time) tb gr
234.71 101.52 (b) 0 ta
-0.280 (y lear) tb
0.350 (ner) tb gr
0.00 0.00 390.75 302.25 cl
0.00 0.00 390.75 302.25 cl
0.00 0.00 390.75 302.25 cl
ep
%%Trailer
%%Pages: 1
%%EOF
