%!PS-Adobe-3.0 EPSF-3.0
%%DocumentNeededResources: font Helvetica
%%+ font Helvetica-Bold
%%+ font Helvetica-Oblique
%%+ font Helvetica-BoldOblique
%%+ font Symbol
%%Title: R Graphics Output
%%Creator: R Software
%%Pages: (atend)
%%BoundingBox: 0 0 540 355
%%EndComments
%%BeginProlog
/bp  { gs sRGB gs } def
% begin .ps.prolog
/gs  { gsave } bind def
/gr  { grestore } bind def
/ep  { showpage gr gr } bind def
/m   { moveto } bind def
/l  { rlineto } bind def
/np  { newpath } bind def
/cp  { closepath } bind def
/f   { fill } bind def
/o   { stroke } bind def
/c   { newpath 0 360 arc } bind def
/r   { 4 2 roll moveto 1 copy 3 -1 roll exch 0 exch rlineto 0 rlineto -1 mul 0 exch rlineto closepath } bind def
/p1  { stroke } bind def
/p2  { gsave bg fill grestore newpath } bind def
/p3  { gsave bg fill grestore stroke } bind def
/p6  { gsave bg eofill grestore newpath } bind def
/p7  { gsave bg eofill grestore stroke } bind def
/t   { 5 -2 roll moveto gsave rotate
       1 index stringwidth pop
       mul neg 0 rmoveto show grestore } bind def
/ta  { 4 -2 roll moveto gsave rotate show } bind def
/tb  { 2 -1 roll 0 rmoveto show } bind def
/cl  { grestore gsave newpath 3 index 3 index moveto 1 index
       4 -1 roll lineto  exch 1 index lineto lineto
       closepath clip newpath } bind def
/rgb { setrgbcolor } bind def
/s   { scalefont setfont } bind def
% end   .ps.prolog
/sRGB { [ /CIEBasedABC
          << /DecodeLMN
               [ { dup 0.03928 le
                        {12.92321 div}
                        {0.055 add 1.055 div 2.4 exp }
                     ifelse
                 } bind dup dup
               ]
             /MatrixLMN [0.412457 0.212673 0.019334
                         0.357576 0.715152 0.119192
                         0.180437 0.072175 0.950301]
             /WhitePoint [0.9505 1.0 1.0890]
           >>
         ] setcolorspace } bind def
/srgb { setcolor } bind def
%%IncludeResource: font Helvetica
/Helvetica findfont
dup length dict begin
  {1 index /FID ne {def} {pop pop} ifelse} forall
  /Encoding ISOLatin1Encoding def
  currentdict
  end
/Font1 exch definefont pop
%%IncludeResource: font Helvetica-Bold
/Helvetica-Bold findfont
dup length dict begin
  {1 index /FID ne {def} {pop pop} ifelse} forall
  /Encoding ISOLatin1Encoding def
  currentdict
  end
/Font2 exch definefont pop
%%IncludeResource: font Helvetica-Oblique
/Helvetica-Oblique findfont
dup length dict begin
  {1 index /FID ne {def} {pop pop} ifelse} forall
  /Encoding ISOLatin1Encoding def
  currentdict
  end
/Font3 exch definefont pop
%%IncludeResource: font Helvetica-BoldOblique
/Helvetica-BoldOblique findfont
dup length dict begin
  {1 index /FID ne {def} {pop pop} ifelse} forall
  /Encoding ISOLatin1Encoding def
  currentdict
  end
/Font4 exch definefont pop
%%IncludeResource: font Symbol
/Symbol findfont
dup length dict begin
  {1 index /FID ne {def} {pop pop} ifelse} forall
  currentdict
  end
/Font5 exch definefont pop
%%EndProlog
%%Page: 1 1
bp
0.00 0.00 540.00 354.75 cl
0.00 177.37 270.00 354.75 cl
/bg { 1 1 1 srgb } def
1 1 1 srgb
1.06 setlinewidth
[] 0 setdash
1 setlinecap
1 setlinejoin
10.00 setmiterlimit
0.00 177.37 270.00 177.37 r p3
0.00 0.00 540.00 354.75 cl
0.00 0.00 540.00 354.75 cl
0.00 0.00 540.00 354.75 cl
54.36 219.46 250.80 315.90 cl
/bg { 0.8980 0.8980 0.8980 srgb } def
54.36 219.46 196.44 96.44 r p2
0.9490 0.9490 0.9490 srgb
0.53 setlinewidth
[] 0 setdash
0 setlinecap
1 setlinejoin
10.00 setmiterlimit
np
54.36 220.12 m
196.44 0 l
o
np
54.36 237.12 m
196.44 0 l
o
np
54.36 254.13 m
196.44 0 l
o
np
54.36 271.13 m
196.44 0 l
o
np
54.36 288.13 m
196.44 0 l
o
np
54.36 305.14 m
196.44 0 l
o
1 1 1 srgb
1.06 setlinewidth
[] 0 setdash
np
54.36 228.62 m
196.44 0 l
o
np
54.36 245.63 m
196.44 0 l
o
np
54.36 262.63 m
196.44 0 l
o
np
54.36 279.63 m
196.44 0 l
o
np
54.36 296.64 m
196.44 0 l
o
np
54.36 313.64 m
196.44 0 l
o
np
91.19 219.46 m
0 96.44 l
o
np
152.58 219.46 m
0 96.44 l
o
np
213.97 219.46 m
0 96.44 l
o
0.9725 0.4627 0.4275 srgb
np
91.19 281.25 m
0 30.26 l
o
np
91.19 253.07 m
0 -17.08 l
o
/bg { 1 1 1 srgb } def
1 setlinecap
np
 68.17 281.25 m
0 2.97 l
11.51 -14.08 l
-11.51 -14.08 l
0 -2.99 l
46.04 0 l
0 2.99 l
-11.51 14.08 l
11.51 14.08 l
0 -2.97 l
-46.04 0 l
cp p3
2.13 setlinewidth
[] 0 setdash
0 setlinecap
np
79.68 270.14 m
23.02 0 l
o
/bg { 0 0 0 srgb } def
152.58 223.84 2.13 c p2
0 0.7294 0.2196 srgb
1.06 setlinewidth
[] 0 setdash
np
152.58 274.60 m
0 6.93 l
o
np
152.58 257.81 m
0 -2.85 l
o
/bg { 1 1 1 srgb } def
1 setlinecap
np
 129.56 274.60 m
0 0.71 l
11.51 -8.39 l
-11.51 -8.39 l
0 -0.72 l
46.04 0 l
0 0.72 l
-11.51 8.39 l
11.51 8.39 l
0 -0.71 l
-46.04 0 l
cp p3
2.13 setlinewidth
[] 0 setdash
0 setlinecap
np
141.07 266.92 m
23.02 0 l
o
/bg { 0 0 0 srgb } def
213.97 304.30 2.13 c p2
0.3804 0.6118 1 srgb
1.06 setlinewidth
[] 0 setdash
np
213.97 272.61 m
0 7.40 l
o
np
213.97 259.71 m
0 -13.10 l
o
/bg { 1 1 1 srgb } def
1 setlinecap
np
 190.95 272.61 m
0 2.27 l
11.51 -6.44 l
-11.51 -6.45 l
0 -2.28 l
46.04 0 l
0 2.28 l
-11.51 6.45 l
11.51 6.44 l
0 -2.27 l
-46.04 0 l
cp p3
2.13 setlinewidth
[] 0 setdash
0 setlinecap
np
202.46 268.44 m
23.02 0 l
o
0.00 0.00 540.00 354.75 cl
0.00 0.00 540.00 354.75 cl
0.00 0.00 540.00 354.75 cl
/Font1 findfont 10 s
0.4980 0.4980 0.4980 srgb
47.28 225.03 (0.10) 1 0 t
47.28 242.04 (0.15) 1 0 t
47.28 259.04 (0.20) 1 0 t
47.28 276.04 (0.25) 1 0 t
47.28 293.05 (0.30) 1 0 t
47.28 310.05 (0.35) 1 0 t
0.00 0.00 540.00 354.75 cl
0.00 0.00 540.00 354.75 cl
0.4980 0.4980 0.4980 srgb
1.06 setlinewidth
[] 0 setdash
0 setlinecap
1 setlinejoin
10.00 setmiterlimit
np
50.11 228.62 m
4.25 0 l
o
np
50.11 245.63 m
4.25 0 l
o
np
50.11 262.63 m
4.25 0 l
o
np
50.11 279.63 m
4.25 0 l
o
np
50.11 296.64 m
4.25 0 l
o
np
50.11 313.64 m
4.25 0 l
o
0.00 0.00 540.00 354.75 cl
0.00 0.00 540.00 354.75 cl
0.00 0.00 540.00 354.75 cl
0.00 0.00 540.00 354.75 cl
0.00 0.00 540.00 354.75 cl
0.00 0.00 540.00 354.75 cl
0.4980 0.4980 0.4980 srgb
1.06 setlinewidth
[] 0 setdash
0 setlinecap
1 setlinejoin
10.00 setmiterlimit
np
91.19 215.21 m
0 4.25 l
o
np
152.58 215.21 m
0 4.25 l
o
np
213.97 215.21 m
0 4.25 l
o
0.00 0.00 540.00 354.75 cl
0.00 0.00 540.00 354.75 cl
/Font1 findfont 10 s
0.4980 0.4980 0.4980 srgb
91.19 205.19 (LAHC) .5 0 t
152.58 205.19 (SA) .5 0 t
213.97 205.19 (TS) .5 0 t
0.00 0.00 540.00 354.75 cl
0.00 0.00 540.00 354.75 cl
0.00 0.00 540.00 354.75 cl
0.00 0.00 540.00 354.75 cl
0.00 0.00 540.00 354.75 cl
/Font1 findfont 12 s
0 0 0 srgb
152.58 191.77 (optimiser) .5 0 t
0.00 0.00 540.00 354.75 cl
0.00 0.00 540.00 354.75 cl
/Font1 findfont 12 s
0 0 0 srgb
23.02 267.68 (error) .5 90 t
0.00 0.00 540.00 354.75 cl
0.00 0.00 540.00 354.75 cl
/Font1 findfont 14 s
0 0 0 srgb
90.73 320.70 (Gener) 0 ta
-0.140 (alisation error) tb gr
0.00 0.00 540.00 354.75 cl
0.00 0.00 540.00 354.75 cl
0.00 0.00 540.00 354.75 cl
270.00 177.37 540.00 354.75 cl
/bg { 1 1 1 srgb } def
1 1 1 srgb
1.06 setlinewidth
[] 0 setdash
1 setlinecap
1 setlinejoin
10.00 setmiterlimit
270.00 177.37 270.00 177.37 r p3
0.00 0.00 540.00 354.75 cl
0.00 0.00 540.00 354.75 cl
0.00 0.00 540.00 354.75 cl
315.75 219.46 520.80 315.90 cl
/bg { 0.8980 0.8980 0.8980 srgb } def
315.75 219.46 205.05 96.44 r p2
0.9490 0.9490 0.9490 srgb
0.53 setlinewidth
[] 0 setdash
0 setlinecap
1 setlinejoin
10.00 setmiterlimit
np
315.75 237.87 m
205.05 0 l
o
np
315.75 265.92 m
205.05 0 l
o
np
315.75 293.98 m
205.05 0 l
o
1 1 1 srgb
1.06 setlinewidth
[] 0 setdash
np
315.75 223.84 m
205.05 0 l
o
np
315.75 251.90 m
205.05 0 l
o
np
315.75 279.95 m
205.05 0 l
o
np
315.75 308.01 m
205.05 0 l
o
np
354.19 219.46 m
0 96.44 l
o
np
418.27 219.46 m
0 96.44 l
o
np
482.35 219.46 m
0 96.44 l
o
/bg { 0 0 0 srgb } def
354.19 311.51 2.13 c p2
0.9725 0.4627 0.4275 srgb
np
354.19 223.84 m
0 0 l
o
np
354.19 223.84 m
0 0 l
o
/bg { 1 1 1 srgb } def
1 setlinecap
np
 330.16 223.84 m
0 0 l
48.06 0 l
0 0 l
-48.06 0 l
cp p3
2.13 setlinewidth
[] 0 setdash
0 setlinecap
np
330.16 223.84 m
48.06 0 l
o
/bg { 0 0 0 srgb } def
418.27 289.60 2.13 c p2
0 0.7294 0.2196 srgb
1.06 setlinewidth
[] 0 setdash
np
418.27 223.84 m
0 0 l
o
np
418.27 223.84 m
0 0 l
o
/bg { 1 1 1 srgb } def
1 setlinecap
np
 394.24 223.84 m
0 0 l
48.06 0 l
0 0 l
-48.06 0 l
cp p3
2.13 setlinewidth
[] 0 setdash
0 setlinecap
np
394.24 223.84 m
48.06 0 l
o
0.3804 0.6118 1 srgb
1.06 setlinewidth
[] 0 setdash
np
482.35 223.84 m
0 0 l
o
np
482.35 223.84 m
0 0 l
o
1 setlinecap
np
 458.32 223.84 m
0 0 l
48.06 0 l
0 0 l
-48.06 0 l
cp p3
2.13 setlinewidth
[] 0 setdash
0 setlinecap
np
458.32 223.84 m
48.06 0 l
o
0.00 0.00 540.00 354.75 cl
0.00 0.00 540.00 354.75 cl
0.00 0.00 540.00 354.75 cl
/Font1 findfont 10 s
0.4980 0.4980 0.4980 srgb
308.66 220.25 (0.00) 1 0 t
308.66 248.31 (0.01) 1 0 t
308.66 276.36 (0.02) 1 0 t
308.66 304.42 (0.03) 1 0 t
0.00 0.00 540.00 354.75 cl
0.00 0.00 540.00 354.75 cl
0.4980 0.4980 0.4980 srgb
1.06 setlinewidth
[] 0 setdash
0 setlinecap
1 setlinejoin
10.00 setmiterlimit
np
311.49 223.84 m
4.26 0 l
o
np
311.49 251.90 m
4.26 0 l
o
np
311.49 279.95 m
4.26 0 l
o
np
311.49 308.01 m
4.26 0 l
o
0.00 0.00 540.00 354.75 cl
0.00 0.00 540.00 354.75 cl
0.00 0.00 540.00 354.75 cl
0.00 0.00 540.00 354.75 cl
0.00 0.00 540.00 354.75 cl
0.00 0.00 540.00 354.75 cl
0.4980 0.4980 0.4980 srgb
1.06 setlinewidth
[] 0 setdash
0 setlinecap
1 setlinejoin
10.00 setmiterlimit
np
354.19 215.21 m
0 4.25 l
o
np
418.27 215.21 m
0 4.25 l
o
np
482.35 215.21 m
0 4.25 l
o
0.00 0.00 540.00 354.75 cl
0.00 0.00 540.00 354.75 cl
/Font1 findfont 10 s
0.4980 0.4980 0.4980 srgb
354.19 205.19 (LAHC) .5 0 t
418.27 205.19 (SA) .5 0 t
482.35 205.19 (TS) .5 0 t
0.00 0.00 540.00 354.75 cl
0.00 0.00 540.00 354.75 cl
0.00 0.00 540.00 354.75 cl
0.00 0.00 540.00 354.75 cl
0.00 0.00 540.00 354.75 cl
/Font1 findfont 12 s
0 0 0 srgb
418.27 191.77 (optimiser) .5 0 t
0.00 0.00 540.00 354.75 cl
0.00 0.00 540.00 354.75 cl
0.00 0.00 540.00 354.75 cl
0.00 0.00 540.00 354.75 cl
/Font1 findfont 14 s
0 0 0 srgb
376.27 320.70 (T) 0 ta
-1.680 (r) tb
-0.140 (aining error) tb gr
0.00 0.00 540.00 354.75 cl
0.00 0.00 540.00 354.75 cl
0.00 0.00 540.00 354.75 cl
0.00 0.00 270.00 177.37 cl
/bg { 1 1 1 srgb } def
1 1 1 srgb
1.06 setlinewidth
[] 0 setdash
1 setlinecap
1 setlinejoin
10.00 setmiterlimit
0.00 0.00 270.00 177.37 r p3
0.00 0.00 540.00 354.75 cl
0.00 0.00 540.00 354.75 cl
0.00 0.00 540.00 354.75 cl
62.98 42.08 250.80 138.52 cl
/bg { 0.8980 0.8980 0.8980 srgb } def
62.98 42.08 187.82 96.44 r p2
0.9490 0.9490 0.9490 srgb
0.53 setlinewidth
[] 0 setdash
0 setlinecap
1 setlinejoin
10.00 setmiterlimit
np
62.98 53.16 m
187.82 0 l
o
np
62.98 76.30 m
187.82 0 l
o
np
62.98 99.43 m
187.82 0 l
o
np
62.98 122.57 m
187.82 0 l
o
1 1 1 srgb
1.06 setlinewidth
[] 0 setdash
np
62.98 64.73 m
187.82 0 l
o
np
62.98 87.87 m
187.82 0 l
o
np
62.98 111.00 m
187.82 0 l
o
np
62.98 134.14 m
187.82 0 l
o
np
98.20 42.08 m
0 96.44 l
o
np
156.89 42.08 m
0 96.44 l
o
np
215.58 42.08 m
0 96.44 l
o
/bg { 0 0 0 srgb } def
98.20 134.14 2.13 c p2
0.9725 0.4627 0.4275 srgb
np
98.20 82.17 m
0 14.44 l
o
np
98.20 58.51 m
0 -2.48 l
o
/bg { 1 1 1 srgb } def
1 setlinecap
np
 76.19 82.17 m
0 -6.42 l
11.00 -11.82 l
-11.00 -11.82 l
0 6.40 l
44.02 0 l
0 -6.40 l
-11.01 11.82 l
11.01 11.82 l
0 6.42 l
-44.02 0 l
cp p3
2.13 setlinewidth
[] 0 setdash
0 setlinecap
np
87.19 63.93 m
22.01 0 l
o
0 0.7294 0.2196 srgb
1.06 setlinewidth
[] 0 setdash
np
156.89 114.26 m
0 19.88 l
o
np
156.89 84.35 m
0 -8.31 l
o
1 setlinecap
np
 134.88 114.26 m
0 7.31 l
11.01 -14.94 l
-11.01 -14.95 l
0 -7.33 l
44.02 0 l
0 7.33 l
-11.00 14.95 l
11.00 14.94 l
0 -7.31 l
-44.02 0 l
cp p3
2.13 setlinewidth
[] 0 setdash
0 setlinecap
np
145.89 106.63 m
22.01 0 l
o
/bg { 0 0 0 srgb } def
215.58 73.80 2.13 c p2
215.58 85.95 2.13 c p2
0.3804 0.6118 1 srgb
1.06 setlinewidth
[] 0 setdash
np
215.58 59.05 m
0 0.28 l
o
np
215.58 50.27 m
0 -3.80 l
o
/bg { 1 1 1 srgb } def
1 setlinecap
np
 193.57 59.05 m
0 0 l
11.01 -4.39 l
-11.01 -4.39 l
0 0 l
44.02 0 l
0 0 l
-11.00 4.39 l
11.00 4.39 l
0 0 l
-44.02 0 l
cp p3
2.13 setlinewidth
[] 0 setdash
0 setlinecap
np
204.58 54.66 m
22.01 0 l
o
0.00 0.00 540.00 354.75 cl
0.00 0.00 540.00 354.75 cl
0.00 0.00 540.00 354.75 cl
/Font1 findfont 10 s
0.4980 0.4980 0.4980 srgb
55.90 61.14 (1e+06) 1 0 t
55.90 84.28 (2e+06) 1 0 t
55.90 107.41 (3e+06) 1 0 t
55.90 130.55 (4e+06) 1 0 t
0.00 0.00 540.00 354.75 cl
0.00 0.00 540.00 354.75 cl
0.4980 0.4980 0.4980 srgb
1.06 setlinewidth
[] 0 setdash
0 setlinecap
1 setlinejoin
10.00 setmiterlimit
np
58.73 64.73 m
4.25 0 l
o
np
58.73 87.87 m
4.25 0 l
o
np
58.73 111.00 m
4.25 0 l
o
np
58.73 134.14 m
4.25 0 l
o
0.00 0.00 540.00 354.75 cl
0.00 0.00 540.00 354.75 cl
0.00 0.00 540.00 354.75 cl
0.00 0.00 540.00 354.75 cl
0.00 0.00 540.00 354.75 cl
0.00 0.00 540.00 354.75 cl
0.4980 0.4980 0.4980 srgb
1.06 setlinewidth
[] 0 setdash
0 setlinecap
1 setlinejoin
10.00 setmiterlimit
np
98.20 37.83 m
0 4.25 l
o
np
156.89 37.83 m
0 4.25 l
o
np
215.58 37.83 m
0 4.25 l
o
0.00 0.00 540.00 354.75 cl
0.00 0.00 540.00 354.75 cl
/Font1 findfont 10 s
0.4980 0.4980 0.4980 srgb
98.20 27.82 (LAHC) .5 0 t
156.89 27.82 (SA) .5 0 t
215.58 27.82 (TS) .5 0 t
0.00 0.00 540.00 354.75 cl
0.00 0.00 540.00 354.75 cl
0.00 0.00 540.00 354.75 cl
0.00 0.00 540.00 354.75 cl
0.00 0.00 540.00 354.75 cl
/Font1 findfont 12 s
0 0 0 srgb
156.89 14.40 (optimiser) .5 0 t
0.00 0.00 540.00 354.75 cl
0.00 0.00 540.00 354.75 cl
/Font1 findfont 12 s
0 0 0 srgb
23.02 90.30 (steps) .5 90 t
0.00 0.00 540.00 354.75 cl
0.00 0.00 540.00 354.75 cl
/Font1 findfont 14 s
0 0 0 srgb
122.65 143.32 (T) 0 ta
-1.680 (otal steps) tb gr
0.00 0.00 540.00 354.75 cl
0.00 0.00 540.00 354.75 cl
0.00 0.00 540.00 354.75 cl
0.00 0.00 540.00 354.75 cl
0.00 0.00 540.00 354.75 cl
0.00 0.00 540.00 354.75 cl
/bg { 1 1 1 srgb } def
375.29 43.50 59.42 90.38 r p2
0.00 0.00 540.00 354.75 cl
0.00 0.00 540.00 354.75 cl
/Font2 findfont 10 s
0 0 0 srgb
379.54 122.54 (Optimiser) 0 0 t
0.00 0.00 540.00 354.75 cl
0.00 0.00 540.00 354.75 cl
/bg { 0.9490 0.9490 0.9490 srgb } def
1 1 1 srgb
1.06 setlinewidth
[] 0 setdash
1 setlinecap
1 setlinejoin
10.00 setmiterlimit
379.54 93.83 23.04 23.04 r p3
0.00 0.00 540.00 354.75 cl
0.00 0.00 540.00 354.75 cl
0.9725 0.4627 0.4275 srgb
1.06 setlinewidth
[] 0 setdash
1 setlinecap
1 setlinejoin
10.00 setmiterlimit
np
391.06 96.13 m
0 3.46 l
o
np
391.06 111.11 m
0 3.45 l
o
/bg { 1 1 1 srgb } def
382.42 99.59 17.28 11.52 r p3
np
382.42 105.35 m
17.28 0 l
o
0.00 0.00 540.00 354.75 cl
0.00 0.00 540.00 354.75 cl
/bg { 0.9490 0.9490 0.9490 srgb } def
1 1 1 srgb
1.06 setlinewidth
[] 0 setdash
1 setlinecap
1 setlinejoin
10.00 setmiterlimit
379.54 70.79 23.04 23.04 r p3
0.00 0.00 540.00 354.75 cl
0.00 0.00 540.00 354.75 cl
0 0.7294 0.2196 srgb
1.06 setlinewidth
[] 0 setdash
1 setlinecap
1 setlinejoin
10.00 setmiterlimit
np
391.06 73.09 m
0 3.46 l
o
np
391.06 88.07 m
0 3.45 l
o
/bg { 1 1 1 srgb } def
382.42 76.55 17.28 11.52 r p3
np
382.42 82.31 m
17.28 0 l
o
0.00 0.00 540.00 354.75 cl
0.00 0.00 540.00 354.75 cl
/bg { 0.9490 0.9490 0.9490 srgb } def
1 1 1 srgb
1.06 setlinewidth
[] 0 setdash
1 setlinecap
1 setlinejoin
10.00 setmiterlimit
379.54 47.75 23.04 23.04 r p3
0.00 0.00 540.00 354.75 cl
0.00 0.00 540.00 354.75 cl
0.3804 0.6118 1 srgb
1.06 setlinewidth
[] 0 setdash
1 setlinecap
1 setlinejoin
10.00 setmiterlimit
np
391.06 50.05 m
0 3.46 l
o
np
391.06 65.03 m
0 3.45 l
o
/bg { 1 1 1 srgb } def
382.42 53.51 17.28 11.52 r p3
np
382.42 59.27 m
17.28 0 l
o
0.00 0.00 540.00 354.75 cl
0.00 0.00 540.00 354.75 cl
/Font1 findfont 10 s
0 0 0 srgb
405.46 101.76 (LAHC) 0 0 t
0.00 0.00 540.00 354.75 cl
0.00 0.00 540.00 354.75 cl
/Font1 findfont 10 s
0 0 0 srgb
405.46 78.72 (SA) 0 0 t
0.00 0.00 540.00 354.75 cl
0.00 0.00 540.00 354.75 cl
/Font1 findfont 10 s
0 0 0 srgb
405.46 55.68 (TS) 0 0 t
0.00 0.00 540.00 354.75 cl
0.00 0.00 540.00 354.75 cl
0.00 0.00 540.00 354.75 cl
0.00 0.00 540.00 354.75 cl
0.00 0.00 540.00 354.75 cl
0.00 0.00 540.00 354.75 cl
0.00 0.00 540.00 354.75 cl
ep
%%Trailer
%%Pages: 1
%%EOF
