[
    {
      "Final Network": [[1, 5], [6, 2], [0, 4], [0, 10], [8, 3], [1, 1], [10, 8], [6, 9], [8, 5], [6, 15], [7, 8], [16, 13], [14, 19], [8, 19], [20, 20], [12, 9], [10, 4], [17, 2], [10, 21], [26, 21], [17, 12], [3, 2], [12, 8], [29, 7], [25, 15], [9, 31], [23, 23], [32, 20], [2, 32], [9, 30], [33, 30], [20, 10], [16, 19], [39, 26], [35, 32], [18, 38], [31, 2], [18, 42], [18, 15], [45, 37], [14, 10], [41, 25], [19, 22], [3, 0], [11, 24], [50, 45], [4, 35], [45, 38], [23, 55], [30, 37], [21, 9], [57, 24], [5, 43], [23, 1], [52, 52], [5, 29], [6, 47], [34, 53], [48, 56], [61, 26], [7, 40], [23, 23], [10, 3], [20, 32], [1, 66], [39, 56], [22, 42], [37, 29], [23, 73], [37, 49], [57, 52], [72, 28], [38, 66], [80, 54], [54, 32], [62, 3], [64, 66], [24, 48], [8, 42], [15, 28], [31, 9], [28, 59], [68, 19], [37, 76], [90, 42], [19, 50], [39, 53], [35, 65], [15, 32], [61, 24], [0, 6], [3, 3], [30, 58], [18, 67], [71, 13], [91, 76], [62, 62], [93, 27], [74, 35], [80, 47]],
      "Full Accuracy": 0.80859375,
      "Sample Error (per bit)": [0.0, 0.0, 0.0, 0.046875],
      "Iteration for best": 380812,
      "Sample Error (simple)": 0.046875,
      "time": 26.128719,
      "Full Error (simple)": 0.19140625,
      "Max Depth (per bit)": [5, 8, 9, 13],
      "Full Error (guiding)": 0.19140625,
      "Full Error (per bit)": [0.0, 0.0, 0.0, 0.19140625],
      "Sample Error (guiding)": 0.046875,
      "Total iterations": 499999,
      "Sample Accuracy": 0.953125
    },
    {
      "Final Network": [[2, 2], [2, 6], [5, 4], [5, 1], [4, 0], [1, 11], [9, 3], [3, 12], [9, 6], [13, 5], [17, 13], [0, 18], [12, 11], [11, 20], [16, 8], [17, 12], [14, 6], [1, 18], [9, 6], [15, 2], [4, 12], [20, 18], [20, 22], [7, 30], [3, 31], [9, 22], [2, 7], [0, 12], [33, 30], [7, 31], [9, 7], [30, 33], [30, 2], [25, 7], [27, 14], [20, 29], [3, 30], [8, 3], [27, 31], [17, 18], [33, 20], [25, 33], [7, 42], [5, 3], [13, 40], [18, 32], [29, 23], [18, 30], [1, 35], [38, 27], [12, 0], [13, 12], [51, 2], [31, 20], [14, 34], [48, 0], [59, 21], [56, 24], [31, 58], [27, 22], [58, 54], [44, 58], [0, 29], [60, 15], [42, 50], [16, 44], [9, 63], [37, 2], [9, 38], [46, 50], [34, 67], [70, 37], [62, 53], [39, 64], [52, 11], [72, 38], [80, 77], [61, 31], [34, 0], [43, 84], [3, 75], [72, 49], [11, 80], [29, 36], [58, 42], [36, 3], [47, 79], [43, 3], [19, 42], [47, 77], [18, 97], [5, 33], [26, 44], [71, 90], [86, 63], [92, 101], [28, 58], [54, 64], [91, 48], [87, 77]],
      "Full Accuracy": 0.765625,
      "Sample Error (per bit)": [0.0, 0.0, 0.0, 0.03125],
      "Iteration for best": 444313,
      "Sample Error (simple)": 0.03125,
      "time": 25.893239,
      "Full Error (simple)": 0.24609375,
      "Max Depth (per bit)": [3, 7, 7, 11],
      "Full Error (guiding)": 0.265625,
      "Full Error (per bit)": [0.0, 0.0, 0.03125, 0.21484375],
      "Sample Error (guiding)": 0.03125,
      "Total iterations": 499999,
      "Sample Accuracy": 0.96875
    },
    {
      "Final Network": [[2, 6], [7, 3], [0, 4], [1, 5], [4, 10], [5, 1], [10, 2], [2, 11], [14, 11], [15, 6], [13, 3], [9, 0], [1, 10], [6, 11], [8, 15], [7, 9], [4, 13], [22, 8], [10, 10], [8, 1], [8, 23], [9, 0], [23, 19], [9, 5], [0, 28], [10, 25], [18, 0], [17, 10], [7, 16], [10, 13], [26, 28], [11, 17], [30, 25], [35, 14], [39, 41], [11, 15], [17, 25], [0, 10], [43, 41], [42, 37], [24, 3], [37, 45], [28, 36], [10, 4], [44, 47], [40, 27], [37, 16], [54, 48], [40, 51], [33, 4], [29, 1], [9, 17], [52, 13], [37, 12], [1, 20], [39, 38], [46, 55], [50, 56], [18, 50], [22, 14], [4, 54], [29, 63], [49, 17], [40, 46], [53, 65], [2, 26], [13, 12], [29, 0], [12, 64], [5, 61], [64, 61], [0, 19], [7, 52], [53, 27], [76, 23], [50, 58], [45, 34], [71, 12], [77, 20], [31, 8], [39, 63], [1, 7], [41, 46], [66, 66], [80, 34], [50, 62], [64, 52], [25, 82], [87, 95], [82, 86], [10, 44], [8, 47], [1, 17], [11, 86], [83, 98], [4, 20], [51, 45], [101, 88], [38, 52], [72, 96]],
      "Full Accuracy": 0.51953125,
      "Sample Error (per bit)": [0.0, 0.0, 0.0, 0.015625],
      "Iteration for best": 437192,
      "Sample Error (simple)": 0.015625,
      "time": 26.453056,
      "Full Error (simple)": 0.64453125,
      "Max Depth (per bit)": [3, 7, 9, 12],
      "Full Error (guiding)": 0.76953125,
      "Full Error (per bit)": [0.0, 0.1015625, 0.1484375, 0.39453125],
      "Sample Error (guiding)": 0.015625,
      "Total iterations": 499999,
      "Sample Accuracy": 0.984375
    },
    {
      "Final Network": [[5, 1], [5, 8], [4, 0], [1, 2], [5, 2], [1, 12], [12, 12], [2, 14], [3, 15], [0, 4], [1, 8], [15, 8], [17, 18], [10, 0], [4, 4], [9, 13], [4, 14], [22, 6], [18, 9], [2, 24], [24, 11], [17, 26], [23, 29], [7, 16], [29, 28], [10, 29], [11, 30], [30, 27], [35, 6], [33, 8], [3, 32], [38, 24], [38, 35], [7, 0], [21, 13], [7, 24], [30, 33], [10, 5], [16, 31], [7, 39], [27, 30], [35, 32], [15, 38], [40, 39], [0, 49], [49, 49], [2, 47], [30, 26], [53, 36], [37, 6], [48, 6], [58, 34], [17, 8], [1, 50], [50, 58], [24, 15], [48, 14], [30, 29], [47, 46], [49, 6], [1, 26], [5, 26], [7, 59], [65, 70], [51, 59], [27, 44], [6, 68], [23, 66], [65, 24], [24, 62], [4, 7], [74, 17], [57, 18], [39, 2], [10, 69], [75, 31], [67, 12], [51, 17], [61, 19], [71, 57], [32, 38], [76, 46], [28, 87], [66, 80], [59, 14], [56, 68], [8, 65], [84, 86], [77, 4], [71, 0], [19, 47], [11, 88], [67, 7], [13, 88], [74, 101], [4, 10], [21, 103], [55, 44], [56, 67], [66, 58]],
      "Full Accuracy": 0.72265625,
      "Sample Error (per bit)": [0.0, 0.0, 0.0, 0.046875],
      "Iteration for best": 251380,
      "Sample Error (simple)": 0.046875,
      "time": 26.391513,
      "Full Error (simple)": 0.30078125,
      "Max Depth (per bit)": [3, 7, 10, 10],
      "Full Error (guiding)": 0.37109375,
      "Full Error (per bit)": [0.0, 0.03125, 0.03125, 0.23828125],
      "Sample Error (guiding)": 0.046875,
      "Total iterations": 499999,
      "Sample Accuracy": 0.953125
    },
    {
      "Final Network": [[1, 0], [7, 3], [3, 9], [0, 4], [11, 2], [5, 1], [13, 12], [14, 6], [8, 9], [16, 8], [0, 1], [13, 11], [2, 19], [12, 19], [19, 19], [6, 22], [21, 22], [5, 16], [7, 17], [10, 26], [20, 1], [8, 7], [12, 2], [1, 21], [5, 11], [28, 24], [13, 31], [9, 27], [15, 33], [36, 36], [35, 37], [12, 13], [37, 20], [4, 3], [27, 28], [25, 32], [14, 33], [32, 34], [27, 9], [0, 26], [46, 36], [20, 40], [30, 27], [43, 22], [21, 20], [38, 23], [49, 6], [23, 22], [5, 13], [11, 17], [22, 0], [50, 8], [51, 57], [48, 52], [36, 54], [31, 36], [62, 2], [23, 42], [2, 32], [55, 48], [39, 25], [68, 54], [40, 37], [70, 35], [61, 40], [11, 4], [72, 63], [1, 55], [47, 45], [12, 34], [14, 37], [44, 39], [42, 36], [8, 9], [26, 72], [2, 63], [58, 38], [81, 65], [42, 27], [3, 49], [0, 4], [71, 37], [60, 0], [76, 22], [42, 90], [7, 91], [6, 52], [51, 10], [62, 55], [81, 67], [83, 79], [73, 53], [45, 70], [66, 29], [97, 63], [70, 91], [90, 73], [45, 51], [64, 96], [89, 48]],
      "Full Accuracy": 0.890625,
      "Sample Error (per bit)": [0.0, 0.0, 0.0, 0.0],
      "Iteration for best": 457850,
      "Sample Error (simple)": 0.0,
      "time": 24.46404,
      "Full Error (simple)": 0.234375,
      "Max Depth (per bit)": [8, 7, 13, 12],
      "Full Error (guiding)": 0.3125,
      "Full Error (per bit)": [0.015625, 0.0625, 0.078125, 0.078125],
      "Sample Error (guiding)": 0.0,
      "Total iterations": 457851,
      "Sample Accuracy": 1.0
    },
    {
      "Final Network": [[0, 4], [7, 2], [1, 5], [2, 3], [3, 3], [6, 7], [13, 11], [11, 1], [8, 2], [2, 11], [0, 16], [4, 18], [1, 8], [15, 9], [21, 21], [8, 1], [11, 1], [10, 10], [2, 6], [1, 5], [14, 26], [2, 27], [14, 21], [6, 27], [0, 17], [22, 25], [2, 27], [21, 10], [12, 4], [25, 28], [32, 23], [1, 20], [23, 26], [20, 38], [13, 18], [25, 16], [35, 40], [12, 23], [45, 33], [35, 36], [15, 3], [23, 37], [20, 14], [18, 8], [5, 23], [0, 8], [52, 23], [31, 29], [27, 54], [9, 10], [28, 56], [40, 1], [51, 32], [17, 20], [59, 61], [42, 28], [26, 14], [18, 41], [40, 28], [42, 59], [0, 60], [67, 17], [19, 18], [52, 63], [23, 18], [12, 9], [71, 38], [70, 13], [15, 29], [38, 73], [39, 20], [23, 49], [22, 17], [67, 9], [1, 26], [53, 12], [56, 2], [58, 28], [42, 22], [50, 26], [87, 56], [20, 76], [26, 55], [58, 45], [59, 8], [81, 52], [47, 30], [34, 65], [84, 74], [69, 86], [75, 47], [1, 37], [80, 89], [24, 86], [0, 79], [78, 58], [19, 53], [56, 8], [90, 37], [94, 74]],
      "Full Accuracy": 0.4609375,
      "Sample Error (per bit)": [0.0, 0.078125, 0.078125, 0.078125],
      "Iteration for best": 440509,
      "Sample Error (simple)": 0.234375,
      "time": 26.750613,
      "Full Error (simple)": 0.74609375,
      "Max Depth (per bit)": [5, 6, 5, 8],
      "Full Error (guiding)": 0.8515625,
      "Full Error (per bit)": [0.0, 0.125, 0.1875, 0.43359375],
      "Sample Error (guiding)": 0.265625,
      "Total iterations": 499999,
      "Sample Accuracy": 0.890625
    },
    {
      "Final Network": [[0, 4], [1, 8], [6, 2], [9, 8], [1, 5], [1, 0], [10, 13], [14, 12], [14, 7], [9, 1], [6, 10], [18, 2], [18, 19], [2, 12], [5, 11], [15, 22], [0, 0], [11, 17], [18, 13], [8, 0], [25, 12], [16, 28], [18, 14], [10, 20], [0, 21], [7, 1], [29, 18], [25, 15], [29, 27], [30, 24], [17, 22], [3, 7], [39, 36], [28, 22], [32, 33], [20, 23], [36, 25], [43, 39], [42, 33], [39, 42], [26, 4], [15, 4], [15, 42], [9, 32], [17, 31], [36, 32], [35, 20], [7, 14], [4, 24], [2, 41], [5, 38], [48, 48], [38, 31], [11, 38], [11, 47], [34, 20], [8, 51], [7, 24], [8, 0], [31, 52], [3, 55], [6, 42], [47, 68], [2, 26], [6, 20], [54, 34], [68, 22], [64, 59], [23, 6], [11, 52], [50, 34], [19, 43], [16, 75], [38, 55], [56, 51], [25, 16], [53, 24], [6, 28], [0, 41], [5, 25], [42, 27], [52, 61], [80, 37], [14, 42], [55, 27], [14, 20], [70, 24], [68, 93], [52, 11], [86, 13], [22, 35], [9, 16], [36, 93], [25, 24], [33, 95], [28, 87], [56, 27], [87, 41], [60, 89], [45, 70]],
      "Full Accuracy": 0.734375,
      "Sample Error (per bit)": [0.0, 0.0, 0.0, 0.09375],
      "Iteration for best": 404611,
      "Sample Error (simple)": 0.09375,
      "time": 26.381519,
      "Full Error (simple)": 0.265625,
      "Max Depth (per bit)": [3, 7, 8, 8],
      "Full Error (guiding)": 0.265625,
      "Full Error (per bit)": [0.0, 0.0, 0.0, 0.265625],
      "Sample Error (guiding)": 0.09375,
      "Total iterations": 499999,
      "Sample Accuracy": 0.90625
    },
    {
      "Final Network": [[0, 4], [4, 8], [5, 1], [9, 8], [2, 2], [7, 0], [5, 6], [12, 14], [10, 13], [8, 10], [3, 7], [14, 6], [17, 19], [9, 12], [17, 15], [14, 18], [6, 10], [18, 15], [8, 5], [23, 16], [26, 5], [13, 4], [0, 11], [23, 22], [6, 4], [31, 25], [22, 33], [21, 4], [32, 22], [7, 33], [20, 15], [38, 20], [2, 6], [40, 22], [8, 21], [32, 2], [25, 32], [19, 29], [8, 0], [17, 40], [0, 12], [28, 17], [46, 34], [41, 7], [5, 48], [50, 26], [17, 47], [31, 15], [2, 42], [1, 49], [12, 48], [39, 34], [6, 35], [22, 5], [5, 20], [44, 16], [15, 0], [29, 59], [53, 47], [16, 39], [38, 40], [48, 4], [57, 10], [35, 67], [15, 33], [69, 60], [72, 0], [56, 45], [57, 63], [9, 53], [37, 7], [67, 41], [4, 63], [64, 29], [23, 9], [23, 30], [23, 51], [84, 63], [33, 62], [42, 42], [69, 81], [80, 6], [10, 49], [55, 67], [35, 90], [61, 39], [53, 41], [35, 17], [62, 15], [35, 23], [56, 90], [98, 50], [76, 69], [45, 74], [19, 41], [15, 45], [46, 9], [57, 62], [54, 41], [33, 85]],
      "Full Accuracy": 0.5390625,
      "Sample Error (per bit)": [0.0, 0.0, 0.125, 0.09375],
      "Iteration for best": 221347,
      "Sample Error (simple)": 0.21875,
      "time": 25.702089,
      "Full Error (simple)": 0.578125,
      "Max Depth (per bit)": [3, 6, 5, 8],
      "Full Error (guiding)": 0.7421875,
      "Full Error (per bit)": [0.0, 0.0625, 0.203125, 0.3125],
      "Sample Error (guiding)": 0.3125,
      "Total iterations": 499999,
      "Sample Accuracy": 0.8125
    },
    {
      "Final Network": [[2, 6], [7, 7], [5, 1], [0, 4], [10, 11], [5, 11], [6, 8], [0, 11], [8, 2], [8, 7], [3, 8], [4, 11], [17, 11], [13, 5], [4, 6], [1, 12], [14, 16], [4, 7], [20, 25], [18, 26], [23, 6], [28, 15], [23, 9], [24, 25], [3, 30], [21, 23], [32, 27], [18, 29], [16, 31], [14, 18], [12, 33], [21, 33], [11, 13], [3, 16], [20, 14], [4, 33], [39, 1], [41, 13], [12, 24], [36, 1], [21, 11], [9, 41], [24, 10], [4, 47], [22, 31], [13, 52], [48, 16], [29, 31], [28, 23], [45, 25], [30, 16], [24, 38], [22, 31], [27, 12], [35, 61], [50, 38], [35, 34], [25, 42], [0, 38], [19, 20], [53, 62], [64, 0], [39, 57], [62, 42], [6, 52], [66, 37], [49, 4], [65, 38], [15, 51], [65, 73], [38, 40], [73, 32], [10, 61], [34, 79], [49, 35], [42, 13], [16, 45], [79, 76], [69, 76], [11, 15], [75, 35], [40, 50], [85, 66], [4, 20], [52, 4], [61, 90], [42, 1], [72, 2], [49, 50], [40, 56], [63, 46], [23, 82], [74, 5], [98, 80], [66, 35], [41, 75], [19, 15], [78, 44], [59, 98], [34, 68]],
      "Full Accuracy": 0.6640625,
      "Sample Error (per bit)": [0.0, 0.0, 0.0, 0.015625],
      "Iteration for best": 318543,
      "Sample Error (simple)": 0.015625,
      "time": 26.805248,
      "Full Error (simple)": 0.3359375,
      "Max Depth (per bit)": [3, 7, 8, 9],
      "Full Error (guiding)": 0.3359375,
      "Full Error (per bit)": [0.0, 0.0, 0.0, 0.3359375],
      "Sample Error (guiding)": 0.015625,
      "Total iterations": 499999,
      "Sample Accuracy": 0.984375
    },
    {
      "Final Network": [[6, 2], [5, 1], [0, 4], [8, 3], [6, 6], [3, 10], [2, 9], [0, 4], [6, 5], [13, 16], [9, 15], [4, 10], [9, 14], [1, 18], [10, 1], [3, 8], [15, 2], [11, 16], [18, 2], [20, 0], [20, 8], [24, 28], [26, 20], [23, 26], [3, 24], [1, 1], [5, 10], [23, 12], [15, 32], [14, 33], [35, 23], [29, 13], [25, 9], [37, 32], [34, 32], [23, 39], [15, 10], [0, 10], [7, 10], [4, 43], [10, 30], [35, 43], [12, 11], [9, 32], [50, 7], [50, 43], [22, 40], [46, 49], [30, 20], [39, 23], [40, 25], [4, 44], [57, 44], [49, 37], [34, 22], [53, 44], [12, 17], [56, 48], [52, 56], [49, 40], [5, 51], [58, 50], [64, 31], [66, 57], [66, 10], [62, 9], [26, 18], [50, 73], [19, 15], [62, 36], [65, 6], [75, 29], [67, 7], [71, 55], [40, 5], [78, 54], [35, 60], [18, 2], [3, 57], [15, 45], [16, 76], [48, 38], [87, 61], [90, 61], [83, 64], [79, 40], [92, 93], [81, 13], [85, 75], [60, 74], [22, 3], [84, 12], [63, 18], [90, 81], [70, 87], [33, 4], [19, 45], [60, 73], [78, 89], [81, 63]],
      "Full Accuracy": 0.7578125,
      "Sample Error (per bit)": [0.0, 0.0, 0.0, 0.0],
      "Iteration for best": 433505,
      "Sample Error (simple)": 0.0,
      "time": 22.699669,
      "Full Error (simple)": 0.4140625,
      "Max Depth (per bit)": [3, 9, 8, 11],
      "Full Error (guiding)": 0.515625,
      "Full Error (per bit)": [0.0, 0.109375, 0.1328125, 0.171875],
      "Sample Error (guiding)": 0.0,
      "Total iterations": 433506,
      "Sample Accuracy": 1.0
    }
  ]
